3302.116651 0.0000000 0.0000000 0.0000000 0.0000000 0.0000000 0.0000000 1.0000000
3303.812364 -0.0336156 -0.1555743 0.4236821 -0.0418052 0.0020299 0.0004227 0.9991236
3303.849227 -0.0294088 -0.1612500 0.4363463 -0.0417711 -0.0020103 -0.0009787 0.9991247
3303.996680 -0.0173267 -0.1794455 0.4848304 -0.0516052 -0.0149917 -0.0054136 0.9985403
3304.144134 -0.0079321 -0.1922412 0.5335433 -0.0654607 -0.0260397 -0.0099827 0.9974654
3304.291587 -0.0067837 -0.1990935 0.5769408 -0.0814900 -0.0363617 -0.0059724 0.9959927
3304.475904 -0.0152712 -0.2056509 0.6326622 -0.0982610 -0.0412121 -0.0066838 0.9942845
3304.623357 -0.0330800 -0.2157421 0.6863643 -0.1064983 -0.0428034 -0.0080725 0.9933584
3304.770810 -0.0573883 -0.2262049 0.7458076 -0.1168505 -0.0486733 -0.0021627 0.9919537
3304.918264 -0.0837816 -0.2327728 0.8041672 -0.1353137 -0.0501390 0.0029841 0.9895288
3305.065717 -0.1075891 -0.2377272 0.8510168 -0.1531525 -0.0469783 0.0034210 0.9870793
3305.250033 -0.1310510 -0.2518725 0.9020306 -0.1597871 -0.0442255 0.0046568 0.9861493
3305.434350 -0.1479524 -0.2582591 0.9645404 -0.1745928 -0.0441193 0.0018937 0.9836500
3305.618667 -0.1605983 -0.2770907 1.0320212 -0.1749994 -0.0412855 0.0000223 0.9837025
3305.802984 -0.1697435 -0.3077935 1.0954586 -0.1684855 -0.0347311 0.0083976 0.9850563
3305.987300 -0.1829459 -0.3331520 1.1528251 -0.1699666 -0.0322579 0.0048233 0.9849099
3306.171617 -0.2004925 -0.3413706 1.2111046 -0.1925275 -0.0373929 -0.0013464 0.9805779
3306.392797 -0.2166277 -0.3397494 1.2736188 -0.2162591 -0.0193919 0.0061356 0.9761241
3306.613977 -0.2319919 -0.3301555 1.3238387 -0.2379348 0.0304799 0.0385833 0.9700357
3306.872020 -0.2582571 -0.3053304 1.3626362 -0.2706516 0.0589307 0.0886420 0.9567745
3307.093200 -0.2799737 -0.2885193 1.3902600 -0.2957332 0.0728967 0.0990910 0.9473167
3307.351243 -0.2900833 -0.2721598 1.4255124 -0.3197780 0.0670531 0.1011391 0.9396898
3307.719876 -0.2718724 -0.2537057 1.4557471 -0.3462103 0.0597125 0.0924243 0.9316816
3308.051646 -0.2229337 -0.2551032 1.4708626 -0.3576110 0.0455847 0.0657069 0.9304402
3308.346553 -0.1927708 -0.2604917 1.4906586 -0.3704475 0.0218617 0.0293248 0.9281330
3308.678323 -0.1631194 -0.2666485 1.5195348 -0.3848100 -0.0241227 -0.0189283 0.9224864
3309.010093 -0.1635760 -0.2779024 1.5625205 -0.3987849 -0.0570549 -0.0778253 0.9119532
3309.341863 -0.2108948 -0.2937012 1.5954041 -0.3975672 -0.0654248 -0.1065852 0.9090102
3309.673633 -0.2679140 -0.2775589 1.5657074 -0.3908848 -0.0328399 -0.0805334 0.9163215
3310.005403 -0.3209671 -0.2471559 1.4969982 -0.3880193 0.0203125 -0.0114756 0.9213559
3310.300309 -0.3396055 -0.2357496 1.4540598 -0.3729146 0.0676740 0.0356160 0.9247088
3310.632079 -0.3353685 -0.2356659 1.4552481 -0.3350908 0.1184630 0.1022479 0.9290996
3311.000713 -0.3556985 -0.2312412 1.4850454 -0.3103673 0.1650972 0.1675729 0.9210507
3311.295619 -0.3845420 -0.2374483 1.4881370 -0.2956516 0.1894396 0.2046744 0.9136800
3311.664252 -0.4833868 -0.2485300 1.4675088 -0.2587603 0.2735455 0.2489482 0.8923233
3311.959159 -0.5726327 -0.2473195 1.4495019 -0.2388254 0.3166319 0.2890812 0.8712857
3312.106612 -0.5954140 -0.2448406 1.4494221 -0.2433187 0.3382230 0.3028249 0.8571454
3312.475246 -0.6267192 -0.2502495 1.4951360 -0.2390018 0.3703671 0.3316096 0.8341112
3312.696425 -0.6439665 -0.2732602 1.5506124 -0.2309996 0.3743849 0.3403889 0.8310298
3312.880742 -0.6554502 -0.3029539 1.5953048 -0.2350840 0.3664420 0.3303304 0.8374590
3313.028195 -0.6742075 -0.3207281 1.6294700 -0.2395551 0.3623259 0.3140817 0.8442073
3313.175649 -0.6910639 -0.3456873 1.6622304 -0.2537836 0.3570632 0.3021317 0.8466499
3313.212512 -0.6964688 -0.3459959 1.6673462 -0.2524509 0.3560899 0.3003402 0.8480945
3313.396829 -0.7334151 -0.3635590 1.6954503 -0.2505576 0.3576549 0.2988516 0.8485231
3313.581145 -0.7952971 -0.3844020 1.7285751 -0.2437365 0.3652312 0.3035657 0.8456043
3313.765462 -0.8580858 -0.4083105 1.7585875 -0.2328168 0.3775346 0.3072985 0.8419214
3314.207822 -0.8895518 -0.4375701 1.8166213 -0.2191223 0.4166712 0.3398233 0.8141810
3314.576455 -0.8053582 -0.4372611 1.8849593 -0.2148763 0.4355460 0.3912025 0.7817215
3314.908225 -0.7445291 -0.4438497 1.9213250 -0.2126048 0.4518339 0.4203904 0.7575732
3315.313722 -0.7119710 -0.4354592 1.9886265 -0.2048847 0.4738433 0.4737487 0.7134823
3315.645492 -0.7332353 -0.4315709 2.0228705 -0.1565854 0.5227239 0.5014892 0.6713787
3315.977262 -0.7328074 -0.4041553 2.0374537 -0.1237278 0.5578249 0.5331246 0.6239399
3316.272168 -0.7044820 -0.3902837 2.0515563 -0.0829250 0.5716484 0.5661870 0.5880253
3316.567075 -0.6765264 -0.3965589 2.0699689 -0.0455701 0.5691009 0.5963341 0.5642988
3316.861981 -0.6752285 -0.4157301 2.1053734 -0.0376938 0.5948150 0.6044253 0.5286250
3317.156888 -0.7188147 -0.4439297 2.1759143 -0.0244233 0.6482838 0.6061850 0.4600776
3317.414932 -0.7762585 -0.4768593 2.2365398 -0.0060615 0.6824255 0.6086480 0.4047299
3317.599248 -0.7992510 -0.4865633 2.2624743 -0.0050731 0.6951764 0.6159453 0.3705608
3318.004745 -0.7627048 -0.4827539 2.2797675 0.0239555 0.6978554 0.6259988 0.3472025
3318.189061 -0.7302715 -0.4836291 2.2862597 0.0275906 0.6953914 0.6229428 0.3572279
3318.373378 -0.7103589 -0.4932544 2.3136508 0.0202764 0.7003919 0.6228460 0.3479983
3318.594558 -0.6929756 -0.5169634 2.3753197 0.0240023 0.7135351 0.6185027 0.3282468
3318.815738 -0.6941487 -0.5693197 2.4286156 0.0102723 0.7320210 0.5987458 0.3248741
3319.036918 -0.7125562 -0.6192747 2.4588904 -0.0259055 0.7358518 0.5714132 0.3624058
3319.258098 -0.7479569 -0.6338824 2.4637647 -0.0504458 0.7302604 0.5568131 0.3925992
3319.442414 -0.7900143 -0.6226245 2.4415278 -0.0737740 0.7230102 0.5430788 0.4205699
3319.700458 -0.8384614 -0.5861977 2.3727467 -0.0857080 0.6999124 0.5272733 0.4740882
3319.958501 -0.8771998 -0.5813642 2.2912507 -0.1259886 0.6785642 0.4955578 0.5273519
3320.253407 -0.9128858 -0.5965857 2.2635622 -0.1583474 0.6441247 0.4708905 0.5816284
3320.474587 -0.9369998 -0.5918961 2.2644398 -0.1773884 0.5951265 0.4859614 0.6149791
3320.806357 -0.9856924 -0.6070982 2.2864108 -0.1915794 0.5484760 0.4719303 0.6631389
3321.064401 -1.0287797 -0.6142512 2.2993581 -0.2243679 0.5217628 0.4545944 0.6861243
3321.322444 -1.0322443 -0.6198541 2.3014026 -0.2224937 0.4886812 0.4436197 0.7175575
3321.469897 -1.0176815 -0.6123354 2.2898443 -0.2222769 0.4682963 0.4263635 0.7412865
3321.727941 -0.9816480 -0.6121048 2.2634990 -0.2292149 0.4270930 0.3849474 0.7854092
3321.912257 -0.9697503 -0.6156384 2.2477453 -0.2410183 0.4000404 0.3484561 0.8126845
3322.059711 -0.9736454 -0.6221527 2.2385397 -0.2398205 0.3891281 0.3265610 0.8272988
3322.207164 -0.9798429 -0.6308875 2.2372265 -0.2386237 0.3801298 0.3143465 0.8365084
3322.354617 -0.9862565 -0.6351820 2.2291477 -0.2279573 0.3658913 0.3133832 0.8461382
3322.502070 -1.0010288 -0.6540358 2.2323313 -0.2234447 0.3541267 0.3090411 0.8539088
3322.686387 -1.0532348 -0.6524938 2.2386861 -0.2038722 0.3531460 0.2967290 0.8635253
3322.944430 -1.1318029 -0.6814515 2.2362111 -0.1855766 0.3686475 0.2898571 0.8635063
3323.276201 -1.2333382 -0.7092388 2.2526774 -0.1734210 0.3759076 0.2802500 0.8660707
3323.681697 -1.2581503 -0.7246183 2.2780294 -0.1478678 0.3858734 0.2962747 0.8610796
3323.792287 -1.2572043 -0.7309690 2.2922812 -0.1382172 0.3909101 0.2922823 0.8617751
3323.829150 -1.2578874 -0.7324790 2.2995193 -0.1339832 0.3939991 0.2917720 0.8612098
3323.866014 -1.2575501 -0.7355989 2.3036168 -0.1297347 0.3962360 0.2920354 0.8607446
3323.939740 -1.2544355 -0.7428383 2.3118663 -0.1254818 0.3960858 0.2915660 0.8616030
3351.550372 0.1733079 -0.4023137 1.3182395 -0.3985583 -0.1351375 -0.2834630 0.8617063
3351.808415 0.1290821 -0.3685533 1.2337776 -0.3881704 -0.0415996 -0.2201340 0.8939431
3351.845279 0.1275944 -0.3614393 1.2261031 -0.3895326 -0.0300994 -0.2136655 0.8953800
3351.882142 0.1275233 -0.3521813 1.2190750 -0.3898609 -0.0204020 -0.2092234 0.8965589
3351.919005 0.1231629 -0.3489530 1.2148814 -0.3917444 -0.0098286 -0.2035224 0.8972282
3351.955869 0.1163044 -0.3442744 1.2105916 -0.3930748 0.0012946 -0.1984148 0.8978431
3351.992732 0.1121819 -0.3415005 1.2073541 -0.3940576 0.0117794 -0.1916821 0.8987980
3352.066459 0.0994873 -0.3306243 1.2004976 -0.3936802 0.0309687 -0.1826271 0.9003912
3352.140185 0.0956471 -0.3102424 1.2038540 -0.3889467 0.0449688 -0.1757100 0.9032299
3352.250775 0.0902101 -0.2922471 1.2191379 -0.3805541 0.0611674 -0.1715220 0.9066517
3352.361365 0.0855494 -0.2693225 1.2327995 -0.3684305 0.0820747 -0.1584151 0.9123746
3352.435092 0.0840915 -0.2576458 1.2440205 -0.3676808 0.0960407 -0.1419788 0.9140181
3352.508819 0.0831694 -0.2442977 1.2607216 -0.3722215 0.1070900 -0.1245561 0.9134926
3352.582545 0.0828613 -0.2399343 1.2660877 -0.3684478 0.1151881 -0.1155615 0.9152177
3352.656272 0.0823618 -0.2356921 1.2703819 -0.3666191 0.1262468 -0.1079558 0.9154221
3352.729999 0.0825388 -0.2335566 1.2744484 -0.3609205 0.1375033 -0.1038852 0.9165354
3352.840589 0.0824091 -0.2313533 1.2772868 -0.3493156 0.1550277 -0.0919788 0.9195025
3352.914315 0.0826048 -0.2340308 1.2738857 -0.3406993 0.1676357 -0.0810570 0.9215487
3352.988042 0.0828903 -0.2354291 1.2717657 -0.3315098 0.1807818 -0.0617739 0.9239064
3353.061769 0.0832740 -0.2394021 1.2661020 -0.3226334 0.1934326 -0.0473571 0.9253371
3353.135495 0.0683600 -0.2585559 1.2346046 -0.3128071 0.2078226 -0.0366294 0.9260777
3353.209222 0.0565271 -0.2749416 1.2053216 -0.3033700 0.2210287 -0.0205059 0.9266566
3353.282948 0.0444068 -0.2914570 1.1820800 -0.2983748 0.2330842 -0.0029949 0.9255459
3353.356675 0.0337323 -0.3003089 1.1621193 -0.2954486 0.2448006 0.0129762 0.9233712
3353.467265 0.0174772 -0.3163842 1.1329077 -0.2892655 0.2632058 0.0336869 0.9197355
3353.577855 0.0007757 -0.3315227 1.1028987 -0.2912383 0.2738108 0.0475883 0.9153924
3353.725308 -0.0087266 -0.3324967 1.1015528 -0.2956685 0.2907323 0.0733552 0.9070137
3353.799035 -0.0078837 -0.3255371 1.1091784 -0.2986795 0.2975003 0.0792141 0.9033323
3353.872762 -0.0071552 -0.3253142 1.1103972 -0.2999175 0.3042629 0.0847552 0.9001611
3353.946488 -0.0049282 -0.3109694 1.1252511 -0.2945865 0.3121400 0.0912376 0.8985895
3354.020215 -0.0039820 -0.3001139 1.1364958 -0.2876326 0.3162500 0.1011696 0.8983419
3354.093942 -0.0027460 -0.2907311 1.1458862 -0.2819088 0.3155502 0.1117846 0.8991439
3354.204532 -0.0008588 -0.2800917 1.1563313 -0.2745725 0.3177038 0.1241492 0.8990335
3354.315122 0.0000711 -0.2704153 1.1664982 -0.2766483 0.3245030 0.1350348 0.8943875
3354.425712 0.0014744 -0.2623613 1.1741633 -0.2782652 0.3319471 0.1478994 0.8891037
3354.536302 0.0031455 -0.2522255 1.1841635 -0.2810627 0.3365029 0.1604548 0.8843211
3354.683755 0.0044566 -0.2473632 1.1884186 -0.2784488 0.3397292 0.1885793 0.8783440
3354.794345 0.0031425 -0.2501992 1.1837230 -0.2738940 0.3370999 0.2101841 0.8758815
3354.904935 -0.0492384 -0.2555177 1.1746328 -0.2701486 0.3431184 0.2216431 0.8718737
3355.052388 -0.0934083 -0.2736346 1.1672684 -0.2800266 0.3456495 0.2305772 0.8654165
3355.199841 -0.1243645 -0.2829044 1.1666757 -0.2902112 0.3415235 0.2290987 0.8640908
3355.273568 -0.1389272 -0.2874724 1.1696732 -0.2914864 0.3355105 0.2251165 0.8670588
3355.347295 -0.1504441 -0.2868999 1.1765798 -0.2891079 0.3278114 0.2220181 0.8715872
3355.421021 -0.1612655 -0.2840303 1.1864350 -0.2855751 0.3184848 0.2172697 0.8773871
3355.531611 -0.1616700 -0.2720937 1.2075243 -0.2867895 0.2939546 0.2051616 0.8883981
3356.158288 -0.1720573 -0.2810467 1.2779182 -0.2776382 0.1898558 0.1609235 0.9278876
3356.711238 -0.1861694 -0.3033031 1.4518833 -0.3178591 0.0797593 0.0222634 0.9445149
3356.858691 -0.1898919 -0.2828549 1.4730711 -0.3201736 0.0400674 0.0145552 0.9463993
3357.043008 -0.1939415 -0.2613801 1.4917028 -0.3369400 -0.0084106 0.0194754 0.9412871
3357.190461 -0.1961827 -0.2508631 1.4997365 -0.3579985 -0.0299809 0.0344444 0.9326048
3357.632821 -0.1937110 -0.2618076 1.4906435 -0.4489427 -0.0504565 0.0891268 0.8876716
3358.259498 -0.1925941 -0.2631104 1.4891622 -0.3952941 0.0163495 -0.0162959 0.9182645
3358.406951 -0.1912497 -0.2684101 1.4872937 -0.3540193 0.0309449 -0.0487881 0.9334519
3358.443814 -0.1909723 -0.2689472 1.4858139 -0.3409056 0.0308717 -0.0577418 0.9378146
3358.480678 -0.1916381 -0.2665600 1.4876204 -0.3278984 0.0302634 -0.0684415 0.9417444
3358.517541 -0.1911757 -0.2670287 1.4879975 -0.3167360 0.0274410 -0.0741952 0.9452092
3358.628131 -0.1908631 -0.2653952 1.4896605 -0.2927449 0.0113773 -0.0817870 0.9526184
3358.664994 -0.1908530 -0.2651663 1.4896796 -0.2874764 0.0050057 -0.0803244 0.9544005
3358.701858 -0.1907669 -0.2647409 1.4902537 -0.2841860 -0.0025377 -0.0794838 0.9554654
3358.812448 -0.1906763 -0.2641337 1.4907975 -0.2794650 -0.0214117 -0.0685507 0.9574662
3358.849311 -0.1906284 -0.2639539 1.4909756 -0.2800341 -0.0254027 -0.0636130 0.9575432
3358.996764 -0.1906315 -0.2639962 1.4909393 -0.2894498 -0.0264179 -0.0327020 0.9562696
3359.033628 -0.1906325 -0.2639852 1.4909437 -0.2948754 -0.0269968 -0.0227570 0.9548832
3359.070491 -0.1906305 -0.2640224 1.4909106 -0.3024022 -0.0276940 -0.0112305 0.9527118
3359.107354 -0.1906241 -0.2640479 1.4908905 -0.3103998 -0.0296040 -0.0011151 0.9501444
3359.144217 -0.1906272 -0.2640597 1.4908812 -0.3190826 -0.0277567 0.0136807 0.9472216
3359.181081 -0.1906372 -0.2640769 1.4908671 -0.3291644 -0.0256196 0.0276829 0.9435190
3359.217944 -0.1906385 -0.2640915 1.4908611 -0.3382697 -0.0236091 0.0398086 0.9399104
3359.254807 -0.1906355 -0.2641148 1.4908441 -0.3493187 -0.0223435 0.0514597 0.9353230
3359.291671 -0.1906349 -0.2641512 1.4908218 -0.3613487 -0.0207385 0.0590342 0.9303290
3359.328534 -0.1906347 -0.2641910 1.4907970 -0.3709722 -0.0172077 0.0665266 0.9260981
3359.365397 -0.1906268 -0.2642236 1.4907825 -0.3809379 -0.0159994 0.0709511 0.9217355
3359.402261 -0.1906652 -0.2642469 1.4907472 -0.3893646 -0.0125409 0.0749705 0.9179419
3359.475987 -0.1906157 -0.2643889 1.4906663 -0.4074240 -0.0069452 0.0869781 0.9090612
3359.586577 -0.1905829 -0.2644985 1.4905915 -0.4332531 -0.0017688 0.0976691 0.8959628
3359.660304 -0.1905832 -0.2644998 1.4905900 -0.4439146 0.0039957 0.1102411 0.8892530
3360.139527 -0.1913657 -0.2650846 1.4899294 -0.4008051 0.0548799 0.2011198 0.8921291
3360.323844 -0.1908672 -0.2640578 1.4911559 -0.3708832 0.0526156 0.2458149 0.8940091
3360.360707 -0.1908901 -0.2640896 1.4911299 -0.3664701 0.0511731 0.2535945 0.8937398
3360.397571 -0.1908959 -0.2640722 1.4911373 -0.3620828 0.0482169 0.2576036 0.8945454
3360.434434 -0.1908870 -0.2640942 1.4911189 -0.3575180 0.0466960 0.2613855 0.8953648
3360.471297 -0.1908886 -0.2640904 1.4911294 -0.3537403 0.0452406 0.2645176 0.8960198
3360.545024 -0.1908895 -0.2640906 1.4911308 -0.3487631 0.0424389 0.2732154 0.8954980
3360.581887 -0.1908882 -0.2640913 1.4911305 -0.3485892 0.0410517 0.2804496 0.8933915
3360.618751 -0.1908895 -0.2640921 1.4911301 -0.3494484 0.0382302 0.2868699 0.8911397
3360.655614 -0.1908891 -0.2640916 1.4911308 -0.3517330 0.0359962 0.2953556 0.8875546
3360.692477 -0.1908934 -0.2641498 1.4910815 -0.3536559 0.0346811 0.3045462 0.8837287
3360.729341 -0.1908918 -0.2641499 1.4910808 -0.3559149 0.0330059 0.3132655 0.8798295
3360.766204 -0.1908926 -0.2646148 1.4908397 -0.3577754 0.0306216 0.3209918 0.8763694
3360.803067 -0.1908867 -0.2642023 1.4910381 -0.3595570 0.0293014 0.3312034 0.8718741
3360.839931 -0.1908858 -0.2642242 1.4910169 -0.3611264 0.0288416 0.3427527 0.8667621
3360.876794 -0.1908614 -0.2642673 1.4909570 -0.3627984 0.0281844 0.3557901 0.8608115
3360.913657 -0.1908666 -0.2642539 1.4909785 -0.3633617 0.0284441 0.3696701 0.8546948
3360.950521 -0.1908688 -0.2642666 1.4909734 -0.3654863 0.0285602 0.3849781 0.8469923
3360.987384 -0.1908745 -0.2642375 1.4910049 -0.3686565 0.0280264 0.4010426 0.8381358
3361.024247 -0.1908927 -0.2643051 1.4909580 -0.3736070 0.0278213 0.4164234 0.8283933
3361.061110 -0.1908775 -0.2642609 1.4909939 -0.3778221 0.0270933 0.4289663 0.8200636
3361.097974 -0.1908757 -0.2642636 1.4909918 -0.3822661 0.0277390 0.4403623 0.8119016
3361.134837 -0.1908721 -0.2642937 1.4909685 -0.3863105 0.0315990 0.4505262 0.8042337
3361.171700 -0.1908846 -0.2642764 1.4909954 -0.3922926 0.0367500 0.4622267 0.7944196
3361.208564 -0.1908911 -0.2642842 1.4909972 -0.3987854 0.0411818 0.4733873 0.7843333
3361.245427 -0.1908710 -0.2643038 1.4909728 -0.4051571 0.0455485 0.4844334 0.7740138
3361.282290 -0.1908914 -0.2642841 1.4910047 -0.4105799 0.0489325 0.4932085 0.7653595
3361.319154 -0.1908961 -0.2642974 1.4910036 -0.4154459 0.0510790 0.4999642 0.7581764
3361.356017 -0.1909069 -0.2642951 1.4910159 -0.4198971 0.0518592 0.5053182 0.7520974
3361.392880 -0.1909061 -0.2642977 1.4910167 -0.4236596 0.0509083 0.5089102 0.7476171
3361.429744 -0.1909269 -0.2642387 1.4910663 -0.4267762 0.0490527 0.5132812 0.7429659
3361.466607 -0.1909182 -0.2643173 1.4910252 -0.4293273 0.0439575 0.5166411 0.7394781
3361.503470 -0.1909142 -0.2642912 1.4910264 -0.4303476 0.0372145 0.5184636 0.7379779
3361.540334 -0.1909161 -0.2643355 1.4910213 -0.4303018 0.0293316 0.5193343 0.7377479
3361.577197 -0.1909202 -0.2643002 1.4910244 -0.4280905 0.0215434 0.5215898 0.7377117
3361.614060 -0.1909169 -0.2643043 1.4910201 -0.4243890 0.0154397 0.5261383 0.7367728
3361.687787 -0.1909193 -0.2643157 1.4910131 -0.4125243 0.0061619 0.5364692 0.7361974
3361.724650 -0.1909290 -0.2642949 1.4910305 -0.4056605 0.0035609 0.5417089 0.7361917
3361.761513 -0.1909194 -0.2643081 1.4910164 -0.3985624 0.0028012 0.5474707 0.7358097
3361.798377 -0.1909155 -0.2643199 1.4910038 -0.3905488 0.0028957 0.5540307 0.7351961
3361.872104 -0.1915728 -0.2643923 1.4915617 -0.3732861 0.0029431 0.5678304 0.7336330
3361.945830 -0.1916494 -0.2643871 1.4916523 -0.3543450 0.0024424 0.5815269 0.7322978
3361.982694 -0.1917271 -0.2644081 1.4917052 -0.3450586 0.0010979 0.5893901 0.7304469
3362.019557 -0.1918253 -0.2644382 1.4917777 -0.3383419 -0.0042997 0.5979952 0.7265728
3362.056420 -0.1918632 -0.2644533 1.4918027 -0.3314145 -0.0091531 0.6051307 0.7238077
3362.130147 -0.2237650 -0.2754004 1.5149509 -0.3164214 0.0181336 0.6045788 0.7307757
3362.203874 -0.3822593 -0.3292440 1.6303422 -0.3255090 0.1720973 0.5381555 0.7581657
3362.314464 -0.5407228 -0.3829560 1.7458444 -0.3188275 0.3195351 0.4528869 0.7688562
3362.572507 -0.6992539 -0.4369400 1.8611183 -0.2860273 0.4507342 0.3729652 0.7588966
3362.867414 -0.7728276 -0.4498608 1.8862702 -0.2356477 0.4959251 0.3945373 0.7367963
3363.088593 -0.8108174 -0.4636355 1.9185135 -0.2158771 0.5094288 0.4361592 0.7096792
3363.199183 -0.8057219 -0.4690175 1.9130944 -0.2204142 0.4890904 0.4603760 0.7072921
3363.899587 -0.6744713 -0.4476715 2.0335503 -0.2169082 0.5012819 0.5045537 0.6686501
3364.341947 -0.6100087 -0.4369711 2.0302813 -0.2274556 0.5161009 0.5220101 0.6398509
3364.784307 -0.7207455 -0.4731718 2.0597239 -0.1686966 0.5676063 0.5624545 0.5770698
3364.931760 -0.7658986 -0.4866153 2.0936856 -0.1515199 0.5750691 0.5809581 0.5557202
3365.226666 -0.8169150 -0.5192984 2.1407557 -0.1253644 0.5942497 0.5846401 0.5379099
3365.521573 -0.7784692 -0.5338079 2.1529489 -0.1219275 0.5893961 0.5717850 0.5575014
3365.816480 -0.6786848 -0.5211125 2.1263502 -0.1294259 0.5560508 0.5680127 0.5928053
3366.074523 -0.6048613 -0.5036163 2.0690942 -0.1454609 0.5527058 0.5600023 0.5997956
3366.111386 -0.5978448 -0.5013891 2.0640187 -0.1489809 0.5552919 0.5572278 0.5991267
3366.332566 -0.5769095 -0.4847304 2.0319476 -0.1737982 0.5650309 0.5495625 0.5903518
3366.553746 -0.5886035 -0.4686023 2.0074205 -0.2024146 0.5806332 0.5548227 0.5604152
3366.922379 -0.6719603 -0.4575440 2.0387282 -0.2009104 0.5764881 0.5728329 0.5469542
3367.991416 -0.9113542 -0.6192149 2.0642619 -0.0727377 0.6329377 0.4667257 0.6134053
3368.323186 -0.9845922 -0.5909297 1.9951382 -0.0580543 0.6002222 0.4550421 0.6552096
3368.765546 -1.0983918 -0.5395074 1.9388437 -0.0640115 0.5890694 0.4517882 0.6669236
3369.134179 -1.1573019 -0.5188925 1.8672848 -0.0951227 0.5583838 0.4405028 0.6965030
3369.465949 -1.1240091 -0.4811407 1.7584183 -0.1096406 0.5152296 0.4022350 0.7488153
3369.797719 -1.0695323 -0.4440815 1.5907949 -0.1291515 0.4666328 0.3431131 0.8048894
3370.424396 -0.8493050 -0.3992830 1.4652128 -0.1256140 0.3833245 0.2719066 0.8736992
3370.498122 -0.8127168 -0.4002537 1.4505192 -0.1286045 0.3774872 0.2620986 0.8787882
3370.756166 -0.7031463 -0.4154821 1.4181701 -0.1317255 0.3778542 0.2493116 0.8818834
3370.793029 -0.6891945 -0.4155410 1.4162703 -0.1318483 0.3756417 0.2449570 0.8840280
3370.829892 -0.6767663 -0.4146347 1.4154446 -0.1324334 0.3727753 0.2400752 0.8864896
3371.014209 -0.6007435 -0.4121742 1.4223820 -0.1457973 0.3368034 0.2124444 0.9056346
3371.051072 -0.5864331 -0.4124902 1.4263983 -0.1499011 0.3272965 0.2055073 0.9100403
3371.087935 -0.5667408 -0.4087231 1.4276141 -0.1534653 0.3134579 0.1999355 0.9155427
3371.235389 -0.4999600 -0.4099126 1.4291065 -0.1723957 0.2620850 0.1574878 0.9363700
3371.272252 -0.4818469 -0.4084943 1.4251947 -0.1771478 0.2474412 0.1469723 0.9411645
3371.419705 -0.4277407 -0.4076593 1.4055046 -0.1989951 0.2029164 0.1113798 0.9522712
3371.456569 -0.4184214 -0.4070706 1.4012418 -0.2041743 0.1951090 0.1037352 0.9536689
3371.493432 -0.4102749 -0.4067090 1.3968139 -0.2102762 0.1864391 0.0943052 0.9550554
3371.677749 -0.3824487 -0.3914518 1.3809725 -0.2326614 0.1467276 0.0477879 0.9602374
3371.751475 -0.3729351 -0.3761736 1.3721429 -0.2308252 0.1316348 0.0353957 0.9633998
3371.898929 -0.3646569 -0.3681700 1.3462214 -0.2263676 0.1053004 0.0169164 0.9681856
3371.972655 -0.3592933 -0.3579895 1.3270367 -0.2228536 0.0884597 0.0081072 0.9707963
3372.009519 -0.3542061 -0.3524053 1.3150043 -0.2215691 0.0788770 0.0042973 0.9719399
3372.046382 -0.3491040 -0.3500634 1.3015516 -0.2226503 0.0691324 0.0002005 0.9724441
3372.083245 -0.3450207 -0.3446087 1.2877539 -0.2227532 0.0604654 -0.0033500 0.9729922
3372.120109 -0.3391317 -0.3387707 1.2730646 -0.2220015 0.0519007 -0.0065476 0.9736420
3372.193835 -0.3318624 -0.3352337 1.2422433 -0.2212032 0.0395632 -0.0143332 0.9743195
3372.267562 -0.3227159 -0.3323908 1.2140261 -0.2174947 0.0293635 -0.0184363 0.9754455
3373.299735 0.0157737 -0.2674934 0.8385870 -0.1276323 -0.0025068 -0.0252278 0.9914975
3374.295045 -0.0291267 -0.1358111 0.4791273 -0.0489289 0.0345826 0.0413670 0.9973459
