3302.116651 0.0000000 0.0000000 0.0000000 0.0000000 0.0000000 0.0000000 1.0000000
3303.812364 -0.0367066 -0.1590172 0.4232191 -0.0424435 0.0027649 -0.0011571 0.9990944
3303.849227 -0.0324725 -0.1641495 0.4368226 -0.0423476 -0.0013430 -0.0022986 0.9990994
3303.959817 -0.0231144 -0.1775870 0.4743800 -0.0478221 -0.0110850 -0.0055276 0.9987791
3304.070407 -0.0159726 -0.1905392 0.5099289 -0.0591156 -0.0203535 -0.0118986 0.9979727
3304.217860 -0.0097715 -0.1988791 0.5555667 -0.0730206 -0.0297095 -0.0083649 0.9968528
3304.402177 -0.0129193 -0.2060940 0.6098410 -0.0929156 -0.0404468 -0.0091258 0.9948103
3304.549630 -0.0253154 -0.2132131 0.6581659 -0.1036283 -0.0411994 -0.0096130 0.9937159
3304.697083 -0.0459826 -0.2249127 0.7158221 -0.1104923 -0.0450328 -0.0075211 0.9928278
3304.844537 -0.0728347 -0.2342509 0.7768752 -0.1284807 -0.0499869 0.0004046 0.9904513
3304.991990 -0.0998739 -0.2373849 0.8294753 -0.1445075 -0.0467244 0.0032479 0.9883946
3305.176307 -0.1264662 -0.2473593 0.8824176 -0.1574325 -0.0411345 0.0037717 0.9866655
3305.360624 -0.1459911 -0.2561577 0.9399464 -0.1685403 -0.0451273 0.0010269 0.9846607
3305.544940 -0.1595062 -0.2692123 1.0076356 -0.1786076 -0.0404078 -0.0010684 0.9830897
3305.766120 -0.1708494 -0.3063250 1.0850165 -0.1715529 -0.0353799 0.0055655 0.9845237
3305.950437 -0.1843956 -0.3346640 1.1440176 -0.1696035 -0.0298568 0.0031889 0.9850549
3306.171617 -0.2039214 -0.3467545 1.2134652 -0.1952307 -0.0360826 -0.0029767 0.9800888
3306.392797 -0.2184674 -0.3480828 1.2759694 -0.2210421 -0.0184660 0.0051206 0.9750760
3306.613977 -0.2375463 -0.3361979 1.3270394 -0.2411506 0.0329947 0.0364581 0.9692412
3306.872020 -0.2644305 -0.3109165 1.3668802 -0.2738504 0.0623869 0.0861408 0.9558732
3307.130063 -0.2878921 -0.2907983 1.4002519 -0.3034945 0.0762762 0.0984490 0.9446591
3307.388106 -0.2963867 -0.2750368 1.4350331 -0.3258649 0.0697252 0.0977268 0.9377633
3307.719876 -0.2789942 -0.2579045 1.4604025 -0.3491836 0.0648199 0.0895618 0.9305095
3308.014783 -0.2330863 -0.2606605 1.4744430 -0.3623233 0.0522533 0.0671860 0.9281581
3308.309690 -0.1948764 -0.2645553 1.4923201 -0.3714022 0.0238593 0.0355162 0.9274857
3308.641459 -0.1656803 -0.2705979 1.5207162 -0.3879354 -0.0165959 -0.0130079 0.9214454
3308.936366 -0.1612107 -0.2804287 1.5594471 -0.4022259 -0.0555973 -0.0657988 0.9114789
3309.268136 -0.1970790 -0.3003456 1.6014745 -0.4031396 -0.0665210 -0.1040389 0.9067686
3309.599906 -0.2584737 -0.2877716 1.5848184 -0.3997377 -0.0453187 -0.0902519 0.9110492
3309.931676 -0.3170794 -0.2594994 1.5181693 -0.3930439 0.0149514 -0.0312902 0.9188656
3310.300309 -0.3442947 -0.2401780 1.4589767 -0.3768357 0.0703985 0.0337304 0.9229850
3310.632079 -0.3422755 -0.2397147 1.4605700 -0.3384062 0.1230141 0.0986891 0.9276903
3310.963849 -0.3568132 -0.2356648 1.4890172 -0.3166024 0.1651223 0.1604160 0.9201979
3311.295619 -0.3906678 -0.2394522 1.4924617 -0.2967724 0.1931525 0.2010596 0.9133418
3311.664252 -0.4870039 -0.2534754 1.4720216 -0.2623324 0.2753755 0.2472014 0.8912023
3311.922296 -0.5724493 -0.2508618 1.4569938 -0.2407196 0.3173928 0.2814486 0.8729849
3312.106612 -0.6035299 -0.2503631 1.4560139 -0.2468671 0.3434750 0.2987238 0.8554798
3312.143476 -0.6054679 -0.2498638 1.4547803 -0.2478874 0.3478180 0.3035270 0.8517311
3312.475246 -0.5935959 -0.2350634 1.4665425 -0.2327296 0.3336152 0.3428807 0.8467412
3312.622699 -0.5939362 -0.2345024 1.4705884 -0.2154071 0.3099789 0.3527010 0.8562213
3312.659562 -0.5955878 -0.2344924 1.4732413 -0.2101890 0.3049092 0.3534545 0.8590232
3312.733289 -0.5940138 -0.2334414 1.4755008 -0.1959879 0.2916669 0.3525427 0.8673136
3312.770152 -0.5947428 -0.2338368 1.4754136 -0.1884526 0.2847489 0.3521483 0.8714329
3312.843879 -0.5959594 -0.2346331 1.4735028 -0.1792519 0.2670001 0.3504291 0.8796472
3312.880742 -0.5960022 -0.2346425 1.4733956 -0.1759316 0.2577019 0.3470953 0.8843996
3312.954469 -0.5959186 -0.2345460 1.4735670 -0.1689621 0.2411942 0.3420081 0.8923607
3312.991332 -0.5958400 -0.2345188 1.4736934 -0.1654043 0.2336817 0.3399206 0.8958171
3313.028195 -0.5958899 -0.2344928 1.4736367 -0.1619945 0.2258230 0.3368782 0.8995970
3313.101922 -0.5958158 -0.2344444 1.4737120 -0.1575063 0.2101714 0.3315437 0.9061449
3313.138785 -0.5955433 -0.2344799 1.4736016 -0.1555059 0.2021071 0.3286400 0.9093769
3313.212512 -0.5957814 -0.2344432 1.4737096 -0.1521569 0.1885279 0.3263558 0.9136724
3313.286239 -0.5957808 -0.2344426 1.4737003 -0.1486706 0.1759173 0.3267132 0.9166290
3313.359965 -0.5957800 -0.2344418 1.4736974 -0.1450699 0.1614146 0.3301254 0.9186497
3313.507419 -0.5957727 -0.2344412 1.4736971 -0.1383306 0.1271668 0.3498715 0.9177598
3313.544282 -0.5957723 -0.2344410 1.4736960 -0.1372743 0.1169063 0.3535527 0.9178721
3313.691736 -0.5957530 -0.2344440 1.4736744 -0.1296502 0.0805708 0.3727876 0.9152752
3313.912915 -0.5957605 -0.2344461 1.4736606 -0.1188318 0.0502686 0.3980755 0.9082335
3314.318412 -0.5957595 -0.2344370 1.4736946 -0.0987332 0.0617810 0.4401595 0.8903340
3314.539592 -0.5957579 -0.2344278 1.4737291 -0.0731438 0.0698915 0.4759175 0.8736519
3314.613318 -0.5957599 -0.2344273 1.4737388 -0.0613228 0.0792278 0.4857522 0.8683360
3314.871362 -0.5957612 -0.2344258 1.4737618 -0.0359363 0.1031309 0.5092089 0.8536855
3315.239995 -0.5957648 -0.2344240 1.4738005 -0.0204682 0.1028812 0.5675869 0.8166037
3315.534902 -0.5957654 -0.2344240 1.4738084 -0.0064932 0.0977359 0.6312754 0.7693483
3315.866672 -0.5957657 -0.2344241 1.4738097 -0.0145730 0.1258665 0.6849926 0.7174472
3316.198442 -0.5957672 -0.2344233 1.4738328 0.0045940 0.1537356 0.7296798 0.6662670
3316.493348 -0.5957586 -0.2344289 1.4738424 0.0336860 0.1454663 0.7651764 0.6262666
3316.751391 -0.5957581 -0.2344277 1.4738482 0.0565489 0.1254236 0.7865266 0.6020359
3316.935708 -0.5957582 -0.2344269 1.4738450 0.0506131 0.1212861 0.8035069 0.5806071
3317.009435 -0.5957580 -0.2344264 1.4738441 0.0411067 0.1107855 0.8138916 0.5688737
3317.156888 -0.5957562 -0.2344253 1.4738410 0.0180483 0.0865899 0.8392229 0.5365458
3317.230615 -0.5957551 -0.2344253 1.4738381 0.0001593 0.0694809 0.8531787 0.5169704
3317.378068 -0.5957533 -0.2344257 1.4738312 -0.0237341 0.0502286 0.8744029 0.4820097
3317.525521 -0.5957516 -0.2344265 1.4738262 -0.0551692 0.0388573 0.8915858 0.4477960
3317.783565 -0.5957516 -0.2344265 1.4738280 -0.0752541 0.0352693 0.9082576 0.4100744
3317.967881 -0.5957530 -0.2344258 1.4738352 -0.0400725 0.0287955 0.9158183 0.3985496
3318.225924 -0.5957546 -0.2344242 1.4738458 0.0144276 0.0139234 0.9143291 0.4044753
3318.447104 -0.5957543 -0.2344236 1.4738520 0.0350273 -0.0233642 0.9171822 0.3962373
3318.668285 -0.5957515 -0.2344231 1.4738539 0.0515845 -0.0640247 0.9199499 0.3833170
3318.815738 -0.5957506 -0.2344249 1.4738485 0.0585106 -0.0692621 0.9189058 0.3839159
3318.889465 -0.5957503 -0.2344269 1.4738468 0.0669273 -0.0663450 0.9168890 0.3878579
3318.963191 -0.5957500 -0.2344279 1.4738435 0.0692540 -0.0655792 0.9133319 0.3958889
3319.036918 -0.5957494 -0.2344285 1.4738405 0.0699577 -0.0673070 0.9081743 0.4071796
3319.073781 -0.5957491 -0.2344284 1.4738386 0.0711584 -0.0679499 0.9049078 0.4140787
3319.221234 -0.5957488 -0.2344286 1.4738338 0.0637866 -0.0684493 0.8936480 0.4389068
3319.258098 -0.5957486 -0.2344287 1.4738327 0.0581643 -0.0721113 0.8912261 0.4439965
3319.442414 -0.5957478 -0.2344290 1.4738281 0.0293020 -0.0659828 0.8752939 0.4781718
3319.700458 -0.5957475 -0.2344293 1.4738210 0.0025877 -0.0481932 0.8495952 0.5252224
3319.811048 -0.5957474 -0.2344301 1.4738141 -0.0104402 -0.0299257 0.8337401 0.5512466
3319.958501 -0.5957469 -0.2344323 1.4738059 -0.0316989 -0.0084640 0.8058776 0.5911725
3320.179681 -0.5957449 -0.2344318 1.4737945 -0.0285786 -0.0190963 0.7552656 0.6545169
3320.253407 -0.5957438 -0.2344307 1.4737909 -0.0335380 -0.0326375 0.7398279 0.6711667
3320.327134 -0.5957432 -0.2344306 1.4737886 -0.0358539 -0.0516318 0.7322498 0.6781290
3320.437724 -0.5957430 -0.2344311 1.4737883 -0.0380229 -0.0856313 0.7285933 0.6785082
3320.474587 -0.5957428 -0.2344310 1.4737886 -0.0414106 -0.0987188 0.7221887 0.6833618
3320.548314 -0.5957428 -0.2344311 1.4737871 -0.0417888 -0.1164173 0.7083345 0.6949553
3320.622041 -0.5957423 -0.2344313 1.4737836 -0.0365564 -0.1313098 0.6976010 0.7034019
3320.695767 -0.5957419 -0.2344316 1.4737803 -0.0318876 -0.1490143 0.6887739 0.7087795
3320.769494 -0.5957414 -0.2344314 1.4737799 -0.0272359 -0.1641978 0.6800670 0.7140071
3320.806357 -0.5957412 -0.2344314 1.4737798 -0.0260988 -0.1717801 0.6758866 0.7162316
3320.916947 -0.5957406 -0.2344313 1.4737793 -0.0307176 -0.1939612 0.6635113 0.7219337
3321.101264 -0.5957397 -0.2344312 1.4737787 -0.0357310 -0.2143564 0.6448375 0.7327750
3321.396171 -0.5957401 -0.2344312 1.4737788 0.0054131 -0.2448144 0.6213329 0.7442997
3321.506761 -0.5957409 -0.2344313 1.4737788 0.0270134 -0.2445655 0.6095639 0.7535847
3321.580487 -0.5957416 -0.2344313 1.4737786 0.0427919 -0.2441180 0.5994068 0.7611089
3321.654214 -0.5957423 -0.2344308 1.4737779 0.0609897 -0.2444466 0.5885673 0.7681893
3321.727941 -0.5957430 -0.2344303 1.4737768 0.0794280 -0.2414435 0.5776638 0.7756938
3321.801667 -0.5957437 -0.2344300 1.4737756 0.0934774 -0.2371969 0.5663581 0.7837334
3321.875394 -0.5957441 -0.2344298 1.4737751 0.1063036 -0.2358659 0.5540910 0.7912332
3321.949121 -0.5957446 -0.2344292 1.4737746 0.1194539 -0.2354910 0.5414774 0.7981710
3322.022847 -0.5957447 -0.2344288 1.4737740 0.1319598 -0.2331352 0.5290208 0.8052152
3322.096574 -0.5957451 -0.2344282 1.4737732 0.1437446 -0.2314524 0.5183885 0.8105804
3322.170300 -0.5957448 -0.2344282 1.4737732 0.1503730 -0.2329732 0.5094966 0.8145702
3322.280890 -0.5957450 -0.2344278 1.4737730 0.1637733 -0.2388563 0.5005879 0.8158049
3322.354617 -0.5957453 -0.2344275 1.4737723 0.1727245 -0.2431248 0.4947971 0.8162305
3322.538934 -0.5957451 -0.2344271 1.4737712 0.1894699 -0.2564213 0.4887198 0.8120974
3322.686387 -0.5957448 -0.2344265 1.4737688 0.2033197 -0.2592384 0.4902087 0.8069399
3355.789655 -0.2444121 -0.2406009 1.1328727 -0.2197520 0.2735101 0.2024751 0.9142784
3356.158288 -0.1993137 -0.2694821 1.2753847 -0.2636026 0.2030998 0.1429578 0.9321091
3356.195151 -0.1934332 -0.2723998 1.2898753 -0.2675739 0.1940853 0.1382993 0.9335997
3356.342605 -0.1747633 -0.2853257 1.3429561 -0.2860425 0.1589222 0.1113921 0.9383577
3356.416331 -0.1682686 -0.2925525 1.3673756 -0.2940628 0.1419190 0.0954988 0.9403542
3356.490058 -0.1630320 -0.2980707 1.3905010 -0.3000845 0.1228115 0.0809585 0.9425032
3356.563785 -0.1631780 -0.3006617 1.4129255 -0.3062249 0.1036375 0.0650105 0.9440653
3356.637511 -0.1651742 -0.3045162 1.4357030 -0.3147860 0.0843310 0.0475391 0.9442130
3356.748101 -0.1700308 -0.3047686 1.4636114 -0.3232816 0.0575717 0.0290781 0.9441022
3356.858691 -0.1808885 -0.2981156 1.4861569 -0.3365939 0.0327853 0.0198933 0.9408687
3356.969281 -0.1943935 -0.2865599 1.5011129 -0.3496267 0.0108508 0.0153195 0.9367010
3357.116735 -0.2209804 -0.2687236 1.5068499 -0.3596204 0.0007351 0.0117720 0.9330242
3357.264188 -0.2456279 -0.2490014 1.4966065 -0.3668299 0.0053386 0.0191574 0.9300755
3357.559094 -0.2828791 -0.2094928 1.4434199 -0.3655856 0.0196184 0.0467852 0.9293941
3358.259498 -0.1781988 -0.2578350 1.4834683 -0.3851721 0.0022175 -0.0098886 0.9227892
3358.959901 -0.1999479 -0.3045765 1.5917685 -0.3911574 -0.0216067 -0.0451540 0.9189615
3359.734031 -0.3096485 -0.2290655 1.3937082 -0.3436435 0.1097775 0.0848301 0.9287959
3360.581887 -0.3863510 -0.2730960 1.5098027 -0.3205220 0.2039252 0.1698193 0.9093083
3360.987384 -0.5140432 -0.2755594 1.5262113 -0.2970523 0.2897472 0.2237521 0.8818966
3361.208564 -0.6033483 -0.2829452 1.5262277 -0.2791770 0.3540577 0.2634284 0.8528240
3361.356017 -0.6536489 -0.2739855 1.5231794 -0.2648577 0.3870598 0.2800461 0.8376212
3361.392880 -0.6562390 -0.2794088 1.5261807 -0.2706580 0.3893186 0.2850465 0.8330209
3361.540334 -0.6696428 -0.2855871 1.5269929 -0.2829708 0.3754385 0.2950799 0.8318061
3361.577197 -0.6652129 -0.2820784 1.5239769 -0.2818635 0.3638487 0.2990306 0.8359113
3361.614060 -0.6614632 -0.2829163 1.5224673 -0.2793587 0.3542897 0.3070347 0.8379542
3361.687787 -0.6624871 -0.2794870 1.5277674 -0.2700390 0.3461587 0.3117402 0.8426573
3361.724650 -0.6580725 -0.2781143 1.5269043 -0.2643909 0.3394480 0.3163044 0.8454727
3361.798377 -0.6583836 -0.2767039 1.5299474 -0.2488525 0.3349928 0.3230453 0.8494080
3361.835240 -0.6587292 -0.2771583 1.5301489 -0.2406763 0.3329165 0.3274086 0.8509085
3361.872104 -0.6541475 -0.2748499 1.5295103 -0.2310573 0.3264401 0.3330151 0.8539030
3361.908967 -0.6538392 -0.2728812 1.5319005 -0.2209032 0.3239975 0.3367788 0.8560417
3361.982694 -0.6525882 -0.2715628 1.5329158 -0.2021151 0.3146197 0.3467531 0.8601896
3362.019557 -0.6519787 -0.2712879 1.5332048 -0.1962255 0.3068387 0.3552128 0.8609120
3362.056420 -0.6511142 -0.2691232 1.5383257 -0.1899448 0.3001382 0.3602658 0.8625814
3362.093284 -0.6505072 -0.2688476 1.5387130 -0.1800404 0.2935272 0.3630216 0.8658190
3362.130147 -0.6496485 -0.2678298 1.5395588 -0.1709136 0.2866814 0.3644767 0.8693441
3362.203874 -0.6485007 -0.2677144 1.5380890 -0.1570808 0.2732508 0.3724963 0.8728723
3362.240737 -0.6492279 -0.2673644 1.5375903 -0.1497845 0.2686079 0.3769585 0.8736799
3362.314464 -0.6486228 -0.2670515 1.5380318 -0.1374449 0.2594765 0.3835689 0.8755888
3362.388190 -0.6452417 -0.2679593 1.5356946 -0.1270936 0.2527308 0.3905522 0.8760384
3362.535644 -0.6458274 -0.2678883 1.5357671 -0.1097141 0.2395642 0.4114273 0.8725247
3362.683097 -0.6344946 -0.2710855 1.5274353 -0.1038142 0.2293050 0.4385252 0.8627499
3362.904277 -0.5891595 -0.2825711 1.4980421 -0.1141807 0.1982188 0.5027617 0.8336083
3363.199183 -0.5771259 -0.2857113 1.4898909 -0.1232660 0.1450727 0.5646886 0.8030481
3363.530953 -0.5669314 -0.2882200 1.4835802 -0.1052728 0.1269400 0.5910147 0.7896236
3363.604680 -0.5575025 -0.2906221 1.4774966 -0.0932842 0.1279377 0.5945235 0.7883348
3363.825860 -0.5604398 -0.2897508 1.4798977 -0.0420355 0.1419300 0.6024421 0.7843165
3363.936450 -0.5629576 -0.2890914 1.4816654 -0.0263136 0.1641532 0.6023772 0.7807068
3364.120767 -0.5608826 -0.2895819 1.4804897 -0.0091322 0.1948309 0.6014807 0.7747118
3364.673716 -0.5546874 -0.2912255 1.4760945 -0.0395803 0.1821519 0.6728488 0.7159110
3364.894897 -0.5415088 -0.2946171 1.4671881 -0.0716606 0.1142750 0.7250355 0.6753736
3365.079213 -0.5337574 -0.2966108 1.4618967 -0.0816691 0.0689890 0.7567927 0.6448531
3365.263530 -0.5318280 -0.2970878 1.4605030 -0.0751537 0.0567994 0.7593901 0.6437798
3365.447846 -0.5294908 -0.2976567 1.4589791 -0.0435235 0.0546523 0.7517772 0.6557056
3365.632163 -0.5318948 -0.2969950 1.4607885 0.0120563 0.0573745 0.7358931 0.6745548
3365.816480 -0.5476192 -0.2929174 1.4714285 0.0655777 0.0846435 0.7090190 0.6970130
3365.927070 -0.5587542 -0.2900650 1.4788871 0.0823736 0.1209366 0.6928214 0.7061072
3366.111386 -0.5584139 -0.2901597 1.4787488 0.0930349 0.1855053 0.6708115 0.7120001
3366.332566 -0.5584289 -0.2901786 1.4787824 0.0676554 0.2431827 0.6575323 0.7098846
3366.516883 -0.5601888 -0.2897507 1.4799087 0.0171154 0.2781805 0.6617870 0.6959602
3366.664336 -0.5601958 -0.2897698 1.4798806 -0.0245519 0.2767149 0.6734200 0.6850778
3366.885516 -0.5616819 -0.2894074 1.4808259 -0.0609103 0.2255380 0.6952924 0.6796993
3367.438466 -0.5356554 -0.2961156 1.4628947 -0.0344553 0.0939387 0.7120231 0.6949903
3367.696509 -0.5286030 -0.2979976 1.4578103 -0.0139845 0.1317116 0.7156514 0.6857839
3367.917689 -0.5235302 -0.2993756 1.4541214 -0.0047210 0.1397895 0.7063183 0.6939389
3368.175733 -0.5145193 -0.3018287 1.4478760 -0.0100416 0.1263224 0.6841145 0.7182820
3368.396913 -0.5055886 -0.3042323 1.4417789 -0.0447711 0.1192706 0.6801453 0.7219228
3368.654956 -0.4933084 -0.3075141 1.4334469 -0.0927362 0.1217174 0.6769107 0.7199839
3368.765546 -0.4888821 -0.3087161 1.4303648 -0.1215515 0.1052800 0.6746464 0.7204121
3368.949862 -0.4766195 -0.3119730 1.4219730 -0.1604066 0.0758120 0.6630766 0.7272218
3369.244769 -0.4597854 -0.3164399 1.4104638 -0.1788948 0.0845200 0.6368151 0.7451977
3369.465949 -0.4491601 -0.3192800 1.4031726 -0.1864559 0.0866382 0.5923322 0.7790189
3369.613402 -0.4254975 -0.3254678 1.3872981 -0.2032479 0.0915652 0.5603563 0.7976885
3369.650265 -0.4198195 -0.3269470 1.3835119 -0.2070317 0.0921868 0.5483403 0.8049611
3369.687129 -0.4198134 -0.3269613 1.3834708 -0.2072888 0.0960184 0.5406356 0.8096450
3369.760856 -0.4097216 -0.3296687 1.3765185 -0.2108925 0.1012655 0.5254759 0.8180127
3369.945172 -0.3999602 -0.3320860 1.3703327 -0.2097869 0.1108981 0.5093235 0.8272126
3370.055762 -0.3973084 -0.3326932 1.3687613 -0.2026257 0.1089768 0.4985204 0.8357896
3370.092626 -0.3973097 -0.3326879 1.3687738 -0.2003282 0.1096873 0.4946568 0.8385416
3370.240079 -0.3900881 -0.3345117 1.3641021 -0.1880419 0.1156384 0.4709338 0.8541015
3370.387532 -0.3875347 -0.3351324 1.3625062 -0.1747661 0.1342541 0.4369367 0.8720774
3370.461259 -0.3875365 -0.3351285 1.3625125 -0.1728175 0.1415838 0.4169538 0.8810436
3370.571849 -0.3856933 -0.3355892 1.3613282 -0.1663086 0.1678717 0.3966242 0.8870455
3370.719302 -0.3837845 -0.3360693 1.3600917 -0.1541194 0.1969712 0.3674148 0.8957990
3370.940482 -0.3833013 -0.3361797 1.3597925 -0.1357734 0.2073028 0.3119850 0.9172003
3371.087935 -0.3832971 -0.3361700 1.3598114 -0.1317383 0.1899098 0.2666710 0.9356633
3371.272252 -0.3824548 -0.3363725 1.3592750 -0.1297594 0.1623160 0.1695887 0.9633564
3371.345979 -0.3824599 -0.3363725 1.3592696 -0.1357064 0.1565385 0.1397359 0.9682734
3371.456569 -0.3826396 -0.3364670 1.3589158 -0.1500193 0.1527172 0.1066425 0.9709784
3371.493432 -0.3827128 -0.3365056 1.3587750 -0.1564950 0.1503269 0.0929803 0.9717334
3371.677749 -0.3825107 -0.3377848 1.3550055 -0.1864543 0.1302571 0.0415368 0.9729042
3371.862065 -0.3820010 -0.3418791 1.3446856 -0.2023326 0.1133497 0.0181971 0.9725648
3371.898929 -0.3799188 -0.3394916 1.3524585 -0.2057638 0.1092938 0.0156129 0.9723541
3372.009519 -0.3884861 -0.3365914 1.3585944 -0.2243244 0.0951024 -0.0048296 0.9698509
3372.562468 -0.3888373 -0.3364242 1.3594930 -0.2874554 0.0872516 -0.0670380 0.9514529
3372.636195 -0.3888479 -0.3364371 1.3594974 -0.2858134 0.0933945 -0.0727521 0.9509444
3372.857375 -0.3888920 -0.3365074 1.3594363 -0.2902469 0.1260001 -0.0988080 0.9434605
3372.894238 -0.3888996 -0.3365156 1.3594365 -0.2929731 0.1339315 -0.1033865 0.9410315
3373.115418 -0.3889503 -0.3365844 1.3593965 -0.3056526 0.1737184 -0.1251803 0.9277544
3373.152282 -0.3889557 -0.3365964 1.3593893 -0.3100292 0.1776904 -0.1289197 0.9250339
3373.189145 -0.3889622 -0.3366133 1.3593717 -0.3143907 0.1822730 -0.1299557 0.9225218
3373.373462 -0.3889879 -0.3366563 1.3593359 -0.3168862 0.2050076 -0.1393433 0.9154990
3373.520915 -0.3890060 -0.3366944 1.3593117 -0.3189495 0.2127363 -0.1436984 0.9123405
3373.557778 -0.3890088 -0.3367032 1.3593051 -0.3198911 0.2129618 -0.1448682 0.9117731
3373.705232 -0.3890189 -0.3367382 1.3592782 -0.3240372 0.2234751 -0.1399365 0.9085574
3373.742095 -0.3890211 -0.3367464 1.3592737 -0.3240598 0.2275410 -0.1396715 0.9075804
3373.889548 -0.3890324 -0.3367810 1.3592324 -0.3154534 0.2459367 -0.1342075 0.9066381
3373.926412 -0.3890350 -0.3367945 1.3592217 -0.3151222 0.2469388 -0.1328120 0.9066864
3373.963275 -0.3890375 -0.3368071 1.3592131 -0.3159921 0.2462688 -0.1308582 0.9068499
3374.000138 -0.3890397 -0.3368211 1.3592025 -0.3178045 0.2437011 -0.1272984 0.9074168
3374.037001 -0.3890420 -0.3368344 1.3591937 -0.3206799 0.2387814 -0.1262373 0.9078612
3374.073865 -0.3890428 -0.3368486 1.3591803 -0.3217469 0.2327427 -0.1250787 0.9092112
3374.110728 -0.3890458 -0.3368644 1.3591670 -0.3205756 0.2288935 -0.1205972 0.9112054
3374.147592 -0.3890422 -0.3368789 1.3591570 -0.3200829 0.2222725 -0.1196923 0.9131351
3374.331908 -0.3890390 -0.3369527 1.3591013 -0.3215432 0.1884215 -0.1062559 0.9218552
3374.368772 -0.3890376 -0.3369686 1.3590899 -0.3215102 0.1818589 -0.1034740 0.9234996
3374.479362 -0.3890365 -0.3369989 1.3590689 -0.3217457 0.1657033 -0.0985015 0.9269949
3374.516225 -0.3890365 -0.3370095 1.3590596 -0.3186398 0.1618589 -0.0983987 0.9287562
3374.626815 -0.3890387 -0.3370329 1.3590363 -0.3064482 0.1543559 -0.0983314 0.9341278
3374.663678 -0.3890386 -0.3370380 1.3590322 -0.3033274 0.1516804 -0.0994340 0.9354669
3374.700541 -0.3890399 -0.3370429 1.3590275 -0.3014474 0.1497488 -0.0996358 0.9363640
