11248.215609 0.000000000 0.000000000 0.000000000 0.000000000 0.000000000 0.000000000 1.000000000
11248.252472 0.008841997 -0.006593807 -0.000714328 0.000845959 -0.008390403 0.000911951 0.999963999
11248.289335 0.017727861 -0.011758256 -0.001298221 0.001012454 -0.016983151 0.001488141 0.999854147
11248.326199 0.027032390 -0.015652087 -0.001545054 0.002944801 -0.026219020 0.002474197 0.999648809
11248.363062 0.037581511 -0.018039688 -0.000134597 0.008618248 -0.036699317 0.003700479 0.999282360
11248.399925 0.049043685 -0.023594854 0.003598036 0.015517051 -0.047431577 0.007030404 0.998729229
11248.436789 0.058922064 -0.027996726 0.006973517 0.022068005 -0.057304546 0.005591793 0.998097181
11248.473652 0.068197183 -0.029598126 0.012541624 0.026883915 -0.066199809 0.000966488 0.997443676
11248.510516 0.078449063 -0.035131659 0.019948475 0.027246563 -0.073659293 0.000069136 0.996911168
11248.547379 0.091562875 -0.040870763 0.030187644 0.026355270 -0.080794297 0.002785402 0.996378362
11248.584242 0.105036631 -0.046922009 0.040347096 0.025546994 -0.085720912 0.004038137 0.995983422
11248.621106 0.120736204 -0.053558372 0.052174043 0.025408329 -0.089553528 0.005776664 0.995641112
11248.657969 0.137413979 -0.059926175 0.063157894 0.026279062 -0.091711871 0.003332020 0.995433211
11248.694833 0.155322120 -0.066711217 0.077076808 0.023884233 -0.092188105 0.000466138 0.995455027
11248.731696 0.173710108 -0.072426878 0.090328738 0.020463491 -0.091345601 -0.003946258 0.995601177
11248.768559 0.192080647 -0.078149617 0.104641870 0.017720109 -0.090454519 -0.007901736 0.995711565
11248.805423 0.209487602 -0.084042244 0.117898032 0.014418494 -0.088519722 -0.012330969 0.995893717
11248.842286 0.227078974 -0.089644983 0.131450459 0.011066126 -0.086279534 -0.016771035 0.996068299
11248.879149 0.244326070 -0.094534777 0.143452182 0.007799909 -0.084537975 -0.020194942 0.996185064
11248.916013 0.259693265 -0.098588690 0.156308889 0.003984795 -0.081969291 -0.021659827 0.996391475
11248.952876 0.274700582 -0.101408385 0.164885238 0.001445695 -0.079011381 -0.020880954 0.996653974
11248.989739 0.288808316 -0.103765979 0.174197614 -0.001660244 -0.078202166 -0.018326417 0.996767700
11249.026603 0.298691332 -0.104446545 0.183694467 -0.006490894 -0.077087104 -0.015869398 0.996876955
11249.063466 0.307594866 -0.106478862 0.190195397 -0.013243726 -0.078161478 -0.015421679 0.996733427
11249.100330 0.314147383 -0.107036345 0.197728470 -0.018507324 -0.081216790 -0.015310746 0.996406972
11249.137193 0.317521960 -0.105866179 0.204650342 -0.022268400 -0.084517904 -0.015746647 0.996048629
11249.174056 0.318849117 -0.103841275 0.208833292 -0.025198266 -0.087165020 -0.014227803 0.995773494
11249.210920 0.316527814 -0.100672454 0.212674230 -0.026175231 -0.088745885 -0.011446861 0.995644510
11249.247783 0.312113553 -0.097463980 0.215619475 -0.025492076 -0.089691877 -0.006629190 0.995621204
11249.284647 0.305145532 -0.094516709 0.217015728 -0.023781801 -0.090696640 -0.003105331 0.995589733
11249.321510 0.296520829 -0.092890799 0.217917591 -0.021597588 -0.093428336 -0.002158569 0.995389402
11249.358373 0.285064310 -0.091447674 0.219321743 -0.018097080 -0.096839361 -0.002558535 0.995132208
11249.395236 0.270799100 -0.091091514 0.219712034 -0.014054848 -0.099261850 -0.005164894 0.994948685
11249.432100 0.254816949 -0.091588408 0.217815101 -0.009506729 -0.099589601 -0.009403419 0.994938731
11249.468963 0.237234741 -0.091208607 0.215113729 -0.004206084 -0.098510124 -0.012565875 0.995047808
11249.505827 0.217141941 -0.090777613 0.212033182 0.000474904 -0.096454881 -0.017268907 0.995187402
11249.542690 0.195263132 -0.089811333 0.208119631 0.004159202 -0.093962491 -0.023485990 0.995289981
11249.579553 0.172812045 -0.088796519 0.203826159 0.006178807 -0.091028385 -0.029760724 0.995384336
11249.616417 0.148596808 -0.088006794 0.198166505 0.008065960 -0.087227546 -0.037852593 0.995436311
11249.653280 0.123142757 -0.085843369 0.192606390 0.009499962 -0.082020476 -0.046342239 0.995507300
11249.690144 0.097461745 -0.083166331 0.186000109 0.011559729 -0.074679404 -0.052821513 0.995740533
11249.727007 0.069973879 -0.079406328 0.178589180 0.016786501 -0.065855220 -0.059917998 0.995887101
11249.763870 0.042438760 -0.074836515 0.171814546 0.022553843 -0.055941388 -0.061742656 0.996267915
11249.800734 0.016338259 -0.070528939 0.163746595 0.027654069 -0.046210054 -0.062554210 0.996587634
11249.837597 -0.009482153 -0.065651968 0.157760605 0.031535152 -0.037396558 -0.063078046 0.996809006
11249.874460 -0.034185279 -0.059674576 0.152013898 0.033472616 -0.029764114 -0.062798582 0.997020602
11249.911324 -0.057183266 -0.053318433 0.144861415 0.033230886 -0.024747686 -0.061845914 0.997225285
11249.948187 -0.078369051 -0.045462843 0.141013965 0.032694750 -0.022496441 -0.062163532 0.997276604
11249.985051 -0.096352287 -0.036621168 0.134398147 0.031719267 -0.022871798 -0.064949021 0.997122049
11250.021914 -0.111695826 -0.027925717 0.129433796 0.028972073 -0.025466286 -0.069678813 0.996823430
11250.058777 -0.123015746 -0.019575782 0.126260445 0.023378070 -0.029807262 -0.074787714 0.996479750
11250.095641 -0.133166045 -0.009595802 0.126040652 0.016257994 -0.033671252 -0.084276401 0.995740592
11250.132504 -0.138584718 -0.002091818 0.123538256 0.008199978 -0.036906585 -0.089183703 0.995297372
11250.169367 -0.139647201 0.004427564 0.120524682 0.000470958 -0.039268449 -0.091415003 0.995038211
11250.206231 -0.138131335 0.009722179 0.116552942 -0.005545598 -0.039448787 -0.091878310 0.994973063
11250.243094 -0.134472311 0.013460122 0.109798849 -0.006791515 -0.038539119 -0.088467784 0.995310009
11250.279957 -0.127042487 0.013397506 0.105834812 -0.005420549 -0.037279259 -0.084826954 0.995683312
11250.316821 -0.116872191 0.013301084 0.104729205 -0.002650885 -0.032886174 -0.081096366 0.996160030
11250.390548 -0.094669022 0.008733623 0.096201576 0.004200498 -0.012904155 -0.066836655 0.997671604
11250.427411 -0.081485108 0.005890140 0.091807753 0.011140263 0.000625028 -0.060706783 0.998093307
11250.464274 -0.069979034 0.000819209 0.091453522 0.017522156 0.015256248 -0.052598238 0.998345435
11250.501138 -0.057534646 -0.005789742 0.089187384 0.023370614 0.028436489 -0.047668647 0.998184800
11250.538001 -0.045015927 -0.014090693 0.087174580 0.029596860 0.039114408 -0.045893755 0.997741401
11250.574864 -0.034088966 -0.022042451 0.086740859 0.036958937 0.048646227 -0.046573158 0.997044921
11250.611728 -0.021288875 -0.032262184 0.085481457 0.044399410 0.055129319 -0.051289592 0.996172071
11250.648591 -0.011300611 -0.042168133 0.086005859 0.051240832 0.062578455 -0.058599487 0.994999707
11250.685454 -0.000601513 -0.054279819 0.092573978 0.056335405 0.069864340 -0.066792361 0.993722320
11250.722318 0.010099210 -0.064102292 0.093784638 0.063869104 0.077265866 -0.074591227 0.992162704
11250.759181 0.020640943 -0.076832220 0.096387252 0.071525820 0.083940908 -0.084137052 0.990332723
11250.796045 0.030918812 -0.081565320 0.099580362 0.085957453 0.092393905 -0.087364204 0.988150895
11250.832908 0.041905053 -0.096567363 0.104277477 0.093047209 0.100803010 -0.099441446 0.985541701
11250.869771 0.051878933 -0.103403211 0.106921576 0.101977900 0.113668576 -0.103011385 0.982887924
11251.828219 0.063172281 -0.103415504 0.236728102 0.097535186 -0.024303364 -0.085825071 0.991226673
11251.865082 0.045000173 -0.093413532 0.232223287 0.093489483 -0.032611918 -0.084967442 0.991451800
11251.901946 0.026014322 -0.082177952 0.229208112 0.086261041 -0.036725279 -0.084789649 0.991978347
11251.938809 0.007398715 -0.069860473 0.222571358 0.074674822 -0.036220349 -0.084784023 0.992936790
11251.975672 -0.011131867 -0.058762223 0.217575267 0.061267573 -0.032902919 -0.088266283 0.993666291
11252.012536 -0.028561186 -0.046983384 0.207294345 0.050583649 -0.028633310 -0.095132731 0.993766189
11252.049399 -0.045169234 -0.036658868 0.200673833 0.040945172 -0.023272203 -0.103582732 0.993505180
11252.086262 -0.059201572 -0.027697064 0.192822650 0.032230612 -0.015729723 -0.114092208 0.992822587
11252.123126 -0.071520522 -0.019010313 0.187213019 0.021909133 -0.004884853 -0.121086940 0.992388070
11252.159989 -0.081454016 -0.008943005 0.177315637 0.013180778 0.007060451 -0.127601981 0.991712749
11252.196853 -0.090172991 -0.002586938 0.168050200 0.003365178 0.020549823 -0.129354283 0.991379738
11252.233716 -0.095868483 0.002227627 0.159865633 -0.005759480 0.032163769 -0.132809117 0.990602911
11252.270580 -0.099885993 0.012037043 0.151859030 -0.010961021 0.043636296 -0.141435876 0.988924503
11252.307443 -0.100364663 0.018241221 0.144492626 -0.017975457 0.054049931 -0.144656256 0.987841129
11252.344306 -0.099215284 0.021325391 0.140413925 -0.024454366 0.062332179 -0.147993281 0.986719131
11252.381170 -0.099216521 0.025478000 0.137866095 -0.027883505 0.072976351 -0.149598181 0.985655785
11252.418033 -0.096952349 0.028343331 0.135417432 -0.032476481 0.084357686 -0.151862592 0.984259546
11252.454896 -0.092217162 0.029193277 0.132938117 -0.036568582 0.097612172 -0.148691267 0.983374536
11252.491760 -0.086345024 0.028688822 0.131706282 -0.038393557 0.113785297 -0.147105813 0.981803834
11252.528623 -0.085151799 0.027141087 0.135064214 -0.037677549 0.134488463 -0.145818219 0.979403019
11252.565486 -0.080664426 0.022473335 0.137312099 -0.034828775 0.150353029 -0.146590084 0.977083564
11252.602350 -0.076434836 0.020482529 0.142524511 -0.028499937 0.164244190 -0.146254033 0.975100696
11252.639213 -0.075482875 0.017679824 0.146932498 -0.021448856 0.176175132 -0.141151592 0.973949909
11252.676077 -0.075756095 0.013643754 0.152874470 -0.014966710 0.183733180 -0.136408910 0.973350227
11252.712940 -0.078556679 0.006752748 0.159574330 -0.009121241 0.188226074 -0.129851148 0.973461092
11252.749803 -0.080329895 0.000830706 0.168981656 -0.001614595 0.186898723 -0.124026664 0.974517167
11252.786667 -0.088915966 -0.009666327 0.178793788 -0.000066988 0.185599655 -0.117497958 0.975575209
11252.823530 -0.091362335 -0.013277162 0.188747033 0.008237579 0.174030066 -0.111956224 0.978320777
11252.860394 -0.099614650 -0.018869417 0.197245032 0.013951411 0.160329819 -0.106102906 0.981245041
11252.897257 -0.113471858 -0.023065086 0.206868589 0.016854065 0.147566170 -0.101224773 0.983714283
11252.934120 -0.123097181 -0.026165308 0.219474360 0.019191399 0.126559928 -0.095258445 0.987187982
11252.970984 -0.136534318 -0.026596107 0.229265630 0.022394791 0.106468640 -0.091359928 0.989856660
11253.007847 -0.153226763 -0.028200882 0.240545720 0.024951627 0.088938668 -0.085251130 0.992068350
11253.044710 -0.171386003 -0.024020482 0.247685656 0.033667572 0.070417754 -0.085460693 0.993279576
11253.081574 -0.187156171 -0.021686105 0.258510590 0.042666744 0.051529124 -0.083902851 0.994225621
11253.118437 -0.208555624 -0.023133261 0.266738147 0.048789889 0.037332255 -0.078489088 0.995020270
11253.155300 -0.226831600 -0.021465946 0.269793779 0.059794147 0.019721942 -0.073902003 0.995275915
11253.192164 -0.249426231 -0.015179800 0.268921852 0.071288966 0.004528845 -0.080015033 0.994230807
11253.229027 -0.267263770 -0.013753995 0.273719132 0.082933336 -0.009999549 -0.082248785 0.993104815
11253.265891 -0.311801851 -0.011323851 0.243258312 0.094046511 -0.016894717 -0.083788857 0.991891742
11253.302754 -0.336584777 -0.030703958 0.295286566 0.105485536 -0.026628321 -0.083459213 0.990554512
11253.339617 -0.357091486 -0.032412753 0.304224640 0.117340580 -0.033765201 -0.086994283 0.988697708
11253.376481 -0.393587887 -0.050074678 0.291546285 0.125241861 -0.037553418 -0.086086147 0.987670720
11253.413344 -0.401521921 -0.031640150 0.299855232 0.140472099 -0.043084327 -0.092004925 0.984858572
11253.450207 -0.407070726 -0.035444237 0.301343679 0.148320451 -0.046398629 -0.098008841 0.982976317
11253.487071 -0.427648664 -0.029347487 0.306406409 0.151671559 -0.044775248 -0.099200398 0.982420564
11253.523934 -0.446428210 -0.026094183 0.303879142 0.151527435 -0.039457168 -0.099154122 0.982675433
11253.560797 -0.461032182 -0.024585970 0.298689336 0.148743927 -0.031162208 -0.101163633 0.983193815
11253.597661 -0.467691123 -0.021200657 0.297957301 0.145256281 -0.022866407 -0.101347521 0.983923972
11253.634524 -0.459661871 -0.012352951 0.294368029 0.145338863 -0.014525897 -0.105513915 0.983632267
11253.671388 -0.467336297 -0.009918168 0.286800206 0.143972665 -0.001378342 -0.109496631 0.983504176
11253.708251 -0.457507640 -0.012210615 0.296766579 0.141462132 0.010095960 -0.111611538 0.983579874
11253.745114 -0.470784575 -0.002741858 0.275606543 0.137230292 0.028732529 -0.113945469 0.983543932
11253.781978 -0.501377940 -0.015649725 0.271860719 0.126913860 0.049428210 -0.114240810 0.984072506
11253.818841 -0.438825250 0.018766042 0.274511099 0.124119133 0.058821697 -0.119324669 0.983308733
11253.855704 -0.419320405 0.032091837 0.252873868 0.114023671 0.074344717 -0.119174190 0.983498335
11254.482382 -0.129751921 -0.021298114 0.202083170 0.075533167 0.157229573 -0.055947147 0.983078599
11254.519245 -0.117083006 -0.013348421 0.199775532 0.068732515 0.152922198 -0.050938975 0.984528244
11254.556108 -0.108829036 -0.006496244 0.200838551 0.058300737 0.144548997 -0.041508235 0.986906111
11254.592972 -0.100422509 0.000220960 0.201655373 0.047663327 0.129231110 -0.040449668 0.989642024
11254.629835 -0.095878556 0.003753647 0.199207366 0.033733845 0.111158714 -0.040171977 0.992417276
11254.666698 -0.094080426 0.012421946 0.203268647 0.021925382 0.093130127 -0.045102324 0.994390190
11254.703562 -0.093490854 0.018942121 0.199228585 0.008985355 0.074831188 -0.048122160 0.995993912
11254.740425 -0.098661616 0.026253287 0.202928528 -0.002430608 0.062424887 -0.049825829 0.996802211
11254.777289 -0.099529311 0.038810339 0.199079663 -0.011007727 0.046282299 -0.048972778 0.997666538
11254.814152 -0.100349285 0.049766917 0.198949113 -0.025662959 0.032998055 -0.050785873 0.997834325
11254.851015 -0.102993451 0.064891584 0.193149403 -0.039944284 0.023796771 -0.046493657 0.997835934
11254.887879 -0.103729516 0.072595514 0.186217174 -0.057395209 0.017450126 -0.032707285 0.997663021
11254.924742 -0.103924789 0.085333578 0.181243300 -0.068490028 0.014842104 -0.022336939 0.997291267
11254.961606 -0.104180746 0.100060835 0.172970012 -0.077732764 0.017227814 -0.016389571 0.996690631
11255.514556 -0.056803830 0.016315872 0.066098467 0.007739378 0.172966003 -0.069782250 0.982422173
11255.551419 -0.056008451 0.001910803 0.069106013 0.015356944 0.160145357 -0.072909288 0.984277308
11255.588283 -0.056870036 -0.010317102 0.079786785 0.022045746 0.145018414 -0.078653097 0.986051381
11255.625146 -0.053434860 -0.019303510 0.088973984 0.030119050 0.125060692 -0.084556833 0.988080382
11255.662009 -0.046226144 -0.029808884 0.099191368 0.037134517 0.101638533 -0.091597371 0.989899278
11255.698873 -0.042647734 -0.040838201 0.111991487 0.042578623 0.082893826 -0.097571157 0.990855992
11255.735736 -0.037381038 -0.050439481 0.125676796 0.048267856 0.065356478 -0.105278417 0.991118133
11255.772600 -0.030031983 -0.060985684 0.136445105 0.054611273 0.048559308 -0.109966561 0.991245151
11255.809463 -0.022497261 -0.072144620 0.150950268 0.059880398 0.034466058 -0.114948310 0.990965843
11255.846326 -0.016812418 -0.083774589 0.165542498 0.063850448 0.025429880 -0.117560007 0.990684688
11255.883190 -0.009414223 -0.095515959 0.179570436 0.069211952 0.017122841 -0.116946824 0.990575552
11255.920053 -0.002700669 -0.108379200 0.195330277 0.076443180 0.010569143 -0.115298793 0.990328670
11255.956917 -0.013561375 -0.127069235 0.199401617 0.084546536 0.004900227 -0.113693431 0.989899814
11255.993780 -0.009992406 -0.137550876 0.213267729 0.099591523 -0.004649664 -0.117091119 0.988104045
11256.030643 -0.006598241 -0.142404824 0.224567980 0.117580809 -0.015374850 -0.120356217 0.985623002
11256.067507 -0.064822987 -0.157766178 0.193186685 0.129969642 -0.017162461 -0.116951101 0.984446943
11256.104370 -0.048366122 -0.160461307 0.231848329 0.146969467 -0.029976813 -0.121420927 0.981202483
11256.141233 -0.046310827 -0.166195303 0.244579330 0.159715846 -0.039939154 -0.122622430 0.978702962
11256.178097 -0.035917819 -0.180853397 0.205421463 0.168277681 -0.048676912 -0.120656259 0.977115750
11256.214960 -0.024918551 -0.178661078 0.217195824 0.183428332 -0.059708837 -0.122675255 0.973519266
11256.251823 -0.011629991 -0.179644346 0.221524030 0.197509289 -0.069273464 -0.122421920 0.970156789
11256.288687 -0.053521648 -0.190449014 0.194531649 0.207167074 -0.069414295 -0.114202142 0.969134331
11256.325550 0.014525261 -0.187535286 0.202577949 0.223471865 -0.083334014 -0.115320720 0.964270175
11256.362414 0.000085507 -0.154211372 0.208180934 0.236931384 -0.081188940 -0.113057949 0.961503923
11256.399277 0.008446820 -0.142850384 0.215962976 0.241027787 -0.078559026 -0.111370884 0.960900962
11256.436140 -0.028883301 -0.120287195 0.197450370 0.237535596 -0.063845821 -0.102940157 0.963796616
11256.473004 -0.082659990 -0.077769436 0.120894350 0.228339046 -0.042079378 -0.088616364 0.968626738
11256.509867 -0.004835172 -0.142290652 0.187947363 0.215165779 -0.045417987 -0.096000768 0.970785618
11256.546731 -0.007549784 -0.139245138 0.186970785 0.206006616 -0.031686295 -0.095609397 0.973353028
11256.583594 -0.009609418 -0.137247145 0.184561163 0.197172463 -0.017244868 -0.092932291 0.975801826
11256.620457 -0.011429165 -0.129591286 0.181717888 0.188801289 -0.002832126 -0.090144701 0.977865040
11256.657320 -0.011018453 -0.118191704 0.171924233 0.177952155 0.011322496 -0.087896362 0.980040312
11256.694184 -0.015490123 -0.101490468 0.152852088 0.165679291 0.026671097 -0.084042743 0.982230008
11256.731047 -0.008779545 -0.113652676 0.159987107 0.151308075 0.037660338 -0.085580051 0.984054685
11256.767911 -0.017581057 -0.103592612 0.152390704 0.136627972 0.051094286 -0.080879234 0.985992253
11256.804774 -0.025459383 -0.090135515 0.143831998 0.122350261 0.063948177 -0.074330069 0.987631559
11256.841638 -0.036538500 -0.079891786 0.135881156 0.107735455 0.076865658 -0.066679321 0.988958359
11256.878501 -0.048731010 -0.065902181 0.127236739 0.096532404 0.089258656 -0.058484785 0.989592791
11256.915364 -0.062076338 -0.052804504 0.118508421 0.086720347 0.100493193 -0.047459222 0.990014255
11256.952228 -0.074126549 -0.040193155 0.111604281 0.079072461 0.109759919 -0.040799253 0.989967525
11256.989091 -0.084438175 -0.026917292 0.102228649 0.073682711 0.118027888 -0.032679234 0.989733458
11257.025954 -0.094129175 -0.016356744 0.090174846 0.066329218 0.126637295 -0.022795357 0.989466429
11257.062818 -0.104234092 -0.004719055 0.081220627 0.057891905 0.136654183 -0.018140560 0.988759398
11257.099681 -0.113187060 0.012788216 0.076107308 0.048245110 0.147067383 -0.015484988 0.987827837
11257.136544 -0.121397980 0.022046927 0.070775680 0.032273524 0.157566547 -0.007008514 0.986955941
11257.173408 -0.131021410 0.032478310 0.066423044 0.016980883 0.167998284 -0.004135253 0.985632360
11257.210271 -0.134894878 0.048625771 0.062152527 0.012112276 0.173799545 0.003085395 0.984701753
11257.247135 -0.142673135 0.056116540 0.061290205 0.007401663 0.181211516 0.012709742 0.983334184
11257.283998 -0.150493160 0.066944972 0.063107975 0.008261737 0.186898977 0.020334683 0.982133925
11257.320861 -0.157329559 0.076143816 0.067399457 0.008635050 0.189897597 0.027479365 0.981381297
11257.357725 -0.166621760 0.088239230 0.074080139 0.009285679 0.192139938 0.032880675 0.980772614
11257.394588 -0.172811210 0.094679698 0.083238572 0.003627660 0.190563947 0.036054388 0.981005788
11257.431452 -0.185234189 0.104195386 0.095624082 0.000277212 0.191299096 0.035744749 0.980880678
11257.468315 -0.191147670 0.099141560 0.106533624 -0.014589850 0.184396416 0.033213060 0.982182264
11257.505178 -0.201354936 0.103910394 0.122117475 -0.022951839 0.178523302 0.027457193 0.983284652
11257.542042 -0.208186194 0.109962940 0.135127023 -0.029987561 0.168268636 0.020667264 0.985068142
11257.578905 -0.216970608 0.117496282 0.151334703 -0.034312218 0.158499986 0.012671378 0.986681223
11257.615768 -0.225510269 0.123796500 0.166427583 -0.035811715 0.147385389 0.007576805 0.988401592
11257.652632 -0.236617714 0.131279200 0.183214694 -0.035880733 0.137530997 0.001820458 0.989845693
11257.689495 -0.246188343 0.138121128 0.197593108 -0.036476512 0.125631839 -0.006050153 0.991387665
11257.726358 -0.257118464 0.138944194 0.213122919 -0.038453657 0.114790507 -0.009322467 0.992601395
11257.763222 -0.269933552 0.139061049 0.229054511 -0.036905032 0.105036527 -0.014239861 0.993681312
11257.800085 -0.283297807 0.135473311 0.245230988 -0.034259409 0.095953256 -0.016124509 0.994665384
11257.836949 -0.296215177 0.131385893 0.259656340 -0.032258473 0.085346997 -0.020147536 0.995625079
11257.873812 -0.305654764 0.128421813 0.272647887 -0.027327269 0.073043570 -0.028166624 0.996556342
11257.910675 -0.313831836 0.121551506 0.287961811 -0.018436080 0.063456349 -0.031499572 0.997317016
11257.947539 -0.324232876 0.115151100 0.289810717 -0.007475672 0.053670671 -0.040670279 0.997702122
11257.984402 -0.329747021 0.110004157 0.301831186 0.002604552 0.045722354 -0.046804104 0.997853696
11258.021265 -0.338458121 0.107533209 0.311727405 0.013065494 0.040624931 -0.055796843 0.997529805
11258.058129 -0.347126186 0.092941761 0.302032530 0.019150736 0.036930181 -0.063290104 0.997127771
11258.094992 -0.350045055 0.080496162 0.301778406 0.027504785 0.034543380 -0.066217758 0.996827722
11258.131855 -0.358397186 0.082142875 0.302415311 0.037911668 0.036963608 -0.076837234 0.995636702
11258.168719 -0.364596784 0.077196218 0.294946402 0.042603333 0.039521374 -0.083907753 0.994777620
11258.205582 -0.370396137 0.077885441 0.292230844 0.045611907 0.045504522 -0.093037039 0.993575871
11258.242446 -0.389733940 0.069993705 0.261425674 0.047876395 0.055284765 -0.097800374 0.992515266
11258.279309 -0.384435713 0.067914315 0.263417959 0.056425858 0.061620891 -0.103547953 0.991108835
11258.574216 -0.376849771 0.007704191 0.265458763 0.124499135 0.048725341 -0.105111048 0.985432625
11258.758533 -0.372625411 -0.028532218 0.281221092 0.151404902 -0.000415277 -0.090066046 0.984359920
11258.795396 -0.328391790 -0.022079848 0.297919154 0.156831875 -0.014698117 -0.086439006 0.983725607
11258.832259 -0.326545566 -0.040352024 0.303722233 0.156641677 -0.021980681 -0.083903424 0.983839691
11258.869123 -0.310090154 -0.050011516 0.294723809 0.158728972 -0.028499592 -0.083463602 0.983375132
11258.905986 -0.305325836 -0.070396349 0.292677194 0.164210692 -0.032313999 -0.082717627 0.982419729
11258.942849 -0.294493198 -0.080337569 0.297017306 0.177981704 -0.037245966 -0.082696944 0.979845107
11258.979713 -0.279730767 -0.102311455 0.292659074 0.192122474 -0.041860100 -0.084771581 0.976806283
11259.016576 -0.274273247 -0.091584720 0.283194125 0.208837062 -0.043805152 -0.083329149 0.973408699
11259.053440 -0.204049885 -0.083876982 0.252896100 0.226107597 -0.053491548 -0.085830294 0.968838036
11259.090303 -0.196667403 -0.099931598 0.236736178 0.238118738 -0.054626808 -0.083256215 0.966117918
11259.127167 -0.161642075 -0.128504291 0.234485298 0.247995809 -0.061483242 -0.082092799 0.963316500
11259.164030 -0.156818435 -0.122926809 0.238108158 0.260785013 -0.064510085 -0.082077317 0.959735870
11259.200893 -0.146071658 -0.090659685 0.220767900 0.273741335 -0.066519290 -0.082174107 0.955975056
11259.237756 -0.136637077 -0.088399075 0.202106893 0.282995582 -0.069885381 -0.077674739 0.953412890
11259.274620 -0.136303887 -0.091165423 0.178134844 0.292974085 -0.071629889 -0.072358638 0.950683713
11261.080925 0.169684336 -0.070477590 0.225860268 -0.001590964 0.039130796 -0.063167430 0.997234225
11261.117789 0.161276296 -0.067033894 0.243549287 -0.010051105 0.030515183 -0.057435557 0.997832119
11261.154652 0.151250258 -0.064154133 0.258071423 -0.015564093 0.022321915 -0.054170523 0.998160839
11261.191515 0.142276257 -0.059824999 0.269570291 -0.017385898 0.010975275 -0.051055308 0.998484135
11261.228379 0.130743280 -0.058676593 0.281503886 -0.018946761 -0.000892309 -0.052497316 0.998440921
11261.265242 0.118584469 -0.058299825 0.289036900 -0.016662726 -0.013303320 -0.053235162 0.998354316
11261.302105 0.103584476 -0.057172641 0.295929521 -0.012172784 -0.023545925 -0.053858880 0.998196721
11261.338969 0.089300089 -0.056814611 0.296843261 -0.007029280 -0.031794641 -0.054751243 0.997968912
11261.375832 0.072962828 -0.057064306 0.299573332 -0.001086501 -0.038387731 -0.054538630 0.997772872
11261.412696 0.056831002 -0.054756042 0.298044831 0.008034725 -0.045299169 -0.058571145 0.997222543
11261.449559 0.040010095 -0.054620951 0.297728777 0.016480261 -0.049255878 -0.055257771 0.997120261
11261.486422 0.021934498 -0.050843183 0.294470698 0.026857669 -0.051757924 -0.059183776 0.996542573
11261.523286 0.005687091 -0.046954408 0.289242178 0.032253817 -0.052616548 -0.056875814 0.996471941
11261.560149 -0.010397376 -0.042328000 0.282872349 0.036102217 -0.050283588 -0.055748835 0.996524096
11261.597012 -0.027103981 -0.037380919 0.277364850 0.040441178 -0.044964507 -0.056900829 0.996546566
11261.633876 -0.043212019 -0.032591563 0.270485163 0.045217246 -0.035544153 -0.060882390 0.996486485
11261.670739 -0.057330232 -0.030944254 0.259387851 0.048071686 -0.023772411 -0.063332684 0.996550500
11261.707603 -0.070540614 -0.028384145 0.249824479 0.052127752 -0.009254138 -0.067441568 0.996317565
11261.744466 -0.083638221 -0.025349580 0.238490954 0.057872403 0.005620075 -0.068485729 0.995956242
11261.781329 -0.096117988 -0.021516932 0.225668550 0.064158872 0.016747367 -0.069168225 0.995398879
11261.818193 -0.108020455 -0.018008079 0.218766555 0.071667299 0.021752033 -0.066330492 0.994982898
11261.855056 -0.120648108 -0.011349119 0.211393341 0.079257265 0.021632174 -0.067411385 0.994337022
11261.891919 -0.131598353 -0.005379416 0.207526326 0.081266299 0.017887708 -0.069058709 0.994136155
11261.928783 -0.141531318 -0.001027260 0.208503440 0.078601383 0.012464903 -0.067580514 0.994534731
11261.965646 -0.153375179 0.006950308 0.208236843 0.075365327 0.006397243 -0.067145616 0.994872153
11262.002509 -0.162732154 0.012344182 0.210435763 0.070251636 -0.001602453 -0.062785216 0.995550215
11262.039373 -0.196847215 0.015924416 0.215284482 0.065373704 -0.008689001 -0.058049686 0.996133029
11262.076236 -0.182104722 0.029769350 0.219321296 0.062529095 -0.022294154 -0.060029119 0.995986760
11262.113100 -0.190502182 0.037729062 0.224432066 0.056092195 -0.034097411 -0.058194000 0.996144831
11262.149963 -0.194577873 0.043936346 0.232210308 0.049935844 -0.048421167 -0.056542754 0.995974243
11262.186826 -0.201671243 0.053921476 0.240827769 0.047354221 -0.061096016 -0.059018251 0.995259643
11262.223690 -0.203799680 0.059536934 0.248705804 0.042672876 -0.077035427 -0.059929695 0.994310319
11262.260553 -0.203915209 0.060569115 0.259759307 0.034647375 -0.092212409 -0.060377557 0.993303061
11262.297416 -0.203333259 0.060578670 0.262702823 0.024953583 -0.105905719 -0.065026902 0.991933823
11262.334280 -0.196574554 0.056625091 0.277727455 0.014246654 -0.118957691 -0.068289392 0.990445673
11262.371143 -0.190387517 0.055351239 0.296584576 0.007002917 -0.130443692 -0.071117021 0.988876998
11262.408006 -0.203537062 0.066692889 0.295269102 0.004312145 -0.137987077 -0.074409179 0.987625539
11262.444870 -0.192981496 0.041594200 0.326196223 0.001409775 -0.150011703 -0.075342365 0.985808313
11262.481733 -0.160444587 0.039206017 0.329041302 0.005903613 -0.162623540 -0.076043293 0.983735859
11262.518597 -0.159779489 0.040580824 0.325991422 0.012724957 -0.169883400 -0.076987416 0.982369900
11262.555460 -0.159487829 0.000156726 0.348394781 0.019150771 -0.179712012 -0.082617246 0.980056763
11262.592323 -0.157950282 -0.011795852 0.360023916 0.027837541 -0.189774498 -0.086306252 0.977630794
11262.629187 -0.125724018 -0.014249157 0.351267934 0.033234239 -0.199801430 -0.092655487 0.974879384
11262.666050 -0.114295386 -0.031187586 0.353387266 0.034828272 -0.206433088 -0.095754683 0.973141015
11262.702913 -0.087277666 -0.036547352 0.349598706 0.035456080 -0.212020293 -0.099533103 0.971536636
11262.739777 -0.064573325 -0.038378589 0.339770257 0.033696312 -0.212867916 -0.100531377 0.971311092
11262.776640 -0.045889035 -0.044862512 0.339877009 0.031847663 -0.210365757 -0.100844935 0.971885920
11262.813504 -0.027682990 -0.048883356 0.331234396 0.030454064 -0.204104394 -0.103565499 0.972979009
11262.850367 -0.014119424 -0.053650770 0.328352213 0.030156335 -0.196229458 -0.102543652 0.974715054
11262.887230 0.004079983 -0.058606792 0.331254303 0.030917564 -0.189370170 -0.100268155 0.976283431
11262.924093 0.018982291 -0.062736899 0.322125971 0.033419356 -0.181084320 -0.102319933 0.977559328
11262.960957 0.033225670 -0.067898855 0.311420292 0.034467880 -0.174475297 -0.101216577 0.978838861
11262.997820 0.046493366 -0.072395772 0.304124713 0.036225852 -0.167286843 -0.098024897 0.980353951
11263.034684 0.058703065 -0.075587206 0.295951813 0.039150566 -0.158748090 -0.093784750 0.982074678
11263.071547 0.070794657 -0.078574374 0.286847472 0.045205250 -0.148716047 -0.085885324 0.984105527
11263.108410 0.080437109 -0.079147935 0.274956048 0.056853045 -0.136000156 -0.077582225 0.986028731
11263.145274 0.089472830 -0.079737440 0.259227931 0.069903955 -0.122455142 -0.063793823 0.987951696
11263.182137 0.096715227 -0.079967409 0.245937496 0.082095943 -0.109398350 -0.051116064 0.989282250
11263.219001 0.102913633 -0.081334867 0.232087851 0.090943173 -0.099399731 -0.041795246 0.990001082
11263.255864 0.106648400 -0.082122475 0.219084173 0.095898487 -0.089418560 -0.032479860 0.990834475
11263.292727 0.108287133 -0.079919443 0.206929922 0.097758055 -0.078821898 -0.025975052 0.991743803
11263.329591 0.110082082 -0.077956378 0.192708582 0.095221624 -0.067709565 -0.015856491 0.993024111
11263.366454 0.109694548 -0.073177055 0.177165985 0.091314763 -0.055755213 -0.010068278 0.994208992
11263.403317 0.107767284 -0.066666409 0.163226381 0.085314743 -0.043600291 -0.005507132 0.995384395
11263.440181 0.102580301 -0.059636932 0.147868112 0.079100817 -0.031208435 -0.005669427 0.996361852
11263.477044 0.095036820 -0.052447774 0.136182100 0.074446321 -0.019980518 -0.007053344 0.996999860
11263.513907 0.085785262 -0.044737682 0.123558030 0.070533969 -0.007866655 -0.009286966 0.997435093
11263.550771 0.078788221 -0.036656283 0.114688329 0.065882854 0.004192525 -0.009025276 0.997777760
11263.587634 0.070801213 -0.028560150 0.103037179 0.060842741 0.019473093 -0.007163832 0.997931659
11263.624498 0.064378485 -0.022629350 0.093228415 0.056046721 0.035437841 -0.004130071 0.997790515
11263.661361 0.057395831 -0.018072043 0.083108306 0.053425897 0.052562136 -0.000860471 0.997187138
11263.698225 0.052325033 -0.014480766 0.070845574 0.050635729 0.069471821 0.001428185 0.996296942
11263.735088 0.050277233 -0.013864283 0.058994550 0.047555424 0.083275758 0.004386628 0.995381534
11263.771951 0.050017770 -0.015680049 0.051049564 0.047597822 0.094214402 0.007616812 0.994384289
11263.808815 0.045937508 -0.021710914 0.041287314 0.046144195 0.107830413 0.010497781 0.993042350
11263.845678 0.044436980 -0.027160618 0.034860633 0.041029435 0.117371157 0.013150433 0.992153049
11263.882541 0.040897071 -0.033200800 0.029374965 0.032914523 0.124203712 0.012523729 0.991631627
11263.919405 0.038049899 -0.041186888 0.024330202 0.027610652 0.126458839 0.012395293 0.991510034
11263.956268 0.034183569 -0.048540190 0.022727013 0.027977552 0.125122398 0.010944922 0.991686404
11263.993131 0.028943863 -0.055836402 0.022801537 0.029455554 0.121983752 0.009594035 0.992048562
11264.029995 0.024532264 -0.062978201 0.024070514 0.029289968 0.117334336 0.008689242 0.992622435
11264.066858 0.015739892 -0.070054032 0.027368201 0.030134402 0.115323186 0.007777363 0.992840350
11264.103722 0.008816705 -0.077965036 0.034314800 0.031501759 0.112385646 0.006310444 0.993145168
11264.140585 0.001340769 -0.085773319 0.038483832 0.033696335 0.111454479 0.003000969 0.993193567
11264.177448 -0.006513872 -0.092587240 0.046047464 0.039089747 0.111665823 -0.010167495 0.992924631
11264.214312 -0.014912694 -0.099127121 0.053007767 0.043714710 0.114623226 -0.026977533 0.992079973
11264.251175 -0.022196535 -0.102910280 0.059702910 0.047470726 0.119757704 -0.042838223 0.990741909
11264.288038 -0.030449137 -0.103974432 0.070492126 0.051274404 0.126740128 -0.058777839 0.988864481
11264.324902 -0.039412633 -0.104008794 0.079621032 0.056076963 0.134965137 -0.072368294 0.986611664
11264.361765 -0.047800377 -0.103034325 0.091542237 0.062036727 0.141798750 -0.082893103 0.984466016
11264.398628 -0.056793746 -0.101260312 0.104222052 0.068501644 0.145654187 -0.094090708 0.982465923
11264.435492 -0.065109611 -0.098452896 0.120845683 0.073356763 0.146451205 -0.102244258 0.981181383
11264.472355 -0.073541850 -0.096381918 0.134897962 0.072841547 0.144129887 -0.111126132 0.980597615
11264.509219 -0.081442878 -0.093089774 0.149936363 0.067988120 0.138876840 -0.113682836 0.981410742
11264.546082 -0.089666471 -0.089494683 0.166506425 0.061443031 0.131137922 -0.118678100 0.982315183
11264.582945 -0.097061321 -0.085461885 0.186647028 0.053661197 0.118244834 -0.124266915 0.983715594
11264.619809 -0.105338544 -0.080141135 0.207901627 0.047429774 0.103525765 -0.132888660 0.984567642
11264.656672 -0.115395233 -0.074150771 0.223889515 0.042116970 0.089445010 -0.140950426 0.985067904
11264.693536 -0.123097494 -0.068022467 0.239120036 0.033498902 0.075881444 -0.147888303 0.985519588
11264.730399 -0.131402329 -0.059584182 0.251969755 0.021955729 0.067077853 -0.145357952 0.986858428
11264.767262 -0.142681539 -0.047133133 0.261111587 0.009262220 0.063933179 -0.146200597 0.987143397
11264.804126 -0.150920957 -0.033967443 0.273008823 -0.003733890 0.062244680 -0.143837914 0.987634718
11264.840989 -0.158029914 -0.018579977 0.282486707 -0.013121095 0.061597362 -0.142644972 0.987768173
11264.877852 -0.166167974 -0.004054762 0.289784074 -0.020151973 0.063728683 -0.140075386 0.987882316
11264.914716 -0.174967766 0.011620972 0.295156717 -0.024401991 0.068186231 -0.137194768 0.987893105
11264.951579 -0.182996944 0.027062103 0.300903887 -0.026560070 0.074434973 -0.134526223 0.987753332
11264.988442 -0.188815981 0.041295424 0.304741502 -0.030672384 0.080169991 -0.130805641 0.987685084
11265.025306 -0.195783794 0.055299468 0.304868519 -0.036992520 0.088165447 -0.127144635 0.987265229
11265.062169 -0.204419285 0.067885354 0.305022418 -0.044321116 0.098862886 -0.122406289 0.986548722
11265.099033 -0.211669713 0.081005007 0.301456153 -0.050054226 0.108426377 -0.119418904 0.985635519
11265.135896 -0.219395846 0.094919026 0.295845628 -0.053853378 0.119245939 -0.117256396 0.984444559
11265.172759 -0.226570696 0.107780732 0.288262576 -0.054543756 0.131756619 -0.108055815 0.983864367
11265.209623 -0.238069206 0.119226851 0.278161198 -0.049306326 0.148382694 -0.093198448 0.983293176
11265.246486 -0.247056797 0.131246954 0.266810447 -0.037067320 0.162949204 -0.078372113 0.982818067
11265.283350 -0.261982322 0.136724249 0.254713476 -0.023560390 0.179695323 -0.058599498 0.981692731
11265.320213 -0.272609800 0.141141847 0.241601259 -0.008045057 0.192873031 -0.045764878 0.980122864
11265.357076 -0.281678557 0.140779749 0.227631316 0.006251812 0.203656107 -0.033180613 0.978460073
11265.393939 -0.290139616 0.136097282 0.213880882 0.021117508 0.212944746 -0.021951679 0.976589322
11265.430803 -0.300148129 0.137559950 0.200696602 0.040122606 0.222508281 -0.015071519 0.973988235
11265.467666 -0.308783948 0.134762004 0.185265779 0.051125236 0.229926154 -0.010625761 0.971806169
11265.504530 -0.316116303 0.134753838 0.171812400 0.064029768 0.235313773 -0.011786869 0.969736397
11265.541393 -0.323722869 0.130138844 0.158678517 0.074349284 0.239627451 -0.012885795 0.967928112
11265.578257 -0.330152601 0.125948548 0.146495879 0.087696061 0.242205143 -0.013958308 0.966152787
11265.615120 -0.333261073 0.124057874 0.135449722 0.104373209 0.242448464 -0.017667135 0.964371741
11265.651983 -0.337510914 0.120781183 0.125037655 0.119142361 0.243214697 -0.020648183 0.962406039
11265.688847 -0.342001647 0.113643587 0.114914879 0.130122200 0.243647248 -0.023333374 0.960812032
11265.725710 -0.342943668 0.111096635 0.105560720 0.141834795 0.242018014 -0.028292006 0.959432006
11265.762573 -0.340946168 0.110917270 0.095682375 0.153985411 0.239453316 -0.031358283 0.958106101
11265.799437 -0.337780714 0.104161419 0.087643757 0.162167460 0.237377986 -0.033884149 0.957186103
11265.836300 -0.332300961 0.099755712 0.080811337 0.170380026 0.234746024 -0.036699962 0.956304371
11265.873163 -0.324334085 0.095555380 0.075265281 0.178715557 0.231934652 -0.037105184 0.955452919
11265.910027 -0.314410180 0.090321034 0.068534672 0.184501037 0.228678018 -0.031212512 0.955348849
11265.946890 -0.301310837 0.085717671 0.061975367 0.189060032 0.224400252 -0.023156093 0.955701113
11265.983754 -0.283674121 0.080644593 0.053025745 0.190973446 0.217093945 -0.008513510 0.957249641
11266.020617 -0.266781241 0.072985753 0.049036495 0.188551366 0.210206613 0.004349912 0.959292769
11266.057480 -0.252190232 0.065838292 0.048452318 0.184569567 0.200743303 0.014927714 0.961984098
11266.094344 -0.234777480 0.058815032 0.051561121 0.178380474 0.183451965 0.024771225 0.966391325
11266.131207 -0.221903667 0.048577890 0.054736499 0.167084843 0.161431178 0.028264226 0.972226202
11266.168070 -0.216738492 0.045951054 0.060476363 0.158092827 0.138517722 0.025229780 0.977334619
11266.204934 -0.202567548 0.039990637 0.064376563 0.145199493 0.106285289 0.015695250 0.983551860
11266.241797 -0.190157190 0.035934824 0.070068650 0.133691758 0.075749688 0.006242556 0.988104045
11266.278660 -0.186471701 0.033588275 0.075530440 0.125849396 0.053548388 -0.004861761 0.990591168
11266.315524 -0.185215205 0.032609012 0.078848615 0.120035999 0.036275536 -0.016415162 0.991970778
11266.352387 -0.181053877 0.030704902 0.083270982 0.112941206 0.021249667 -0.026920954 0.993009567
11266.389251 -0.180658966 0.032729227 0.085860319 0.104559496 0.012678678 -0.034840159 0.993827343
11266.426114 -0.180474728 0.036474288 0.089421019 0.094852969 0.008381198 -0.039821796 0.994659185
11266.462977 -0.178377762 0.039150923 0.093036138 0.083437547 0.007705447 -0.037785329 0.995766580
11266.499841 -0.176826537 0.041943178 0.094480678 0.070638135 0.009957185 -0.034873236 0.996842504
11266.536704 -0.174819618 0.045974713 0.095899560 0.061771318 0.015413082 -0.036848057 0.997290790
11266.573567 -0.171923131 0.046449110 0.099589817 0.052877128 0.025422122 -0.035689779 0.997639179
11266.610431 -0.171564505 0.048221774 0.098267503 0.046240076 0.042015158 -0.033690576 0.997477591
11266.647294 -0.173011050 0.053890243 0.097891249 0.043511029 0.064873599 -0.030430976 0.996479869
11266.684157 -0.172260344 0.054218564 0.097497128 0.039628685 0.090338118 -0.020151988 0.994918346
11266.721021 -0.178285733 0.059474118 0.092819124 0.041086443 0.121528439 -0.011002486 0.991676211
11266.757884 -0.188241675 0.064565144 0.088656738 0.045332022 0.155241325 -0.001258361 0.986835122
11266.794748 -0.196011826 0.072946891 0.083582498 0.052636154 0.185017958 0.003395595 0.981318653
11266.831611 -0.207796350 0.080762856 0.081382558 0.062461138 0.213581964 0.005514048 0.974910736
11266.868474 -0.231377840 0.090094604 0.082807288 0.076591089 0.247976735 0.012846647 0.965648115
11266.905338 -0.248471558 0.090445541 0.082436591 0.085971303 0.274652749 0.017979750 0.957523644
11266.942201 -0.263115585 0.097299494 0.083614327 0.102481291 0.296531796 0.020959517 0.949277163
11266.979064 -0.281431496 0.098662473 0.086864837 0.117320955 0.318418920 0.020520102 0.940438271
11267.015928 -0.299728632 0.099902742 0.096483909 0.133156449 0.339125901 0.017169664 0.931111276
11267.052791 -0.319888920 0.101475403 0.106606327 0.148495644 0.356507629 0.013855320 0.922312021
11267.089654 -0.337770492 0.100318298 0.117831290 0.158037364 0.369048476 0.009301836 0.915827990
11267.126518 -0.354486823 0.103357404 0.133635432 0.163582772 0.378485233 0.005206580 0.911022782
11267.163381 -0.369018316 0.109051615 0.152586490 0.163866177 0.384778708 0.002978646 0.908341527
11267.200245 -0.379600942 0.116553858 0.170594200 0.161471725 0.386352122 -0.000047256 0.908107281
11267.237108 -0.392254174 0.126327902 0.196105897 0.160478845 0.391665488 -0.006344610 0.905982554
11267.273971 -0.402419180 0.136875421 0.224468663 0.163396969 0.398692757 -0.014699322 0.902291238
11267.310835 -0.412718117 0.148674890 0.250154585 0.169847950 0.407121599 -0.016556118 0.897290111
11267.347698 -0.425983310 0.158873811 0.279192984 0.177210033 0.421723694 -0.016056545 0.889093876
11267.384562 -0.436708063 0.163767993 0.312229335 0.184394360 0.440982997 -0.012944819 0.878273964
11267.421425 -0.447147369 0.164920896 0.339791119 0.188556343 0.462333769 -0.009486741 0.866374075
11267.458288 -0.456286937 0.167890996 0.367872089 0.195739165 0.486230880 -0.008197087 0.851585925
11267.495152 -0.463941038 0.168299660 0.393539637 0.203023791 0.511147678 -0.005470311 0.835152388
11267.532015 -0.484092861 0.166559219 0.423675984 0.207289889 0.545363247 -0.011388781 0.812083781
11267.568878 -0.490892053 0.165838003 0.450023890 0.217319787 0.566410005 -0.011601178 0.794869304
11267.605742 -0.497562289 0.160657570 0.480459988 0.220963791 0.586109936 -0.014187950 0.779390037
11267.642605 -0.500188351 0.157790646 0.509975076 0.221478999 0.600654364 -0.021975260 0.767905235
11267.679468 -0.489218712 0.158980712 0.537444592 0.224597752 0.604537189 -0.022514265 0.763926566
11267.716332 -0.489173234 0.161841929 0.570232391 0.220570236 0.615007341 -0.026657581 0.756573915
11267.753195 -0.490442604 0.168410406 0.602800608 0.216217965 0.622895658 -0.028271645 0.751299858
11267.790059 -0.489979088 0.174620867 0.635616779 0.211697400 0.627752364 -0.033228114 0.748336196
11267.826922 -0.487598270 0.184525773 0.671597660 0.214813218 0.631037593 -0.034616429 0.744612992
11267.863786 -0.490965515 0.194726095 0.705417871 0.222507909 0.635105908 -0.030495375 0.739053965
11267.900649 -0.491935879 0.201648995 0.740624607 0.228362679 0.642696083 -0.028710023 0.730731130
11267.937512 -0.490485191 0.204559997 0.773958206 0.230025008 0.654515147 -0.029152920 0.719616890
11267.974375 -0.494811773 0.208419025 0.804106593 0.232476637 0.670096874 -0.027834866 0.704379201
11268.011239 -0.501244605 0.210234120 0.833330333 0.241122752 0.689337909 -0.021651722 0.682791531
11268.048102 -0.509620309 0.209161207 0.863073468 0.252814472 0.712666988 -0.020013740 0.654056609
11268.084965 -0.513859391 0.200879335 0.900281072 0.269476235 0.743454397 -0.019548027 0.611781061
11268.121829 -0.522258461 0.197824165 0.923689127 0.281503528 0.767246246 -0.029915797 0.575494528
11268.158692 -0.529497623 0.192569286 0.951123238 0.291181594 0.791319728 -0.040458705 0.536087155
11268.195556 -0.532151461 0.191970199 0.985558152 0.305632114 0.811871171 -0.052893251 0.494627625
11268.232419 -0.538485646 0.189457104 1.015385389 0.315365672 0.825759530 -0.060533281 0.463682443
11268.269283 -0.531542301 0.186354771 1.044944525 0.317888021 0.837107897 -0.073674701 0.439055383
11268.306146 -0.522608876 0.184932649 1.074255466 0.325993061 0.840827167 -0.080696620 0.424530655
11268.343009 -0.509987950 0.183940649 1.103840947 0.328884542 0.841091931 -0.091495797 0.419556588
11268.379873 -0.481740892 0.178807735 1.120838404 0.324439436 0.841409028 -0.107065223 0.418696702
11268.416736 -0.463463217 0.176768512 1.147205830 0.327538759 0.839406073 -0.115299322 0.418117076
11268.453599 -0.447293401 0.175927669 1.174852014 0.329944849 0.840218127 -0.120978177 0.412957788
11268.490463 -0.436720014 0.178243458 1.206068754 0.333040804 0.842722774 -0.125034139 0.404065102
11268.527326 -0.427391231 0.178280741 1.239829302 0.339201391 0.845843792 -0.128375575 0.391165406
11268.564189 -0.412408710 0.173839152 1.265004992 0.348245323 0.850756705 -0.124918759 0.373274118
11268.601053 -0.396046847 0.170117021 1.290007591 0.353840560 0.859151185 -0.119798124 0.349720687
11268.637916 -0.380011797 0.165431470 1.314838767 0.355695873 0.869590104 -0.117694624 0.321623236
11268.674780 -0.364439070 0.158895522 1.339170218 0.352565110 0.881630719 -0.121445194 0.289268434
11268.711643 -0.363997102 0.167708427 1.374605536 0.364026815 0.884701192 -0.125346452 0.262824178
11268.748506 -0.347442269 0.160646975 1.397177339 0.361432552 0.894249678 -0.129447281 0.230059564
11268.785370 -0.314997017 0.140607029 1.402780414 0.349894196 0.906887591 -0.131969884 0.194198146
11268.822233 -0.292384654 0.137215614 1.426249504 0.343066812 0.915970445 -0.130696386 0.161931247
11268.859097 -0.262111187 0.131214350 1.444764614 0.337806076 0.922900319 -0.130868837 0.130442902
11268.895960 -0.229230970 0.128006458 1.464382648 0.337977797 0.926528275 -0.132438749 0.098875470
11268.932823 -0.195229545 0.124344796 1.485112071 0.338763416 0.928904176 -0.133701131 0.067084216
11268.969687 -0.161403984 0.115414619 1.498157740 0.339677364 0.930292130 -0.132635519 0.039795857
11269.006550 -0.133575559 0.103835911 1.515703321 0.335892677 0.933082819 -0.127724990 0.014794816
11269.043413 -0.105218530 0.091243193 1.532969356 0.336055189 0.933960319 -0.121190697 -0.009891244
11269.080277 -0.078203797 0.076265067 1.547433615 0.333864212 0.934541881 -0.118230969 -0.034461036
11269.117140 -0.053483635 0.061421454 1.562785983 0.331368625 0.934022069 -0.118439913 -0.061396718
11269.154003 -0.026771873 0.044293523 1.572585106 0.326298863 0.933201730 -0.118999466 -0.092210308
11269.190867 -0.000272363 0.029820323 1.579324722 0.320714116 0.931389451 -0.119292967 -0.124198429
11269.227730 0.029144228 0.019341052 1.581123233 0.315319180 0.928611100 -0.117888555 -0.156068906
11269.264594 0.061305046 0.009642705 1.582260489 0.308042943 0.925985634 -0.115369134 -0.185337916
11269.301457 0.096172988 0.005512394 1.579653978 0.302428186 0.922927678 -0.112743363 -0.209834829
11269.338320 0.132087767 0.003688686 1.570628643 0.299131066 0.919244111 -0.110501766 -0.230868429
11269.375184 0.169231951 0.003239363 1.564437985 0.296098322 0.915766656 -0.110313237 -0.248048916
11269.412047 0.204732239 0.003845759 1.547868252 0.293918669 0.911675036 -0.113912143 -0.263599157
11269.448910 0.236934841 0.004644997 1.531182885 0.294735879 0.907255113 -0.116201796 -0.276615381
11269.485774 0.269287229 0.002883796 1.511038661 0.296688467 0.902260542 -0.111349426 -0.292409211
11269.522637 0.300704658 -0.002552547 1.488738775 0.302749336 0.895771205 -0.099829741 -0.309791505
11269.559500 0.332510710 -0.011158090 1.465590239 0.309455425 0.887869298 -0.088705674 -0.328719914
11269.596364 0.356364787 -0.017880082 1.444390774 0.317879587 0.881464720 -0.081267640 -0.339658797
11269.633227 0.379346192 -0.027952909 1.418939829 0.315589875 0.877854586 -0.082779616 -0.350602150
11269.670091 0.400604844 -0.040131383 1.393783927 0.310060561 0.874783754 -0.085873172 -0.362272888
11269.706954 0.422812819 -0.052724667 1.368879199 0.308101356 0.870263457 -0.081029974 -0.375698298
11269.743817 0.447939277 -0.067086637 1.342794180 0.309846610 0.862236798 -0.070919305 -0.394351631
11269.780681 0.467182577 -0.081900403 1.317376375 0.309512049 0.855068564 -0.059872203 -0.411673814
11269.817544 0.485608876 -0.091426477 1.291893959 0.306703478 0.848002076 -0.055693500 -0.428629965
11269.854408 0.506364226 -0.100895852 1.265711188 0.301407218 0.840860248 -0.054377262 -0.446263224
11269.891271 0.529286444 -0.108573496 1.237650156 0.295797557 0.833644748 -0.057963032 -0.462796420
11269.928134 0.553780079 -0.115631983 1.210242629 0.293229401 0.825264275 -0.066000767 -0.478120625
11269.964998 0.578434467 -0.120590106 1.182386279 0.293436676 0.816166699 -0.075474106 -0.492006660
11270.001861 0.606630147 -0.127333999 1.153235912 -0.296097636 -0.805455089 0.083855994 0.506494284
11270.038724 0.629868567 -0.132529929 1.127506495 -0.304981887 -0.795857370 0.090349071 0.515202940
11270.075588 0.651283622 -0.138407990 1.100175858 -0.312818229 -0.786884546 0.095239252 0.523342073
11270.112451 0.671389699 -0.146173060 1.075443864 -0.325048625 -0.777033746 0.097474881 0.530151546
11270.149314 0.689939260 -0.154639229 1.050711393 -0.334204286 -0.765595794 0.099454075 0.540628850
11270.186178 0.704385042 -0.164703280 1.025808454 -0.336988539 -0.753218949 0.102289170 0.555550992
11270.223041 0.715635419 -0.175303355 0.997553885 -0.330652267 -0.738774002 0.101258516 0.578471065
11270.259904 0.724617958 -0.187173292 0.980082035 -0.326690704 -0.724453092 0.095464662 0.599439144
11270.296768 0.735781014 -0.195423186 0.953326941 -0.318221837 -0.706111312 0.088019751 0.626413763
11270.333631 0.747664988 -0.204117566 0.922260702 -0.305814207 -0.686543941 0.082930811 0.654413939
11270.370495 0.757484615 -0.206704810 0.891176462 -0.283548653 -0.673168957 0.082802676 0.677928746
11270.407358 0.770266652 -0.196746543 0.859670997 -0.256972194 -0.662883103 0.095678993 0.696704328
11270.444221 0.778851151 -0.194432065 0.824710071 -0.234237969 -0.650791883 0.103330560 0.714790404
11270.481085 0.785396218 -0.189850122 0.789517045 -0.217780769 -0.638619959 0.114158683 0.729180276
11270.517948 0.788671851 -0.183938548 0.754825532 -0.206781551 -0.627901614 0.121339679 0.740444183
11270.554811 0.791641831 -0.177734911 0.716946959 -0.200487286 -0.616712213 0.125298753 0.750846922
11270.591675 0.787032366 -0.171444386 0.679554880 -0.196490243 -0.606433153 0.125725478 0.760147035
11270.628538 0.780937195 -0.169061810 0.649786174 -0.200295553 -0.596389353 0.128323644 0.766638398
11270.665401 0.771277189 -0.167799667 0.616325140 -0.207172945 -0.582153797 0.130268067 0.775375068
11270.702265 0.758658528 -0.165236682 0.584390521 -0.212473661 -0.568234622 0.133720249 0.783634603
11270.739128 0.744674027 -0.166094676 0.557922721 -0.215375483 -0.555487931 0.135608613 0.791616619
11270.775992 0.730061889 -0.167900220 0.534604192 -0.215242028 -0.543152571 0.134692788 0.800321162
11270.812855 0.715652466 -0.172508895 0.510509610 -0.211001694 -0.529814422 0.131072149 0.810922325
11270.849718 0.701678991 -0.177151322 0.486368179 -0.205093071 -0.517252564 0.124154560 0.821566939
11270.886582 0.686896563 -0.181044996 0.463181317 -0.196735561 -0.507490873 0.114988856 0.830978751
11270.923445 0.672021806 -0.183740437 0.438253522 -0.186647177 -0.498427957 0.106917374 0.839822054
11270.960309 0.658139348 -0.184278756 0.411326349 -0.171671331 -0.490484655 0.099571094 0.848551333
11270.997172 0.643575788 -0.184395358 0.383511007 -0.152795404 -0.484511375 0.097774975 0.855770051
11271.034035 0.630608916 -0.182282344 0.349501848 -0.125299469 -0.479737639 0.095996551 0.863097072
11271.070899 0.614452004 -0.180722833 0.316678762 -0.103187554 -0.472913653 0.094850056 0.869889915
11271.107762 0.597553909 -0.180103555 0.287699997 -0.089892529 -0.463890880 0.091832317 0.876522303
11271.144625 0.582907438 -0.181333572 0.256059110 -0.083288349 -0.452946991 0.081046388 0.883930743
11271.181489 0.565303922 -0.185346052 0.228495702 -0.084551185 -0.439852208 0.067365192 0.891539693
11271.218352 0.543565810 -0.188098967 0.204904899 -0.082413144 -0.424680829 0.053640250 0.899987280
11271.255215 0.522436500 -0.192905277 0.180336937 -0.074293219 -0.406241864 0.046925295 0.909530699
11271.292079 0.502530515 -0.197532743 0.158120185 -0.062411606 -0.386363626 0.040793695 0.919327915
11271.328942 0.480262578 -0.200367674 0.141548172 -0.050888687 -0.366220504 0.031947773 0.928586125
11271.365806 0.457518697 -0.200443506 0.120582953 -0.039495837 -0.343221515 0.017415505 0.938262105
11271.402669 0.434021473 -0.198951453 0.102100015 -0.030175857 -0.318712533 -0.005724305 0.947353661
11271.439532 0.411135346 -0.194188505 0.084881619 -0.025686285 -0.293401212 -0.025100639 0.955314517
11271.476396 0.386672974 -0.184147209 0.073318377 -0.021692209 -0.267744631 -0.043047950 0.962283254
11271.513259 0.363824189 -0.171258464 0.060956143 -0.015197085 -0.241857052 -0.059820812 0.968346894
11271.550122 0.340407848 -0.159135476 0.052812405 -0.006783194 -0.219550386 -0.074810542 0.972704947
11271.586986 0.313558936 -0.141188607 0.042968266 0.006150742 -0.196657911 -0.083994463 0.976848364
11271.623849 0.286960900 -0.127766877 0.033050463 0.014901272 -0.177358806 -0.089783758 0.979928911
11271.660712 0.259654790 -0.115265027 0.028956961 0.019812457 -0.161609173 -0.091131464 0.982438266
11271.697576 0.231827125 -0.107484087 0.027159922 0.021865590 -0.148625389 -0.089548685 0.984587967
11271.734439 0.200697526 -0.100203447 0.026679954 0.020849740 -0.134184837 -0.086023502 0.986995280
11271.771303 0.171155393 -0.095096886 0.028675789 0.015963772 -0.120959483 -0.079547249 0.989336252
11271.808166 0.144411981 -0.091080822 0.026824098 0.013377133 -0.111201741 -0.072967947 0.991025150
11271.845029 0.116672873 -0.089008346 0.026863631 0.014831301 -0.104567058 -0.072066441 0.991792440
11271.881893 0.090340503 -0.088624761 0.028921470 0.019137559 -0.099497542 -0.072652370 0.992197394
11271.918756 0.062112179 -0.086406156 0.030156698 0.023722148 -0.093279906 -0.079334073 0.992190599
11271.955620 0.037592337 -0.085935086 0.029367844 0.023732711 -0.087095790 -0.086485989 0.992154837
11271.992483 0.014457718 -0.084480435 0.028692011 0.019583568 -0.078414693 -0.094591416 0.992229819
11272.029346 -0.005610656 -0.082747489 0.026467821 0.014114912 -0.072000116 -0.106452540 0.991607070
11272.066210 -0.027472347 -0.077418946 0.023486005 0.013335112 -0.061661549 -0.114329122 0.991437793
11272.103073 -0.056975562 -0.062947527 0.018349584 0.019482385 -0.045884814 -0.125186786 0.990880072
11272.139936 -0.079391092 -0.053612508 0.013033153 0.023641789 -0.033351511 -0.131906182 0.990418851
11272.176800 -0.100513473 -0.041152533 0.005372566 0.027048986 -0.020101398 -0.140773222 0.989468098
11272.213663 -0.123936161 -0.028057091 -0.002948195 0.033010229 -0.004638767 -0.149028346 0.988270879
11272.250526 -0.143718183 -0.017720325 -0.010504587 0.039426610 0.010683080 -0.151971266 0.987540483
11272.287390 -0.164334193 -0.008341977 -0.018879063 0.042575382 0.029386833 -0.151964605 0.987031162
11272.324253 -0.185271978 -0.001276112 -0.023602586 0.048038684 0.049714964 -0.146562308 0.986782730
11272.361117 -0.204523697 0.001651268 -0.028916072 0.052401684 0.070301645 -0.141360387 0.986067414
11272.397980 -0.224461183 0.001384781 -0.031756774 0.054115940 0.094490431 -0.133378714 0.985065043
11272.434844 -0.242668435 -0.000330780 -0.027079567 0.056615710 0.118583061 -0.130039886 0.982762635
11272.471707 -0.257051438 -0.003097073 -0.024137683 0.060773354 0.137910128 -0.127625778 0.980305612
11272.508570 -0.263566017 -0.007509199 -0.020842560 0.067260236 0.148624256 -0.128326938 0.978222370
11272.545434 -0.271553934 -0.005831856 -0.016451471 0.076640949 0.158230662 -0.129108265 0.975920200
11272.582297 -0.277847022 -0.005075229 -0.010782264 0.078950934 0.165575847 -0.131020188 0.974261284
11272.619160 -0.279573888 0.000489438 -0.005387947 0.076175041 0.169543311 -0.131546095 0.973728895
11272.656024 -0.279729009 0.005711224 0.001128003 0.070829317 0.169772670 -0.132576913 0.973952651
11272.692887 -0.277318627 0.008610821 0.008251987 0.064285658 0.165878847 -0.132687569 0.975061834
