11248.215609 0.0000080 -0.0000053 -0.0000129 0.0000061 0.0000281 -0.0000011 1.0000000
11248.363062 0.0368461 -0.0190109 -0.0003986 0.0083018 -0.0358815 0.0038331 0.9993142
11248.547379 0.0901110 -0.0398706 0.0258968 0.0271691 -0.0802699 -0.0005068 0.9964027
11248.731696 0.1723757 -0.0708383 0.0875667 0.0221644 -0.0909493 -0.0097852 0.9955608
11250.095641 -0.1331614 -0.0055852 0.1267123 0.0180445 -0.0341563 -0.0877226 0.9953957
11252.418033 -0.0968593 0.0343566 0.1332678 -0.0277938 0.0846466 -0.1527724 0.9842373
11252.602350 -0.0820538 0.0261676 0.1414997 -0.0250276 0.1690967 -0.1477353 0.9741428
11253.339617 -0.1837095 -0.0451868 0.3195250 0.1212145 -0.0561007 -0.1022470 0.9857512
11253.487071 -0.2124164 -0.0424891 0.3119836 0.1556412 -0.0727493 -0.1144785 0.9784570
11253.597661 -0.2473753 -0.0289358 0.3003827 0.1503555 -0.0512962 -0.1165967 0.9803913
11256.325550 0.0023285 -0.0784046 0.1917629 0.2395716 -0.0775361 -0.1175880 0.9606075
11256.362414 0.0003019 -0.0595870 0.2078668 0.2524468 -0.0784078 -0.1169965 0.9573060
11256.436140 0.0254440 -0.1223696 0.2150897 0.2404440 -0.0726592 -0.1119268 0.9614467
11256.473004 0.0340725 -0.1102810 0.2000858 0.2331540 -0.0624058 -0.1072606 0.9644895
11256.509867 0.0306590 -0.1197417 0.2015822 0.2211784 -0.0504025 -0.1042804 0.9683312
11256.546731 0.0166901 -0.1142622 0.1975102 0.2117144 -0.0349155 -0.1015696 0.9714121
11256.620457 0.0168164 -0.1068207 0.1953896 0.1949542 -0.0064857 -0.0971358 0.9759690
11256.804774 -0.0491259 -0.0110712 0.1469653 0.1325621 0.0676680 -0.0668527 0.9865997
11256.841638 -0.0589660 -0.0007065 0.1373239 0.1173241 0.0792825 -0.0570332 0.9882796
11256.878501 -0.0718753 0.0133443 0.1298134 0.1062230 0.0916337 -0.0490898 0.9888934
11256.915364 -0.0835507 0.0257756 0.1207042 0.0964282 0.1012480 -0.0370753 0.9894826
11256.989091 -0.1076359 0.0501219 0.1008662 0.0817076 0.1190329 -0.0193890 0.9893327
11257.136544 -0.1446698 0.0975520 0.0731159 0.0388502 0.1572860 0.0065738 0.9867667
11257.431452 -0.2072873 0.1718796 0.0968166 0.0022344 0.1881891 0.0471118 0.9809996
11257.615768 -0.2518317 0.2029041 0.1701490 -0.0238045 0.1464320 0.0147745 0.9888239
11257.726358 -0.2866377 0.2178523 0.2200555 -0.0257637 0.1164004 -0.0040344 0.9928600
11257.800085 -0.3132683 0.2132073 0.2551489 -0.0224050 0.0986653 -0.0116823 0.9947999
11257.836949 -0.3260553 0.2102176 0.2696198 -0.0203035 0.0882391 -0.0198489 0.9956946
11257.873812 -0.3366969 0.2067975 0.2826616 -0.0152485 0.0767646 -0.0276178 0.9965500
11257.910675 -0.3452191 0.2011520 0.2914508 -0.0074970 0.0650666 -0.0382039 0.9971212
11258.021265 -0.3734025 0.1767226 0.3002856 0.0216047 0.0439147 -0.0605912 0.9969621
11262.702913 -0.0690215 -0.0493127 0.3432416 0.0344818 -0.2137580 -0.1045143 0.9706674
11262.960957 0.0334222 -0.0674124 0.3129688 0.0348004 -0.1748805 -0.1031161 0.9785565
11262.997820 0.0464285 -0.0716488 0.3038428 0.0367570 -0.1677549 -0.1011675 0.9799349
11263.071547 0.0700512 -0.0773114 0.2851907 0.0463132 -0.1484929 -0.0903441 0.9836884
11263.145274 0.0898699 -0.0798800 0.2591300 0.0698793 -0.1237098 -0.0684741 0.9874837
11263.219001 0.1023275 -0.0804644 0.2332004 0.0917026 -0.1000487 -0.0452170 0.9897153
11263.292727 0.1072194 -0.0783789 0.2070012 0.0991922 -0.0791527 -0.0306675 0.9914410
11263.550771 0.0782819 -0.0359625 0.1121239 0.0665710 0.0043353 -0.0116335 0.9977044
11263.735088 0.0500925 -0.0120213 0.0574570 0.0488736 0.0829250 0.0033302 0.9953511
11263.993131 0.0293088 -0.0508017 0.0210604 0.0330815 0.1212106 0.0068600 0.9920517
11264.214312 -0.0154550 -0.0947949 0.0504967 0.0467560 0.1145334 -0.0271335 0.9919475
11264.472355 -0.0747506 -0.0913222 0.1290052 0.0765148 0.1439798 -0.1147341 0.9799242
11264.509219 -0.0818752 -0.0884177 0.1479961 0.0716606 0.1386791 -0.1171421 0.9807704
11264.693536 -0.1235598 -0.0631218 0.2371043 0.0368769 0.0760268 -0.1529433 0.9846159
11264.767262 -0.1423480 -0.0435618 0.2635269 0.0119128 0.0637862 -0.1491160 0.9866883
11264.804126 -0.1501129 -0.0304540 0.2739518 -0.0010958 0.0614225 -0.1470507 0.9872194
11264.877852 -0.1655152 0.0001137 0.2896779 -0.0167562 0.0631221 -0.1428793 0.9875831
11264.988442 -0.1912170 0.0506111 0.3040056 -0.0230974 0.0830204 -0.1343200 0.9871840
11265.135896 -0.2199610 0.0977065 0.2944327 -0.0506248 0.1199838 -0.1144130 0.9848607
11265.357076 -0.2764992 0.1452866 0.2259589 0.0094357 0.1997167 -0.0348651 0.9791877
11265.541393 -0.3214565 0.1351847 0.1562376 0.0772893 0.2373281 -0.0152860 0.9682294
11265.762573 -0.3416131 0.1188105 0.0915124 0.1590832 0.2377859 -0.0308699 0.9577043
11265.983754 -0.2836643 0.0862064 0.0540613 0.1937869 0.2163531 -0.0140940 0.9567860
11266.204934 -0.2016747 0.0459516 0.0693505 0.1491398 0.1057287 0.0116300 0.9830786
11266.389251 -0.1757556 0.0283647 0.1024217 0.1036832 0.0114292 -0.0310127 0.9940611
11266.647294 -0.1728556 0.0545750 0.1019470 0.0440772 0.0645621 -0.0307575 0.9964652
11266.905338 -0.2382206 0.0913387 0.0755810 0.0847999 0.2661044 0.0144448 0.9600983
11267.126518 -0.3536170 0.1126036 0.1267458 0.1689810 0.3755705 0.0047793 0.9112461
11267.347698 -0.4270210 0.1654643 0.2800626 0.1811114 0.4221949 -0.0186048 0.8880338
11267.532015 -0.4727604 0.1743974 0.4167783 0.2162167 0.5351628 -0.0065640 0.8165831
11267.826922 -0.4932097 0.1895911 0.6715042 0.2223203 0.6313034 -0.0297327 0.7423918
11267.900649 -0.4923887 0.2042771 0.7416281 0.2323407 0.6424381 -0.0273659 0.7297549
11267.974375 -0.5003969 0.2132887 0.8056652 0.2366303 0.6700568 -0.0275394 0.7030445
11268.084965 -0.5223094 0.2096807 0.8917729 0.2710093 0.7359515 -0.0223328 0.6200247
11268.121829 -0.5317746 0.2044332 0.9189718 0.2832218 0.7620258 -0.0304625 0.5815274
11268.158692 -0.5385225 0.1980798 0.9435799 0.2929883 0.7851534 -0.0408491 0.5440802
11268.195556 -0.5438477 0.1937719 0.9727412 0.3020413 0.8057906 -0.0528486 0.5066355
11268.232419 -0.5458571 0.1908570 1.0010922 0.3103399 0.8205187 -0.0631414 0.4758690
11268.269283 -0.5417477 0.1897609 1.0313220 0.3169149 0.8304191 -0.0737043 0.4522575
11268.379873 -0.5067652 0.1887366 1.1172395 0.3267366 0.8328840 -0.1052408 0.4341334
11268.416736 -0.4927399 0.1892097 1.1458250 0.3298117 0.8306891 -0.1137681 0.4338625
11268.453599 -0.4778140 0.1887997 1.1725070 0.3314650 0.8316115 -0.1194022 0.4292976
11268.490463 -0.4622754 0.1877758 1.1992426 0.3332228 0.8347197 -0.1242511 0.4204370
11268.527326 -0.4458449 0.1852545 1.2266791 0.3389772 0.8385263 -0.1288221 0.4066607
11268.564189 -0.4287808 0.1829565 1.2528889 0.3446723 0.8452286 -0.1289719 0.3874997
11268.601053 -0.4126315 0.1797738 1.2798785 0.3513673 0.8542094 -0.1235601 0.3627674
11268.637916 -0.3975793 0.1759636 1.3056580 0.3540299 0.8649817 -0.1212819 0.3343056
11268.711643 -0.3678223 0.1579005 1.3526313 0.3493751 0.8887217 -0.1279179 0.2678578
11268.748506 -0.3487400 0.1498166 1.3726703 0.3473925 0.8981355 -0.1323712 0.2348381
11268.895960 -0.2370612 0.1291679 1.4503102 0.3289732 0.9285159 -0.1360276 0.1055050
11268.932823 -0.2044840 0.1268638 1.4712452 0.3317464 0.9303705 -0.1371400 0.0744829
11268.969687 -0.1740662 0.1198407 1.4890512 0.3324406 0.9320440 -0.1362215 0.0471278
11269.006550 -0.1462875 0.1110043 1.5084609 0.3328768 0.9334574 -0.1317865 0.0219708
11269.043413 -0.1181523 0.0993952 1.5265536 0.3335629 0.9343290 -0.1255300 -0.0027069
11269.080277 -0.0921048 0.0854064 1.5412523 0.3317974 0.9349594 -0.1226836 -0.0266515
11269.117140 -0.0670026 0.0707334 1.5535517 0.3295817 0.9345508 -0.1231113 -0.0532392
11269.190867 -0.0155474 0.0437388 1.5780619 0.3206862 0.9318684 -0.1250241 -0.1146766
11269.227730 0.0140038 0.0332726 1.5832229 0.3140666 0.9297616 -0.1231811 -0.1474172
11269.264594 0.0470057 0.0239561 1.5843464 0.3067979 0.9273434 -0.1207958 -0.1769682
11269.301457 0.0808552 0.0189411 1.5814519 0.3012559 0.9245541 -0.1180357 -0.2012763
11269.338320 0.1167771 0.0166341 1.5757375 0.2979442 0.9211723 -0.1156071 -0.2220491
11269.375184 0.1544626 0.0174558 1.5672129 0.2951608 0.9176334 -0.1159075 -0.2395716
11269.412047 0.1904449 0.0178441 1.5517129 0.2929420 0.9137826 -0.1193476 -0.2548381
11269.448910 0.2226820 0.0181429 1.5346017 0.2928409 0.9096832 -0.1212356 -0.2683703
11269.485774 0.2541903 0.0175150 1.5137160 0.2968533 0.9042782 -0.1173107 -0.2835440
11269.559500 0.3140657 0.0044015 1.4721591 0.3112325 0.8908260 -0.0952446 -0.3170046
11269.633227 0.3661622 -0.0146985 1.4242452 0.3154163 0.8805169 -0.0885466 -0.3425813
11269.780681 0.4532701 -0.0681675 1.3243480 0.3084943 0.8592150 -0.0656656 -0.4028262
11270.001861 0.5981131 -0.1169478 1.1631360 0.2968435 0.8090209 -0.0890928 -0.4994313
11270.112451 0.6652708 -0.1359872 1.0859418 -0.3250728 -0.7809680 0.1023953 0.5233850
11270.259904 0.7209179 -0.1776805 0.9894196 -0.3259312 -0.7285203 0.0999584 0.5941678
11270.407358 0.7682264 -0.1908248 0.8572074 -0.2544563 -0.6613321 0.0984896 0.6987071
11270.517948 0.7860467 -0.1787286 0.7516040 -0.2037208 -0.6258363 0.1231143 0.7427447
11270.628538 0.7780898 -0.1641142 0.6455741 -0.1977126 -0.5935660 0.1309759 0.7690477
11270.739128 0.7386883 -0.1590772 0.5548488 -0.2122074 -0.5530971 0.1385107 0.7936412
11270.886582 0.6831870 -0.1763553 0.4599629 -0.1947511 -0.5043430 0.1182954 0.8328964
11270.997172 0.6352088 -0.1744456 0.3791619 -0.1454785 -0.4815702 0.0974692 0.8587351
11271.070899 0.6080117 -0.1758232 0.3115350 -0.1010731 -0.4688858 0.0977216 0.8719982
11271.144625 0.5749921 -0.1790396 0.2501905 -0.0833269 -0.4483342 0.0852613 0.8858801
11271.292079 0.4973627 -0.1905615 0.1580813 -0.0587778 -0.3841328 0.0431674 0.9203933
11271.402669 0.4325035 -0.1934121 0.0959881 -0.0282332 -0.3171836 -0.0001157 0.9479438
11271.476396 0.3867205 -0.1820000 0.0681155 -0.0215182 -0.2672999 -0.0379726 0.9626244
11271.586986 0.3097852 -0.1420301 0.0331938 0.0064753 -0.1937833 -0.0883605 0.9770356
11271.771303 0.1650119 -0.0894515 0.0165817 0.0202490 -0.1168396 -0.0884796 0.9889944
11272.066210 -0.0380111 -0.0661142 0.0172155 0.0189256 -0.0541011 -0.1226713 0.9907909
11272.619160 -0.2819193 0.0136646 -0.0065886 0.0823015 0.1720467 -0.1413302 0.9714176
