ply
format ascii 1.0
comment author: Gordon Liu
element vertex 938
property double x
property double y
property double z
property uchar red
property uchar green
property uchar blue
end_header
-0.17954 0.198257 0.637697 255 0 0
-0.109744 0.152917 0.447877 255 0 0
-0.108056 0.14927 0.432955 255 0 0
-0.113531 0.152455 0.454313 255 0 0
-0.144923 0.164976 0.452782 255 0 0
-0.116812 0.1792 0.459466 255 0 0
0.0335737 0.188449 0.501754 255 0 0
-0.149761 0.167858 0.472999 255 0 0
-0.148043 0.166149 0.464992 255 0 0
-0.149318 0.165674 0.465534 255 0 0
-0.104696 0.0694359 0.497783 255 0 0
0.0971645 0.046151 0.503234 255 0 0
-0.148329 0.0576003 0.498221 255 0 0
-0.157894 0.0548179 0.501911 255 0 0
-0.156864 0.0311704 0.507282 255 0 0
-0.10998 0.0317797 0.491354 255 0 0
-0.137572 0.0357412 0.501506 255 0 0
-0.182486 0.14322 0.4707 255 0 0
-0.18116 -0.0888161 0.544472 255 0 0
-0.1651 0.0902687 0.48398 255 0 0
-0.160471 0.0678638 0.512094 255 0 0
-0.169276 0.0714526 0.496845 255 0 0
-0.0926274 0.143603 0.469286 255 0 0
-0.0799291 0.12332 0.38326 255 0 0
-0.0840321 0.129562 0.409569 255 0 0
0.0758178 0.163249 0.458218 255 0 0
-0.10511 0.141009 0.478189 255 0 0
-0.182339 0.138349 0.46441 255 0 0
-0.00764735 0.222383 0.408131 255 0 0
-0.104006 0.136627 0.478535 255 0 0
-0.15053 0.123838 0.46654 255 0 0
-0.145669 0.120766 0.450098 255 0 0
-0.167352 0.13683 0.533471 255 0 0
0.0202929 0.147738 0.449911 255 0 0
-0.0684287 0.104821 0.378658 255 0 0
-0.0754539 0.0123344 0.514965 255 0 0
-0.0665509 0.0106451 0.517953 255 0 0
-0.110301 0.093133 0.493804 255 0 0
-0.136844 0.0870056 0.497536 255 0 0
-0.0342537 0.052044 0.53259 255 0 0
-0.0427455 0.0575785 0.505778 255 0 0
-0.0260544 0.0340754 0.526848 255 0 0
0.0045086 -0.0259393 0.550529 255 0 0
0.151637 0.0434158 0.516147 255 0 0
0.128787 0.114724 0.491968 255 0 0
0.120073 0.0968535 0.476501 255 0 0
0.0158324 -0.0471584 0.538672 255 0 0
-0.171001 0.0772012 0.493907 255 0 0
-0.211531 0.0727804 0.493164 255 0 0
-0.204616 0.0402205 0.492423 255 0 0
-0.136799 0.036079 0.497088 255 0 0
-0.180605 0.142344 0.467395 255 0 0
-0.17818 0.108581 0.471281 255 0 0
-0.0814556 -0.0758968 0.555906 255 0 0
-0.0666113 -0.0946936 0.533344 255 0 0
-0.172422 0.0262662 0.506963 255 0 0
-0.0674366 0.0931592 0.490647 255 0 0
0.0375547 0.052812 0.520029 255 0 0
0.0203245 0.0330369 0.534248 255 0 0
-0.14775 0.109736 0.476386 255 0 0
-0.160863 0.105603 0.48545 255 0 0
0.141825 0.0452261 0.484651 255 0 0
0.102637 -0.0546431 0.474463 255 0 0
0.133958 -0.0857252 0.561787 255 0 0
0.129692 -0.0749733 0.585833 255 0 0
-0.20165 -0.0482557 0.542496 255 0 0
0.0178699 -0.107469 0.612531 255 0 0
-0.138844 0.0890918 0.507225 255 0 0
-0.0954298 -0.0146641 0.531687 255 0 0
-0.109804 -0.0151333 0.525732 255 0 0
0.113943 -0.0717795 0.584439 255 0 0
-0.0394462 -0.0403536 0.530805 255 0 0
0.0972713 -0.0190226 0.52865 255 0 0
0.0978201 -0.0434192 0.534782 255 0 0
0.0790729 -0.0298357 0.532246 255 0 0
0.116884 -0.0157251 0.53787 255 0 0
-0.0501788 0.0292892 0.532969 255 0 0
0.15869 -0.0692382 0.547016 255 0 0
0.152049 -0.0810876 0.570295 255 0 0
-0.0309173 0.0476496 0.473702 255 0 0
-0.0454902 0.0660092 0.550047 255 0 0
-0.0233602 0.0312933 0.485339 255 0 0
0.000962174 0.108488 0.492112 255 0 0
-0.075623 0.0124224 0.51619 255 0 0
0.0264784 0.0291141 0.518022 255 0 0
0.0156893 -0.00364475 0.53125 255 0 0
0.00407893 -0.0255309 0.546766 255 0 0
-0.0109201 -0.020059 0.522752 255 0 0
0.095126 0.0453628 0.496411 255 0 0
0.0373703 0.107911 0.48189 255 0 0
0.016347 -0.0470649 0.543886 255 0 0
0.13232 0.0295818 0.527378 255 0 0
-0.10661 0.070407 0.508969 255 0 0
-0.171529 0.0708514 0.50546 255 0 0
-0.212918 0.0717909 0.496932 255 0 0
-0.136309 0.0363208 0.49354 255 0 0
-0.182972 0.147498 0.473569 255 0 0
-0.174609 0.102399 0.500874 255 0 0
-0.105272 0.139862 0.478721 255 0 0
-0.0816554 -0.0750951 0.555633 255 0 0
-0.173767 0.0256527 0.513192 255 0 0
0.088554 0.0255807 0.518504 255 0 0
-0.0591074 0.0796484 0.493194 255 0 0
-0.172587 0.0254222 0.511336 255 0 0
0.117395 -0.0151624 0.538857 255 0 0
0.122973 -0.0290762 0.554199 255 0 0
0.178062 -0.101625 0.795996 255 0 0
0.110049 -0.0548758 0.560512 255 0 0
0.093548 -0.0820349 0.564738 255 0 0
-0.0371165 -0.0219754 0.528766 255 0 0
0.12421 0.0817391 0.486863 255 0 0
-0.070964 -0.0215454 0.556411 255 0 0
-0.0731194 -0.0330083 0.540915 255 0 0
-0.116023 0.09425 0.490461 255 0 0
-0.134174 0.0867725 0.508898 255 0 0
-0.112483 0.0672119 0.502876 255 0 0
-0.0236187 0.0332213 0.486244 255 0 0
-0.0396099 0.0444591 0.519023 255 0 0
-0.0939226 0.131846 0.476197 255 0 0
-0.17313 0.0259955 0.509319 255 0 0
0.131578 0.0295986 0.524845 255 0 0
-0.0811502 0.158254 0.458533 255 0 0
-0.105236 0.140746 0.477671 255 0 0
-0.033618 -0.0059043 0.513807 255 0 0
0.0652056 -0.0140654 0.534725 255 0 0
0.156944 0.067348 0.507958 255 0 0
0.156309 0.0477249 0.528446 255 0 0
0.0965221 -0.0434219 0.571616 255 0 0
-0.0161526 -0.000663758 0.517949 255 0 0
0.113412 -0.0281632 0.54591 255 0 0
-0.0633701 0.0953039 0.40548 255 0 0
0.0961738 -0.0835991 0.577869 255 0 0
-0.106871 -0.014182 0.515738 255 0 0
-0.110135 0.0933219 0.492835 255 0 0
-0.133665 0.0875109 0.509811 255 0 0
-0.0568079 0.0276795 0.515742 255 0 0
-0.075557 0.0125216 0.515525 255 0 0
0.00314057 0.126241 0.503905 255 0 0
0.0271508 0.0307754 0.520089 255 0 0
0.0198045 0.0334614 0.5272 255 0 0
-0.199752 0.0224992 0.523317 255 0 0
-0.209316 -0.000666644 0.55354 255 0 0
0.0461851 -0.0408601 0.565935 255 0 0
-0.0803098 -0.0756249 0.551117 255 0 0
-0.173629 0.102977 0.498818 255 0 0
-0.111304 0.235562 0.420664 255 0 0
-0.111453 0.235668 0.420667 255 0 0
0.0165958 0.261176 0.414804 255 0 0
0.00704732 0.259668 0.41566 255 0 0
-0.116064 0.231948 0.422381 255 0 0
-0.115724 0.232271 0.422357 255 0 0
-0.0146457 0.25217 0.417418 255 0 0
-0.00754673 0.253618 0.417671 255 0 0
-0.0187382 0.249839 0.418666 255 0 0
-0.0187878 0.249505 0.418879 255 0 0
-0.0769941 0.234865 0.422819 255 0 0
-0.0783358 0.2357 0.423253 255 0 0
-0.0787595 0.235378 0.423481 255 0 0
-0.0785416 0.235225 0.423477 255 0 0
0.039641 0.258684 0.417901 255 0 0
0.0277958 0.211513 0.453233 255 0 0
-0.116322 0.223485 0.427059 255 0 0
-0.11777 0.222461 0.427152 255 0 0
-0.117705 0.222089 0.427161 255 0 0
-0.117637 0.223021 0.42713 255 0 0
-0.0127944 0.226353 0.423335 255 0 0
-0.0126648 0.226375 0.423328 255 0 0
-0.0992028 0.221914 0.427573 255 0 0
-0.11256 0.2204 0.428193 255 0 0
-0.0793776 0.219825 0.427187 255 0 0
-0.133855 0.20396 0.43121 255 0 0
-0.0473206 0.228275 0.42696 255 0 0
0.0593241 0.249704 0.422139 255 0 0
0.0594365 0.249386 0.422344 255 0 0
-0.0485199 0.228063 0.42802 255 0 0
-0.0483974 0.228471 0.428003 255 0 0
-0.0492206 0.227864 0.428056 255 0 0
-0.0500805 0.228058 0.428288 255 0 0
-0.0522924 0.225584 0.42926 255 0 0
-0.00988527 0.225132 0.428259 255 0 0
-0.0199912 0.225454 0.428882 255 0 0
-0.118457 0.179983 0.46576 255 0 0
-0.120252 0.178176 0.472119 255 0 0
-0.0733536 0.165542 0.432272 255 0 0
-0.0753586 0.173575 0.458423 255 0 0
-0.0773956 0.173996 0.466001 255 0 0
0.0232295 0.172448 0.416842 255 0 0
-0.0801176 0.164048 0.465172 255 0 0
-0.148085 0.158443 0.456207 255 0 0
-0.0820929 0.169666 0.48656 255 0 0
0.0237544 0.172081 0.425194 255 0 0
-0.0781594 0.148877 0.430417 255 0 0
0.0884553 0.187675 0.466762 255 0 0
-0.00848587 0.222615 0.406162 255 0 0
0.0157813 0.216924 0.48529 255 0 0
-0.135442 0.179704 0.45727 255 0 0
0.021862 0.244577 0.568899 255 0 0
-0.210219 -0.0462862 0.566494 255 0 0
-0.0695084 -0.0985054 0.556654 255 0 0
-0.0605708 0.100338 0.51437 255 0 0
-0.0661358 0.0917966 0.481379 255 0 0
-0.0575798 0.0794447 0.486046 255 0 0
-0.00601121 -0.0946818 0.565735 255 0 0
0.157994 -0.0840884 0.590221 255 0 0
0.150039 0.0239286 0.545548 255 0 0
-0.0852821 0.152087 0.464699 255 0 0
-0.0837809 0.147472 0.447093 255 0 0
0.078761 0.167472 0.46222 255 0 0
-0.181815 0.142666 0.467981 255 0 0
-0.114943 0.152079 0.485149 255 0 0
-0.142733 0.146727 0.482042 255 0 0
-0.166755 0.185497 0.533194 255 0 0
-0.146806 0.161946 0.455915 255 0 0
0.0256869 0.174565 0.437166 255 0 0
0.0258329 0.174314 0.435657 255 0 0
-0.148585 0.160932 0.459883 255 0 0
0.023645 0.167632 0.417472 255 0 0
0.073321 0.165995 0.411551 255 0 0
-0.10908 0.152263 0.445276 255 0 0
0.0844415 0.180334 0.459107 255 0 0
-0.0819492 0.161361 0.467288 255 0 0
0.137763 -0.0871086 0.5754 255 0 0
0.134281 -0.0784921 0.601758 255 0 0
-0.00415084 -0.0271892 0.540192 255 0 0
-0.0106945 -0.0194759 0.528078 255 0 0
-0.0323391 0.0495594 0.499141 255 0 0
-0.0515454 0.0691993 0.598304 255 0 0
-0.0255922 0.0340466 0.527085 255 0 0
0.0101493 0.0861094 0.47209 255 0 0
-0.157846 0.104283 0.474672 255 0 0
-0.189916 0.0482817 0.50033 255 0 0
-0.188035 0.0358704 0.528904 255 0 0
0.113066 0.0462631 0.503438 255 0 0
0.0951279 0.0449402 0.496956 255 0 0
-0.00549509 -0.0971655 0.578522 255 0 0
-0.153587 0.0593186 0.519347 255 0 0
-0.157177 0.0548888 0.499396 255 0 0
-0.136094 0.154173 0.4617 255 0 0
0.101184 0.0964931 0.475851 255 0 0
-0.100422 0.0527787 0.503234 255 0 0
0.0806268 -0.0317528 0.544726 255 0 0
0.0869077 0.026025 0.51193 255 0 0
-0.166739 -0.106867 0.55599 255 0 0
-0.185561 -0.0991832 0.592745 255 0 0
-0.178248 -0.120513 0.600885 255 0 0
-0.16506 0.090074 0.483958 255 0 0
-0.0504822 0.0287768 0.544674 255 0 0
0.107462 -0.0521741 0.549705 255 0 0
0.113209 -0.0719908 0.581063 255 0 0
0.095715 -0.0832691 0.575887 255 0 0
0.152193 -0.0807896 0.569055 255 0 0
-0.195985 -0.0469272 0.525141 255 0 0
-0.102748 0.084928 0.487244 255 0 0
-0.103618 0.0687978 0.491066 255 0 0
0.128381 -0.0678961 0.588471 255 0 0
0.130229 -0.0823836 0.545614 255 0 0
0.100343 -0.0209177 0.542997 255 0 0
-0.0628582 0.0139783 0.535213 255 0 0
0.0271147 0.0285457 0.519905 255 0 0
0.0215805 0.0154801 0.522549 255 0 0
0.183645 -0.0682529 0.602508 255 0 0
0.158165 -0.0843415 0.590338 255 0 0
-0.0109475 -0.0222626 0.536837 255 0 0
0.00381075 -0.0245746 0.55179 255 0 0
0.131053 0.0386251 0.491606 255 0 0
0.122663 0.0981933 0.485418 255 0 0
0.0531906 0.0697874 0.506928 255 0 0
0.021191 0.0323466 0.542729 255 0 0
0.119675 0.0425159 0.509351 255 0 0
0.0937869 0.0446438 0.484634 255 0 0
0.0625242 0.100812 0.47791 255 0 0
0.104491 0.0984194 0.489475 255 0 0
0.137417 0.0125955 0.53083 255 0 0
0.0122613 -0.0559879 0.588852 255 0 0
0.0668499 -0.0159049 0.540331 255 0 0
0.133188 0.0301631 0.527952 255 0 0
-0.0942661 0.130525 0.478531 255 0 0
-0.0606657 0.099388 0.506387 255 0 0
-0.164849 0.0908418 0.48257 255 0 0
-0.235429 0.0436514 0.664035 255 0 0
-0.208111 0.0402975 0.499667 255 0 0
-0.157584 0.0673878 0.500003 255 0 0
-0.109536 0.0317131 0.494035 255 0 0
-0.14735 0.0567624 0.498735 255 0 0
-0.181774 0.142804 0.470025 255 0 0
-0.172978 0.101358 0.495843 255 0 0
-0.156908 0.0964663 0.487112 255 0 0
-0.0809182 -0.0726072 0.545959 255 0 0
-0.216394 0.0278388 0.508091 255 0 0
0.10966 0.0706287 0.491189 255 0 0
0.0265873 0.0280327 0.521846 255 0 0
0.0274677 0.00368869 0.494157 255 0 0
0.0158064 -0.00293906 0.527223 255 0 0
0.112127 -0.0688171 0.576182 255 0 0
-0.0963102 -0.0137561 0.529001 255 0 0
-0.095531 -0.0241491 0.524735 255 0 0
0.00339066 -0.0246836 0.545783 255 0 0
-0.0133146 -0.03072 0.433662 255 0 0
-0.0494889 0.0283664 0.514764 255 0 0
0.15588 -0.0816126 0.582202 255 0 0
-0.0348459 -0.00868859 0.524781 255 0 0
-0.0382207 -0.0239167 0.524826 255 0 0
0.115575 0.0330348 0.436063 255 0 0
0.120946 0.0977174 0.481282 255 0 0
0.0216661 0.034307 0.545384 255 0 0
0.0486383 0.131117 0.480655 255 0 0
0.13408 0.0303082 0.533662 255 0 0
0.0966631 -0.0492299 0.561759 255 0 0
0.0962361 -0.086816 0.588857 255 0 0
0.0672438 -0.0163848 0.543846 255 0 0
0.118424 -0.0151552 0.544998 255 0 0
0.0972627 -0.0210974 0.531134 255 0 0
-0.111172 0.0731229 0.53882 255 0 0
-0.105146 0.0399502 0.560005 255 0 0
-0.0931032 0.143989 0.466561 255 0 0
-0.170466 0.0695868 0.501694 255 0 0
-0.221985 0.0713205 0.521355 255 0 0
-0.195136 0.0486895 0.518483 255 0 0
-0.132395 0.0854418 0.50221 255 0 0
-0.172065 0.100556 0.492872 255 0 0
-0.144712 0.152422 0.490804 255 0 0
-0.0828375 -0.0743423 0.558451 255 0 0
-0.0859868 -0.0759862 0.557705 255 0 0
-0.0894216 0.023727 0.543888 255 0 0
-0.0592959 -0.0285841 0.542183 255 0 0
0.0408974 0.0173412 0.424158 255 0 0
0.152328 -0.0571875 0.549199 255 0 0
-0.133643 -0.00496234 0.507067 255 0 0
-0.196118 0.0140265 0.536514 255 0 0
-0.197357 0.0211976 0.513689 255 0 0
0.0260581 0.0867184 0.470977 255 0 0
0.142514 0.0137508 0.545629 255 0 0
-0.0955707 0.131892 0.487201 255 0 0
-0.0701618 0.0927174 0.494163 255 0 0
-0.102553 0.0926043 0.493034 255 0 0
-0.0824794 -0.071647 0.552425 255 0 0
-0.0498545 0.0803883 0.486529 255 0 0
-0.210932 0.0401717 0.506412 255 0 0
-0.104505 0.139309 0.47753 255 0 0
-0.145539 0.149734 0.49328 255 0 0
-0.026549 0.0358277 0.527428 255 0 0
-0.181564 0.141542 0.467754 255 0 0
-0.17771 0.107795 0.470474 255 0 0
0.116236 0.0407188 0.500982 255 0 0
0.132499 0.0307432 0.526523 255 0 0
0.0457716 -0.0808865 0.548284 255 0 0
0.0989055 -0.0496238 0.574752 255 0 0
-0.132774 0.085707 0.508444 255 0 0
-0.158443 0.0678149 0.505317 255 0 0
-0.146806 0.0556827 0.499417 255 0 0
0.0782191 0.0166004 0.501019 255 0 0
0.119433 -0.0145686 0.547302 255 0 0
0.0968642 -0.0217428 0.529273 255 0 0
-0.0912681 0.0237878 0.546219 255 0 0
-0.057251 -0.0258241 0.532977 255 0 0
-0.097391 -0.0150392 0.535729 255 0 0
0.0684266 -0.0184836 0.544463 255 0 0
0.00213709 -0.0228262 0.544382 255 0 0
-0.0363979 -0.0101473 0.526716 255 0 0
-0.203445 -0.099651 0.609756 255 0 0
0.124732 0.0986238 0.493407 255 0 0
0.104853 0.101019 0.498871 255 0 0
-0.117826 0.0956343 0.494061 255 0 0
-0.13204 0.098117 0.498976 255 0 0
-0.161067 0.0525422 0.512236 255 0 0
-0.160977 0.0404507 0.426479 255 0 0
-0.183127 0.13876 0.469388 255 0 0
-0.166461 0.0978735 0.481338 255 0 0
-0.033611 0.0469663 0.498248 255 0 0
0.114627 0.0396586 0.50128 255 0 0
-0.0482701 0.0781779 0.478289 255 0 0
-0.101372 0.0390734 0.530531 255 0 0
0.0214969 -0.0517213 0.576175 255 0 0
0.148633 0.0442225 0.502131 255 0 0
0.128898 0.0319258 0.50468 255 0 0
-0.100968 0.0685058 0.489416 255 0 0
0.362053 -0.146215 1.25102 255 0 0
0.0762589 0.0143438 0.493041 255 0 0
0.0981746 -0.0103859 0.542602 255 0 0
0.103992 -0.0505089 0.599841 255 0 0
0.0218543 0.016009 0.522134 255 0 0
0.009987 0.0135649 0.553646 255 0 0
-0.0445929 0.00474003 0.514874 255 0 0
-0.037934 -0.0111577 0.529026 255 0 0
-0.0879797 0.0106698 0.528046 255 0 0
-0.0566927 -0.00632335 0.605245 255 0 0
-0.190758 0.0128251 0.522809 255 0 0
-0.0010398 0.108715 0.495618 255 0 0
-0.0936018 0.128692 0.480093 255 0 0
0.0263305 0.0362246 0.503776 255 0 0
-0.0945791 0.125863 0.481647 255 0 0
-0.133951 0.102096 0.427995 255 0 0
-0.161323 0.0950458 0.470107 255 0 0
-0.160162 0.0703087 0.508621 255 0 0
-0.158696 0.0518406 0.50237 255 0 0
-0.205468 0.0511743 0.54693 255 0 0
0.00144828 -0.0318716 0.477669 255 0 0
0.124411 0.0803305 0.487845 255 0 0
0.150489 0.0456904 0.503409 255 0 0
0.156798 -0.0546434 0.522429 255 0 0
-0.106186 0.0703861 0.521403 255 0 0
0.23131 -0.104822 1.03034 255 0 0
0.0990914 -0.0448947 0.571203 255 0 0
0.0886611 0.0223227 0.605719 255 0 0
0.0678443 -0.0213448 0.530644 255 0 0
0.0164942 -0.000187518 0.516206 255 0 0
0.0019248 -0.00164994 0.525743 255 0 0
-0.0651496 0.00433487 0.943257 255 0 0
-0.0399438 -0.0146977 0.542943 255 0 0
-0.0630261 0.00269593 0.533232 255 0 0
-0.0844206 -0.0271712 0.507499 255 0 0
-0.158289 -0.0144414 0.623887 255 0 0
-0.0723797 0.0945109 0.505237 255 0 0
-0.0460259 0.076685 0.468281 255 0 0
0.101275 0.100864 0.487281 255 0 0
0.116764 0.0402137 0.516686 255 0 0
0.0257545 0.0365364 0.486993 255 0 0
-0.137605 0.187711 0.475241 255 0 0
-0.159678 0.16831 0.453026 255 0 0
-0.147568 0.175358 0.472167 255 0 0
-0.136868 0.169285 0.453105 255 0 0
-0.164177 0.164649 0.461928 255 0 0
-0.159169 0.165246 0.454062 255 0 0
-0.115635 0.168719 0.431213 255 0 0
-0.141007 0.159945 0.433521 255 0 0
-0.0750091 0.16234 0.424362 255 0 0
-0.117917 0.220622 0.430951 255 0 0
-0.0674538 0.227769 0.430734 255 0 0
-0.0383528 0.229178 0.429693 255 0 0
-0.0381926 0.229008 0.429889 255 0 0
-0.0477495 0.243021 0.472431 255 0 0
0.0243658 0.202689 0.427933 255 0 0
0.0245187 0.202671 0.427927 255 0 0
-0.129868 0.215204 0.449097 255 0 0
-0.137253 0.227706 0.494263 255 0 0
-0.139242 0.230138 0.504036 255 0 0
0.0596745 0.208102 0.354776 255 0 0
-0.0551987 0.211044 0.437937 255 0 0
0.0548944 0.199373 0.334128 255 0 0
-0.141028 0.19413 0.442391 255 0 0
0.0777511 0.233215 0.432708 255 0 0
0.0371067 0.403406 0.993301 255 0 0
-0.0584521 0.203739 0.436921 255 0 0
-0.0646295 0.193171 0.443661 255 0 0
0.010444 0.209533 0.441002 255 0 0
0.0106116 0.20948 0.441195 255 0 0
-0.164386 0.175117 0.449291 255 0 0
-0.165458 0.172687 0.449579 255 0 0
0.0289828 0.265624 0.629551 255 0 0
-0.0676522 0.192384 0.455926 255 0 0
-0.131674 0.18084 0.448857 255 0 0
0.0164299 0.218003 0.480837 255 0 0
0.0287081 0.257632 0.609564 255 0 0
-0.133592 0.178239 0.449383 255 0 0
0.0898704 0.216245 0.439311 255 0 0
-0.0704571 0.180257 0.446941 255 0 0
-0.0700184 0.19399 0.476002 255 0 0
-0.114819 0.17777 0.446907 255 0 0
0.0476405 0.313882 0.804843 255 0 0
0.0132791 0.206421 0.450645 255 0 0
-0.115104 0.177567 0.447683 255 0 0
0.082958 0.215391 0.442022 255 0 0
-0.0493094 0.219023 0.430734 255 0 0
0.0646802 0.245287 0.425049 255 0 0
0.0673546 0.242122 0.425632 255 0 0
0.0660635 0.24319 0.425655 255 0 0
-0.138977 0.19841 0.43581 255 0 0
-0.0528877 0.21267 0.432284 255 0 0
-0.00556156 0.225185 0.430277 255 0 0
-0.140642 0.197061 0.436925 255 0 0
-0.140288 0.197179 0.437106 255 0 0
-0.151188 0.193212 0.438097 255 0 0
0.0700439 0.239447 0.427602 255 0 0
0.074322 0.239602 0.427413 255 0 0
-0.085286 0.200097 0.435859 255 0 0
-0.085361 0.199788 0.436072 255 0 0
0.074188 0.237355 0.428289 255 0 0
-0.0868508 0.200034 0.441732 255 0 0
-0.086285 0.199375 0.436525 255 0 0
-0.156732 0.186901 0.440531 255 0 0
-0.156696 0.187424 0.440715 255 0 0
-0.156283 0.184824 0.440976 255 0 0
0.0758044 0.234502 0.430711 255 0 0
0.0763205 0.233804 0.43071 255 0 0
0.0768711 0.233899 0.430683 255 0 0
0.0806178 0.231855 0.431185 255 0 0
-0.165108 0.170182 0.444004 255 0 0
0.082646 0.230215 0.431549 255 0 0
0.0827791 0.230238 0.431542 255 0 0
0.0829222 0.231677 0.431492 255 0 0
0.0821218 0.230998 0.431547 255 0 0
0.00175181 0.214886 0.43569 255 0 0
0.0826039 0.227626 0.43223 255 0 0
-0.091991 0.195188 0.440706 255 0 0
0.0767369 0.229474 0.433429 255 0 0
-0.165301 0.170482 0.446008 255 0 0
-0.135197 0.175595 0.446964 255 0 0
-0.120942 0.225538 0.586086 255 0 0
0.0686324 0.242242 0.427925 255 0 0
-0.0166135 0.226695 0.431826 255 0 0
-0.0514734 0.215761 0.433894 255 0 0
-0.00606516 0.226739 0.43298 255 0 0
-0.00388044 0.241982 0.478094 255 0 0
-0.0529217 0.214674 0.435375 255 0 0
0.0735406 0.238953 0.429779 255 0 0
-0.138891 0.200561 0.439991 255 0 0
0.0746408 0.23903 0.429931 255 0 0
-0.139272 0.198821 0.439833 255 0 0
0.0785985 0.24416 0.442507 255 0 0
-0.139919 0.1985 0.439865 255 0 0
-0.13997 0.198303 0.439871 255 0 0
-0.0532514 0.213409 0.436212 255 0 0
-0.142092 0.203584 0.453894 255 0 0
-0.1423 0.203955 0.45555 255 0 0
-0.00466056 0.222096 0.434407 255 0 0
-0.00588924 0.222417 0.434453 255 0 0
-0.145114 0.207596 0.470713 255 0 0
-0.00765047 0.22112 0.435152 255 0 0
-0.0887305 0.202473 0.451144 255 0 0
-0.0644412 0.186048 0.427749 255 0 0
0.0781733 0.020091 0.49496 255 0 0
0.106095 -0.00287559 0.543272 255 0 0
0.196999 0.0219971 0.523564 255 0 0
0.119328 -0.0256849 0.539429 255 0 0
-0.089285 -0.0249197 0.527616 255 0 0
0.0788208 0.0197016 0.499064 255 0 0
0.105804 -0.00244168 0.542881 255 0 0
0.188579 0.096467 0.477944 255 0 0
0.0476044 -0.086339 0.566897 255 0 0
0.117303 -0.0249793 0.531144 255 0 0
-0.00997491 0.040095 0.499718 255 0 0
-0.192884 0.0170389 0.524896 255 0 0
-0.0502647 0.000639679 0.51323 255 0 0
0.113408 0.0717985 0.503954 255 0 0
0.0219409 0.0138893 0.533691 255 0 0
0.0429204 -0.00104126 0.518337 255 0 0
0.0105271 -0.0502965 0.557725 255 0 0
0.168164 0.110446 0.487391 255 0 0
0.241961 0.0966658 0.504833 255 0 0
0.0779986 0.0191493 0.496133 255 0 0
-0.0507309 0.0809447 0.488251 255 0 0
-0.0342953 -0.00673203 0.513589 255 0 0
0.200208 0.021652 0.531704 255 0 0
-0.192744 0.015995 0.524505 255 0 0
0.0218477 0.0138139 0.533282 255 0 0
-0.0665482 -0.0380778 0.520726 255 0 0
0.0407428 0.00027609 0.496849 255 0 0
0.229832 0.0623969 0.498563 255 0 0
0.0493265 -0.0890038 0.584558 255 0 0
-0.0743456 0.0802968 0.49366 255 0 0
0.178683 0.0879034 0.50305 255 0 0
-0.0172785 -0.00104523 0.523124 255 0 0
0.0103967 -0.0523284 0.564374 255 0 0
0.199187 0.021315 0.527235 255 0 0
0.0781949 0.0181555 0.496783 255 0 0
-0.0808375 0.0324166 0.505387 255 0 0
0.15053 0.0809845 0.475131 255 0 0
0.183275 0.0915262 0.48972 255 0 0
0.232108 0.042328 0.494645 255 0 0
0.0595779 0.000172788 0.501492 255 0 0
0.0826964 0.0337514 0.524254 255 0 0
0.103569 -0.000288933 0.53495 255 0 0
-0.0896154 -0.027126 0.533735 255 0 0
-0.193405 0.0154047 0.526719 255 0 0
0.153874 0.0815533 0.487258 255 0 0
0.105733 0.000795338 0.544475 255 0 0
0.154887 0.106216 0.462957 255 0 0
0.154845 0.0808221 0.494378 255 0 0
0.173644 0.087163 0.465059 255 0 0
-0.0758312 0.0256148 0.521906 255 0 0
0.242663 0.0439657 0.51507 255 0 0
0.027472 0.088009 0.473809 255 0 0
0.229573 0.00863618 0.530861 255 0 0
-0.0903985 -0.0259453 0.541875 255 0 0
-0.0133587 -0.0450406 0.547764 255 0 0
0.20438 -0.0018629 0.545967 255 0 0
0.0120081 -0.0583822 0.593024 255 0 0
-0.0217562 0.105877 0.489078 255 0 0
-0.193717 0.0171182 0.527146 255 0 0
0.166826 0.0841263 0.472578 255 0 0
0.0163362 -0.043185 0.540518 255 0 0
0.109617 0.0807068 0.500869 255 0 0
-0.0956403 0.0380409 0.508644 255 0 0
0.22756 0.0620587 0.493473 255 0 0
-0.00358646 0.00148658 0.503702 255 0 0
-0.0393653 -0.0404371 0.536346 255 0 0
0.0995642 -0.0516729 0.574632 255 0 0
-0.0730851 -0.0449352 0.511004 255 0 0
0.0176974 -0.0452074 0.554726 255 0 0
-0.0949869 -0.0153973 0.533588 255 0 0
0.10928 0.0806616 0.498922 255 0 0
0.183787 0.0934024 0.485609 255 0 0
0.117632 0.0884154 0.491255 255 0 0
-0.0335256 -0.00650268 0.525575 255 0 0
0.219454 0.0693699 0.529416 255 0 0
-0.00546767 0.105176 0.47599 255 0 0
0.156509 -0.0523142 0.594993 255 0 0
-0.157987 0.0543277 0.50143 255 0 0
-0.0500119 0.000269616 0.508295 255 0 0
0.180664 0.0921213 0.480195 255 0 0
-0.0738288 -0.0453604 0.535843 255 0 0
0.162086 0.083036 0.464976 255 0 0
0.0639648 -0.043173 0.56708 255 0 0
-0.210726 0.0867236 0.477223 255 0 0
0.0983444 -0.0739688 0.605054 255 0 0
0.137868 0.0400039 0.514919 255 0 0
0.00693232 0.00108661 0.520651 255 0 0
0.185537 0.0930512 0.492258 255 0 0
0.19872 0.0655462 0.480527 255 0 0
0.0611534 -0.0399829 0.543759 255 0 0
0.154225 -0.0514301 0.587334 255 0 0
-0.0398152 -0.0427349 0.539482 255 0 0
-0.129815 -0.0113025 0.542874 255 0 0
0.10372 -0.0792774 0.635842 255 0 0
0.0212208 0.01504 0.527653 255 0 0
-0.0178698 -0.00149381 0.509446 255 0 0
-0.0851866 0.0122087 0.521567 255 0 0
-0.000970604 0.10812 0.495076 255 0 0
0.123419 -0.063698 0.566302 255 0 0
-0.24546 0.0742353 0.586644 255 0 0
-0.0410017 -0.0437208 0.537216 255 0 0
-0.185959 0.0350213 0.522748 255 0 0
-0.159902 0.0541478 0.509188 255 0 0
-0.0181869 -0.00255294 0.513014 255 0 0
-0.269349 -0.0629177 0.75281 255 0 0
-0.0765461 0.0100375 0.52671 255 0 0
-0.0523885 0.0750267 0.337405 255 0 0
-0.0487327 -0.0254266 0.578764 255 0 0
0.177498 0.0936685 0.453058 255 0 0
-0.128592 -0.00910358 0.50987 255 0 0
-0.219176 0.0200757 0.487046 255 0 0
0.0129038 0.032693 0.487175 255 0 0
-0.210962 0.105384 0.502022 255 0 0
-0.143294 -0.020242 0.593229 255 0 0
-0.0780816 0.0791997 0.486612 255 0 0
0.0798439 0.0103082 0.516704 255 0 0
-0.0281977 0.0487626 0.500379 255 0 0
0.0913241 0.189581 0.481769 255 0 0
0.150366 0.106729 0.463343 255 0 0
-0.00931673 0.0314452 0.522353 255 0 0
-0.0425588 0.010536 0.455557 255 0 0
-0.144177 0.0534772 0.507633 255 0 0
-0.20828 0.107243 0.49777 255 0 0
0.00244393 0.110983 0.50049 255 0 0
0.191109 0.0944734 0.479433 255 0 0
0.0835862 0.182104 0.45398 255 0 0
-0.199934 0.133292 0.474949 255 0 0
0.068817 0.0801082 0.489488 255 0 0
0.146616 0.113143 0.443673 255 0 0
-0.2143 0.08819 0.516931 255 0 0
0.150092 0.0789052 0.489261 255 0 0
0.189001 -0.00269937 0.538167 255 0 0
-0.205246 0.0519959 0.51609 255 0 0
0.179029 0.0370825 0.543802 255 0 0
0.116003 0.0421747 0.496591 255 0 0
-0.0448121 0.0860607 0.198063 255 0 0
-0.00540934 0.0445605 0.504014 255 0 0
-0.0646845 -0.0447327 0.59164 255 0 0
0.146726 0.0248208 0.531085 255 0 0
0.00768359 0.069175 0.275818 255 0 0
-0.208116 0.052281 0.523984 255 0 0
-0.148789 0.0572821 0.500931 255 0 0
-0.00883153 0.113909 0.482138 255 0 0
0.254502 0.0493028 0.520623 255 0 0
-0.186093 0.0517877 0.506473 255 0 0
-0.0971067 -0.0145549 0.556375 255 0 0
-0.200118 0.0203725 0.524836 255 0 0
-0.112838 0.0730562 0.498578 255 0 0
-0.00536595 0.0444539 0.507668 255 0 0
0.107395 0.104454 0.48798 255 0 0
0.038217 0.0187594 0.505173 255 0 0
0.0274074 0.0877551 0.47125 255 0 0
-0.0594677 -0.0274784 0.537179 255 0 0
-0.0990489 -0.0289089 0.546098 255 0 0
0.108873 0.109319 0.475709 255 0 0
-0.0596438 0.0786939 0.485195 255 0 0
-0.025515 -0.0134362 0.525536 255 0 0
-0.063563 0.00450642 0.538493 255 0 0
0.0597902 -0.036351 0.533715 255 0 0
-0.111493 0.0727848 0.495312 255 0 0
0.036658 0.0208294 0.488723 255 0 0
-0.0808132 0.0337639 0.498851 255 0 0
0.0790768 0.175904 0.427867 255 0 0
-0.20963 0.103575 0.496136 255 0 0
-0.103259 0.0775501 0.523404 255 0 0
0.226817 0.00990382 0.524694 255 0 0
0.110027 -0.00387119 0.561192 255 0 0
-0.240931 0.0367715 0.698014 255 0 0
-0.114207 0.0729245 0.50637 255 0 0
-0.0478131 0.0331006 0.52756 255 0 0
0.111351 0.0856141 0.46944 255 0 0
0.100563 0.0852622 0.49903 255 0 0
0.0354436 0.0200981 0.483493 255 0 0
-0.0857304 -0.0132634 0.530382 255 0 0
-0.00997141 0.0387588 0.506086 255 0 0
0.00151156 0.0119675 0.567948 255 0 0
-0.0162811 0.0238183 0.514909 255 0 0
0.178568 0.0806453 0.466447 255 0 0
0.0281277 0.0877808 0.468104 255 0 0
-0.191761 0.0115516 0.575732 255 0 0
0.0815907 -0.0206395 0.528633 255 0 0
-0.0267201 -0.0132989 0.515195 255 0 0
0.106134 0.109847 0.464937 255 0 0
-0.0479611 0.033368 0.532854 255 0 0
-0.209531 0.10356 0.495163 255 0 0
-0.0972367 0.0386425 0.510225 255 0 0
-0.0264729 -0.0130831 0.516677 255 0 0
-0.00354744 -0.0363305 0.541681 255 0 0
0.0189351 0.146408 0.452201 255 0 0
0.233796 0.00763905 0.541171 255 0 0
-0.0806759 0.0318449 0.506477 255 0 0
-0.185458 0.110428 0.486573 255 0 0
-0.161895 0.0935415 0.46146 255 0 0
-0.0428218 -0.0482285 0.57236 255 0 0
-0.0125891 0.0303527 0.500947 255 0 0
0.0680058 0.0792716 0.497783 255 0 0
0.0105789 -0.0148272 0.517279 255 0 0
-0.0823325 0.0134006 0.508123 255 0 0
0.107685 0.0797563 0.494054 255 0 0
0.0905104 0.18857 0.476694 255 0 0
0.0997603 0.117253 0.488437 255 0 0
0.172105 -0.0309108 0.554266 255 0 0
0.191555 0.0961516 0.484737 255 0 0
-0.207584 -0.0120377 0.546922 255 0 0
-0.201734 0.0325961 0.503235 255 0 0
-0.203025 0.0316644 0.503922 255 0 0
0.106359 0.0791932 0.488087 255 0 0
-0.0507029 -0.0206106 0.545739 255 0 0
0.0927917 0.10121 0.504685 255 0 0
0.0982712 0.119452 0.494608 255 0 0
0.228476 0.062395 0.496315 255 0 0
0.0871647 0.0394621 0.531901 255 0 0
-0.120012 0.0958669 0.494142 255 0 0
0.105503 0.0791097 0.487428 255 0 0
-0.0386829 0.045509 0.479791 255 0 0
-0.0405329 -0.036911 0.560439 255 0 0
0.00470293 -0.000149139 0.524411 255 0 0
-0.0478863 0.0153717 0.426025 255 0 0
0.0862035 0.0243434 0.507795 255 0 0
0.225541 0.0623454 0.492016 255 0 0
0.0159972 -0.00267688 0.530432 255 0 0
0.103886 0.120434 0.516206 255 0 0
0.0519153 0.0692263 0.502265 255 0 0
-0.197893 -0.00905233 0.517217 255 0 0
-0.0977615 0.0234208 0.498005 255 0 0
0.255812 0.0372382 0.514251 255 0 0
0.219248 0.0373485 0.444557 255 0 0
-0.0644978 0.0959849 0.503778 255 0 0
-0.104825 0.118018 0.493854 255 0 0
0.183669 0.0257676 0.523421 255 0 0
-0.0372744 0.0302106 0.537874 255 0 0
0.215264 -0.00188543 0.512988 255 0 0
-0.179279 0.0558699 0.516954 255 0 0
-0.180248 0.0139691 0.534161 255 0 0
0.117054 0.0884475 0.489143 255 0 0
0.0142604 -0.00445048 0.524596 255 0 0
0.174369 -0.0323796 0.561968 255 0 0
-0.103614 0.116633 0.485785 255 0 0
0.203717 -0.00259681 0.544452 255 0 0
0.239497 0.0191978 0.540429 255 0 0
0.241384 0.0370582 0.486361 255 0 0
-0.189171 0.023433 0.490442 255 0 0
0.22963 0.0758255 0.466445 255 0 0
0.137158 0.0175522 0.519373 255 0 0
0.122022 0.00224794 0.520009 255 0 0
-0.0469384 0.0337596 0.517579 255 0 0
0.106551 0.110108 0.466131 255 0 0
-0.0516621 -0.0210521 0.546458 255 0 0
0.177868 -0.0331199 0.570876 255 0 0
-0.213317 0.02019 0.470508 255 0 0
0.126781 0.00214335 0.536212 255 0 0
-0.156999 0.0882071 0.455685 255 0 0
-0.0520107 -0.0214181 0.550773 255 0 0
0.00629005 -0.0330034 0.534812 255 0 0
0.193181 0.000345373 0.5179 255 0 0
0.0752367 0.119196 0.46612 255 0 0
0.059658 0.101132 0.477583 255 0 0
-0.179519 -0.0614416 0.494633 255 0 0
-0.0787649 0.031312 0.500818 255 0 0
0.188002 0.019839 0.53515 255 0 0
0.202217 0.0622584 0.490331 255 0 0
-0.158855 0.106171 0.469072 255 0 0
0.104559 0.00319764 0.542002 255 0 0
-0.0506803 0.0818029 0.493345 255 0 0
-0.22256 0.0520129 0.526312 255 0 0
0.0616636 0.101882 0.483181 255 0 0
0.345864 0.38832 2.32826 255 0 0
0.00320072 0.124942 0.494088 255 0 0
-0.145372 0.0637817 0.464695 255 0 0
-0.0896757 -0.0263023 0.529346 255 0 0
0.116363 0.0424461 0.508338 255 0 0
0.160083 0.114864 0.472301 255 0 0
-1.38219 1.98686 14.7135 255 0 0
-0.0587592 0.0975473 0.492323 255 0 0
-0.1604 0.0683249 0.510062 255 0 0
0.200633 0.101033 0.480383 255 0 0
0.12998 0.0114007 0.509117 255 0 0
-0.144555 0.0539564 0.49603 255 0 0
0.1406 0.0142876 0.541935 255 0 0
-0.00804896 0.0477891 0.462364 255 0 0
-0.0293341 0.04569 0.495233 255 0 0
-0.0391513 0.0444478 0.51831 255 0 0
0.00401553 0.0786118 0.494301 255 0 0
-0.153997 0.124369 0.479863 255 0 0
-0.2131 -0.0148047 0.562242 255 0 0
-0.103724 0.187607 0.430749 255 0 0
-0.0559731 0.104472 0.107372 255 0 0
-0.206519 0.125361 0.48253 255 0 0
-0.134344 0.0890368 0.482603 255 0 0
-0.151738 0.123893 0.469731 255 0 0
0.107694 0.110182 0.469407 255 0 0
0.0500554 -0.00190188 0.498506 255 0 0
0.168885 0.0274457 0.485051 255 0 0
0.0237015 0.00326951 0.497533 255 0 0
0.141435 0.104142 0.425187 255 0 0
-0.139218 0.0903816 0.507718 255 0 0
0.221751 0.0625094 0.483741 255 0 0
-0.119134 0.0954763 0.490077 255 0 0
-0.140522 0.0382386 0.502053 255 0 0
-0.213251 0.00158802 0.693938 255 0 0
-0.0802841 0.12266 0.504661 255 0 0
0.188729 0.0896615 0.506864 255 0 0
-0.242168 0.0645166 0.585669 255 0 0
-0.186056 0.0428664 0.434821 255 0 0
-0.150221 0.126168 0.462136 255 0 0
0.117951 0.0396745 0.51069 255 0 0
0.0282847 0.0242215 0.340622 255 0 0
-0.289227 -0.110404 0.84993 255 0 0
0.115191 0.0370233 0.509658 255 0 0
0.0940202 0.0221525 0.535577 255 0 0
-0.179527 0.0347847 0.504455 255 0 0
-0.211006 0.0405693 0.500798 255 0 0
0.00653172 0.0206716 0.453332 255 0 0
-0.207637 0.102834 0.490739 255 0 0
0.0177355 0.0765964 0.185391 255 0 0
-0.0388891 0.0888792 0.48823 255 0 0
-0.12901 0.096286 0.482592 255 0 0
-0.209397 0.0404397 0.506971 255 0 0
-0.0391303 0.0393907 0.0602554 255 0 0
-0.185281 0.0362038 0.519236 255 0 0
-0.11176 0.0725117 0.495844 255 0 0
0.0374344 0.00366782 0.496131 255 0 0
-0.13516 -0.000782851 0.507178 255 0 0
0.180768 0.080934 0.469646 255 0 0
0.205697 0.0252673 0.583235 255 0 0
-0.0404726 0.0628978 0.183971 255 0 0
0.0821247 0.179835 0.439412 255 0 0
0.107382 0.108323 0.470048 255 0 0
0.0318406 0.0360767 0.516353 255 0 0
0.0225714 0.0961219 0.476629 255 0 0
0.0742873 0.163353 0.443571 255 0 0
1.27468 1.54088 10.2831 255 0 0
-0.0389473 0.0443365 0.518702 255 0 0
0.00856295 0.0142564 0.518057 255 0 0
0.122212 0.0828162 0.481583 255 0 0
0.212414 0.0934059 0.450927 255 0 0
-0.0738833 0.115495 0.516761 255 0 0
-0.169253 0.0664824 0.496445 255 0 0
0.190795 0.0943466 0.480735 255 0 0
-0.0188026 0.0366733 0.492924 255 0 0
0.000594732 0.015463 0.526722 255 0 0
-0.0753873 0.0113945 0.509619 255 0 0
0.0802366 0.0898667 0.432759 255 0 0
-0.0687761 0.187267 0.451392 255 0 0
-0.180656 0.14366 0.467874 255 0 0
-0.178019 0.108535 0.468527 255 0 0
-0.0299134 0.0455301 0.500841 255 0 0
-0.175469 -0.0352177 0.457349 255 0 0
-0.110827 -0.0167891 0.535382 255 0 0
0.052178 0.0052368 0.56412 255 0 0
-0.00332367 0.0443836 0.518208 255 0 0
-0.0295812 0.0456382 0.511229 255 0 0
-0.0022294 0.0165706 0.506496 255 0 0
0.147628 0.105506 0.44451 255 0 0
-0.13604 0.0897869 0.481637 255 0 0
0.0895824 0.0920452 0.472953 255 0 0
0.0146911 -0.00345249 0.531372 255 0 0
-0.0716331 0.11157 0.363714 255 0 0
-0.102868 0.187652 0.429537 255 0 0
-0.216585 0.105825 0.517212 255 0 0
-0.119287 0.00176131 0.439733 255 0 0
-0.215465 0.0210153 0.476704 255 0 0
0.0447522 0.0623998 0.499636 255 0 0
-0.0566595 0.0373931 0.54303 255 0 0
0.0879025 -0.0295598 0.54781 255 0 0
-0.0735525 0.0829451 0.490844 255 0 0
0.100507 0.0745827 0.430636 255 0 0
-0.0714642 -0.0304226 0.527997 255 0 0
-0.20604 0.0314105 0.520395 255 0 0
-0.00276417 0.0190852 0.53614 255 0 0
-0.207866 0.0018257 0.541809 255 0 0
-0.197478 -0.0433591 0.554707 255 0 0
0.061587 0.0754499 0.498413 255 0 0
-0.103714 0.204362 0.428972 255 0 0
-0.107995 0.195076 0.46528 255 0 0
0.122663 0.0514339 0.454797 255 0 0
-0.110656 0.0672165 0.493968 255 0 0
-0.150229 0.138731 0.470522 255 0 0
0.0162862 0.17958 0.404962 255 0 0
0.0765882 0.102249 0.480777 255 0 0
0.0193187 0.0941807 0.473174 255 0 0
0.133123 0.0422075 0.523864 255 0 0
-0.15239 0.10189 0.486098 255 0 0
0.000167487 -0.036364 0.544765 255 0 0
0.130755 0.0494726 0.514946 255 0 0
0.0736934 0.101332 0.4722 255 0 0
-0.0360432 0.0459578 0.519485 255 0 0
0.261672 0.0325478 0.542682 255 0 0
0.126661 0.082022 0.496559 255 0 0
-0.158247 0.0973914 0.493511 255 0 0
0.0694639 0.0799747 0.493409 255 0 0
0.0156652 0.109769 0.490559 255 0 0
0.130283 0.0494837 0.513021 255 0 0
0.11643 0.0469463 0.499952 255 0 0
0.0577546 0.00555539 0.516688 255 0 0
-0.0661177 0.0972076 0.518909 255 0 0
0.265494 0.0488785 0.542923 255 0 0
0.24493 0.0372182 0.492908 255 0 0
-0.0661318 0.096733 0.516811 255 0 0
-0.0227693 0.0031294 0.514196 255 0 0
0.149475 0.114532 0.453795 255 0 0
0.0702689 0.0803003 0.498794 255 0 0
-0.179345 0.0149971 0.526707 255 0 0
-0.131545 -0.0153473 0.567934 255 0 0
-0.0860294 -0.0213374 0.549514 255 0 0
-0.0753749 -0.035668 0.553451 255 0 0
-0.14057 0.0877882 0.504967 255 0 0
-0.17059 0.0248505 0.504873 255 0 0
-0.108587 0.0307366 0.50399 255 0 0
-0.203651 0.0893125 0.479068 255 0 0
-0.109913 0.0746569 0.463757 255 0 0
-0.0510473 0.0286468 0.511179 255 0 0
-0.00187727 -0.0152528 0.507601 255 0 0
0.126016 0.00446369 0.528379 255 0 0
0.0553935 0.137023 0.45816 255 0 0
0.0219288 0.167953 0.409351 255 0 0
-0.143336 0.147934 0.478628 255 0 0
-0.10327 0.186831 0.428863 255 0 0
