timeoffset_per_rigimage 0
timescaling_anchor 1534191635.1291
mocap_timeoffset_camera.size 1
mocap_timeoffset_camera 0-1534179760.9184
mocap_timescaling_camera 0.99998608423129
rig_tr_mocapdevice 0.067547660825071 -0.14626627964798 0.021427928752537 0.0086906735376842 0.0044372551272909 0.55495518562026 0.83182301297426
mocap_s_kalibr 0.99916731338914
mocapglobal_tr_kalibrpattern -0.48422421075288 1.9714292646421 0.037345424265023 0.0013920351794902 0.0077827317224339 -0.69186731140729 0.72198138115262
