11824.481826 0.0000000 0.0000000 0.0000000 0.0000000 0.0000000 0.0000000 1.0000000
11824.592417 -0.0258693 0.0163040 -0.0088555 -0.0005101 0.0085185 0.0272579 0.9995920
11824.629280 -0.0329092 0.0170614 -0.0104304 -0.0018707 0.0125232 0.0373126 0.9992234
11824.703007 -0.0507034 0.0202235 -0.0104479 0.0006638 0.0262587 0.0574941 0.9980002
11824.776734 -0.0686880 0.0195336 -0.0066037 0.0072101 0.0403443 0.0726296 0.9965166
11824.850461 -0.0829185 0.0144624 -0.0002301 0.0123892 0.0492069 0.0890910 0.9947301
11824.961051 -0.1016268 0.0045960 0.0146847 0.0208401 0.0554591 0.1239059 0.9905238
11825.071642 -0.1264333 -0.0061263 0.0353900 0.0245244 0.0595054 0.1626113 0.9845889
11825.219096 -0.1558159 -0.0298679 0.0521574 0.0304272 0.0567247 0.1926731 0.9791494
11825.329686 -0.1734798 -0.0477413 0.0451212 0.0403890 0.0610275 0.2026491 0.9765130
11825.403413 -0.1781409 -0.0599772 0.0411513 0.0465260 0.0631322 0.2121399 0.9740874
11825.514004 -0.1931912 -0.0758804 0.0441588 0.0434970 0.0794437 0.2413124 0.9662117
11825.624594 -0.2094375 -0.0868242 0.0576584 0.0355838 0.0913254 0.2725021 0.9571500
11825.772048 -0.2411251 -0.1043780 0.0652637 0.0363136 0.1090597 0.3246495 0.9388238
11825.956366 -0.2754362 -0.1381428 0.0495251 0.0243634 0.1106635 0.3873098 0.9149596
11826.177547 -0.2903728 -0.1592710 0.0418951 0.0212132 0.1436038 0.4439839 0.8841981
11826.288137 -0.2896257 -0.1594598 0.0438651 0.0272096 0.1722243 0.4688080 0.8659200
11826.435591 -0.2824265 -0.1635768 0.0584863 0.0429141 0.2073814 0.5068458 0.8356187
11826.546181 -0.2635829 -0.1746452 0.0703418 0.0456911 0.2105296 0.5452297 0.8101321
11826.693635 -0.2352928 -0.1848515 0.0832356 0.0483238 0.2040927 0.5897433 0.7798806
11826.841089 -0.2149643 -0.1933402 0.0850111 0.0390273 0.2222521 0.6223798 0.7494826
11826.988543 -0.1964612 -0.2099637 0.0769447 0.0351079 0.2475473 0.6323878 0.7331941
11827.099134 -0.1926995 -0.2318740 0.0743917 0.0356115 0.2579556 0.6432444 0.7200190
11827.246588 -0.2023304 -0.2742620 0.0810656 0.0399693 0.2590594 0.6588642 0.7051161
11827.430905 -0.2593305 -0.3278039 0.0982034 0.0480297 0.2767084 0.6952913 0.6615857
11827.541496 -0.3013422 -0.3572051 0.1038115 0.0460559 0.2803279 0.7241280 0.6284375
11827.652086 -0.3323767 -0.3864685 0.1036853 0.0389483 0.2784581 0.7488624 0.6001243
