11826.398728 0.0000000 0.0000000 0.0000000 0.0000000 0.0000000 0.0000000 1.0000000
11826.472454 -0.0023024 -0.0124523 0.0094566 0.0045945 0.0091254 0.0272516 0.9995764
11826.509318 -0.0030202 -0.0185306 0.0145567 0.0032747 0.0108050 0.0423662 0.9990383
11826.583045 -0.0047030 -0.0269110 0.0253798 -0.0024076 0.0106203 0.0739274 0.9972042
11826.656772 -0.0033411 -0.0407648 0.0358600 -0.0080583 0.0083055 0.0998960 0.9949306
11826.730499 -0.0032336 -0.0529818 0.0446597 -0.0102844 0.0161863 0.1228355 0.9922417
11826.804226 -0.0024943 -0.0657848 0.0484462 -0.0161995 0.0308523 0.1440301 0.9889596
11826.914816 -0.0045980 -0.0833378 0.0480484 -0.0112412 0.0550611 0.1563206 0.9861064
11827.062270 -0.0202934 -0.1061223 0.0443221 -0.0042351 0.0798579 0.1749680 0.9813210
11827.172861 -0.0463137 -0.1162290 0.0417327 -0.0004462 0.0845217 0.1910052 0.9779432
11827.283451 -0.0861399 -0.1151883 0.0412793 0.0057250 0.0896697 0.2096260 0.9736444
11827.394042 -0.1274808 -0.1054773 0.0333553 0.0062817 0.1019305 0.2420600 0.9648718
11827.504632 -0.1697188 -0.0828579 0.0197585 0.0053061 0.1123519 0.2823925 0.9526822
11827.615223 -0.2142043 -0.0643929 0.0055491 0.0022675 0.1262622 0.3182530 0.9395572
11827.725813 -0.2496812 -0.0474022 -0.0047186 0.0058574 0.1323975 0.3486196 0.9278475
