ply
format ascii 1.0
comment author: Gordon Liu
element vertex 1226
property double x
property double y
property double z
property uchar red
property uchar green
property uchar blue
end_header
-0.259832 0.131117 0.419605 255 0 0
-0.27113 0.138089 0.450161 255 0 0
-0.294571 0.134717 0.468361 255 0 0
-0.272018 0.138035 0.453193 255 0 0
-0.250243 0.137601 0.44582 255 0 0
-0.0970729 0.164219 0.456024 255 0 0
-0.268815 0.131454 0.450495 255 0 0
-0.0930495 0.168297 0.454336 255 0 0
-0.091932 0.171828 0.462482 255 0 0
-0.185203 0.198107 0.431289 255 0 0
-0.185334 0.199147 0.433597 255 0 0
-0.165481 0.278969 0.397993 255 0 0
-0.154886 0.298689 0.466685 255 0 0
-0.132902 0.267945 0.343146 255 0 0
-0.127863 0.284482 0.39686 255 0 0
-0.0588357 0.316511 0.39029 255 0 0
-0.134387 0.260271 0.318832 255 0 0
-0.0541941 0.315235 0.390117 255 0 0
-0.0709314 0.282988 0.311099 255 0 0
-0.0102303 0.397898 0.608808 255 0 0
-0.0624444 0.296094 0.348797 255 0 0
0.00502964 0.414942 0.655109 255 0 0
-0.24856 0.234067 0.410528 255 0 0
-0.24794 0.234534 0.410666 255 0 0
-0.250563 0.237636 0.424749 255 0 0
-0.250629 0.235627 0.422537 255 0 0
-0.259018 0.226481 0.41259 255 0 0
-0.166362 0.264676 0.403809 255 0 0
-0.167874 0.258807 0.40426 255 0 0
-0.166884 0.265492 0.414107 255 0 0
-0.119844 0.283192 0.399822 255 0 0
-0.0465821 0.309855 0.393185 255 0 0
-0.0456154 0.310712 0.393085 255 0 0
-0.118646 0.28317 0.39992 255 0 0
-0.120231 0.282485 0.400271 255 0 0
-0.253671 0.236263 0.437355 255 0 0
-0.0479497 0.304796 0.377977 255 0 0
-0.123307 0.279538 0.401198 255 0 0
-0.0547226 0.293052 0.354836 255 0 0
-0.256062 0.236465 0.444331 255 0 0
-0.196036 0.244473 0.40664 255 0 0
-0.169183 0.25455 0.406467 255 0 0
-0.19598 0.244342 0.40899 255 0 0
-0.171411 0.249106 0.407373 255 0 0
-0.0443306 0.306464 0.395269 255 0 0
-0.230041 0.208397 0.328908 255 0 0
-0.173243 0.242802 0.408663 255 0 0
-0.112415 0.286025 0.438291 255 0 0
-0.172955 0.242385 0.408848 255 0 0
-0.0355218 0.304844 0.395951 255 0 0
-0.0365406 0.304989 0.396035 255 0 0
-0.0153879 0.334113 0.477863 255 0 0
-0.0406979 0.300821 0.398082 255 0 0
-0.243313 0.216516 0.44727 255 0 0
-0.220937 0.21793 0.418912 255 0 0
-0.256343 0.24208 0.448417 255 0 0
-0.0349838 0.307399 0.406525 255 0 0
-0.198549 0.2471 0.425304 255 0 0
-0.169489 0.250307 0.401182 255 0 0
-0.0181413 0.340478 0.494478 255 0 0
-0.106324 0.286213 0.443332 255 0 0
-0.110402 0.259662 0.36463 255 0 0
-0.10321 0.276874 0.429411 255 0 0
-0.104316 0.263495 0.391222 255 0 0
-0.101401 0.27206 0.420146 255 0 0
-0.000215068 0.328947 0.505089 255 0 0
-0.175774 0.239897 0.425954 255 0 0
-0.176451 0.23407 0.413118 255 0 0
-0.238087 0.212693 0.414968 255 0 0
-0.239722 0.214752 0.426829 255 0 0
-0.190443 0.173317 0.448765 255 0 0
-0.189859 0.173303 0.452793 255 0 0
-0.189908 0.169441 0.451592 255 0 0
-0.243 0.128984 0.449034 255 0 0
-0.0500124 0.198572 0.440438 255 0 0
-0.27461 0.139454 0.461467 255 0 0
-0.0926098 0.186254 0.469786 255 0 0
-0.270106 0.128561 0.45184 255 0 0
-0.20109 0.291011 0.387699 255 0 0
-0.208762 0.287299 0.389741 255 0 0
-0.229057 0.273948 0.393272 255 0 0
-0.136349 0.307575 0.38415 255 0 0
-0.108536 0.322381 0.381491 255 0 0
-0.188254 0.281348 0.390222 255 0 0
-0.107535 0.322647 0.381791 255 0 0
-0.12369 0.316367 0.383496 255 0 0
-0.103655 0.324421 0.381775 255 0 0
-0.13043 0.310588 0.385112 255 0 0
-0.105743 0.322769 0.382424 255 0 0
-0.105534 0.322857 0.382402 255 0 0
-0.136683 0.307275 0.386 255 0 0
-0.185455 0.209429 0.443877 255 0 0
-0.236251 0.178021 0.414664 255 0 0
-0.121664 0.00678326 0.513429 255 0 0
0.0590929 -0.0431432 0.550909 255 0 0
0.0305226 -0.0654354 0.558274 255 0 0
0.0472854 0.0487878 0.47712 255 0 0
0.03778 -0.00871974 0.541705 255 0 0
-0.0690947 0.0420758 0.48892 255 0 0
-0.00283187 -0.0211942 0.565315 255 0 0
-0.106583 0.0916786 0.499411 255 0 0
-0.16499 0.0760288 0.410734 255 0 0
0.0648709 0.0288184 0.409111 255 0 0
-0.221785 0.122113 0.457924 255 0 0
-0.224892 0.124394 0.466771 255 0 0
-0.224935 0.124572 0.466363 255 0 0
-0.226855 0.124469 0.47014 255 0 0
0.0231806 0.14976 0.458237 255 0 0
-0.229367 0.123003 0.473774 255 0 0
-0.24952 0.106871 0.446682 255 0 0
-0.138281 0.13366 0.464181 255 0 0
-0.217834 0.121905 0.47369 255 0 0
-0.199289 0.116622 0.457994 255 0 0
0.0242666 0.15102 0.462901 255 0 0
0.0265 0.153342 0.474208 255 0 0
0.0302209 0.158447 0.496025 255 0 0
-0.252977 0.100208 0.471672 255 0 0
-0.276421 0.168086 0.43328 255 0 0
-0.203645 0.182468 0.450622 255 0 0
-0.191082 0.175468 0.455067 255 0 0
-0.190809 0.174382 0.452486 255 0 0
0.0488011 0.177066 0.443226 255 0 0
-0.169121 0.163624 0.450135 255 0 0
-0.238538 0.144725 0.441752 255 0 0
-0.208695 0.289975 0.388243 255 0 0
-0.226668 0.277521 0.390319 255 0 0
-0.226043 0.277711 0.390455 255 0 0
-0.220692 0.286651 0.388466 255 0 0
-0.0526375 0.311339 0.391097 255 0 0
-0.218405 0.216524 0.409985 255 0 0
-0.0510079 0.310853 0.391363 255 0 0
-0.194764 0.247424 0.406791 255 0 0
-0.168748 0.251649 0.405234 255 0 0
-0.266694 0.21093 0.416316 255 0 0
-0.219933 0.224182 0.411696 255 0 0
-0.269101 0.206979 0.417474 255 0 0
-0.212541 0.229402 0.402898 255 0 0
-0.212314 0.231984 0.409285 255 0 0
-0.145547 0.298055 0.409255 255 0 0
-0.196502 0.283251 0.402092 255 0 0
-0.230343 0.263239 0.400732 255 0 0
-0.23063 0.26328 0.400755 255 0 0
-0.230968 0.260731 0.401439 255 0 0
-0.214997 0.26086 0.402265 255 0 0
-0.166898 0.280779 0.398108 255 0 0
-0.167269 0.280654 0.398142 255 0 0
-0.164586 0.282315 0.408069 255 0 0
-0.188062 0.263848 0.400681 255 0 0
-0.164728 0.280622 0.402515 255 0 0
-0.0626764 0.319417 0.388955 255 0 0
-0.164804 0.279351 0.399171 255 0 0
-0.233516 0.230396 0.354567 255 0 0
-0.0757499 0.291392 0.3196 255 0 0
-0.0669941 0.310989 0.369006 255 0 0
-0.0332777 0.2319 0.402096 255 0 0
-0.0278991 0.23956 0.42466 255 0 0
-0.0208545 0.248913 0.454245 255 0 0
-0.248201 0.171244 0.44357 255 0 0
-0.242668 0.183085 0.463142 255 0 0
-0.193936 0.188823 0.452119 255 0 0
-0.192238 0.188216 0.441315 255 0 0
-0.252685 0.170706 0.467088 255 0 0
-0.0752481 0.229236 0.474848 255 0 0
-0.210642 0.18147 0.440951 255 0 0
-0.201489 0.178946 0.447432 255 0 0
-0.245239 0.156869 0.436821 255 0 0
-0.0995959 0.168221 0.456145 255 0 0
-0.0911694 0.173925 0.463026 255 0 0
-0.156851 0.14776 0.427184 255 0 0
-0.0289592 0.174433 0.451523 255 0 0
-0.0298502 0.168629 0.431152 255 0 0
-0.259946 0.132468 0.460718 255 0 0
-0.261603 0.131742 0.466057 255 0 0
-0.260468 0.131518 0.464084 255 0 0
-0.259936 0.13031 0.463332 255 0 0
0.0361156 0.166451 0.464081 255 0 0
0.0143643 0.177883 0.46119 255 0 0
0.0359388 0.165068 0.454141 255 0 0
-0.249489 0.124151 0.448064 255 0 0
-0.204155 0.134257 0.45435 255 0 0
-0.0627157 0.153795 0.447685 255 0 0
0.0358464 0.161839 0.450995 255 0 0
-0.0634608 0.154257 0.4526 255 0 0
-0.373624 0.189115 0.770576 255 0 0
-0.128238 0.143127 0.45221 255 0 0
-0.169488 0.16007 0.424514 255 0 0
-0.148762 0.0711691 0.482846 255 0 0
0.0901844 0.00777531 0.5161 255 0 0
-0.00630452 -0.0822594 0.564949 255 0 0
-0.0949664 -0.0803799 0.511827 255 0 0
-0.0782436 0.0155861 0.493439 255 0 0
0.0787058 -0.113303 0.591795 255 0 0
-0.150832 0.0595649 0.492258 255 0 0
-0.156453 0.0580784 0.491743 255 0 0
-0.148621 0.147416 0.458791 255 0 0
-0.116644 0.0510675 0.49605 255 0 0
-0.120772 0.034596 0.503214 255 0 0
0.0806274 -0.105841 0.541695 255 0 0
-0.00977755 0.0637668 0.51307 255 0 0
0.0713757 0.0117541 0.542045 255 0 0
-0.135369 0.0147972 0.492102 255 0 0
-0.037575 0.0697718 0.484086 255 0 0
0.0191851 -0.0659245 0.564468 255 0 0
0.0145048 0.123552 0.466584 255 0 0
0.0659713 0.131712 0.465921 255 0 0
0.141218 -0.035397 0.557811 255 0 0
-0.173938 0.0827279 0.469579 255 0 0
-0.210541 0.0297997 0.522875 255 0 0
-0.224557 0.140677 0.475363 255 0 0
-0.204796 0.139163 0.46149 255 0 0
-0.200324 0.135882 0.448998 255 0 0
-0.200908 0.133962 0.446744 255 0 0
-0.204686 0.137006 0.459978 255 0 0
-0.224116 0.119603 0.414593 255 0 0
0.000873691 0.169845 0.456606 255 0 0
-0.25931 0.181093 0.634411 255 0 0
-0.256104 0.126037 0.467046 255 0 0
0.0722207 0.174047 0.456306 255 0 0
0.0246144 0.166507 0.460413 255 0 0
-0.0268296 0.0751683 0.48511 255 0 0
-0.0297259 0.0691689 0.441691 255 0 0
-0.257597 0.128985 0.461603 255 0 0
-0.199863 0.134601 0.4662 255 0 0
-0.25297 0.122502 0.456943 255 0 0
-0.251048 0.122746 0.449794 255 0 0
-0.19957 0.134402 0.464701 255 0 0
-0.0253111 0.182741 0.485758 255 0 0
-0.133988 0.0282896 0.483891 255 0 0
0.075078 0.0122474 0.570926 255 0 0
-0.128631 0.0203167 0.527298 255 0 0
-0.137463 0.0151649 0.50241 255 0 0
-0.0608992 0.0220218 0.450827 255 0 0
-0.0370415 0.0868775 0.4833 255 0 0
0.0291813 -0.0646855 0.542649 255 0 0
0.019802 -0.0658484 0.568159 255 0 0
-0.00227269 -0.0340551 0.53442 255 0 0
-0.00989894 -0.0285374 0.568069 255 0 0
-0.0624099 0.0349211 0.506683 255 0 0
0.129036 0.0802855 0.487935 255 0 0
0.0150578 0.123888 0.468079 255 0 0
0.0647877 0.130054 0.464336 255 0 0
0.138018 -0.0369869 0.546742 255 0 0
-0.156403 0.140732 0.451652 255 0 0
-0.190315 0.117671 0.479594 255 0 0
-0.0484174 0.0195139 0.507839 255 0 0
-0.221552 -0.0789763 0.545698 255 0 0
-0.216989 -0.115468 0.569755 255 0 0
-0.123108 -0.051359 0.529471 255 0 0
0.0448053 0.0428546 0.49975 255 0 0
-0.084646 0.0844948 0.492282 255 0 0
-0.105703 0.09308 0.483901 255 0 0
0.038633 0.124156 0.472069 255 0 0
0.0659982 0.110172 0.485362 255 0 0
0.0529379 0.112551 0.488151 255 0 0
-0.155836 0.0572721 0.484629 255 0 0
-0.106206 0.0182874 0.49021 255 0 0
-0.138622 0.0162888 0.503715 255 0 0
-0.188319 0.0713261 0.458503 255 0 0
-0.123862 -0.0515783 0.532796 255 0 0
0.0172262 0.0479012 0.502905 255 0 0
-0.04343 -0.126226 0.579203 255 0 0
-0.0569245 0.102718 0.484939 255 0 0
-0.119517 0.0976474 0.480319 255 0 0
-0.0573213 -0.0390932 0.555143 255 0 0
0.0784121 0.136462 0.524405 255 0 0
0.0905312 0.11126 0.464393 255 0 0
-0.0486814 0.0196293 0.508915 255 0 0
-0.0315448 -0.00213975 0.59521 255 0 0
0.14952 -0.0199369 0.567136 255 0 0
-0.137509 -0.0271545 0.515853 255 0 0
-0.108458 -0.0830616 0.535458 255 0 0
-0.0817597 -0.0638842 0.56802 255 0 0
-0.0388862 -0.0544556 0.539676 255 0 0
0.0166133 0.0480484 0.497834 255 0 0
0.0329797 0.0268981 0.521712 255 0 0
0.0445425 0.123961 0.460378 255 0 0
0.0770963 -0.11211 0.586155 255 0 0
-0.150541 0.0593848 0.491225 255 0 0
-0.156514 0.0586783 0.488173 255 0 0
-0.105153 0.0923369 0.477766 255 0 0
-0.147581 0.0709648 0.477497 255 0 0
0.0470335 0.0439387 0.509977 255 0 0
-0.106101 0.0174438 0.501668 255 0 0
-0.0392307 -0.10844 0.583899 255 0 0
-0.0552642 0.0859537 0.509532 255 0 0
-0.0087552 0.0590213 0.479373 255 0 0
-0.12083 0.0348745 0.506003 255 0 0
0.0305207 0.182536 0.458729 255 0 0
-0.186972 0.186844 0.541385 255 0 0
-0.246433 0.142204 0.430034 255 0 0
-0.105971 0.153325 0.419645 255 0 0
-0.135816 0.178922 0.516046 255 0 0
-0.250108 0.137819 0.450165 255 0 0
-0.149822 0.148223 0.463913 255 0 0
-0.261694 0.132242 0.465789 255 0 0
0.0477846 0.125613 0.471361 255 0 0
0.066687 0.131636 0.469159 255 0 0
0.116689 0.115672 0.477089 255 0 0
0.0789442 0.137359 0.533779 255 0 0
0.188023 -0.0970559 0.585887 255 0 0
0.179538 -0.0856989 0.5766 255 0 0
0.0668513 -0.0369494 0.542295 255 0 0
0.0494041 -0.00404034 0.644962 255 0 0
0.13638 -0.0386276 0.541097 255 0 0
-0.0538241 0.0814774 0.48849 255 0 0
-0.084402 0.0845679 0.490093 255 0 0
-0.165 0.029486 0.500348 255 0 0
-0.104156 0.091113 0.477905 255 0 0
-0.148042 0.0708107 0.475473 255 0 0
-0.156761 0.140197 0.451153 255 0 0
-0.205115 0.137471 0.46216 255 0 0
-0.194924 0.106352 0.465256 255 0 0
-0.107919 0.0984383 0.435431 255 0 0
-0.0834129 -0.106352 0.572478 255 0 0
-0.00486958 -0.0836234 0.573963 255 0 0
-0.189553 -0.0565746 0.438612 255 0 0
-0.215874 -0.116635 0.569723 255 0 0
-0.0939979 -0.040202 0.411179 255 0 0
-0.158489 -0.113808 0.581335 255 0 0
-0.163848 -0.104691 0.551927 255 0 0
-0.139401 -0.0267197 0.51992 255 0 0
-0.0135947 -0.0116603 0.503451 255 0 0
-0.00473258 -0.0355634 0.545121 255 0 0
0.0299395 -0.0647004 0.550955 255 0 0
-0.0389558 0.0863275 0.483324 255 0 0
0.0581621 -0.0452078 0.548508 255 0 0
-0.112229 0.102593 0.455411 255 0 0
-0.190904 0.114542 0.484036 255 0 0
0.0724237 0.129327 0.49791 255 0 0
0.0883569 -0.112213 0.572854 255 0 0
-0.0834406 -0.106172 0.570046 255 0 0
-0.112291 -0.0853736 0.549312 255 0 0
-0.0470392 0.0181357 0.507235 255 0 0
-0.123416 -0.0542604 0.540079 255 0 0
-0.16793 -0.109851 0.57102 255 0 0
0.0905526 0.00897537 0.517157 255 0 0
0.0400137 0.127379 0.481561 255 0 0
0.0665583 0.111027 0.486207 255 0 0
-0.137715 -0.0251749 0.50747 255 0 0
-0.0775105 0.0202075 0.496299 255 0 0
-0.0411218 -0.0554272 0.550647 255 0 0
-0.0064027 -0.095917 0.54103 255 0 0
-0.0332106 -0.0927296 0.556912 255 0 0
-0.145706 0.0805648 0.486939 255 0 0
-0.150391 0.0584275 0.491398 255 0 0
0.142122 -0.0675469 0.555632 255 0 0
0.0816801 0.00760569 0.529891 255 0 0
-0.289895 0.0300515 0.867729 255 0 0
-0.158591 0.140376 0.45774 255 0 0
-0.193134 0.136294 0.473881 255 0 0
-0.196072 0.106456 0.467228 255 0 0
-0.113779 0.103405 0.459537 255 0 0
-0.1759 0.0831973 0.466286 255 0 0
0.109398 0.0589086 0.521981 255 0 0
0.0865795 0.0365548 0.519341 255 0 0
0.0655991 0.130799 0.464064 255 0 0
0.0592737 0.0886109 0.355916 255 0 0
-0.122229 -0.0547928 0.537556 255 0 0
0.0524908 0.0546449 0.506164 255 0 0
0.0398793 -0.0066967 0.541919 255 0 0
0.0137197 0.122602 0.46827 255 0 0
-0.0393443 0.0857951 0.479234 255 0 0
-0.121223 0.0489062 0.502442 255 0 0
-0.158915 0.0172408 0.515249 255 0 0
-0.140793 -0.0237613 0.517496 255 0 0
-0.0679423 0.0423003 0.483512 255 0 0
0.0573969 -0.0755826 0.553756 255 0 0
0.0163636 -0.0656598 0.561906 255 0 0
-0.163105 0.0693745 0.484791 255 0 0
-0.169708 0.0792855 0.443662 255 0 0
-0.158894 0.0553777 0.481576 255 0 0
0.104881 0.117909 0.442425 255 0 0
0.00205566 0.0924288 0.470938 255 0 0
-0.118915 -0.047698 0.493723 255 0 0
-0.219156 -0.154511 0.841912 255 0 0
-0.0441728 0.0168212 0.509827 255 0 0
0.0530835 0.113499 0.487739 255 0 0
0.118702 0.115089 0.48437 255 0 0
0.0507702 0.0107863 0.527815 255 0 0
0.0382181 -0.00730853 0.533508 255 0 0
0.00290247 0.0402569 0.404665 255 0 0
0.0489437 0.0513413 0.487643 255 0 0
-0.124298 0.00799303 0.522965 255 0 0
-0.156984 0.0160518 0.511736 255 0 0
-0.105513 -0.0127993 0.497339 255 0 0
-0.00800268 -0.0346687 0.528472 255 0 0
-0.0351234 -0.091677 0.546232 255 0 0
0.0573975 -0.0766296 0.557746 255 0 0
-0.124754 0.0497983 0.521175 255 0 0
-0.117086 0.109412 0.48161 255 0 0
-0.148218 0.129751 0.471885 255 0 0
-0.0499548 0.0925927 0.497611 255 0 0
0.157149 -0.0149996 0.521347 255 0 0
0.0573342 0.0248415 0.354468 255 0 0
-0.0669286 0.0112846 0.51633 255 0 0
-0.0451124 -0.0456476 0.508107 255 0 0
0.0414535 0.127649 0.503625 255 0 0
0.0532512 0.113569 0.487792 255 0 0
0.0721374 -0.00330645 0.515964 255 0 0
0.161798 -0.0584539 0.564919 255 0 0
0.144703 -0.073133 0.574145 255 0 0
-0.113304 -0.0875541 0.561159 255 0 0
0.0911369 0.0086877 0.524242 255 0 0
0.0802331 -0.00143748 0.532136 255 0 0
0.182688 -0.0871445 0.583997 255 0 0
-0.011935 -0.0126004 0.510848 255 0 0
-0.003779 -0.0327579 0.50199 255 0 0
0.0567264 0.0133295 0.531464 255 0 0
0.0695783 0.0111171 0.525259 255 0 0
-0.119838 0.0337597 0.50078 255 0 0
0.0187287 -0.0653177 0.563977 255 0 0
0.0304265 -0.0665901 0.554126 255 0 0
-0.0634379 0.0223779 0.49617 255 0 0
-0.0775704 0.0203098 0.510706 255 0 0
-0.0375653 0.0858629 0.48094 255 0 0
-0.0368485 0.0676408 0.468046 255 0 0
-0.0630487 0.0355197 0.512577 255 0 0
0.0323245 0.0622887 0.503336 255 0 0
0.0147803 0.123998 0.467098 255 0 0
0.11669 0.116063 0.47916 255 0 0
0.0571071 0.100111 0.386507 255 0 0
0.0400814 -0.00590152 0.540975 255 0 0
-0.0568954 0.0950809 0.445204 255 0 0
-0.0476292 0.113896 0.48078 255 0 0
-0.1741 0.0824681 0.466778 255 0 0
-0.156301 0.140369 0.452033 255 0 0
-0.190113 0.117769 0.48271 255 0 0
-0.0844817 -0.107862 0.582043 255 0 0
-0.214486 -0.114082 0.562705 255 0 0
-0.226115 -0.0958908 0.545349 255 0 0
-0.123096 -0.0524884 0.533282 255 0 0
-0.16601 -0.106207 0.561654 255 0 0
-0.138222 -0.0268025 0.51642 255 0 0
-0.134578 0.0290445 0.485999 255 0 0
-0.0275295 -0.0617469 0.559858 255 0 0
-0.0397755 -0.0556956 0.552624 255 0 0
0.0466661 0.0259618 0.520682 255 0 0
0.0708108 0.0106011 0.526335 255 0 0
0.0273764 -0.0831503 0.551016 255 0 0
0.0265184 -0.119818 0.565024 255 0 0
0.0186029 -0.0657763 0.56727 255 0 0
0.0893504 0.00853061 0.509246 255 0 0
0.0851451 0.00697644 0.543622 255 0 0
-0.126116 0.0207668 0.516978 255 0 0
-0.126107 0.0112134 0.521624 255 0 0
-0.0373022 0.0854855 0.479865 255 0 0
-0.0646683 0.0232024 0.516097 255 0 0
-0.129532 0.0525143 0.480723 255 0 0
-0.0128188 -0.0124763 0.505382 255 0 0
-0.0047432 -0.0327436 0.502273 255 0 0
-0.240009 0.218953 0.434526 255 0 0
-0.221137 0.217057 0.427028 255 0 0
-0.18138 0.220127 0.436602 255 0 0
-0.239988 0.182844 0.449439 255 0 0
-0.278463 0.170493 0.441545 255 0 0
-0.280322 0.171714 0.447293 255 0 0
-0.193069 0.187737 0.439031 255 0 0
-0.204171 0.182336 0.455032 255 0 0
-0.203121 0.181333 0.452587 255 0 0
-0.0976141 0.0113969 0.497826 255 0 0
-0.136733 0.307798 0.385988 255 0 0
-0.136133 0.307558 0.386342 255 0 0
-0.237053 0.253992 0.397668 255 0 0
-0.209672 0.233073 0.395963 255 0 0
-0.196289 0.280927 0.393401 255 0 0
-0.198436 0.280757 0.393607 255 0 0
-0.198543 0.281009 0.393609 255 0 0
-0.0912874 0.324137 0.38264 255 0 0
-0.0912176 0.32431 0.382628 255 0 0
-0.196061 0.280939 0.393782 255 0 0
-0.198272 0.278748 0.394057 255 0 0
-0.0916476 0.32319 0.383307 255 0 0
-0.223624 0.260215 0.397821 255 0 0
-0.217601 0.262199 0.397194 255 0 0
-0.206377 0.272202 0.396028 255 0 0
-0.0854532 0.323506 0.383121 255 0 0
-0.14465 0.300432 0.389775 255 0 0
-0.0848819 0.323452 0.383472 255 0 0
-0.0855022 0.323354 0.383533 255 0 0
-0.231258 0.260916 0.399321 255 0 0
-0.233274 0.259453 0.399758 255 0 0
-0.232999 0.259777 0.399722 255 0 0
-0.232935 0.260799 0.399684 255 0 0
-0.232363 0.260147 0.399651 255 0 0
-0.242375 0.247943 0.401379 255 0 0
-0.157267 0.289973 0.39269 255 0 0
-0.238136 0.245549 0.402263 255 0 0
-0.214225 0.231975 0.41843 255 0 0
-0.0774242 0.320031 0.385297 255 0 0
-0.155221 0.278778 0.389338 255 0 0
-0.128255 0.282612 0.393438 255 0 0
-0.154456 0.280579 0.395943 255 0 0
-0.204265 0.232782 0.402309 255 0 0
-0.166749 0.276824 0.398013 255 0 0
-0.246432 0.237021 0.406936 255 0 0
-0.166476 0.27886 0.398325 255 0 0
-0.246715 0.236559 0.407581 255 0 0
-0.0613566 0.315339 0.387966 255 0 0
-0.0604359 0.315054 0.38809 255 0 0
-0.0590716 0.314766 0.388575 255 0 0
-0.257722 0.227088 0.411132 255 0 0
-0.125087 0.282205 0.396976 255 0 0
-0.217565 0.216398 0.408099 255 0 0
-0.265946 0.219563 0.412549 255 0 0
-0.168297 0.258662 0.402555 255 0 0
-0.0533361 0.312076 0.390134 255 0 0
-0.263418 0.217479 0.413182 255 0 0
-0.220889 0.217695 0.419314 255 0 0
-0.100102 0.263481 0.408358 255 0 0
-0.266004 0.197837 0.429819 255 0 0
-0.263383 0.195472 0.426047 255 0 0
-0.271196 0.193588 0.445889 255 0 0
-0.270233 0.186406 0.427225 255 0 0
-0.248331 0.198727 0.431666 255 0 0
-0.249533 0.199093 0.433944 255 0 0
-0.249042 0.197725 0.430198 255 0 0
-0.25018 0.199921 0.437688 255 0 0
-0.258389 0.20247 0.467103 255 0 0
-0.0793926 0.248719 0.433731 255 0 0
-0.250344 0.194586 0.434166 255 0 0
-0.0821318 0.235474 0.397364 255 0 0
-0.0142644 0.271011 0.466712 255 0 0
-0.184474 0.204992 0.433535 255 0 0
-0.212593 0.195331 0.428327 255 0 0
-0.212808 0.19566 0.429453 255 0 0
-0.210756 0.192988 0.416544 255 0 0
-0.20658 0.187107 0.388627 255 0 0
-0.185087 0.162645 0.280312 255 0 0
-0.0182209 0.265869 0.441728 255 0 0
-0.18672 0.197751 0.438454 255 0 0
-0.174876 0.222459 0.384059 255 0 0
-0.238463 0.215507 0.427102 255 0 0
-0.0908837 0.236212 0.365974 255 0 0
-0.0462241 0.248322 0.323883 255 0 0
-0.222045 0.211281 0.422081 255 0 0
-0.181751 0.223045 0.447753 255 0 0
-0.180667 0.215818 0.423294 255 0 0
-0.249491 0.192437 0.429297 255 0 0
-0.17899 0.203372 0.385282 255 0 0
-0.0797216 0.243916 0.409664 255 0 0
-0.0204564 0.268424 0.429636 255 0 0
-0.08198 0.24061 0.40822 255 0 0
-0.0232376 0.264912 0.418242 255 0 0
-0.0261888 0.251137 0.413117 255 0 0
0.103268 -0.11754 0.383138 255 0 0
0.103271 -0.11754 0.383141 255 0 0
0.103275 -0.117539 0.383139 255 0 0
0.103269 -0.117536 0.383139 255 0 0
0.103266 -0.117537 0.383143 255 0 0
0.103276 -0.117542 0.383138 255 0 0
0.103268 -0.117537 0.38314 255 0 0
0.103268 -0.117542 0.383141 255 0 0
0.10326 -0.117536 0.38315 255 0 0
0.103267 -0.117536 0.383142 255 0 0
0.103271 -0.117539 0.383143 255 0 0
0.103269 -0.117539 0.383143 255 0 0
0.10326 -0.117536 0.38315 255 0 0
0.103266 -0.117533 0.38314 255 0 0
0.103269 -0.117535 0.383137 255 0 0
0.103268 -0.117533 0.383146 255 0 0
0.10327 -0.117542 0.383139 255 0 0
0.103276 -0.117542 0.383139 255 0 0
0.103273 -0.117534 0.383144 255 0 0
0.103263 -0.117533 0.383151 255 0 0
0.103268 -0.117543 0.383139 255 0 0
0.103269 -0.11754 0.383144 255 0 0
0.103269 -0.117542 0.383138 255 0 0
0.103272 -0.117533 0.383147 255 0 0
0.103266 -0.117532 0.383141 255 0 0
0.103274 -0.117535 0.383133 255 0 0
0.103268 -0.117535 0.383144 255 0 0
0.103274 -0.11754 0.383137 255 0 0
0.10327 -0.11754 0.383141 255 0 0
0.103274 -0.117534 0.383137 255 0 0
0.103267 -0.11754 0.383146 255 0 0
0.103246 -0.117534 0.383162 255 0 0
0.103274 -0.117539 0.383142 255 0 0
0.103276 -0.117542 0.38314 255 0 0
0.103275 -0.117542 0.38314 255 0 0
0.103276 -0.117542 0.38314 255 0 0
0.103268 -0.117535 0.383141 255 0 0
0.103274 -0.117539 0.383142 255 0 0
0.103266 -0.117536 0.383142 255 0 0
0.103272 -0.117537 0.383141 255 0 0
0.103267 -0.117535 0.383143 255 0 0
0.103272 -0.117534 0.38314 255 0 0
-0.157416 0.0196867 0.498501 255 0 0
0.0575116 -0.0576048 0.546105 255 0 0
0.171163 0.1398 0.465228 255 0 0
-0.215789 0.0729484 0.470567 255 0 0
-0.102914 -0.102963 0.562864 255 0 0
-0.047947 -0.0337405 0.540731 255 0 0
0.158465 0.110282 0.498137 255 0 0
-0.157255 0.019743 0.499057 255 0 0
0.0347756 0.0272231 0.528386 255 0 0
0.0582296 -0.0574164 0.549568 255 0 0
-0.0815221 0.0467258 0.49376 255 0 0
-0.185895 -0.128382 0.569712 255 0 0
0.172015 0.140702 0.467073 255 0 0
0.0332173 0.0274419 0.524579 255 0 0
-0.102508 -0.102353 0.55883 255 0 0
-0.0156702 0.0726734 0.472526 255 0 0
0.0328982 0.0772421 0.50246 255 0 0
-0.0579975 -0.0384633 0.553101 255 0 0
0.213833 0.00138681 0.528815 255 0 0
-0.0481806 -0.0338496 0.545007 255 0 0
-0.157228 0.0191586 0.50073 255 0 0
-0.0821704 0.0473333 0.489985 255 0 0
-0.0583549 -0.0378484 0.549558 255 0 0
0.212898 0.00110721 0.527427 255 0 0
-0.0596282 -0.0374032 0.55157 255 0 0
-0.0831244 0.0485669 0.487863 255 0 0
-0.226913 -0.0947187 0.543767 255 0 0
-0.159091 0.0791994 0.47368 255 0 0
0.0342123 0.0793119 0.513671 255 0 0
0.0455285 0.0670017 0.49484 255 0 0
0.163002 0.14651 0.480009 255 0 0
0.00228339 0.0932674 0.469876 255 0 0
0.090288 0.0377846 0.533276 255 0 0
0.0307315 0.0795002 0.495138 255 0 0
0.0904851 0.00964962 0.513879 255 0 0
-0.0745001 0.0603824 0.475146 255 0 0
0.160569 0.146174 0.472756 255 0 0
-0.2244 -0.0945299 0.539918 255 0 0
-0.0883974 0.102542 0.478447 255 0 0
-0.132172 0.011575 0.498196 255 0 0
0.0500443 0.000834947 0.526938 255 0 0
-0.131675 0.0117294 0.500174 255 0 0
-0.128366 0.0313592 0.488963 255 0 0
-0.151551 0.0746559 0.488935 255 0 0
-0.125952 0.0519015 0.494554 255 0 0
-0.145827 -0.107467 0.547383 255 0 0
-0.0848256 -0.0574812 0.516537 255 0 0
0.030754 -0.0865044 0.576221 255 0 0
-0.00654767 -0.0816295 0.559285 255 0 0
-0.105226 0.0364402 0.488545 255 0 0
-0.0618684 0.156443 0.456652 255 0 0
-0.216544 0.0731759 0.472174 255 0 0
-0.270249 0.0496117 0.483569 255 0 0
-0.266395 0.0447932 0.497459 255 0 0
-0.25126 0.0447367 0.498782 255 0 0
-0.18994 0.103401 0.449162 255 0 0
0.0510359 0.00960609 0.531635 255 0 0
0.117457 0.047815 0.520564 255 0 0
0.0987889 0.025891 0.515991 255 0 0
0.078162 -0.00156488 0.525641 255 0 0
-0.105133 0.01697 0.483489 255 0 0
-0.266699 0.0443395 0.499597 255 0 0
-0.216872 0.0730973 0.47079 255 0 0
-0.2962 -0.107651 0.566117 255 0 0
0.0330555 -0.0915618 0.599181 255 0 0
0.100671 0.0245339 0.521386 255 0 0
-0.0143348 0.0730284 0.48473 255 0 0
-0.112875 0.0488903 0.461267 255 0 0
-0.248174 0.0563467 0.482143 255 0 0
-0.143504 0.0146074 0.524046 255 0 0
-0.107497 0.0191285 0.490524 255 0 0
0.110184 0.0261627 0.524675 255 0 0
-0.114961 -0.0871548 0.563451 255 0 0
-0.217709 0.0733734 0.467724 255 0 0
-0.254192 0.0359327 0.550344 255 0 0
0.0139534 0.123004 0.464054 255 0 0
-0.115879 -0.0860047 0.561087 255 0 0
-0.247864 0.0556875 0.484267 255 0 0
-0.121561 0.0976571 0.488382 255 0 0
-0.0758338 0.0612346 0.485372 255 0 0
-0.246813 0.0549543 0.484159 255 0 0
0.00215863 0.0898819 0.47196 255 0 0
-0.109465 0.125285 0.79761 255 0 0
-0.230594 0.0915948 0.479238 255 0 0
0.00059565 -0.0447606 0.642976 255 0 0
-0.120612 0.095261 0.462674 255 0 0
-0.0922543 0.0875026 0.475363 255 0 0
0.0936709 0.0110937 0.519319 255 0 0
-0.140473 0.029142 0.496484 255 0 0
0.167675 0.149314 0.487069 255 0 0
-0.00587945 0.0348239 0.500229 255 0 0
0.150355 0.163645 0.468619 255 0 0
0.0306925 0.0577326 0.502381 255 0 0
0.0484789 0.0126819 0.519662 255 0 0
-0.0138748 0.0704214 0.471704 255 0 0
-0.211901 0.0748188 0.440828 255 0 0
0.0284608 0.178522 0.445834 255 0 0
-0.15444 0.0167408 0.50123 255 0 0
-0.239433 -0.0747241 0.582166 255 0 0
-0.222769 -0.0864538 0.561001 255 0 0
0.157716 0.120766 0.488877 255 0 0
-0.164127 0.0288222 0.504612 255 0 0
-0.156265 0.0281917 0.500077 255 0 0
0.060991 0.017859 0.52115 255 0 0
-0.0655251 0.0631543 0.493229 255 0 0
-0.258941 0.0974272 0.50415 255 0 0
0.0624011 0.0178852 0.527684 255 0 0
0.0608582 0.0182397 0.519529 255 0 0
-0.224168 -0.0627874 0.498208 255 0 0
-0.229463 -0.0717188 0.527757 255 0 0
-0.160259 0.0578058 0.494046 255 0 0
0.117539 0.0883399 0.500847 255 0 0
-0.0333741 0.139051 0.470274 255 0 0
-0.0889567 0.103157 0.48192 255 0 0
-0.162842 0.018537 0.497479 255 0 0
-0.243568 0.0543692 0.477185 255 0 0
0.153161 0.106068 0.487656 255 0 0
-0.242253 0.102772 0.472988 255 0 0
-0.137259 0.131749 0.46475 255 0 0
-0.222876 0.0350475 0.468502 255 0 0
-0.00649564 0.0397991 0.504367 255 0 0
0.0016155 0.0942674 0.466086 255 0 0
0.000322211 -0.0382394 0.530085 255 0 0
0.0500745 0.0555841 0.497502 255 0 0
-0.0254707 0.147583 0.473003 255 0 0
0.209961 0.0204921 0.540582 255 0 0
-0.192413 0.0732787 0.476131 255 0 0
-0.121849 0.0991534 0.502333 255 0 0
-0.244249 0.102071 0.481676 255 0 0
-0.0879813 -0.0600048 0.541437 255 0 0
-0.127284 0.0102791 0.535752 255 0 0
-0.00698161 0.0394676 0.497629 255 0 0
0.0129867 -0.0226613 0.547213 255 0 0
0.0451927 0.175931 0.446024 255 0 0
-0.0350353 -0.0622831 0.560806 255 0 0
-0.0219415 -0.0838798 0.56799 255 0 0
0.016869 -0.0785311 0.578256 255 0 0
0.117626 0.116463 0.479984 255 0 0
-0.0715517 0.0331566 0.504674 255 0 0
-0.296512 -0.108434 0.56547 255 0 0
0.111648 0.0274306 0.528057 255 0 0
-0.0644518 0.0372526 0.506253 255 0 0
-0.0512056 0.00944571 0.52701 255 0 0
0.0995009 0.156145 0.420813 255 0 0
0.0808316 -0.00256378 0.541687 255 0 0
-0.119661 0.0969234 0.483023 255 0 0
-0.197362 0.073693 0.500063 255 0 0
0.0655418 0.110119 0.49707 255 0 0
-0.241618 0.101156 0.474298 255 0 0
-0.0660596 0.0771779 0.492061 255 0 0
-0.134933 0.0292413 0.469048 255 0 0
0.135735 0.0577892 0.526888 255 0 0
-0.147674 0.13169 0.476308 255 0 0
-0.242212 0.0850829 0.480129 255 0 0
-0.058216 0.048945 0.487039 255 0 0
-0.0583668 0.048933 0.482921 255 0 0
-0.145741 0.130422 0.462804 255 0 0
0.191391 0.0956045 0.50547 255 0 0
-0.134781 0.0784499 0.494218 255 0 0
-0.0335309 0.00180787 0.523278 255 0 0
0.0994141 0.191604 0.447283 255 0 0
-0.265178 -0.0229544 0.525949 255 0 0
-0.0408428 0.168918 0.444137 255 0 0
-0.0596895 0.0976654 0.489905 255 0 0
-0.00536505 0.0579887 0.497837 255 0 0
0.0596324 0.133016 0.452259 255 0 0
-0.0222518 0.0302554 0.507187 255 0 0
-0.146498 0.130004 0.452542 255 0 0
0.012778 0.101903 0.493208 255 0 0
-0.0672723 0.0766531 0.486077 255 0 0
-0.17742 0.0282115 0.486914 255 0 0
-0.165922 0.0305592 0.496459 255 0 0
-0.126473 0.0134169 0.513082 255 0 0
-0.0720136 -0.00940644 0.515102 255 0 0
0.0949026 0.0306122 0.522334 255 0 0
-0.16198 -0.0952109 0.57924 255 0 0
-0.0333032 -0.0408727 0.566222 255 0 0
-0.254995 0.101718 0.477413 255 0 0
0.00209261 -0.0417052 0.54051 255 0 0
0.0456097 0.0252671 0.517299 255 0 0
-0.164137 0.0198814 0.496861 255 0 0
-0.253843 0.10026 0.473519 255 0 0
-0.143622 -0.0268164 0.516239 255 0 0
-0.140488 -0.0225027 0.486189 255 0 0
0.0680171 0.131711 0.469934 255 0 0
0.128041 0.0608764 0.504878 255 0 0
-0.231339 0.0916918 0.478478 255 0 0
-0.194399 0.072669 0.482774 255 0 0
-0.0869271 -0.0596665 0.533899 255 0 0
-0.0991476 0.0130997 0.490607 255 0 0
-0.252246 -0.0587341 0.554353 255 0 0
-0.0079975 0.0574439 0.48101 255 0 0
-0.162608 0.080704 0.486354 255 0 0
-0.0507172 0.0938823 0.489311 255 0 0
0.147706 0.163955 0.464159 255 0 0
0.133514 0.0598986 0.516769 255 0 0
0.0785993 -0.00163914 0.526419 255 0 0
-0.126622 0.0592402 0.470457 255 0 0
-0.254773 0.0946822 0.475087 255 0 0
-0.0146968 0.0736684 0.484571 255 0 0
0.0453823 0.0272291 0.51572 255 0 0
-0.16408 0.020382 0.500117 255 0 0
0.0313225 0.0290447 0.516759 255 0 0
0.0324168 -0.066947 0.56387 255 0 0
0.146754 0.152114 0.464393 255 0 0
0.0321069 0.030124 0.519892 255 0 0
-0.192018 0.11613 0.496294 255 0 0
-0.0309659 -0.0471226 0.534791 255 0 0
0.0562789 0.0989394 0.471801 255 0 0
-0.196099 0.108586 0.466561 255 0 0
0.156991 0.109322 0.494898 255 0 0
0.15597 0.10926 0.492445 255 0 0
-0.158379 0.0783932 0.473952 255 0 0
0.0303813 0.0568012 0.501319 255 0 0
-0.0691401 0.0609407 0.467726 255 0 0
-0.0714311 0.0331187 0.506178 255 0 0
-0.0776925 0.244687 0.432123 255 0 0
0.192952 0.160778 0.492206 255 0 0
-0.248167 0.172651 0.445072 255 0 0
0.0176344 0.203933 0.512188 255 0 0
-0.132301 0.0629238 0.445289 255 0 0
-0.105348 0.0491155 0.483893 255 0 0
0.0321357 0.124252 0.461265 255 0 0
-0.0752574 0.302496 0.505333 255 0 0
-0.0858953 0.0864995 0.519524 255 0 0
-0.114778 0.10632 0.498637 255 0 0
-0.297955 0.147754 0.448434 255 0 0
-0.25905 0.00560063 0.489616 255 0 0
-0.167121 0.154643 0.328238 255 0 0
0.162309 0.172201 0.451998 255 0 0
-0.260222 0.109298 0.479773 255 0 0
0.0362341 0.124413 0.473958 255 0 0
0.00231671 0.0295675 0.534285 255 0 0
-0.263617 0.0641 0.497422 255 0 0
-0.0859106 0.0858851 0.522429 255 0 0
-0.0814591 0.201107 0.484667 255 0 0
-0.0771213 0.152477 0.440784 255 0 0
-0.295294 0.0422491 0.472322 255 0 0
0.194259 0.177356 0.507664 255 0 0
-0.24802 0.157944 0.443249 255 0 0
-0.252774 0.138751 0.454751 255 0 0
-0.261519 0.064986 0.489787 255 0 0
-0.219821 0.134838 0.454835 255 0 0
-0.0637838 0.266945 0.523893 255 0 0
-0.0633304 0.0949926 0.482791 255 0 0
-0.297237 0.127251 0.462256 255 0 0
-0.129819 0.0484339 0.498138 255 0 0
-0.190178 0.0258528 0.529166 255 0 0
-0.168502 0.0832525 0.494984 255 0 0
-0.258677 0.0643131 0.483132 255 0 0
0.0133906 0.188653 0.435018 255 0 0
-0.0738328 0.250579 0.459685 255 0 0
-0.255263 0.13944 0.468982 255 0 0
-0.243261 0.101259 0.481897 255 0 0
-0.0159783 0.275901 0.44309 255 0 0
-0.0356109 0.250122 0.377181 255 0 0
-0.087553 0.205204 0.403208 255 0 0
-0.0958866 0.166873 0.451836 255 0 0
-0.165117 0.125148 0.465671 255 0 0
-0.162802 0.0552605 0.508617 255 0 0
-0.113047 0.10518 0.449232 255 0 0
-0.24162 0.0556877 0.464432 255 0 0
-0.0445318 0.103832 0.484878 255 0 0
-0.0496696 0.0874857 0.499966 255 0 0
-0.178316 0.0241712 0.513327 255 0 0
-0.0326779 -0.15827 1.36066 255 0 0
-0.0515717 0.0823969 0.491219 255 0 0
-0.343918 -0.12895 3.68349 255 0 0
-0.00805536 0.0590533 0.485653 255 0 0
-0.12462 0.0517335 0.484495 255 0 0
0.158626 0.17135 0.446844 255 0 0
-0.169745 0.0803202 0.451689 255 0 0
-0.254567 0.101497 0.475267 255 0 0
-0.270868 0.0764897 0.477243 255 0 0
-0.10299 0.0891933 0.474757 255 0 0
0.0576267 -0.0574302 0.547544 255 0 0
0.0468718 0.0662691 0.498179 255 0 0
-0.125964 0.0514799 0.497871 255 0 0
-0.0061852 -0.0851713 0.572976 255 0 0
-0.0225978 -0.083474 0.565259 255 0 0
-0.0710316 0.0314274 0.521371 255 0 0
0.0143063 0.177651 0.462912 255 0 0
-0.20791 0.182358 0.410515 255 0 0
-0.294895 0.0434189 0.479036 255 0 0
-0.111733 0.152922 0.186011 255 0 0
-0.0296245 0.145966 0.451015 255 0 0
-0.282005 0.0559107 0.496912 255 0 0
-0.0640665 0.0747994 0.504562 255 0 0
-0.0978344 0.0416288 0.485101 255 0 0
-0.193847 0.032906 0.478896 255 0 0
0.149512 0.178068 0.44232 255 0 0
-0.0710199 0.178319 0.441168 255 0 0
-0.275238 -0.06768 0.645889 255 0 0
-0.0505349 0.164104 0.438641 255 0 0
0.0573144 0.194145 0.417617 255 0 0
0.00556592 0.119941 0.445087 255 0 0
-0.281345 0.0567285 0.490411 255 0 0
-0.0296751 0.0799491 0.47694 255 0 0
-0.281352 0.174862 0.460559 255 0 0
-0.0364182 0.0713291 0.464214 255 0 0
-0.00751989 0.194377 0.456286 255 0 0
-0.234109 0.127705 0.509922 255 0 0
-0.246076 0.135761 0.474121 255 0 0
-0.0626899 0.0618436 0.469402 255 0 0
-0.080275 0.208079 0.468602 255 0 0
-0.298605 0.127271 0.468151 255 0 0
-0.12101 0.108313 0.510146 255 0 0
-0.0479742 0.164324 0.453642 255 0 0
-0.239179 0.189461 0.444031 255 0 0
-0.00607886 0.191936 0.425265 255 0 0
-0.247942 0.0905429 0.505787 255 0 0
0.149811 0.164247 0.467624 255 0 0
0.0127272 0.178568 0.458745 255 0 0
0.0552841 -0.0429028 0.537386 255 0 0
-0.141092 0.0596382 0.487796 255 0 0
-0.112941 0.101853 0.449211 255 0 0
-0.103837 0.0890686 0.475574 255 0 0
-0.154003 -0.00293134 0.506642 255 0 0
-0.294885 -0.107571 0.560843 255 0 0
-0.143623 0.0592051 0.512184 255 0 0
-0.11546 0.106433 0.48855 255 0 0
0.126447 0.0614547 0.499311 255 0 0
-0.288371 0.0654792 0.481821 255 0 0
-0.249143 0.0569084 0.4825 255 0 0
-0.161279 0.12827 0.461634 255 0 0
0.0495405 0.132503 0.47357 255 0 0
-0.106129 0.0480133 0.484559 255 0 0
0.00757519 -0.016924 0.508738 255 0 0
0.108697 0.11742 0.491 255 0 0
0.0452535 0.0669701 0.495939 255 0 0
0.00518307 0.109191 0.496568 255 0 0
0.157298 0.0963532 0.474798 255 0 0
-0.273099 0.0477252 0.488785 255 0 0
-0.289614 0.064407 0.483219 255 0 0
0.0712863 0.198506 0.448418 255 0 0
0.0605715 0.194806 0.430287 255 0 0
0.00541108 0.175074 0.436994 255 0 0
-0.108827 0.042259 0.490902 255 0 0
-0.134929 0.0533379 0.490879 255 0 0
0.0337627 0.0333643 0.526653 255 0 0
-0.0568864 0.0642188 0.476317 255 0 0
0.0633963 0.0175388 0.531659 255 0 0
-0.0770492 0.0634651 0.476296 255 0 0
-0.0899791 -0.0341 0.519274 255 0 0
-0.154665 0.0338923 0.498407 255 0 0
0.144925 0.115975 0.500378 255 0 0
-0.115826 0.100602 0.49127 255 0 0
0.0196927 0.165273 0.4321 255 0 0
0.00999056 0.162773 0.459784 255 0 0
0.0138446 0.190329 0.441036 255 0 0
-0.264224 0.0872305 0.580946 255 0 0
-0.126453 0.0838279 0.486698 255 0 0
-0.0778645 0.0133996 0.5068 255 0 0
-0.0674239 0.0399834 0.491188 255 0 0
-0.14649 0.0689453 0.490323 255 0 0
0.0216331 0.19349 0.463056 255 0 0
0.118586 0.056462 0.546837 255 0 0
0.106718 0.159814 0.430605 255 0 0
-0.197567 0.0263092 0.516647 255 0 0
-0.0650152 0.0368385 0.517815 255 0 0
-0.149908 0.0583192 0.486408 255 0 0
0.0284553 0.178998 0.445287 255 0 0
-0.0678669 0.0990663 0.461246 255 0 0
-0.0987688 0.162005 0.452655 255 0 0
-0.258724 -0.0176973 0.528391 255 0 0
-0.202678 0.133492 0.458846 255 0 0
0.0180076 0.0469269 0.49899 255 0 0
-0.210047 0.135021 0.466378 255 0 0
-0.042439 0.0765885 0.474708 255 0 0
-0.158059 0.060284 0.479999 255 0 0
-0.13747 0.059499 0.487036 255 0 0
-0.286682 0.172614 0.466842 255 0 0
-0.107084 0.027653 0.495437 255 0 0
0.152818 0.188752 0.4777 255 0 0
-0.0956663 0.0432878 0.493467 255 0 0
-0.114629 0.100673 0.499957 255 0 0
-0.257133 0.0654742 0.479784 255 0 0
-0.206017 0.158841 0.453311 255 0 0
-0.0541782 0.0561882 0.514998 255 0 0
-0.106052 0.0329993 0.482696 255 0 0
-0.13818 0.0186476 0.49367 255 0 0
-0.0433798 0.0891142 0.448683 255 0 0
-0.0580469 0.0471946 0.501271 255 0 0
-0.220165 0.134764 0.460336 255 0 0
0.0911651 0.173065 0.432656 255 0 0
-0.0267763 0.254875 0.408612 255 0 0
-0.281537 0.173736 0.452645 255 0 0
0.031105 0.127121 0.467808 255 0 0
0.0067562 0.101569 0.468425 255 0 0
0.141131 0.196006 0.446905 255 0 0
-0.13249 0.119951 0.572229 255 0 0
0.0716328 0.0076897 0.543856 255 0 0
-0.0894514 0.0572379 0.48598 255 0 0
-0.132605 0.120201 0.574682 255 0 0
-0.0898295 0.100853 0.470017 255 0 0
-0.243319 0.0885699 0.490383 255 0 0
-0.0535605 0.0785471 0.497725 255 0 0
0.035294 -0.00357519 0.521699 255 0 0
-0.0527024 0.0128931 0.519085 255 0 0
0.0303573 0.195018 0.443137 255 0 0
0.148312 0.197971 0.459618 255 0 0
-0.302616 0.11054 0.470378 255 0 0
-0.284495 0.0546968 0.504251 255 0 0
-0.295247 0.043572 0.477602 255 0 0
0.0744882 0.170361 0.443474 255 0 0
-0.211423 0.188973 0.410969 255 0 0
-0.246508 0.135599 0.47586 255 0 0
0.13452 0.189944 0.420158 255 0 0
0.00956247 0.136393 0.491312 255 0 0
-0.190231 0.260851 0.367642 255 0 0
0.00847291 0.101491 0.473245 255 0 0
-0.24705 0.17077 0.440936 255 0 0
-0.221347 0.134141 0.472205 255 0 0
-0.157813 0.0602971 0.475248 255 0 0
-0.11759 0.0869348 0.456166 255 0 0
-0.0977694 0.0622662 0.466071 255 0 0
-0.096852 0.0927718 0.482461 255 0 0
-0.0720185 0.158765 0.433749 255 0 0
-0.182657 0.264477 0.36005 255 0 0
-0.19011 0.259808 0.36464 255 0 0
-0.0766699 0.0765364 0.481504 255 0 0
-0.286653 0.0651687 0.477036 255 0 0
-0.0319482 0.0678262 0.481206 255 0 0
-0.11512 0.105759 0.47469 255 0 0
0.107204 0.043551 0.499054 255 0 0
-0.232369 0.0928067 0.479801 255 0 0
-0.248712 0.0565941 0.483209 255 0 0
-0.266084 0.0437183 0.497201 255 0 0
0.0908495 0.0080963 0.518285 255 0 0
0.092918 0.185222 0.450823 255 0 0
-0.0291556 0.174061 0.454508 255 0 0
-0.0328597 0.0679965 0.474722 255 0 0
-0.287739 0.064895 0.478561 255 0 0
-0.0514929 0.00858698 0.527913 255 0 0
-0.248301 0.057382 0.478725 255 0 0
-0.0899098 -0.0599693 0.548901 255 0 0
-0.264882 0.0436452 0.494263 255 0 0
-0.0529093 0.103408 0.500481 255 0 0
-0.265699 0.0414564 0.500296 255 0 0
-0.190594 0.112617 0.4827 255 0 0
0.090794 0.183321 0.447255 255 0 0
-0.272465 0.0768256 0.483847 255 0 0
0.0691384 0.172001 0.462397 255 0 0
0.0465984 0.0677781 0.501852 255 0 0
0.0889432 0.182189 0.444305 255 0 0
0.0114042 0.176523 0.454418 255 0 0
0.043142 0.168752 0.484822 255 0 0
0.02618 0.0680867 0.500524 255 0 0
0.151225 0.104911 0.484741 255 0 0
-0.117807 0.0585293 0.474474 255 0 0
0.0780027 0.201586 0.620737 255 0 0
0.0625182 -0.000687284 0.486105 255 0 0
-0.262516 0.039461 0.492366 255 0 0
-0.0539924 0.100606 0.484352 255 0 0
0.165115 0.109046 0.466904 255 0 0
0.0518765 0.127967 0.485606 255 0 0
0.164933 0.179878 0.46876 255 0 0
-0.0264745 0.254728 0.40697 255 0 0
-0.191514 0.127369 0.440195 255 0 0
-0.205477 0.0719578 0.465622 255 0 0
-0.278765 0.174051 0.449906 255 0 0
-0.323769 0.0316112 0.498249 255 0 0
-0.0267833 0.17322 0.41211 255 0 0
-0.110963 0.100825 0.470601 255 0 0
-0.0758521 0.301607 0.505255 255 0 0
0.0195753 0.159387 0.460635 255 0 0
-0.0449449 0.206984 0.42485 255 0 0
-0.166401 0.153483 0.31839 255 0 0
0.0866936 0.173009 0.424235 255 0 0
0.113275 0.173091 0.381144 255 0 0
-0.292801 0.0505658 0.484365 255 0 0
-0.0874195 0.0967308 0.489913 255 0 0
0.0187908 0.158741 0.458802 255 0 0
-0.116468 0.0271758 0.539092 255 0 0
-0.295631 0.0424066 0.473537 255 0 0
0.0963304 0.175674 0.447484 255 0 0
0.015883 0.157084 0.452574 255 0 0
-0.283392 0.0557766 0.491541 255 0 0
-0.0291495 0.0894549 0.465123 255 0 0
-0.0535942 0.0781899 0.498379 255 0 0
0.096225 0.00565152 0.534852 255 0 0
0.0359021 -0.0047074 0.526021 255 0 0
-0.12685 0.0803682 0.492947 255 0 0
-0.0803581 0.0389565 0.492665 255 0 0
-0.00313139 0.0562271 0.504048 255 0 0
-0.094172 0.0813122 0.474045 255 0 0
-0.0907511 0.0576512 0.47034 255 0 0
-0.263295 0.0635291 0.500152 255 0 0
-0.27222 0.0479607 0.490051 255 0 0
-0.0795748 0.0369759 0.503128 255 0 0
-0.300431 0.0936139 0.486274 255 0 0
0.0700539 0.197887 0.44366 255 0 0
-0.0185421 0.151178 0.472363 255 0 0
0.0241143 0.177487 0.436106 255 0 0
-0.113176 0.10631 0.442661 255 0 0
-0.187449 0.167297 0.430296 255 0 0
-0.0968253 0.166622 0.440274 255 0 0
-0.0806013 0.2859 0.454496 255 0 0
-0.18961 0.0312511 0.505658 255 0 0
0.15068 0.186693 0.458838 255 0 0
-0.0788484 0.290715 0.490091 255 0 0
-0.0209279 0.152194 0.453254 255 0 0
0.150101 0.166976 0.517294 255 0 0
-0.301915 0.110352 0.467595 255 0 0
-0.0214034 0.151847 0.452749 255 0 0
0.0916861 0.173748 0.436627 255 0 0
0.153108 0.16747 0.523815 255 0 0
-0.30258 0.057882 0.504414 255 0 0
-0.115393 0.102015 0.473116 255 0 0
0.111823 0.159468 0.439771 255 0 0
-0.109064 0.165973 0.439637 255 0 0
-0.0912821 0.0811649 0.481658 255 0 0
-0.0355911 0.131443 0.491821 255 0 0
-0.0108838 0.106738 0.438197 255 0 0
-0.148279 0.148109 0.457158 255 0 0
-0.165647 0.126697 0.467591 255 0 0
-0.194497 0.189424 0.446424 255 0 0
-0.149313 0.148945 0.465074 255 0 0
0.0936029 0.186015 0.452203 255 0 0
-0.0777245 0.0142772 0.506104 255 0 0
0.0236079 0.167446 0.443273 255 0 0
-0.240565 0.182274 0.447388 255 0 0
0.0298194 0.180021 0.44835 255 0 0
-0.19852 0.113726 0.471433 255 0 0
-0.104393 0.0127622 0.503628 255 0 0
-0.298764 0.0955248 0.478375 255 0 0
-0.287689 0.0768816 0.499072 255 0 0
-0.24377 0.184991 0.461837 255 0 0
-0.0478696 0.165767 0.450323 255 0 0
-0.164432 0.029083 0.503877 255 0 0
-0.163717 0.0217177 0.491557 255 0 0
-0.137397 0.0279257 0.516311 255 0 0
0.112598 0.162274 0.445755 255 0 0
0.088712 0.184866 0.441685 255 0 0
-0.154721 0.145151 0.451631 255 0 0
-0.0897353 0.0979402 0.500048 255 0 0
-0.290588 0.0516042 0.479143 255 0 0
-0.209844 0.135014 0.464718 255 0 0
0.117696 0.12976 0.549521 255 0 0
-0.296824 0.127713 0.462233 255 0 0
-0.2838 0.172908 0.459955 255 0 0
-0.201248 0.0281682 0.493872 255 0 0
-0.207496 0.134739 0.45431 255 0 0
-0.218067 0.00340823 0.647012 255 0 0
-0.184853 0.0482136 0.363612 255 0 0
-0.0337662 0.137317 0.477713 255 0 0
0.160427 0.189756 0.49047 255 0 0
-0.281223 0.171058 0.452375 255 0 0
-0.260016 0.0467086 0.47266 255 0 0
-0.300309 0.12818 0.475519 255 0 0
-0.208375 0.0176706 0.554252 255 0 0
0.10643 0.210248 0.524792 255 0 0
0.149581 0.141647 0.456356 255 0 0
-0.291208 0.0643419 0.484998 255 0 0
-0.279202 0.169175 0.441599 255 0 0
-0.0976143 0.176628 0.440707 255 0 0
-0.300964 0.129801 0.478957 255 0 0
0.107794 0.128792 0.446084 255 0 0
-0.291507 0.066032 0.477368 255 0 0
-0.280116 0.165866 0.440686 255 0 0
-0.291889 0.0509485 0.478476 255 0 0
-0.269711 0.078927 0.492844 255 0 0
0.150339 0.0940015 0.48996 255 0 0
-0.160093 0.0804297 0.467232 255 0 0
0.159421 0.119712 0.448522 255 0 0
-0.282037 0.0476972 0.479099 255 0 0
-0.269665 0.0786646 0.49114 255 0 0
0.0566735 0.0812082 0.509036 255 0 0
0.00134757 0.111131 0.480521 255 0 0
-0.216056 0.133084 0.440558 255 0 0
-0.27614 0.0114708 0.523045 255 0 0
-0.0869554 0.104238 0.467717 255 0 0
0.0757895 0.116308 0.544927 255 0 0
-0.13355 0.132311 0.523004 255 0 0
0.0561519 0.165706 0.435895 255 0 0
-0.0484663 0.166433 0.365963 255 0 0
-0.0419136 0.20896 0.446249 255 0 0
-0.21942 0.278359 2.18263 255 0 0
-0.216526 0.273288 2.12967 255 0 0
-0.179272 0.0812502 0.501479 255 0 0
34.5606 -10.9991 152.87 255 0 0
-0.0699671 0.0434424 0.493171 255 0 0
0.10231 0.117731 0.476721 255 0 0
-0.175072 0.0831863 0.470661 255 0 0
-0.0792164 0.190818 0.60749 255 0 0
-0.0066877 0.0403544 0.505949 255 0 0
0.0991988 0.116162 0.49839 255 0 0
-0.209063 -0.0353745 0.857151 255 0 0
-0.0413735 0.0824326 0.45286 255 0 0
0.659219 0.2335 1.51539 255 0 0
-0.0910255 0.0552829 0.481021 255 0 0
-0.0574556 0.0605775 0.489187 255 0 0
0.034415 0.122165 0.464172 255 0 0
-0.201876 0.18019 0.445359 255 0 0
-0.105527 0.0103438 0.503455 255 0 0
-0.232763 -0.0291616 0.873097 255 0 0
-0.276868 0.0917941 0.412051 255 0 0
0.101692 0.157067 0.420012 255 0 0
0.0336279 0.121661 0.465799 255 0 0
-0.137368 0.132373 0.462834 255 0 0
-0.055258 0.0798109 0.483955 255 0 0
-0.0706347 0.159553 0.438654 255 0 0
-0.191456 0.0198005 0.565646 255 0 0
0.0655175 0.168354 0.453811 255 0 0
-0.271094 0.0772399 0.480699 255 0 0
0.0297917 0.0803853 0.493923 255 0 0
-0.169248 0.0706465 0.494215 255 0 0
0.0637508 0.134557 0.464317 255 0 0
-0.271362 -0.00518753 0.522453 255 0 0
-0.261337 0.0785749 0.413072 255 0 0
-0.0335411 0.221026 0.437076 255 0 0
0.146894 0.152678 0.46736 255 0 0
-0.0334793 0.221108 0.4371 255 0 0
-0.230255 0.182233 0.362655 255 0 0
-0.162398 0.0597731 0.468732 255 0 0
-0.169491 0.125108 0.45405 255 0 0
0.000297309 0.17661 0.424571 255 0 0
-0.223763 0.459201 7.36269 255 0 0
0.0563832 0.124338 0.475322 255 0 0
0.0418992 0.239401 0.834369 255 0 0
0.181763 0.143024 0.483818 255 0 0
-0.0907369 0.137001 0.0942612 255 0 0
-0.212838 0.409779 6.39526 255 0 0
0.0234399 0.165811 0.443185 255 0 0
-0.198986 0.114042 0.472786 255 0 0
0.0228036 0.165245 0.442073 255 0 0
-0.178351 0.170894 0.445984 255 0 0
-0.190077 0.13439 0.452153 255 0 0
-0.2024 0.115455 0.471736 255 0 0
0.118867 0.191686 0.412101 255 0 0
-0.0760997 0.161184 0.714697 255 0 0
0.269042 0.474211 2.48888 255 0 0
-0.0460178 0.0680384 0.480907 255 0 0
-0.252201 0.0979512 0.467485 255 0 0
-0.189687 0.191995 0.859598 255 0 0
0.0838685 0.173795 0.458425 255 0 0
-0.0474631 0.114767 0.486088 255 0 0
-0.207805 0.026557 0.544733 255 0 0
-0.191644 0.134685 0.466954 255 0 0
0.0771812 0.26051 1.61293 255 0 0
