ply
format ascii 1.0
comment author: Gordon Liu
element vertex 2666
property double x
property double y
property double z
property uchar red
property uchar green
property uchar blue
end_header
-0.0127837 -0.0233281 0.558157 255 0 0
0.102547 0.0753078 0.61892 255 0 0
-0.74527 0.413078 1.89555 255 0 0
-0.0451645 -0.00474284 0.442553 255 0 0
-0.146342 -0.106865 0.488784 255 0 0
0.097103 -0.0969727 0.524798 255 0 0
-0.197387 -0.0803027 0.50014 255 0 0
-0.00544409 -0.0978174 0.492954 255 0 0
0.145442 -0.0416603 0.492643 255 0 0
-0.123398 -0.0850114 0.504525 255 0 0
-0.113703 0.0921732 0.308837 255 0 0
-0.513296 0.438907 1.62201 255 0 0
-0.305285 0.24756 0.907507 255 0 0
-0.155086 0.120062 0.426608 255 0 0
-0.213037 0.165733 0.604265 255 0 0
-0.165585 0.122199 0.444681 255 0 0
-0.212367 0.132609 0.536243 255 0 0
0.124719 -0.02726 0.452199 255 0 0
0.127113 -0.0350671 0.471047 255 0 0
-0.142856 -0.0619224 0.471347 255 0 0
-0.0196086 -0.0998731 0.494657 255 0 0
0.126554 -0.0330518 0.515377 255 0 0
-0.0214901 -0.0676307 0.485253 255 0 0
-0.0297188 -0.0656239 0.494656 255 0 0
-0.0308602 -0.0690717 0.475814 255 0 0
-0.150342 -0.0948641 0.488617 255 0 0
0.120578 -0.0237367 0.467586 255 0 0
0.141078 -0.0494457 0.488242 255 0 0
-0.108781 -0.0913771 0.457385 255 0 0
-0.125824 -0.10563 0.49625 255 0 0
-0.123198 -0.110766 0.492093 255 0 0
-0.0592318 -0.0677283 0.483998 255 0 0
-0.0590386 -0.0705422 0.466459 255 0 0
-0.0264304 -0.0467159 0.477775 255 0 0
-0.0214936 -0.0534926 0.471751 255 0 0
-0.0537232 -0.0879778 0.488452 255 0 0
-0.0426698 -0.0391382 0.477788 255 0 0
-0.640749 0.482241 1.88264 255 0 0
-0.206363 -0.0639534 0.485726 255 0 0
0.122967 -0.0437148 0.488876 255 0 0
0.0871049 -0.0111663 0.464741 255 0 0
-0.0179881 -0.0438526 0.468538 255 0 0
-0.0179388 -0.0616828 0.49555 255 0 0
0.0250225 0.0321663 0.421823 255 0 0
-0.0277513 -0.112034 0.49691 255 0 0
0.0301974 -0.0336471 0.462165 255 0 0
-0.141752 -0.0357365 0.493446 255 0 0
0.0259325 0.0318988 0.466515 255 0 0
-0.229006 -0.0454807 0.47737 255 0 0
-0.0334148 -0.0318914 0.465128 255 0 0
0.0567451 -0.0901084 0.480429 255 0 0
0.082937 -0.103971 0.510829 255 0 0
-0.0993699 0.00378337 0.463425 255 0 0
-0.0694227 0.0105174 0.449816 255 0 0
0.145808 -0.0954911 0.485716 255 0 0
-0.0538092 -0.0960275 0.489403 255 0 0
-0.118776 -0.0792127 0.478491 255 0 0
-0.137758 -0.0950301 0.482037 255 0 0
-0.146959 -0.107247 0.49014 255 0 0
0.135221 -0.0557869 0.488601 255 0 0
-0.0596957 -0.0171589 0.462118 255 0 0
0.0859561 -0.106369 0.523596 255 0 0
-0.125339 -0.0122633 0.453288 255 0 0
-0.03713 -0.046269 0.478324 255 0 0
0.00947361 -0.070341 0.461981 255 0 0
0.134751 -0.0285346 0.489678 255 0 0
0.13654 -0.0416351 0.48692 255 0 0
-0.152128 -0.0702173 0.50716 255 0 0
0.122965 -0.0438186 0.489368 255 0 0
0.116747 -0.0304225 0.472382 255 0 0
-0.123038 -0.110955 0.492407 255 0 0
-0.0370224 -0.0632896 0.46631 255 0 0
-0.0594001 -0.0684035 0.484893 255 0 0
-0.0204943 -0.114185 0.496043 255 0 0
-0.136744 -0.103404 0.503805 255 0 0
-0.129333 -0.109212 0.512789 255 0 0
-0.0221064 -0.026752 0.440236 255 0 0
-0.0319761 -0.0409914 0.474743 255 0 0
-0.0237532 -0.0614236 0.434809 255 0 0
-0.135239 -0.0350809 0.457873 255 0 0
0.0201349 -0.0404808 0.467623 255 0 0
0.11682 -0.0123127 0.476376 255 0 0
0.11761 -0.0217284 0.474626 255 0 0
-0.232517 0.260779 0.843371 255 0 0
-0.0623517 -0.0844313 0.489657 255 0 0
-0.0411292 -0.0290846 0.471258 255 0 0
-0.0343491 -0.032616 0.463661 255 0 0
-0.00127105 -0.105293 0.491958 255 0 0
0.0560696 -0.0766769 0.474313 255 0 0
-0.0212407 -0.0523242 0.465723 255 0 0
-0.0318726 -0.0529298 0.480569 255 0 0
-0.18756 -0.0769655 0.477082 255 0 0
-0.0534771 -0.0234176 0.460406 255 0 0
-0.0796111 -0.0793817 0.484641 255 0 0
0.101437 -0.0948712 0.500092 255 0 0
0.0974428 -0.055615 0.476062 255 0 0
0.135545 -0.0392627 0.46068 255 0 0
0.0545623 -0.0853674 0.492372 255 0 0
0.0559783 -0.0913877 0.479852 255 0 0
-0.195872 -0.0729448 0.4761 255 0 0
-0.112646 -0.0964491 0.47926 255 0 0
-0.157254 -0.145857 0.670073 255 0 0
-0.0183844 -0.0437016 0.464217 255 0 0
0.0831142 -0.101897 0.506768 255 0 0
-0.0226352 -0.0309721 0.457951 255 0 0
-0.0102845 -0.020197 0.461383 255 0 0
0.122117 -0.0498079 0.482682 255 0 0
-0.0648994 -0.0915554 0.485399 255 0 0
0.136406 -0.0909944 0.480983 255 0 0
0.139771 -0.0941501 0.513729 255 0 0
-0.136778 -0.103102 0.504254 255 0 0
0.123452 -0.0251224 0.475666 255 0 0
0.133996 -0.0372961 0.487903 255 0 0
-0.0140198 -0.0679139 0.498067 255 0 0
-0.0198067 -0.0992039 0.494345 255 0 0
0.144255 -0.0414522 0.491595 255 0 0
0.13663 -0.0481628 0.475292 255 0 0
-0.0451691 -0.0696053 0.488187 255 0 0
-0.0372703 -0.0473692 0.480255 255 0 0
-0.0429772 -0.0397706 0.476725 255 0 0
-0.0627918 -0.0824269 0.492402 255 0 0
-0.0415224 -0.0287507 0.470182 255 0 0
0.116313 -0.0330199 0.479002 255 0 0
-0.0298947 -0.0601032 0.477835 255 0 0
-0.0227922 -0.0675958 0.477243 255 0 0
-0.0264056 -0.045157 0.465742 255 0 0
-0.0326564 -0.0530566 0.481294 255 0 0
-0.108662 -0.0865964 0.481953 255 0 0
-0.0916107 -0.0828787 0.475102 255 0 0
0.115469 0.0767455 0.590646 255 0 0
0.122747 -0.0440742 0.490433 255 0 0
0.140445 -0.0943628 0.518033 255 0 0
-0.146642 -0.100439 0.508791 255 0 0
0.100021 -0.0952777 0.498807 255 0 0
-0.0533318 -0.0974798 0.490763 255 0 0
-0.0123354 -0.0227143 0.571756 255 0 0
4.64555e-05 -0.0767197 0.436552 255 0 0
-0.0529649 -0.0878008 0.48972 255 0 0
-0.0265149 -0.0470091 0.47715 255 0 0
-0.0207267 -0.0528332 0.468355 255 0 0
0.143778 -0.0409185 0.489812 255 0 0
-0.189987 -0.0783824 0.48451 255 0 0
-0.100157 -0.100257 0.532122 255 0 0
-0.0803955 -0.0812434 0.496683 255 0 0
-0.0651658 -0.0923025 0.494222 255 0 0
0.0721636 0.0583859 0.466992 255 0 0
-0.0891418 -0.00159901 0.472975 255 0 0
0.00971824 0.0129773 0.470405 255 0 0
-0.0814426 -0.00460933 0.451631 255 0 0
-0.138702 -0.0366993 0.463639 255 0 0
-0.0547129 -0.0748935 0.469758 255 0 0
-0.210685 -0.0574673 0.473244 255 0 0
-0.0799677 -0.00675309 0.456597 255 0 0
-0.244187 -0.0302204 0.462153 255 0 0
-0.0937249 -0.00119314 0.465415 255 0 0
0.00948586 0.0148717 0.453489 255 0 0
-0.22815 -0.045149 0.471961 255 0 0
-0.0679167 -0.0105695 0.465016 255 0 0
-0.0379686 -0.0209667 0.450718 255 0 0
0.0506141 0.000891943 0.477622 255 0 0
-0.0658806 -0.0131354 0.467216 255 0 0
0.0213009 0.0255543 0.45548 255 0 0
-0.0513567 0.00516216 0.447656 255 0 0
-0.135834 -0.0295091 0.464756 255 0 0
-0.130079 -0.0212252 0.476088 255 0 0
-0.0213601 -0.05628 0.447199 255 0 0
-0.0219999 -0.0698203 0.483691 255 0 0
-0.0319775 -0.0698263 0.475141 255 0 0
-0.150514 -0.0957264 0.489181 255 0 0
-0.142075 -0.0633504 0.466795 255 0 0
-0.0224295 -0.0317812 0.466117 255 0 0
-0.0174512 -0.0643052 0.47537 255 0 0
-0.0893622 -0.0808219 0.462521 255 0 0
0.0713666 0.05829 0.457357 255 0 0
-0.0371983 -0.0483824 0.481054 255 0 0
0.0191295 -0.0413248 0.475453 255 0 0
-0.0415963 -0.0688926 0.490105 255 0 0
-0.0202162 -0.0552504 0.477277 255 0 0
0.0934472 -0.0499923 0.448214 255 0 0
-0.13821 -0.0424372 0.47165 255 0 0
-0.0505381 -0.0667164 0.470808 255 0 0
-0.140205 -0.105343 0.518925 255 0 0
0.0855771 -0.0107734 0.478794 255 0 0
-0.014471 -0.0651061 0.480585 255 0 0
0.136186 -0.0480448 0.475945 255 0 0
0.135379 -0.0575995 0.489335 255 0 0
0.0550203 -0.0926014 0.483213 255 0 0
-0.0661351 -0.0928276 0.490467 255 0 0
0.0967571 -0.0106455 0.450168 255 0 0
0.0908743 0.0578704 0.456102 255 0 0
0.0488514 0.000849785 0.464886 255 0 0
0.124231 0.0474283 0.483781 255 0 0
0.121098 -0.0250662 0.486485 255 0 0
0.148634 -0.0318289 0.539472 255 0 0
-0.000201504 -0.0892989 0.48946 255 0 0
-0.0318591 -0.0618263 0.471513 255 0 0
-0.0315726 -0.0414935 0.474694 255 0 0
-0.0384203 -0.0491265 0.479645 255 0 0
-0.137605 -0.0581929 0.469468 255 0 0
0.0898809 -0.0308693 0.494656 255 0 0
-0.141521 -0.0647309 0.466593 255 0 0
-0.151753 -0.0955037 0.490176 255 0 0
-0.0330758 -0.0714235 0.4796 255 0 0
-0.0234748 -0.0814134 0.433697 255 0 0
0.11997 -0.0425458 0.488345 255 0 0
0.0988109 -0.0522747 0.467872 255 0 0
-0.00536979 -0.032416 0.679241 255 0 0
-0.109287 -0.0867686 0.473378 255 0 0
-0.0422376 -0.0278417 0.470411 255 0 0
0.0513438 -0.0833863 0.479973 255 0 0
0.118069 -0.0121181 0.478497 255 0 0
-0.0569307 -0.079969 0.557809 255 0 0
-0.0528124 -0.0873521 0.493126 255 0 0
0.109869 0.0601189 0.513076 255 0 0
0.0897698 -0.0017321 0.634128 255 0 0
-0.0584938 -0.0693356 0.514616 255 0 0
-0.114177 -0.0873609 0.481333 255 0 0
-0.042749 -0.0272138 0.46955 255 0 0
-0.14077 -0.0430806 0.482174 255 0 0
-0.127494 -0.074546 0.474019 255 0 0
-0.141528 -0.0681255 0.469103 255 0 0
-0.0919458 -0.102172 0.629619 255 0 0
-0.0761234 -0.0783505 0.480509 255 0 0
-0.0162221 -0.0418458 0.465073 255 0 0
0.00826204 -0.0590507 0.475709 255 0 0
0.050394 -0.074846 0.463413 255 0 0
0.0595507 -0.0910429 0.530899 255 0 0
-0.0214552 -0.0717044 0.485542 255 0 0
-0.0251425 -0.0501207 0.387782 255 0 0
-0.0506185 -0.0805945 0.461271 255 0 0
-0.0275218 -0.0455594 0.474681 255 0 0
-0.0196437 -0.0558804 0.473808 255 0 0
-0.0125206 -0.0634315 0.452711 255 0 0
-0.000701917 -0.0887707 0.489599 255 0 0
0.122744 -0.0522146 0.484552 255 0 0
0.030441 0.0354277 0.431308 255 0 0
-0.0458175 -0.0398149 0.470485 255 0 0
0.0854453 -0.0108321 0.483697 255 0 0
-0.0461632 -0.0339542 0.455153 255 0 0
-0.0509806 -0.0654137 0.495654 255 0 0
0.136549 -0.0207493 0.718008 255 0 0
-0.0210996 -0.0297982 0.489321 255 0 0
-0.137965 -0.062279 0.474317 255 0 0
0.141435 -0.0511228 0.48355 255 0 0
-0.0318001 -0.0640507 0.496882 255 0 0
-0.0362337 -0.0765238 0.485827 255 0 0
-0.00724263 -0.0125076 0.459584 255 0 0
0.106352 -0.0534106 0.490045 255 0 0
-0.0279047 -0.0439974 0.477976 255 0 0
0.123767 -0.0158418 0.470086 255 0 0
0.150683 -0.044284 0.532384 255 0 0
-0.0422442 -0.0218486 0.432117 255 0 0
-0.0705447 -0.0136504 0.493285 255 0 0
-0.140297 -0.0419272 0.481415 255 0 0
0.1024 0.056798 0.459619 255 0 0
0.033143 0.0336266 0.533132 255 0 0
0.0342882 0.0388196 0.462738 255 0 0
0.0255972 -0.00200938 0.433764 255 0 0
-0.13388 -0.00444845 0.543111 255 0 0
-0.134244 -0.013265 0.48917 255 0 0
-0.181388 0.124251 0.47317 255 0 0
-0.437106 0.271163 1.1478 255 0 0
-0.270678 0.156667 0.672446 255 0 0
-0.168597 0.094032 0.392189 255 0 0
-0.121676 0.0667289 0.266706 255 0 0
-0.159421 0.0900401 0.370527 255 0 0
-0.367092 0.217734 0.928902 255 0 0
-0.149264 0.0836159 0.338786 255 0 0
-0.355151 0.179975 0.846098 255 0 0
-0.547407 0.271484 1.31948 255 0 0
0.0555254 -0.0350484 0.425923 255 0 0
0.127773 0.084689 0.656562 255 0 0
0.113426 0.0841938 0.661408 255 0 0
0.0269715 0.0329982 0.444801 255 0 0
0.0312802 0.0306556 0.508378 255 0 0
-0.0996501 0.00308154 0.463052 255 0 0
-0.0856513 -0.00255493 0.470544 255 0 0
-0.0897943 -0.00213765 0.517698 255 0 0
0.203464 0.130021 1.17567 255 0 0
0.12851 0.0985469 0.834595 255 0 0
-0.789907 0.356599 1.85886 255 0 0
-0.0834997 0.0100085 0.751906 255 0 0
-0.112149 -0.00615779 0.464716 255 0 0
0.10274 0.0601573 0.479966 255 0 0
-0.23439 0.215283 0.743471 255 0 0
-0.116009 0.0988612 0.327403 255 0 0
-0.126262 0.106416 0.357867 255 0 0
-0.181365 -0.244324 0.527394 255 0 0
-0.15437 -0.274442 0.52454 255 0 0
-0.17143 -0.201891 0.518598 255 0 0
-0.221591 -0.330124 0.546563 255 0 0
-0.220337 -0.331538 0.551431 255 0 0
-0.220026 -0.332274 0.573115 255 0 0
-0.219373 -0.050582 0.49207 255 0 0
-0.102099 0.0108586 0.501858 255 0 0
-0.200913 -0.176624 0.485972 255 0 0
-0.176527 -0.0886288 0.485682 255 0 0
-0.130116 -0.0701193 0.475859 255 0 0
-0.0924082 -0.0822566 0.47508 255 0 0
-0.226154 -0.24421 0.50806 255 0 0
-0.139511 -0.099457 0.485936 255 0 0
-0.200047 -0.0718651 0.481858 255 0 0
-0.141465 -0.102687 0.482928 255 0 0
-0.155835 -0.27525 0.51733 255 0 0
-0.167724 -0.199898 0.516324 255 0 0
-0.23548 -0.313257 0.537999 255 0 0
-0.14 -0.186335 0.512043 255 0 0
-0.0353417 -0.0150595 0.464565 255 0 0
-0.139657 -0.0463346 0.461783 255 0 0
-0.215221 -0.0561721 0.480274 255 0 0
-0.00278269 -0.00864568 0.450525 255 0 0
0.0102164 -0.0701373 0.465071 255 0 0
-0.0961163 0.00171179 0.460925 255 0 0
0.00974266 0.0106173 0.462915 255 0 0
-0.173746 -0.0899337 0.488072 255 0 0
-0.161061 -0.259606 0.507432 255 0 0
-0.184352 -0.247102 0.52417 255 0 0
-0.229559 -0.335401 0.551058 255 0 0
-0.21008 -0.334666 0.55032 255 0 0
-0.206984 -0.379274 0.579232 255 0 0
-0.174461 -0.438799 0.571093 255 0 0
-0.210603 -0.380259 0.567155 255 0 0
-0.198697 -0.226269 0.533731 255 0 0
-0.20032 -0.229535 0.516718 255 0 0
-0.193773 -0.4017 0.57794 255 0 0
-0.15028 -0.223547 0.513522 255 0 0
-0.170952 -0.199572 0.525344 255 0 0
-0.210997 -0.343814 0.554548 255 0 0
-0.209742 -0.346451 0.555085 255 0 0
-0.15416 -0.267455 0.511756 255 0 0
-0.208506 -0.194556 0.508952 255 0 0
-0.126789 -0.144744 0.488537 255 0 0
-0.191577 -0.336944 0.555419 255 0 0
-0.126098 -0.134729 0.488856 255 0 0
-0.221208 -0.331844 0.548672 255 0 0
-0.201364 -0.232375 0.509321 255 0 0
-0.15309 -0.260315 0.511526 255 0 0
-0.212376 -0.342375 0.556085 255 0 0
-0.201046 -0.233496 0.512653 255 0 0
-0.160616 -0.259966 0.507198 255 0 0
0.00724015 -0.00881608 0.512637 255 0 0
-0.221236 -0.375426 0.543192 255 0 0
-0.151353 -0.473031 0.571087 255 0 0
-0.212403 -0.38336 0.542199 255 0 0
-0.131084 -0.446198 0.570515 255 0 0
-0.141785 -0.471397 0.569548 255 0 0
-0.0995336 -0.523479 0.611022 255 0 0
-0.108662 -0.525559 0.588602 255 0 0
-0.228744 -0.0456616 0.479509 255 0 0
-0.0343628 -0.010665 0.487552 255 0 0
-0.0647642 -0.0125654 0.473346 255 0 0
0.008042 -0.00774593 0.445174 255 0 0
-0.170801 -0.263668 0.50918 255 0 0
-0.0939093 -0.513622 0.623298 255 0 0
-0.11071 -0.5385 0.558527 255 0 0
-0.0703074 -0.514468 0.597738 255 0 0
-0.0714039 -0.507403 0.613051 255 0 0
0.0962488 -0.624442 0.608451 255 0 0
0.172958 -0.590295 0.791602 255 0 0
-0.0856796 -0.530163 0.583867 255 0 0
-0.114265 -0.530696 0.553498 255 0 0
-0.071051 -0.520256 0.614777 255 0 0
-0.0556838 -0.478837 0.658121 255 0 0
0.05995 -0.565492 0.562844 255 0 0
0.0673026 -0.554372 0.58613 255 0 0
0.0199835 -0.417923 0.540719 255 0 0
0.0693596 -0.604898 0.584501 255 0 0
-0.245302 -0.29503 0.54108 255 0 0
0.221182 -0.442877 0.598753 255 0 0
0.297585 -0.416265 0.549921 255 0 0
0.323028 -0.39229 0.561947 255 0 0
0.326371 -0.384623 0.573213 255 0 0
0.307714 -0.419121 0.519421 255 0 0
0.232141 -0.445659 0.543684 255 0 0
0.270342 -0.577721 0.56266 255 0 0
0.314471 -0.405594 0.553432 255 0 0
0.298084 -0.39984 0.584905 255 0 0
0.275179 -0.42223 0.546487 255 0 0
0.278568 -0.414885 0.557263 255 0 0
0.284969 -0.403647 0.559884 255 0 0
0.285523 -0.403238 0.560951 255 0 0
0.22182 -0.417468 0.558912 255 0 0
0.277109 -0.400594 0.550719 255 0 0
0.0868854 -0.464324 0.558068 255 0 0
0.0868427 -0.46765 0.551093 255 0 0
0.279909 -0.398034 0.556767 255 0 0
0.160467 -0.425291 0.561771 255 0 0
0.0143397 -0.488046 0.58221 255 0 0
0.267377 -0.402307 0.558886 255 0 0
-0.00106863 -0.49497 0.572827 255 0 0
-0.0600235 -0.437656 0.564662 255 0 0
-0.0626281 -0.435009 0.571323 255 0 0
-0.121754 -0.512415 0.601119 255 0 0
-0.239185 -0.332302 0.505076 255 0 0
-0.240762 -0.269349 0.534849 255 0 0
-0.211422 -0.376227 0.571684 255 0 0
-0.199864 -0.280705 0.461977 255 0 0
-0.209979 -0.195543 0.500402 255 0 0
-0.208955 -0.197387 0.503832 255 0 0
-0.203144 -0.34909 0.528169 255 0 0
-0.115387 -0.183023 0.514772 255 0 0
-0.231286 -0.251041 0.526213 255 0 0
-0.20143 -0.286126 0.535514 255 0 0
-0.212803 -0.378386 0.55955 255 0 0
-0.216277 -0.386099 0.54186 255 0 0
-0.212914 -0.342329 0.554313 255 0 0
-0.178921 -0.259719 0.524835 255 0 0
-0.142926 -0.0551257 0.474608 255 0 0
-0.142527 -0.0535071 0.477973 255 0 0
-0.14237 -0.055563 0.475981 255 0 0
-0.144651 -0.0891574 0.49165 255 0 0
-0.243892 -0.282654 0.529826 255 0 0
-0.181961 -0.265607 0.503513 255 0 0
-0.174774 -0.422261 0.64864 255 0 0
-0.160008 -0.219725 0.533198 255 0 0
-0.171452 -0.439259 0.540552 255 0 0
-0.0548327 -0.507931 0.562644 255 0 0
-0.0580335 -0.507379 0.57282 255 0 0
-0.106382 -0.434697 0.574415 255 0 0
-0.105155 -0.439815 0.565462 255 0 0
-0.0133226 -0.488902 0.578757 255 0 0
-0.144063 -0.436823 0.562631 255 0 0
-0.181617 -0.413025 0.591683 255 0 0
-0.162869 -0.44339 0.576333 255 0 0
-0.141317 -0.469713 0.580195 255 0 0
-0.241291 -0.27407 0.525827 255 0 0
-0.234774 -0.256207 0.547475 255 0 0
-0.229283 -0.33914 0.543744 255 0 0
-0.206806 -0.294928 0.54119 255 0 0
-0.23202 -0.327229 0.539556 255 0 0
-0.231783 -0.304159 0.506148 255 0 0
-0.16668 -0.424767 0.572301 255 0 0
-0.057509 -0.509584 0.56006 255 0 0
-0.139828 -0.447683 0.578692 255 0 0
-0.128478 -0.431346 0.581698 255 0 0
-0.0931065 -0.444346 0.571104 255 0 0
-0.106475 -0.524761 0.59456 255 0 0
-0.0845181 -0.534689 0.58634 255 0 0
-0.218766 -0.353331 0.593012 255 0 0
-0.221033 -0.331439 0.548069 255 0 0
-0.119775 -0.515976 0.588181 255 0 0
-0.133053 -0.509757 0.587841 255 0 0
-0.129172 -0.482698 0.58902 255 0 0
-0.129798 -0.483543 0.592792 255 0 0
-0.132492 -0.483584 0.579764 255 0 0
-0.00942046 -0.482752 0.57345 255 0 0
-0.00961347 -0.482768 0.571357 255 0 0
0.0757654 -0.60305 0.606124 255 0 0
0.129249 -0.58844 0.756638 255 0 0
0.0735807 -0.603977 0.600377 255 0 0
0.0696781 -0.587294 0.603746 255 0 0
0.07877 -0.602151 0.611765 255 0 0
-0.220848 -0.332612 0.548241 255 0 0
-0.148271 -0.492242 0.580337 255 0 0
-0.213326 -0.331988 0.554548 255 0 0
0.11826 -0.629334 0.613443 255 0 0
0.218704 -0.385814 0.559867 255 0 0
0.104141 -0.427126 0.41811 255 0 0
0.12909 -0.402958 0.545889 255 0 0
-0.0279274 -0.44865 0.56813 255 0 0
0.130796 -0.39958 0.551781 255 0 0
-0.0473037 -0.450972 0.566074 255 0 0
0.154659 -0.600324 0.518391 255 0 0
0.144008 -0.568833 0.619856 255 0 0
0.144887 -0.578886 0.582165 255 0 0
0.147039 -0.590166 0.538236 255 0 0
0.071206 -0.607852 0.591219 255 0 0
0.145512 -0.585911 0.555057 255 0 0
0.212194 -0.539575 0.555523 255 0 0
0.21274 -0.537684 0.566662 255 0 0
0.21283 -0.535589 0.57418 255 0 0
0.212815 -0.535373 0.566931 255 0 0
0.212567 -0.535157 0.565715 255 0 0
0.212562 -0.535849 0.559152 255 0 0
0.256857 -0.50402 0.577798 255 0 0
0.138907 -0.572811 0.580994 255 0 0
0.200006 -0.448028 0.580231 255 0 0
-0.0159768 -0.471025 0.548568 255 0 0
0.119779 -0.466462 0.589743 255 0 0
0.112213 -0.460805 0.584038 255 0 0
-0.0694449 -0.514743 0.596457 255 0 0
0.136954 -0.638258 0.57444 255 0 0
-0.0570853 -0.513053 0.589425 255 0 0
-0.0536172 -0.529876 0.548944 255 0 0
0.133726 -0.549414 0.61012 255 0 0
0.182859 -0.614572 0.591834 255 0 0
0.0598092 -0.566104 0.551858 255 0 0
0.068715 -0.577388 0.60856 255 0 0
0.139638 -0.632391 0.607088 255 0 0
0.16058 -0.627636 0.605415 255 0 0
0.12027 -0.645988 0.536039 255 0 0
0.0599834 -0.578057 0.558469 255 0 0
0.0610652 -0.576575 0.560754 255 0 0
0.000399764 -0.489098 0.584391 255 0 0
-0.0401477 -0.452361 0.560873 255 0 0
-0.0455374 -0.436047 0.577037 255 0 0
7.49373e-05 -0.467569 0.572978 255 0 0
-0.0469225 -0.432997 0.574957 255 0 0
-0.134376 -0.509432 0.591568 255 0 0
-0.136041 -0.505258 0.599899 255 0 0
-0.121436 -0.51025 0.602353 255 0 0
-0.134926 -0.469813 0.514864 255 0 0
-0.131454 -0.450289 0.57746 255 0 0
-0.127707 -0.429011 0.584697 255 0 0
-0.127704 -0.480052 0.559975 255 0 0
-0.140671 -0.44333 0.576773 255 0 0
-0.0489289 -0.479516 0.565414 255 0 0
-0.130179 -0.427328 0.588129 255 0 0
-0.060775 -0.506838 0.618755 255 0 0
0.221927 -0.417449 0.557714 255 0 0
0.276069 -0.403702 0.546466 255 0 0
0.251092 -0.571555 0.388599 255 0 0
0.292038 -0.48953 0.550825 255 0 0
0.126026 -0.565751 0.577984 255 0 0
0.144912 -0.615291 0.410961 255 0 0
0.259814 -0.494364 0.585261 255 0 0
0.254902 -0.512203 0.547469 255 0 0
0.214094 -0.518869 0.561095 255 0 0
0.301233 -0.476845 0.545998 255 0 0
0.215304 -0.509815 0.582627 255 0 0
0.21427 -0.516624 0.561341 255 0 0
0.120194 -0.563435 0.579033 255 0 0
0.284858 -0.473147 0.578625 255 0 0
0.215494 -0.509073 0.569568 255 0 0
0.214604 -0.512303 0.560258 255 0 0
0.29519 -0.472575 0.546471 255 0 0
0.127591 -0.57641 0.513712 255 0 0
0.119123 -0.556746 0.570824 255 0 0
0.0696463 -0.576984 0.562867 255 0 0
0.21014 -0.390472 0.570526 255 0 0
0.208692 -0.392989 0.567792 255 0 0
-0.0221983 -0.435833 0.576685 255 0 0
-0.049212 -0.442103 0.564422 255 0 0
-0.0226298 -0.438336 0.569624 255 0 0
0.289053 -0.397848 0.572718 255 0 0
0.0574298 -0.485388 0.567639 255 0 0
0.0545299 -0.475498 0.592711 255 0 0
0.0126857 -0.485971 0.583524 255 0 0
0.22976 -0.440724 0.517858 255 0 0
0.264947 -0.411832 0.54451 255 0 0
0.219303 -0.456412 0.57617 255 0 0
0.300517 -0.409619 0.563562 255 0 0
0.29621 -0.41698 0.548593 255 0 0
0.2878 -0.417834 0.532476 255 0 0
0.181955 -0.436163 0.557489 255 0 0
0.183325 -0.433173 0.562901 255 0 0
0.215263 -0.385291 0.607794 255 0 0
0.0100634 -0.416963 0.584131 255 0 0
0.124208 -0.390426 0.557288 255 0 0
0.0757235 -0.622295 0.56443 255 0 0
-0.133386 -0.510282 0.590632 255 0 0
-0.0747039 -0.436372 0.562705 255 0 0
-0.00501091 -0.490892 0.586356 255 0 0
-0.120191 -0.509828 0.599634 255 0 0
0.0651919 -0.582664 0.58987 255 0 0
0.0834104 -0.634422 0.5543 255 0 0
0.0668593 -0.582168 0.59205 255 0 0
0.284089 -0.525393 0.559127 255 0 0
0.234469 -0.544895 0.565687 255 0 0
0.11796 -0.469737 0.575 255 0 0
0.119095 -0.468821 0.571309 255 0 0
0.124079 -0.462235 0.571038 255 0 0
0.277138 -0.417543 0.555019 255 0 0
0.28314 -0.408851 0.553341 255 0 0
0.280911 -0.412553 0.548198 255 0 0
0.284336 -0.404632 0.558338 255 0 0
-0.0425391 -0.490344 0.583169 255 0 0
0.00668919 -0.434547 0.55995 255 0 0
-0.0832862 -0.439008 0.56327 255 0 0
-0.0861393 -0.43693 0.56972 255 0 0
0.247605 -0.401611 0.557519 255 0 0
0.240662 -0.395399 0.56807 255 0 0
0.242799 -0.39308 0.576073 255 0 0
0.0698823 -0.51324 0.587773 255 0 0
0.0729617 -0.506967 0.60467 255 0 0
-0.0765109 -0.50581 0.552451 255 0 0
0.240789 -0.500083 0.533836 255 0 0
0.0685757 -0.557531 0.572543 255 0 0
0.272299 -0.459303 0.574867 255 0 0
0.311675 -0.442518 0.570504 255 0 0
0.277274 -0.452748 0.563943 255 0 0
0.309224 -0.445694 0.557291 255 0 0
0.220941 -0.486732 0.547037 255 0 0
0.231772 -0.463628 0.572556 255 0 0
0.0716609 -0.531113 0.580745 255 0 0
0.21853 -0.465182 0.561215 255 0 0
0.270168 -0.577683 0.562615 255 0 0
0.128367 -0.579198 0.494388 255 0 0
0.217562 -0.491137 0.567602 255 0 0
0.314304 -0.437002 0.582667 255 0 0
0.130851 -0.589839 0.557078 255 0 0
0.270854 -0.563227 0.560817 255 0 0
0.271922 -0.561952 0.560189 255 0 0
0.27175 -0.561674 0.559999 255 0 0
0.271964 -0.562443 0.56049 255 0 0
0.173263 -0.597615 0.569682 255 0 0
0.173147 -0.597674 0.569702 255 0 0
0.254019 -0.566685 0.56211 255 0 0
0.266259 -0.561275 0.560452 255 0 0
0.234522 -0.571017 0.562638 255 0 0
0.206882 -0.587076 0.570099 255 0 0
0.281439 -0.540522 0.551814 255 0 0
0.206475 -0.587097 0.570293 255 0 0
0.276893 -0.546554 0.55556 255 0 0
0.276649 -0.546924 0.555986 255 0 0
0.207471 -0.585999 0.570938 255 0 0
0.207477 -0.586365 0.571159 255 0 0
0.179418 -0.59177 0.573084 255 0 0
0.205323 -0.577179 0.568168 255 0 0
0.104864 -0.634078 0.589192 255 0 0
0.168344 -0.595721 0.574713 255 0 0
0.228902 -0.565162 0.56449 255 0 0
0.28363 -0.5337 0.552693 255 0 0
0.284306 -0.532153 0.552085 255 0 0
0.285403 -0.529998 0.552105 255 0 0
0.285086 -0.530094 0.552357 255 0 0
0.294221 -0.52327 0.549909 255 0 0
0.0978137 -0.629648 0.588652 255 0 0
0.0937955 -0.631117 0.589005 255 0 0
0.0929902 -0.630934 0.589023 255 0 0
0.235391 -0.546716 0.557756 255 0 0
0.093187 -0.628832 0.58849 255 0 0
0.0915368 -0.629769 0.588835 255 0 0
0.234288 -0.547823 0.558514 255 0 0
0.297436 -0.51537 0.547919 255 0 0
0.297543 -0.515691 0.548362 255 0 0
0.296355 -0.513626 0.547197 255 0 0
0.0862835 -0.626037 0.588717 255 0 0
0.0906071 -0.625731 0.589104 255 0 0
0.089908 -0.625333 0.588772 255 0 0
0.156251 -0.638205 0.584579 255 0 0
0.164842 -0.633774 0.583514 255 0 0
0.273497 -0.572518 0.561585 255 0 0
0.273271 -0.572883 0.561776 255 0 0
0.183167 -0.620609 0.578706 255 0 0
0.186278 -0.616902 0.578059 255 0 0
0.18621 -0.616508 0.578048 255 0 0
0.237065 -0.585922 0.567479 255 0 0
0.238558 -0.58595 0.568161 255 0 0
0.238848 -0.585448 0.568132 255 0 0
0.132331 -0.590994 0.557967 255 0 0
0.0894134 -0.625583 0.588857 255 0 0
0.209794 -0.556146 0.563141 255 0 0
0.209498 -0.555868 0.567496 255 0 0
0.209317 -0.558127 0.564742 255 0 0
0.0851951 -0.624792 0.588528 255 0 0
0.0834948 -0.625606 0.589028 255 0 0
0.0827459 -0.623893 0.588134 255 0 0
0.300175 -0.49791 0.540808 255 0 0
0.0826264 -0.623954 0.588155 255 0 0
0.0829208 -0.625153 0.588915 255 0 0
0.0834782 -0.624357 0.58851 255 0 0
0.081964 -0.621474 0.58728 255 0 0
0.238152 -0.540583 0.559125 255 0 0
0.300287 -0.496989 0.54262 255 0 0
0.273029 -0.509217 0.549252 255 0 0
0.115454 -0.115265 0.396042 255 0 0
0.0741415 -0.0787629 0.473907 255 0 0
0.0621822 -0.0763554 0.465811 255 0 0
0.0645885 -0.101356 0.47467 255 0 0
0.0180617 -0.00522135 0.481487 255 0 0
0.201066 -0.0605886 0.478169 255 0 0
0.177578 -0.0455744 0.481533 255 0 0
0.0578848 0.0547461 0.457662 255 0 0
-0.211745 -0.0585834 0.471771 255 0 0
0.0367314 -0.0484449 0.441571 255 0 0
0.0303841 -0.0514896 0.460798 255 0 0
0.0366663 -0.0467333 0.460883 255 0 0
-0.107922 -0.08656 0.481794 255 0 0
0.0740525 -0.0789214 0.474392 255 0 0
0.114592 -0.100355 0.504536 255 0 0
0.199926 -0.0603197 0.477658 255 0 0
0.237527 -0.0723899 0.495937 255 0 0
0.212478 -0.0649065 0.477647 255 0 0
0.124276 -0.0152875 0.474513 255 0 0
0.120889 -0.0406604 0.471004 255 0 0
0.262302 -0.0800368 0.544291 255 0 0
0.218256 -0.0664005 0.492964 255 0 0
0.153458 -0.0696398 0.494931 255 0 0
0.0737541 -0.0793206 0.473336 255 0 0
0.05445 -0.0644314 0.475452 255 0 0
0.0301433 -0.0521956 0.459926 255 0 0
0.0118454 -0.0932167 0.460553 255 0 0
0.00309702 -0.092127 0.462983 255 0 0
0.15175 -0.0490561 0.475236 255 0 0
0.0799973 -0.0815744 0.492269 255 0 0
0.0631467 -0.0764305 0.466975 255 0 0
0.011613 -0.048744 0.488759 255 0 0
0.0115604 -0.0595554 0.492543 255 0 0
0.124551 -0.014938 0.474403 255 0 0
0.0384317 -0.0470475 0.461813 255 0 0
0.0629791 -0.0756906 0.467102 255 0 0
0.135899 -0.0303524 0.468709 255 0 0
0.0281104 -0.0458497 0.492182 255 0 0
0.113331 -0.0276249 0.482752 255 0 0
-0.113647 -0.0891954 0.53487 255 0 0
0.080303 -0.0809765 0.488938 255 0 0
0.0386571 -0.0474215 0.460607 255 0 0
0.201467 -0.0619846 0.485996 255 0 0
0.0731503 -0.034588 0.553815 255 0 0
-0.0475916 -0.0582457 0.429796 255 0 0
0.187991 -0.0469594 0.533709 255 0 0
0.0676407 -0.0293555 0.485513 255 0 0
0.0412893 -0.0476907 0.461919 255 0 0
0.0296515 -0.0543457 0.459583 255 0 0
0.0120677 -0.0578103 0.488854 255 0 0
0.123819 -0.0149954 0.47441 255 0 0
-0.202231 -0.0652844 0.47825 255 0 0
0.0627591 -0.0270751 0.4739 255 0 0
0.0857732 -0.0110826 0.469867 255 0 0
0.207365 -0.0482982 0.578866 255 0 0
0.121755 0.0454319 0.467441 255 0 0
0.0945081 0.0477699 0.416274 255 0 0
0.10796 -0.0260409 0.469487 255 0 0
0.0813732 0.0439323 0.374873 255 0 0
-0.0770509 -0.077056 0.472995 255 0 0
-0.00602421 -0.0978703 0.493898 255 0 0
0.163463 -0.0895132 0.491733 255 0 0
0.108999 -0.0272454 0.471642 255 0 0
0.00902013 -0.0882288 0.475712 255 0 0
0.0959851 -0.0306346 0.48261 255 0 0
0.0936063 -0.0300191 0.472027 255 0 0
-0.0724399 0.0136473 0.453351 255 0 0
0.0208325 0.0292446 0.453324 255 0 0
0.135217 -0.0914028 0.498807 255 0 0
0.1617 -0.0488178 0.759003 255 0 0
0.0945059 -0.0307053 0.492539 255 0 0
-0.127078 -0.120371 0.503352 255 0 0
0.0192418 -0.0436425 0.496848 255 0 0
-0.113381 -0.00617236 0.469607 255 0 0
0.036937 -0.0236272 0.421008 255 0 0
0.0279871 -0.0893965 0.460276 255 0 0
-0.142637 -0.113033 0.484962 255 0 0
0.123521 -0.0149968 0.47328 255 0 0
0.0623461 -0.076399 0.465654 255 0 0
-0.0184971 -0.10342 0.488619 255 0 0
-0.00989795 -0.0198692 0.458293 255 0 0
0.00988798 -0.0522477 0.446551 255 0 0
0.0191135 -0.0753045 0.503189 255 0 0
0.0937284 -0.0280026 0.47591 255 0 0
0.0996154 -0.018197 0.482361 255 0 0
0.012932 -0.0437065 0.445742 255 0 0
-0.0179696 -0.0588303 0.475242 255 0 0
0.00297321 -0.0913878 0.461345 255 0 0
-0.111892 -0.00637062 0.461495 255 0 0
0.0231144 -0.0809724 0.419514 255 0 0
0.0877134 0.0647778 0.50945 255 0 0
0.0108175 -0.0468609 0.470445 255 0 0
-0.0230744 -0.0981582 0.454692 255 0 0
0.0229029 -0.0559498 0.471142 255 0 0
-0.0155877 -0.0357717 0.738281 255 0 0
0.117957 -0.00265593 0.453813 255 0 0
-0.0183874 -0.0593073 0.489129 255 0 0
0.00386199 0.0127792 0.389666 255 0 0
0.102413 -0.0190629 0.492228 255 0 0
-0.00025692 -0.0905253 0.490671 255 0 0
0.0118257 -0.0660954 0.463941 255 0 0
-0.0302325 -0.0600224 0.472808 255 0 0
0.130405 -0.0332711 0.498372 255 0 0
-0.112725 -0.0963037 0.480008 255 0 0
-0.0187509 -0.00967606 0.336036 255 0 0
0.0500493 -0.00290869 0.54493 255 0 0
0.145157 -0.0377161 0.55319 255 0 0
0.156071 -0.091545 0.530065 255 0 0
-0.202628 -0.0669817 0.484033 255 0 0
-0.107727 -0.103125 0.470363 255 0 0
0.0100614 -0.0677945 0.460946 255 0 0
-0.140058 -0.100251 0.485814 255 0 0
-0.00475112 -0.0129326 0.512342 255 0 0
0.120815 -0.0113225 0.497854 255 0 0
-0.0969385 0.00355572 0.467938 255 0 0
-0.15324 -0.0940864 0.489091 255 0 0
-0.0329717 -0.029316 0.460959 255 0 0
0.0481062 0.0479336 0.545534 255 0 0
-0.06331 -0.243287 0.516666 255 0 0
-0.173833 -0.202348 0.504054 255 0 0
0.0425882 -0.152623 0.49811 255 0 0
-0.146207 -0.216733 0.525521 255 0 0
-0.000613661 -0.0909457 0.488436 255 0 0
-0.0738224 -0.133662 0.493028 255 0 0
-0.129391 -0.132173 0.503724 255 0 0
0.00534939 -0.149776 0.487856 255 0 0
-0.105823 -0.192671 0.516594 255 0 0
-0.200725 -0.214513 0.505957 255 0 0
-0.0633172 -0.162307 0.507285 255 0 0
-0.0901571 -0.174694 0.493256 255 0 0
-0.0631505 -0.161545 0.505657 255 0 0
-0.094414 -0.172195 0.507189 255 0 0
-0.0646821 0.0105492 0.434971 255 0 0
-0.118126 -0.174947 0.515151 255 0 0
-0.201247 -0.215657 0.50935 255 0 0
0.0692176 -0.0900772 0.479845 255 0 0
-0.106662 -0.191248 0.511857 255 0 0
-0.029202 -0.139245 0.492445 255 0 0
0.128383 -0.0832644 0.489837 255 0 0
0.0648856 -0.000430157 0.466221 255 0 0
-0.0190299 -0.0568571 0.478727 255 0 0
-0.138288 -0.0579171 0.471321 255 0 0
-0.0474054 -0.137901 0.502969 255 0 0
-0.0141895 -0.0673526 0.489899 255 0 0
-0.0291537 -0.0590471 0.476991 255 0 0
-0.125982 -0.14183 0.490675 255 0 0
-0.101469 0.00452544 0.47695 255 0 0
0.0756895 0.0593956 0.470538 255 0 0
0.0280085 -0.0578564 0.507449 255 0 0
0.0329221 -0.0349014 0.450084 255 0 0
0.125016 -0.0979835 0.497941 255 0 0
0.0922253 -0.0559294 0.469897 255 0 0
0.013733 -0.0606744 0.453632 255 0 0
-0.0526327 -0.0750873 0.475464 255 0 0
-0.0142674 -0.0145502 0.423338 255 0 0
-0.139012 -0.096787 0.487751 255 0 0
0.0147066 -0.0988458 0.463778 255 0 0
-0.0212349 -0.0474692 0.480537 255 0 0
0.152419 -0.0488708 0.477237 255 0 0
0.119575 -0.0338146 0.485879 255 0 0
0.153253 -0.0683291 0.495154 255 0 0
-0.0599371 -0.0136862 0.444004 255 0 0
0.104174 -0.0315879 0.482235 255 0 0
0.0674949 -0.0427947 0.370914 255 0 0
0.124012 0.0278134 0.459455 255 0 0
0.161359 -0.0769123 0.487267 255 0 0
0.131539 -0.0804855 0.495711 255 0 0
0.0642692 -0.0876402 0.469185 255 0 0
0.0405591 -0.0378819 0.442364 255 0 0
0.0139948 -0.0508485 0.445919 255 0 0
0.191162 -0.0884579 0.56554 255 0 0
0.137167 -0.039353 0.480061 255 0 0
-0.0726876 -0.00858294 0.47113 255 0 0
-0.0983315 -0.000660974 0.455837 255 0 0
0.0365619 -0.0467823 0.460149 255 0 0
0.00656952 -0.104426 0.493672 255 0 0
-0.136787 -0.0297439 0.443762 255 0 0
0.0568683 0.00147446 0.444083 255 0 0
-0.0348154 -0.0326888 0.459976 255 0 0
-0.100075 0.00477766 0.47617 255 0 0
-0.135712 -0.113263 0.488707 255 0 0
-0.14887 -0.107736 0.489905 255 0 0
-0.0622294 -0.0828618 0.497105 255 0 0
-0.0181136 -0.0278526 0.429626 255 0 0
-0.0215719 -0.0308585 0.47011 255 0 0
0.0112829 -0.0934822 0.460392 255 0 0
0.056337 -0.0802726 0.467677 255 0 0
-0.00737213 -0.106055 0.493206 255 0 0
-0.0294311 -0.410285 0.574058 255 0 0
-0.0361928 -0.299476 0.548045 255 0 0
0.0592788 -0.561086 0.58997 255 0 0
-0.146924 -0.47711 0.564218 255 0 0
-0.0273519 -0.378261 0.548613 255 0 0
-0.0362171 -0.182436 0.508497 255 0 0
-0.212791 -0.335046 0.552185 255 0 0
-0.0928567 -0.341647 0.572435 255 0 0
-0.074588 -0.363305 0.527112 255 0 0
0.0754372 -0.0782776 0.476943 255 0 0
0.0624702 -0.0280833 0.474413 255 0 0
0.0960376 -0.0955544 0.497887 255 0 0
-0.0456596 -0.155505 0.482919 255 0 0
-0.098785 -0.0522088 0.0925717 255 0 0
0.0701372 -0.0981079 0.483345 255 0 0
0.0174949 -0.146715 0.502879 255 0 0
-0.0753681 -0.161508 0.506451 255 0 0
-0.0415678 -0.130835 0.499566 255 0 0
-0.0206814 -0.114017 0.495266 255 0 0
-0.120009 -0.120097 0.494527 255 0 0
-0.0858999 -0.0810385 0.489838 255 0 0
0.0194216 -0.0402045 0.461612 255 0 0
-0.136361 -0.111992 0.488918 255 0 0
-0.0596471 0.0102898 0.446994 255 0 0
0.0989728 -0.0946492 0.493176 255 0 0
-0.065263 0.012263 0.436383 255 0 0
-0.066699 0.0126442 0.452147 255 0 0
0.179102 -0.0457658 0.482506 255 0 0
0.0710747 -0.00151111 0.460417 255 0 0
-0.00295787 -0.121706 0.492709 255 0 0
-0.0123851 -0.125807 0.506212 255 0 0
-0.112607 -0.00555043 0.465028 255 0 0
-0.0774458 -0.141044 0.503828 255 0 0
-0.0287928 -0.118298 0.490041 255 0 0
-0.195685 -0.0744538 0.487463 255 0 0
-0.16075 -0.121315 0.476178 255 0 0
-0.153602 -0.463668 0.584511 255 0 0
-0.123909 -0.425566 0.537623 255 0 0
-0.0354997 -0.421489 0.568594 255 0 0
-0.00888285 -0.436299 0.56079 255 0 0
-0.230382 -0.333274 0.553172 255 0 0
0.00635865 -0.293455 0.515634 255 0 0
-0.0703623 -0.31545 0.548403 255 0 0
0.0494789 -0.392975 0.547099 255 0 0
0.259474 -0.51181 0.576662 255 0 0
0.196457 -0.583735 0.610849 255 0 0
0.0640697 -0.557575 0.584423 255 0 0
0.0278883 -0.368111 0.546441 255 0 0
-0.00503905 -0.485884 0.58823 255 0 0
0.010964 -0.501053 0.583314 255 0 0
-0.0171493 -0.38196 0.55231 255 0 0
-0.0800864 -0.340309 0.555529 255 0 0
-0.00603023 -0.161528 0.477242 255 0 0
-0.00611807 -0.162696 0.477511 255 0 0
-0.00682312 -0.441967 0.545276 255 0 0
-0.0470342 -0.389905 0.49849 255 0 0
0.00591517 -0.104252 0.488482 255 0 0
-0.0474441 -0.137848 0.502907 255 0 0
-0.0294867 -0.0594496 0.477524 255 0 0
-0.206803 -0.167602 0.554003 255 0 0
-0.076865 -0.14187 0.503708 255 0 0
-0.128691 -0.12718 0.485085 255 0 0
-0.120283 -0.421112 0.55169 255 0 0
-0.0657421 -0.372181 0.513796 255 0 0
0.0136411 -0.472816 0.5828 255 0 0
-0.131967 -0.483738 0.579053 255 0 0
-0.0666582 -0.520773 0.577909 255 0 0
0.0545828 -0.300622 0.541711 255 0 0
-0.0558203 -0.164888 0.492764 255 0 0
-0.134592 -0.332583 0.55432 255 0 0
0.182604 -0.41363 0.563884 255 0 0
0.0973692 -0.375301 0.558352 255 0 0
0.0479722 -0.383125 0.528741 255 0 0
0.0697578 -0.380784 0.548309 255 0 0
0.0545124 -0.0854265 0.491565 255 0 0
0.0123275 -0.0954902 0.470088 255 0 0
-0.0517475 -0.0671235 0.468666 255 0 0
0.0219762 -0.050555 0.454854 255 0 0
-0.00696208 -0.00692539 0.43513 255 0 0
0.124416 -0.0978409 0.498383 255 0 0
0.124275 -0.0501202 0.486451 255 0 0
-0.00774901 -0.0888492 0.49103 255 0 0
-0.0467198 -0.0554179 0.484982 255 0 0
0.131796 -0.095567 0.482931 255 0 0
0.112673 -0.479207 0.573491 255 0 0
-0.027375 -0.389715 0.533414 255 0 0
0.169088 -0.573854 0.62152 255 0 0
0.0109206 -0.417337 0.553068 255 0 0
0.0744188 -0.533691 0.593562 255 0 0
-0.0441993 -0.229007 0.531259 255 0 0
-0.0528416 -0.16073 0.505396 255 0 0
-0.14525 -0.479697 0.567262 255 0 0
-0.145365 -0.48025 0.565538 255 0 0
-0.091211 -0.348127 0.532083 255 0 0
-0.124432 -0.174879 0.507173 255 0 0
-0.149531 -0.465415 0.564776 255 0 0
-0.079672 -0.326756 0.552926 255 0 0
-0.109693 -0.39635 0.566717 255 0 0
-0.206019 -0.322188 0.177237 255 0 0
-0.0382747 -0.443451 0.567016 255 0 0
0.078641 -0.307255 0.567394 255 0 0
-0.0644766 -0.080295 0.47542 255 0 0
0.0269574 -0.479091 0.577725 255 0 0
-0.112126 -0.395202 0.554655 255 0 0
0.00872354 -0.111579 0.494813 255 0 0
-0.0485957 -0.198941 0.490005 255 0 0
-0.150731 -0.232583 0.509005 255 0 0
-0.160933 -0.262315 0.523228 255 0 0
-0.0744003 -0.0821845 0.486622 255 0 0
0.0347011 -0.0512605 0.468847 255 0 0
-0.000636564 -0.10933 0.496617 255 0 0
0.0463231 -0.0356169 0.454369 255 0 0
0.0410213 -0.153023 0.490084 255 0 0
0.00692134 -0.137539 0.495806 255 0 0
-0.0629198 -0.186217 0.502115 255 0 0
0.0470178 -0.0357529 0.454522 255 0 0
-0.170473 -0.199777 0.516546 255 0 0
-0.0415552 -0.191504 0.506617 255 0 0
-0.086884 -0.177222 0.508461 255 0 0
0.0335469 -0.120035 0.457018 255 0 0
-0.0375459 -0.16727 0.507233 255 0 0
-0.106696 -0.193649 0.518599 255 0 0
0.114507 -0.0120772 0.468136 255 0 0
0.0858678 -0.0193983 0.461397 255 0 0
0.0618072 0.00154034 0.472901 255 0 0
0.0438874 -0.101095 0.525317 255 0 0
-0.0357752 -0.346817 0.555237 255 0 0
-0.0440262 -0.202764 0.505752 255 0 0
0.00958874 -0.498503 0.583347 255 0 0
0.0167597 -0.411381 0.550056 255 0 0
0.0306306 -0.379455 0.542793 255 0 0
-0.0344981 -0.21817 0.526204 255 0 0
-0.0841956 -0.158373 0.503121 255 0 0
-0.039047 -0.448885 0.568859 255 0 0
0.0155185 -0.481983 0.587217 255 0 0
0.0248984 -0.360294 0.559507 255 0 0
-0.111842 -0.376228 0.563326 255 0 0
-0.0259485 -0.325798 0.536629 255 0 0
-0.04199 -0.294153 0.54283 255 0 0
-0.0189276 -0.284955 0.538577 255 0 0
0.00190329 -0.438845 0.555025 255 0 0
-0.0567326 -0.256971 0.529658 255 0 0
-0.0490863 -0.332304 0.529229 255 0 0
-0.0359898 -0.232315 0.568533 255 0 0
-0.0567563 -0.261575 0.527243 255 0 0
-0.0153114 -0.106788 0.491068 255 0 0
0.0425161 -0.14917 0.499064 255 0 0
0.124218 -0.0377702 0.495311 255 0 0
-0.000323442 -0.0078651 0.472551 255 0 0
-0.113478 -0.00699384 0.473023 255 0 0
0.110707 -0.0335785 0.488897 255 0 0
0.008506 -0.0609238 0.483912 255 0 0
-0.0104323 -0.0696522 0.493524 255 0 0
-0.102838 -0.0730938 0.401291 255 0 0
-0.166971 -0.0181743 0.76779 255 0 0
0.0482666 -0.0594756 0.462258 255 0 0
-0.00270701 -0.00855138 0.455266 255 0 0
-0.12703 -0.0145074 0.441516 255 0 0
0.0384189 -0.0381384 0.438785 255 0 0
0.0219699 -0.0561361 0.466512 255 0 0
0.0619575 0.000111257 0.581765 255 0 0
0.155386 -0.0414663 0.444734 255 0 0
-0.30094 -0.120875 0.769441 255 0 0
0.131032 -0.115996 0.497302 255 0 0
0.0497421 -0.118309 0.453463 255 0 0
0.0595693 -0.0753574 0.457407 255 0 0
0.14949 -0.0478873 0.472427 255 0 0
-0.000286696 -0.0915461 0.489391 255 0 0
0.0506299 -0.118267 0.455169 255 0 0
0.0357169 -0.120762 0.460067 255 0 0
0.0066369 -0.12906 0.500087 255 0 0
0.131621 -0.115693 0.50098 255 0 0
-0.00981297 -0.353944 0.548864 255 0 0
0.0742752 -0.355744 0.553176 255 0 0
0.0907984 -0.351922 0.564317 255 0 0
-0.085466 -0.289855 0.535191 255 0 0
-0.00884581 -0.531321 0.564498 255 0 0
-0.181816 -0.0839723 0.485442 255 0 0
-0.0736662 -0.00729567 0.466446 255 0 0
0.00612839 -0.128774 0.497536 255 0 0
-0.0454594 -0.155875 0.48435 255 0 0
-0.0906149 -0.17441 0.493791 255 0 0
-0.00661601 -0.128027 0.50464 255 0 0
-0.045686 -0.147884 0.505241 255 0 0
-0.104659 -0.12519 0.492429 255 0 0
-0.0411321 -0.130618 0.498347 255 0 0
-0.142772 -0.111565 0.466868 255 0 0
0.139224 -0.100597 0.484566 255 0 0
-0.0803431 -0.186159 0.523448 255 0 0
-0.112344 -0.184078 0.52117 255 0 0
-0.0476788 -0.179642 0.504268 255 0 0
-0.0432914 -0.186512 0.492035 255 0 0
-0.177933 -0.0859583 0.478256 255 0 0
0.0143867 -0.135286 0.497336 255 0 0
0.0207912 -0.14711 0.496282 255 0 0
-0.0950703 -0.0875964 0.115391 255 0 0
0.0123287 -0.134129 0.492514 255 0 0
-0.192633 -0.199909 0.442728 255 0 0
0.0463487 -0.155293 0.49947 255 0 0
0.0127221 -0.142699 0.488195 255 0 0
-0.141612 -0.214883 0.525912 255 0 0
-0.0468307 -0.244458 0.518638 255 0 0
0.0142915 -0.402138 0.564266 255 0 0
0.0100591 -0.30822 0.518908 255 0 0
-0.00821772 -0.125745 0.492672 255 0 0
-0.066453 -0.155267 0.507429 255 0 0
0.0540257 0.000290286 0.45833 255 0 0
0.151321 -0.0485773 0.475079 255 0 0
0.122922 -0.0286195 0.486091 255 0 0
0.0459813 -0.055432 0.458287 255 0 0
-0.017551 -0.0429909 0.46458 255 0 0
0.1324 -0.0901994 0.500655 255 0 0
0.152765 -0.0501212 0.477076 255 0 0
0.136063 -0.105264 0.502387 255 0 0
0.163622 -0.0988109 0.488476 255 0 0
0.0848469 -0.0101672 0.477568 255 0 0
0.0680777 -0.0278779 0.488851 255 0 0
-0.125079 -0.020648 0.416227 255 0 0
-0.0650655 0.012545 0.44176 255 0 0
-0.191069 -0.252846 0.495452 255 0 0
0.00426229 -0.213341 0.537314 255 0 0
-0.110509 -0.374628 0.567123 255 0 0
0.00264336 -0.182316 0.51736 255 0 0
0.0254915 -0.369876 0.544464 255 0 0
0.0160365 -0.403501 0.552222 255 0 0
0.0166841 -0.333504 0.54073 255 0 0
-0.0166209 -0.500787 0.569559 255 0 0
-0.0605442 -0.236448 0.518313 255 0 0
-0.097203 -0.524424 0.615881 255 0 0
-0.0568307 -0.506185 0.57603 255 0 0
-0.0481541 -0.450953 0.566014 255 0 0
0.061674 -0.427486 0.570659 255 0 0
-0.0322336 -0.44051 0.565601 255 0 0
0.0239339 -0.394928 0.536957 255 0 0
0.113094 -0.509832 0.563497 255 0 0
-0.0284317 -0.226717 0.531764 255 0 0
0.129628 -0.540994 0.599831 255 0 0
-0.0529199 -0.0582178 0.4867 255 0 0
0.00430802 -0.0968791 0.462848 255 0 0
-0.0233697 -0.0326207 0.463409 255 0 0
-0.127497 -0.110453 0.508603 255 0 0
-0.0530859 -0.099285 0.488194 255 0 0
0.0564862 -0.0771326 0.475704 255 0 0
0.00692244 -0.0832995 0.458155 255 0 0
-0.075094 -0.00705013 0.465001 255 0 0
-0.00452382 -0.114236 0.498727 255 0 0
-0.0308193 -0.0706455 0.483065 255 0 0
0.161835 -0.0425338 0.469178 255 0 0
0.0177766 -0.0524263 0.467034 255 0 0
0.213609 -0.0641388 0.507626 255 0 0
0.0585884 -0.096729 0.475575 255 0 0
0.151404 -0.048771 0.474897 255 0 0
-0.0299741 -0.11215 0.497026 255 0 0
0.0797113 -0.100449 0.493045 255 0 0
-0.0213544 -0.117073 0.506755 255 0 0
-0.0736259 -0.00691345 0.464368 255 0 0
-0.118117 -0.0780833 0.469242 255 0 0
-0.119412 -0.122246 0.498439 255 0 0
-0.0163083 -0.105554 0.489807 255 0 0
-0.0376854 -0.153361 0.504178 255 0 0
0.165582 -0.0918872 0.494404 255 0 0
-0.0631016 -0.162586 0.511556 255 0 0
-0.0535371 -0.158178 0.488767 255 0 0
0.0348235 -0.046432 0.45922 255 0 0
-0.0669489 -0.15349 0.535278 255 0 0
-0.0221475 -0.0986516 0.484989 255 0 0
0.065949 0.0627419 0.572742 255 0 0
0.0401269 -0.114848 0.467464 255 0 0
-0.0515091 -0.067273 0.46977 255 0 0
-0.0725495 -0.207943 0.52725 255 0 0
-0.0313216 -0.18618 0.508494 255 0 0
-0.0723393 -0.176508 0.508136 255 0 0
-0.0826242 -0.180298 0.492036 255 0 0
-0.0269807 -0.167494 0.511168 255 0 0
0.0205904 -0.0880305 0.443045 255 0 0
-0.0316072 -0.159876 0.4876 255 0 0
-0.12427 -0.267135 0.512746 255 0 0
-0.0516622 -0.204604 0.517767 255 0 0
0.0160131 -0.403815 0.552938 255 0 0
-0.0830632 -0.314132 0.53443 255 0 0
-0.108705 -0.525855 0.58808 255 0 0
-0.0865176 -0.344122 0.540357 255 0 0
-0.00356187 -0.273491 0.537934 255 0 0
-0.1132 -0.378 0.562373 255 0 0
-0.173145 -0.322122 0.531309 255 0 0
-0.113036 -0.189648 0.515227 255 0 0
-0.209945 -0.20238 0.488555 255 0 0
-0.106109 -0.318019 0.564133 255 0 0
-0.0387773 -0.450606 0.565761 255 0 0
-0.0410767 -0.130877 0.501363 255 0 0
-0.0312077 -0.111547 0.491473 255 0 0
0.0395221 0.000755697 0.458068 255 0 0
-0.204486 -0.064556 0.479544 255 0 0
-0.0696256 -0.0846497 0.501657 255 0 0
-0.12401 -0.140203 0.49888 255 0 0
-0.109918 -0.172948 0.5213 255 0 0
-0.0674909 -0.154065 0.502644 255 0 0
-0.0610361 -0.108566 0.498398 255 0 0
-0.0482018 -0.137568 0.502477 255 0 0
0.039893 -0.0379523 0.444989 255 0 0
-0.22068 -0.186203 0.634927 255 0 0
0.0180908 -0.105788 0.485357 255 0 0
0.00122249 -0.120178 0.496307 255 0 0
-0.144141 -0.0644117 0.482035 255 0 0
-0.023185 -0.11613 0.501818 255 0 0
-0.0787838 -0.139724 0.503787 255 0 0
-0.144464 -0.116278 0.489581 255 0 0
-0.0407005 -0.129861 0.499534 255 0 0
-0.0884286 -0.137521 0.501974 255 0 0
0.117729 -0.508637 0.579403 255 0 0
0.276868 -0.50523 0.597133 255 0 0
0.133545 -0.410617 0.549095 255 0 0
0.00673669 -0.437025 0.55813 255 0 0
-0.0385641 -0.416389 0.548185 255 0 0
0.0743027 -0.391176 0.560011 255 0 0
0.0629777 -0.580333 0.581619 255 0 0
0.0155903 -0.304406 0.528583 255 0 0
0.0760406 -0.389411 0.56019 255 0 0
0.0159211 -0.361689 0.546138 255 0 0
-0.0543195 -0.226806 0.530091 255 0 0
-0.0427285 -0.0303691 0.4655 255 0 0
-0.0749078 -0.260363 0.538419 255 0 0
-0.198445 -0.295285 0.55761 255 0 0
-0.179435 -0.253498 0.520686 255 0 0
0.0907693 -0.00797747 0.486172 255 0 0
-0.123817 -0.265588 0.513318 255 0 0
0.0163954 -0.101181 0.453985 255 0 0
-0.0616678 -0.242363 0.518506 255 0 0
-0.0759498 -0.254544 0.529172 255 0 0
0.0138881 -0.416527 0.562813 255 0 0
-0.0198044 -0.434642 0.568484 255 0 0
-0.141217 -0.468732 0.57809 255 0 0
0.0645338 -0.580125 0.586806 255 0 0
0.066488 -0.395175 0.574495 255 0 0
-0.155532 -0.45738 0.569164 255 0 0
0.0341461 -0.276504 0.523618 255 0 0
-0.0778417 -0.279658 0.485286 255 0 0
-0.0948547 -0.173563 0.501657 255 0 0
-0.0415872 -0.170714 0.501522 255 0 0
-0.0399916 -0.199084 0.514061 255 0 0
-0.0113915 -0.469925 0.55959 255 0 0
-0.0299682 -0.381586 0.526363 255 0 0
0.0323001 -0.391512 0.546102 255 0 0
0.0026009 -0.474669 0.588344 255 0 0
0.00689241 -0.480777 0.570143 255 0 0
-0.0900472 -0.34584 0.531311 255 0 0
-0.0435098 -0.0134785 0.100706 255 0 0
0.126397 -0.0881944 0.48872 255 0 0
-0.0832742 -0.255506 0.515812 255 0 0
-0.0795347 -0.271795 0.531436 255 0 0
-0.201798 -0.225742 0.49439 255 0 0
-0.0901413 -0.344019 0.540312 255 0 0
-0.064292 -0.320627 0.545773 255 0 0
-0.129289 -0.127647 0.500588 255 0 0
0.101477 -0.0953913 0.500985 255 0 0
-0.129529 -0.12319 0.512912 255 0 0
0.00988691 -0.086759 0.474323 255 0 0
-0.104664 -0.126164 0.495205 255 0 0
-0.104674 -0.126257 0.49699 255 0 0
0.0060377 -0.102772 0.491887 255 0 0
-0.114253 -0.114584 0.4931 255 0 0
-0.119383 -0.124718 0.496865 255 0 0
0.00506248 -0.10188 0.488942 255 0 0
-0.068241 0.0110115 0.435424 255 0 0
-0.220104 -0.184876 0.674274 255 0 0
-0.125162 -0.107566 0.498232 255 0 0
0.00372277 -0.117348 0.499339 255 0 0
-0.00930495 -0.12942 0.491001 255 0 0
-0.122354 -0.174022 0.509598 255 0 0
-0.0162114 -0.0562535 0.482599 255 0 0
0.00588518 -0.128948 0.500161 255 0 0
0.0357729 -0.112658 0.457612 255 0 0
-0.032272 -0.126326 0.495429 255 0 0
-0.0740502 -0.0840763 0.488185 255 0 0
-0.0598746 -0.0829776 0.509123 255 0 0
0.062082 -0.397685 0.561391 255 0 0
-0.0382374 -0.439127 0.568515 255 0 0
0.0278344 -0.47835 0.582205 255 0 0
0.0158997 -0.349933 0.533634 255 0 0
-0.147964 -0.477082 0.56987 255 0 0
0.0192801 -0.352006 0.530641 255 0 0
-0.00811527 -0.260728 0.529359 255 0 0
0.0122592 -0.209991 0.496118 255 0 0
-0.166023 -0.313712 0.540053 255 0 0
-0.100662 -0.186326 0.516266 255 0 0
-0.0434721 -0.0939393 0.507288 255 0 0
-0.113639 -0.266751 0.515508 255 0 0
-0.196476 -0.214598 0.517755 255 0 0
-0.112275 -0.192602 0.513438 255 0 0
-0.0657695 -0.0893585 0.493634 255 0 0
-0.0313808 -0.153375 0.484214 255 0 0
0.0357247 -0.112991 0.457791 255 0 0
-0.189856 -0.0784867 0.486774 255 0 0
-0.076 -0.161438 0.505084 255 0 0
-0.0475934 -0.148649 0.501554 255 0 0
-0.0766841 -0.161708 0.508909 255 0 0
-0.115779 -0.114275 0.492745 255 0 0
0.00948763 -0.0436902 0.47806 255 0 0
-0.0918296 -0.0020018 0.461809 255 0 0
-0.119756 -0.109051 0.554644 255 0 0
-0.00197504 -0.008192 0.453827 255 0 0
-0.116651 -0.116009 0.50107 255 0 0
0.00267736 -0.0559829 0.478481 255 0 0
-0.00530082 -0.128416 0.507376 255 0 0
-0.0485379 -0.151505 0.461484 255 0 0
-0.200225 -0.213964 0.505418 255 0 0
-0.204358 -0.228349 0.503229 255 0 0
0.0679107 -0.080457 0.499739 255 0 0
-0.0382817 -0.168507 0.508594 255 0 0
-0.0456559 -0.179637 0.506249 255 0 0
-0.0704349 -0.186797 0.517528 255 0 0
-0.0648425 0.00995827 0.437763 255 0 0
0.0519241 -0.118069 0.454556 255 0 0
0.0182142 -0.14666 0.499108 255 0 0
-0.207599 -0.225621 0.550019 255 0 0
-0.0879872 -0.174269 0.490404 255 0 0
-0.0660725 0.00886372 0.42986 255 0 0
0.0540676 -0.118232 0.456785 255 0 0
0.0315192 -0.111098 0.450149 255 0 0
-0.116137 -0.184426 0.516233 255 0 0
-0.077947 -0.171863 0.490062 255 0 0
-0.0261665 -0.0802977 0.488599 255 0 0
-0.143874 -0.0637314 0.48015 255 0 0
-0.158601 -0.121585 0.520359 255 0 0
0.131597 -0.115178 0.502006 255 0 0
-0.142733 -0.18947 0.502914 255 0 0
-0.043696 -0.0992474 0.493648 255 0 0
0.0530168 -0.0958321 0.486727 255 0 0
0.114744 -0.100063 0.50344 255 0 0
0.00847248 -0.0854622 0.470347 255 0 0
0.0668223 -0.0278214 0.482667 255 0 0
-0.00167948 -0.00787193 0.453123 255 0 0
0.14493 -0.0956672 0.484407 255 0 0
-0.177562 -0.249433 0.509728 255 0 0
-0.0313758 -0.194006 0.515105 255 0 0
-0.112284 -0.0870263 0.483211 255 0 0
-0.0216722 -0.173444 0.517856 255 0 0
-0.144978 -0.194053 0.56433 255 0 0
-0.124509 -0.145384 0.495415 255 0 0
-0.0605985 -0.168038 0.490502 255 0 0
-0.231901 -0.319158 0.558095 255 0 0
0.0798809 -0.189975 0.513888 255 0 0
-0.149079 -0.465477 0.566666 255 0 0
-0.185575 -0.410758 0.567911 255 0 0
-0.00958022 -0.435679 0.557847 255 0 0
-0.112421 -0.403815 0.541736 255 0 0
-0.197009 -0.274256 0.486307 255 0 0
0.0187983 -0.282995 0.531498 255 0 0
-0.150218 -0.46251 0.556567 255 0 0
-0.0314075 -0.229052 0.528583 255 0 0
-0.12507 -0.43816 0.569055 255 0 0
-0.123884 -0.145309 0.49753 255 0 0
0.0144848 -0.210635 0.499663 255 0 0
-0.186675 -0.318111 0.145737 255 0 0
-0.0887302 -0.444687 0.556907 255 0 0
0.211494 -0.571977 0.599142 255 0 0
0.116578 -0.522421 0.590949 255 0 0
-0.0850536 -0.298056 0.525008 255 0 0
0.174169 -0.436106 0.568143 255 0 0
0.0143796 -0.339762 0.53248 255 0 0
0.10401 -0.621137 0.625742 255 0 0
0.114841 -0.47658 0.571486 255 0 0
-0.0548155 -0.304312 0.546418 255 0 0
0.105548 -0.407595 0.538227 255 0 0
0.0752958 -0.374101 0.557257 255 0 0
-0.00998883 -0.532684 0.558507 255 0 0
0.116167 -0.384032 0.55434 255 0 0
0.227947 -0.476033 0.573811 255 0 0
0.126955 -0.0985495 0.500321 255 0 0
-0.11966 -0.121782 0.494609 255 0 0
0.000568477 -0.11979 0.49471 255 0 0
-0.0673748 -0.153771 0.501662 255 0 0
-0.188668 -0.0799108 0.485235 255 0 0
-0.0154184 -0.103721 0.490519 255 0 0
-0.108881 -0.123358 0.494399 255 0 0
0.0944837 -0.0912718 0.478909 255 0 0
0.123228 -0.0976391 0.49554 255 0 0
-0.0374727 -0.10683 0.485556 255 0 0
0.0184465 -0.100581 0.469857 255 0 0
0.15518 -0.10505 0.485175 255 0 0
0.00348073 -0.157289 0.486828 255 0 0
0.00102522 -0.057612 0.46809 255 0 0
-0.13934 -0.196418 0.461607 255 0 0
0.129661 -0.115394 0.498985 255 0 0
0.00820711 -0.0455147 0.463183 255 0 0
0.0507078 -0.146019 0.510342 255 0 0
-0.041518 -0.130728 0.49842 255 0 0
-0.113551 -0.183896 0.519125 255 0 0
0.248409 -0.534895 0.549997 255 0 0
0.258674 -0.353061 0.556234 255 0 0
0.204309 -0.24601 0.595487 255 0 0
0.100625 -0.48206 0.53266 255 0 0
-0.0371033 -0.527191 0.547653 255 0 0
0.178363 -0.435944 0.561921 255 0 0
0.0165234 -0.418334 0.53472 255 0 0
-0.0317368 -0.185894 0.506367 255 0 0
-0.115958 -0.0784282 0.474619 255 0 0
0.0196101 -0.146767 0.494958 255 0 0
0.00102051 -0.155742 0.486072 255 0 0
-0.129803 -0.105764 0.491355 255 0 0
-0.0631284 -0.161657 0.505758 255 0 0
-0.135948 -0.210028 0.528013 255 0 0
0.0128387 -0.134769 0.488824 255 0 0
-0.00496467 -0.110537 0.485826 255 0 0
-0.111018 -0.0953379 0.48188 255 0 0
-0.0497522 -0.0659718 0.469029 255 0 0
-0.133976 -0.115678 0.490644 255 0 0
-0.0341711 -0.315369 0.535975 255 0 0
-0.0490509 -0.0848299 0.496783 255 0 0
-0.0287565 -0.333844 0.54266 255 0 0
-0.133963 -0.484599 0.549872 255 0 0
-0.0617917 -0.440324 0.55926 255 0 0
-0.0474051 -0.450697 0.566493 255 0 0
-0.0494559 -0.310297 0.545772 255 0 0
-0.0855676 -0.163692 0.497167 255 0 0
-0.0576217 -0.201877 0.498753 255 0 0
-0.0462338 -0.215991 0.516595 255 0 0
-0.0366136 -0.183378 0.507271 255 0 0
0.0311327 -0.234461 0.523415 255 0 0
0.261252 -0.332768 0.530859 255 0 0
0.0759657 -0.206071 0.534207 255 0 0
0.103751 -0.302111 0.529912 255 0 0
0.282533 -0.139433 0.502915 255 0 0
0.200939 -0.23525 0.441982 255 0 0
-0.00884269 -0.205348 0.522049 255 0 0
0.0481593 -0.230767 0.548392 255 0 0
0.0071977 -0.501151 0.592091 255 0 0
0.118713 -0.362707 0.589331 255 0 0
0.161236 -0.350885 0.53339 255 0 0
0.2657 -0.296447 0.555088 255 0 0
0.241236 -0.397614 0.560932 255 0 0
0.112134 -0.245889 0.619833 255 0 0
0.0280247 -0.493163 0.537443 255 0 0
-0.0350372 -0.533336 0.50807 255 0 0
0.300878 -0.404763 0.56678 255 0 0
-0.144902 -0.262333 0.583021 255 0 0
-0.074773 -0.434381 0.563323 255 0 0
-0.0684112 -0.265664 0.539103 255 0 0
-0.000904655 -0.465692 0.570913 255 0 0
-0.0162018 -0.273301 0.527082 255 0 0
-0.0786118 -0.434087 0.560326 255 0 0
-0.0351939 -0.440508 0.589746 255 0 0
0.00835597 -0.440063 0.568931 255 0 0
-0.10461 -0.36808 0.541813 255 0 0
0.0146246 -0.430001 0.549064 255 0 0
-0.120316 -0.41971 0.546344 255 0 0
-0.00892106 -0.479714 0.582625 255 0 0
-0.107263 -0.525804 0.586672 255 0 0
-0.0220691 -0.440395 0.562933 255 0 0
-0.0638555 -0.493098 0.528129 255 0 0
-0.0207851 -0.369625 0.544835 255 0 0
-0.074701 -0.443254 0.582236 255 0 0
-0.200266 -0.230486 0.517363 255 0 0
-0.0178425 -0.3791 0.552329 255 0 0
0.00021273 -0.464503 0.575853 255 0 0
0.226795 -0.415951 0.561624 255 0 0
-0.117774 -0.353502 0.580202 255 0 0
0.0112774 -0.645953 0.298237 255 0 0
0.105369 -0.398248 0.556943 255 0 0
-0.123561 -0.172921 0.509799 255 0 0
-0.0307575 -0.409642 0.571629 255 0 0
-0.130571 -0.424191 0.555256 255 0 0
0.0143867 -0.475005 0.57847 255 0 0
-0.0382093 -0.404625 0.570297 255 0 0
-0.0040035 -0.497472 0.576559 255 0 0
-0.0216446 -0.372372 0.537462 255 0 0
0.0173772 -0.365299 0.545083 255 0 0
0.164978 -0.627137 0.614902 255 0 0
0.103312 -0.401864 0.554741 255 0 0
-0.044882 -0.370773 0.539305 255 0 0
0.227473 -0.479943 0.568805 255 0 0
-0.0046487 -0.349052 0.54014 255 0 0
0.123707 -0.468561 0.555503 255 0 0
-0.00613811 -0.495166 0.57745 255 0 0
0.0730321 -0.499997 0.562056 255 0 0
-0.0702405 -0.327317 0.532795 255 0 0
-0.132968 -0.349766 0.562219 255 0 0
0.0737686 -0.39498 0.566099 255 0 0
0.0655426 -0.379211 0.556634 255 0 0
0.130033 -0.413555 0.543479 255 0 0
0.134898 -0.384505 0.557622 255 0 0
-0.00982526 -0.533046 0.559921 255 0 0
0.0608539 -0.478146 0.592139 255 0 0
0.088957 -0.492544 0.577581 255 0 0
0.218992 -0.45962 0.569293 255 0 0
-0.0904609 -0.591745 0.174826 255 0 0
-0.00269359 -0.264456 0.528934 255 0 0
0.153472 -0.0663316 0.491309 255 0 0
-0.0500102 -0.165048 0.492249 255 0 0
0.164289 -0.0988399 0.489084 255 0 0
-0.0324768 -0.134369 0.493268 255 0 0
-0.00063189 -0.090881 0.488812 255 0 0
0.128791 -0.0998485 0.502823 255 0 0
-0.209069 -0.189679 0.525475 255 0 0
-0.14818 -0.272634 0.509589 255 0 0
-0.232592 -0.312169 0.538818 255 0 0
-0.0785802 -0.137773 0.502629 255 0 0
-0.144832 -0.116194 0.488001 255 0 0
-0.0144451 -0.266154 0.533024 255 0 0
-0.0326662 -0.315385 0.539207 255 0 0
-0.0580908 -0.252921 0.532787 255 0 0
-0.0607972 -0.175092 0.503324 255 0 0
0.0323403 -0.100046 0.486674 255 0 0
-0.111655 -0.361612 0.561655 255 0 0
0.287601 -0.455725 0.602974 255 0 0
-0.0560953 -0.283059 0.513521 255 0 0
-0.174143 -0.425224 0.570717 255 0 0
0.012241 -0.336519 0.56549 255 0 0
0.250204 -0.464344 0.578514 255 0 0
0.283394 -0.489761 0.577661 255 0 0
-0.0708608 -0.373325 0.507128 255 0 0
0.220775 -0.570295 0.598826 255 0 0
0.0204893 -0.377959 0.539709 255 0 0
0.23484 -0.532296 0.576276 255 0 0
0.240675 -0.459198 0.58077 255 0 0
0.234085 -0.562359 0.619406 255 0 0
-0.124165 -0.110654 0.490455 255 0 0
-0.112646 -0.0966567 0.490944 255 0 0
0.00119858 -0.185578 0.514934 255 0 0
-0.0201788 -0.200718 0.496794 255 0 0
-0.0384791 -0.205887 0.532702 255 0 0
-0.150937 -0.260532 0.510894 255 0 0
-0.0490385 -0.139305 0.501517 255 0 0
-0.0743164 -0.209917 0.523411 255 0 0
-0.0755091 -0.208106 0.522436 255 0 0
0.0592996 -0.0912047 0.485343 255 0 0
-0.140137 -0.0458858 0.4639 255 0 0
0.00174196 -0.186742 0.514725 255 0 0
-0.0988904 0.0036424 0.463154 255 0 0
-0.1549 -0.278176 0.518085 255 0 0
-0.0986869 0.00291599 0.461017 255 0 0
0.0107806 -0.408842 0.554186 255 0 0
-0.0646675 -0.435121 0.573771 255 0 0
-0.0145548 -0.281155 0.550353 255 0 0
-0.0841794 -0.435998 0.567915 255 0 0
0.00570825 -0.103899 0.491185 255 0 0
-0.0551883 -0.197888 0.504695 255 0 0
-0.185191 -0.245531 0.512575 255 0 0
-0.105791 -0.199639 0.545556 255 0 0
-0.108877 -0.169192 0.500152 255 0 0
-0.0668604 -0.158662 0.493929 255 0 0
-0.0763159 -0.182169 0.487842 255 0 0
-0.199173 -0.21213 0.500968 255 0 0
-0.108641 -0.169752 0.49606 255 0 0
0.0359214 -0.111048 0.462047 255 0 0
-0.0510466 -0.0888545 0.488599 255 0 0
-0.0403181 -0.128757 0.500221 255 0 0
-0.0376771 -0.172464 0.518238 255 0 0
0.159896 -0.104654 0.492022 255 0 0
0.0340968 -0.112796 0.45488 255 0 0
0.0865079 -0.0116612 0.462846 255 0 0
0.0850446 -0.00912793 0.480701 255 0 0
-0.036355 -0.140414 0.501704 255 0 0
0.011949 -0.0648197 0.461371 255 0 0
0.0919446 -0.010456 0.475665 255 0 0
0.0302596 -0.092388 0.511341 255 0 0
-0.0090617 -0.199091 0.514063 255 0 0
-0.0490323 -0.227221 0.528187 255 0 0
0.000991815 -0.196599 0.529857 255 0 0
-0.0106795 -0.206804 0.529322 255 0 0
-0.0498341 -0.198085 0.48766 255 0 0
-0.0409243 -0.22428 0.516952 255 0 0
-0.0990022 -0.190375 0.514719 255 0 0
-0.0404505 -0.224346 0.515985 255 0 0
-0.00184397 -0.198006 0.501205 255 0 0
-0.204414 -0.230407 0.508751 255 0 0
-0.205145 -0.229881 0.506709 255 0 0
-0.0333754 -0.0535558 0.482086 255 0 0
-0.140565 -0.101564 0.484357 255 0 0
-0.201135 -0.226962 0.486941 255 0 0
-0.205456 -0.232839 0.508244 255 0 0
-0.173847 -0.252047 0.510519 255 0 0
-0.0732587 -0.126057 0.504715 255 0 0
-0.0667267 -0.151698 0.503293 255 0 0
-0.041449 -0.188694 0.502474 255 0 0
0.14615 -0.0872777 0.496426 255 0 0
-0.0456781 -0.152734 0.513187 255 0 0
-0.112479 -0.171065 0.507383 255 0 0
-0.0323449 -0.15391 0.485263 255 0 0
-0.0277297 -0.0280212 0.475693 255 0 0
-0.0580895 -0.254313 0.531056 255 0 0
-0.0798406 -0.161302 0.500565 255 0 0
-0.0233558 -0.184512 0.539537 255 0 0
-0.0475769 -0.215507 0.51188 255 0 0
-0.0178826 -0.0626385 0.477533 255 0 0
-0.0665044 -0.264968 0.536462 255 0 0
-0.183867 -0.34533 0.592371 255 0 0
0.00490898 -0.103847 0.489687 255 0 0
-0.0223673 -0.0573436 0.465169 255 0 0
-0.122358 -0.174174 0.508238 255 0 0
-0.0591727 -0.167141 0.490612 255 0 0
-0.0315031 -0.0420266 0.47507 255 0 0
-0.0232848 -0.161565 0.50534 255 0 0
-0.0870707 -0.175286 0.493501 255 0 0
-0.0978321 -0.268314 0.51783 255 0 0
-0.0453941 -0.213887 0.517811 255 0 0
-0.0977508 -0.268312 0.517435 255 0 0
-0.0984329 -0.189467 0.515199 255 0 0
0.0129276 -0.155482 0.489911 255 0 0
0.0841843 -0.0102563 0.47957 255 0 0
-0.0297904 -0.153047 0.490214 255 0 0
-0.0447728 -0.179753 0.504609 255 0 0
-0.129241 -0.105802 0.490894 255 0 0
-0.0492623 -0.103227 0.494735 255 0 0
-0.00591633 -0.159586 0.476666 255 0 0
-0.0534515 -0.184963 0.49815 255 0 0
-0.0631801 -0.24326 0.515691 255 0 0
-0.0791985 -0.272204 0.53281 255 0 0
-0.102425 -0.169441 0.498276 255 0 0
-0.10289 -0.169645 0.49799 255 0 0
-0.0292815 -0.232376 0.525256 255 0 0
0.22728 -0.567276 0.605122 255 0 0
0.0644271 -0.389351 0.560598 255 0 0
0.0982072 -0.373372 0.559378 255 0 0
-0.0389221 -0.405476 0.567202 255 0 0
-0.0475744 -0.423963 0.563323 255 0 0
-0.120325 -0.402681 0.562854 255 0 0
0.255294 -0.355077 0.614729 255 0 0
0.0135205 -0.283128 0.542422 255 0 0
-0.00149034 -0.26671 0.524552 255 0 0
0.0805404 -0.322708 0.523174 255 0 0
-0.0103523 -0.264215 0.525047 255 0 0
-0.0493111 -0.488673 0.560491 255 0 0
0.0094882 -0.490227 0.577228 255 0 0
-0.112503 -0.324167 0.538509 255 0 0
-0.0311277 -0.423543 0.596532 255 0 0
-0.0472687 -0.489051 0.565866 255 0 0
-0.0996483 -0.497159 0.582746 255 0 0
-0.0157216 -0.382475 0.553174 255 0 0
-0.0974019 -0.526396 0.600871 255 0 0
-0.133783 -0.507553 0.589845 255 0 0
-0.121525 -0.438061 0.563365 255 0 0
-0.00474794 -0.351574 0.54307 255 0 0
-0.11405 -0.32767 0.534802 255 0 0
-0.152913 -0.266015 0.514536 255 0 0
-0.13676 -0.111304 0.487146 255 0 0
-0.0474918 -0.200415 0.495399 255 0 0
-0.0732813 -0.219723 0.527385 255 0 0
-0.116776 -0.114265 0.49306 255 0 0
-0.160275 -0.258845 0.510994 255 0 0
0.0665728 -0.0947121 0.48758 255 0 0
-0.0160608 -0.501477 0.574876 255 0 0
-0.0523011 -0.512043 0.572051 255 0 0
-0.083758 -0.521139 0.590812 255 0 0
-0.11317 -0.40346 0.541648 255 0 0
-0.129077 -0.122951 0.497118 255 0 0
0.0326181 -0.146493 0.470501 255 0 0
-0.031593 -0.153477 0.484832 255 0 0
-0.109447 -0.406968 0.557097 255 0 0
-0.140293 -0.436761 0.567597 255 0 0
0.00314609 -0.466821 0.675628 255 0 0
-0.0470924 -0.310195 0.552207 255 0 0
-0.056903 -0.202536 0.499163 255 0 0
-0.0481909 -0.148634 0.500162 255 0 0
-0.229133 -0.334488 0.551825 255 0 0
-0.13311 -0.333076 0.551994 255 0 0
0.00613457 -0.112906 0.487835 255 0 0
-0.0978799 -0.267258 0.516109 255 0 0
-0.23161 -0.32062 0.561244 255 0 0
-0.0598714 -0.0843291 0.486883 255 0 0
-0.0588369 -0.107522 0.500697 255 0 0
0.119127 -0.380076 0.562116 255 0 0
-0.0430121 -0.491376 0.581745 255 0 0
-0.0260422 -0.499054 0.582381 255 0 0
0.0542016 -0.373623 0.540341 255 0 0
0.0156117 -0.364483 0.543398 255 0 0
0.00678777 -0.500728 0.593656 255 0 0
0.0132708 -0.208526 0.499399 255 0 0
-0.0975531 -0.189723 0.514682 255 0 0
-0.0289939 -0.228505 0.528611 255 0 0
-0.206871 -0.224565 0.487701 255 0 0
-0.0290587 -0.164213 0.516114 255 0 0
-0.243263 -0.297651 0.545211 255 0 0
0.0283841 -0.117978 0.452356 255 0 0
-0.206873 -0.22609 0.496318 255 0 0
-0.00684648 -0.434986 0.558986 255 0 0
-0.0766324 -0.278414 0.488085 255 0 0
-0.133497 -0.489881 0.562015 255 0 0
-0.0414261 -0.292715 0.540932 255 0 0
0.0175407 -0.401091 0.55095 255 0 0
-0.0526351 -0.315898 0.54775 255 0 0
0.000288257 -0.461981 0.579722 255 0 0
-0.111327 -0.32544 0.551487 255 0 0
-0.0524702 -0.300773 0.546865 255 0 0
0.012001 -0.346818 0.542782 255 0 0
-0.0747705 -0.363302 0.527143 255 0 0
-0.113933 -0.17086 0.505111 255 0 0
-0.0873621 -0.208993 0.523801 255 0 0
-0.0348483 -0.303356 0.544273 255 0 0
-0.0428071 -0.414037 0.54532 255 0 0
-0.0167966 -0.53995 0.537863 255 0 0
-0.0712326 -0.316605 0.546831 255 0 0
-0.234514 -0.310286 0.559936 255 0 0
0.0440406 -0.272453 0.527327 255 0 0
0.0654301 -0.165439 0.508459 255 0 0
0.0530395 -0.286184 0.539992 255 0 0
-0.0469413 -0.435606 0.573055 255 0 0
0.0644224 -0.3885 0.561606 255 0 0
0.225961 -0.46854 0.584942 255 0 0
-0.0740875 -0.210704 0.523668 255 0 0
-0.0101155 -0.0141641 0.456691 255 0 0
0.00530664 -0.0982566 0.461644 255 0 0
-0.0629941 -0.0819506 0.490664 255 0 0
0.052463 0.00156177 0.458825 255 0 0
0.167285 -0.0802861 0.49632 255 0 0
-0.0216126 -0.0736832 0.487464 255 0 0
0.0305679 -0.403956 0.540687 255 0 0
-0.192581 -0.280963 0.547328 255 0 0
-0.182148 -0.25679 0.512756 255 0 0
0.0609935 -0.0771971 0.462815 255 0 0
-0.0324635 -0.153807 0.484992 255 0 0
0.00869688 -0.132868 0.489098 255 0 0
-0.0519471 -0.104259 0.513709 255 0 0
-0.125927 -0.151097 0.469522 255 0 0
-0.0229278 -0.287185 0.532043 255 0 0
0.000136852 -0.11901 0.494846 255 0 0
-0.114763 -0.266386 0.514422 255 0 0
-0.145576 -0.440945 0.576364 255 0 0
-0.0188759 -0.285643 0.540306 255 0 0
-0.111514 -0.376749 0.567388 255 0 0
-0.116854 -0.114157 0.493027 255 0 0
-0.0120266 -0.356423 0.545001 255 0 0
-0.0866983 -0.2674 0.516536 255 0 0
-0.107502 -0.378665 0.545233 255 0 0
-0.215125 -0.251478 0.636217 255 0 0
-0.126121 -0.370709 0.599951 255 0 0
-0.166751 -0.314811 0.53985 255 0 0
-0.0724677 -0.219621 0.522384 255 0 0
-0.143961 -0.212563 0.526067 255 0 0
-0.172931 -0.206005 0.535027 255 0 0
-0.10594 -0.17982 0.517444 255 0 0
-0.0793476 -0.366678 0.517098 255 0 0
-0.192044 -0.337794 0.553295 255 0 0
-0.00497257 -0.478333 0.586312 255 0 0
-0.11388 -0.379509 0.563237 255 0 0
-0.177031 -0.259208 0.495063 255 0 0
0.0193156 -0.414966 0.565896 255 0 0
-0.0251415 -0.374957 0.55219 255 0 0
-0.0973621 -0.310955 0.512999 255 0 0
-0.0436926 -0.500365 0.558243 255 0 0
-0.102432 -0.367181 0.549962 255 0 0
-0.209616 -0.37554 0.578135 255 0 0
-0.0637173 -0.425311 0.589782 255 0 0
-0.0423649 -0.291919 0.537652 255 0 0
-0.0485463 -0.218606 0.512397 255 0 0
0.0239969 -0.40564 0.554189 255 0 0
-0.0419217 -0.350628 0.542384 255 0 0
0.00354855 -0.439352 0.558534 255 0 0
0.025054 -0.484814 0.584676 255 0 0
-0.13021 -0.447439 0.570099 255 0 0
-0.168885 -0.316749 0.508177 255 0 0
-0.0476955 -0.420707 0.569605 255 0 0
0.00152168 -0.411118 0.563054 255 0 0
-0.160496 -0.298058 0.534971 255 0 0
-0.140106 -0.444268 0.570376 255 0 0
-0.0574524 -0.315345 0.548177 255 0 0
0.0450762 -0.379959 0.546148 255 0 0
-0.0803505 -0.261609 0.520894 255 0 0
-0.111566 -0.324291 0.543804 255 0 0
0.0409106 -0.355142 0.629069 255 0 0
-0.0231196 -0.35314 0.569547 255 0 0
-0.103589 -0.392475 0.550604 255 0 0
0.0172851 -0.476918 0.578448 255 0 0
-0.0092785 -0.442883 0.565222 255 0 0
0.0829949 -0.0111675 0.473728 255 0 0
-0.0500687 -0.227613 0.527294 255 0 0
-0.150891 -0.269755 0.513414 255 0 0
0.00644727 -0.149616 0.500011 255 0 0
-0.0563434 -0.1687 0.507939 255 0 0
-0.105652 -0.169912 0.495468 255 0 0
-0.139963 -0.211435 0.52727 255 0 0
-0.175776 -0.251618 0.511177 255 0 0
-0.0362672 -0.0514611 0.480728 255 0 0
0.0141503 -0.0418437 0.453769 255 0 0
-0.0514091 -0.229352 0.526925 255 0 0
-0.0570874 -0.105007 0.504507 255 0 0
-0.0479026 -0.0961937 0.500369 255 0 0
-0.0610587 -0.106969 0.495018 255 0 0
-0.125194 -0.141841 0.495953 255 0 0
-0.162485 -0.27197 0.510653 255 0 0
-0.130641 -0.105024 0.499284 255 0 0
-0.0887773 -0.175889 0.491971 255 0 0
0.00135138 -0.185937 0.515306 255 0 0
-0.0992703 -0.190167 0.51647 255 0 0
-0.0313826 -0.232809 0.523473 255 0 0
0.0103017 -0.490361 0.577053 255 0 0
0.0360252 -0.503145 0.592878 255 0 0
-0.117349 -0.382184 0.550446 255 0 0
-0.13238 -0.296083 0.556221 255 0 0
-0.0371649 -0.398461 0.563378 255 0 0
-0.0619752 -0.442648 0.575663 255 0 0
-0.0475176 -0.417504 0.568692 255 0 0
-0.0467578 -0.216707 0.515761 255 0 0
-0.0476598 -0.179974 0.502955 255 0 0
-0.0679151 -0.153352 0.502823 255 0 0
-0.102138 -0.185843 0.512169 255 0 0
-0.197941 -0.222959 0.530241 255 0 0
-0.131808 -0.313172 0.556656 255 0 0
0.0480805 -0.31393 0.540905 255 0 0
-0.0033106 -0.15623 0.481445 255 0 0
-0.0139139 -0.170348 0.536413 255 0 0
-0.198666 -0.214864 0.515842 255 0 0
-0.123038 -0.172623 0.511504 255 0 0
-0.0627806 -0.311809 0.544546 255 0 0
0.0148938 -0.472983 0.58048 255 0 0
-0.0668514 -0.26162 0.540896 255 0 0
-0.181448 -0.244282 0.52578 255 0 0
0.0545166 -0.317371 0.543078 255 0 0
-0.0247229 -0.337867 0.553051 255 0 0
-0.0418526 -0.390934 0.528765 255 0 0
0.050938 -0.509843 0.565479 255 0 0
-0.149562 -0.501139 0.560912 255 0 0
0.115945 -0.49899 0.583923 255 0 0
-0.0396323 -0.392454 0.557932 255 0 0
0.00707283 -0.436543 0.553702 255 0 0
0.0121324 -0.306417 0.522174 255 0 0
0.163538 -0.583575 0.596289 255 0 0
-0.0335196 -0.312619 0.537831 255 0 0
-0.0351559 -0.440608 0.56531 255 0 0
-0.0409485 -0.188769 0.52905 255 0 0
0.013048 -0.41848 0.557708 255 0 0
-0.0405723 -0.292036 0.542099 255 0 0
0.0164945 -0.472671 0.580338 255 0 0
-0.0706093 -0.523946 0.578671 255 0 0
-0.13981 -0.432309 0.572671 255 0 0
-0.144687 -0.482123 0.563971 255 0 0
-0.129154 -0.510727 0.594628 255 0 0
-0.0976328 -0.178109 0.488526 255 0 0
-0.184329 -0.358586 0.625792 255 0 0
-0.0731839 -0.22095 0.526891 255 0 0
-0.183274 -0.258163 0.512805 255 0 0
-0.0415074 -0.36568 0.560007 255 0 0
-0.0214824 -0.539572 0.529226 255 0 0
-0.129748 -0.510779 0.592679 255 0 0
0.0154376 -0.480315 0.587367 255 0 0
-0.0761961 -0.444302 0.58074 255 0 0
-0.0297353 -0.325152 0.536505 255 0 0
0.00501496 -0.297831 0.511028 255 0 0
-0.0292524 -0.299867 0.534724 255 0 0
0.0876849 -0.397213 0.55497 255 0 0
-0.153668 -0.465466 0.556338 255 0 0
-0.178995 -0.420889 0.573773 255 0 0
0.144237 -0.299889 0.527896 255 0 0
0.0181805 -0.420704 0.642558 255 0 0
0.188928 -0.447553 0.566868 255 0 0
-0.0734108 -0.537555 0.557928 255 0 0
0.0732841 -0.641924 0.272467 255 0 0
0.445791 0.364022 1.48511 255 0 0
0.0904764 -0.588828 0.479528 255 0 0
0.160976 -0.316594 0.526734 255 0 0
0.264498 -0.214645 1.13357 255 0 0
0.0207826 -0.422995 0.638564 255 0 0
0.431082 3.96278 5.049 255 0 0
0.0435196 -0.461509 0.567073 255 0 0
-0.0161627 -0.536409 0.53847 255 0 0
-0.0467396 -0.452563 0.564022 255 0 0
0.279485 -0.408903 0.56797 255 0 0
0.0449195 -0.386224 0.541629 255 0 0
0.318618 -0.298361 0.575128 255 0 0
-0.0159593 -0.434807 0.560314 255 0 0
0.0969355 -0.483633 0.538362 255 0 0
-0.00488544 -0.454941 0.533434 255 0 0
0.276896 -0.321784 0.553526 255 0 0
0.289459 -0.303095 0.543488 255 0 0
0.26755 -0.268623 0.599002 255 0 0
0.0967168 -0.47732 0.545711 255 0 0
0.031786 -0.508731 0.57195 255 0 0
0.0246152 -0.281646 0.542177 255 0 0
-0.0404614 -0.337754 0.547446 255 0 0
-0.14408 -0.213079 0.53087 255 0 0
-0.0997501 -0.366476 0.557508 255 0 0
-0.055124 -0.315604 0.547615 255 0 0
0.0104252 -0.500813 0.582346 255 0 0
0.027331 -0.479366 0.575292 255 0 0
-0.0355383 -0.418673 0.56898 255 0 0
0.000755512 -0.463473 0.578529 255 0 0
-0.0647437 -0.378496 0.509567 255 0 0
-0.0277056 -0.151386 0.48805 255 0 0
-0.00476206 -0.19796 0.519131 255 0 0
0.00329001 -0.184075 0.517112 255 0 0
-0.140425 -0.445781 0.570473 255 0 0
-0.12808 -0.430539 0.56775 255 0 0
-0.0101222 -0.197772 0.511888 255 0 0
-0.0882826 -0.350173 0.546009 255 0 0
-0.0292011 -0.163273 0.489487 255 0 0
-0.0273608 -0.229784 0.526183 255 0 0
-0.072481 -0.192473 0.513067 255 0 0
-0.151112 -0.0897844 0.519994 255 0 0
0.00808205 -0.11498 0.48898 255 0 0
0.010659 -0.152049 0.488372 255 0 0
-0.140129 -0.0469287 0.487947 255 0 0
-0.146604 -0.477811 0.563226 255 0 0
-0.0793133 -0.32579 0.547728 255 0 0
-0.0817787 -0.326226 0.541983 255 0 0
-0.0255192 -0.497528 0.584656 255 0 0
-0.124823 -0.424121 0.536138 255 0 0
-0.129577 -0.43992 0.564093 255 0 0
-0.0449918 -0.355961 0.550656 255 0 0
-0.0603025 -0.172507 0.50511 255 0 0
-0.0768516 -0.446026 0.575866 255 0 0
-0.113275 -0.266865 0.520498 255 0 0
0.0103905 -0.418993 0.550101 255 0 0
-0.109659 -0.494861 0.566587 255 0 0
-0.0297429 -0.233171 0.523857 255 0 0
-0.0186458 -0.379486 0.551843 255 0 0
-0.0542021 -0.301566 0.547004 255 0 0
0.20993 -0.581596 0.604913 255 0 0
-0.0764286 -0.336153 0.551763 255 0 0
-0.0332584 -0.311074 0.541909 255 0 0
0.0471959 -0.394268 0.545615 255 0 0
0.0661332 -0.377713 0.55897 255 0 0
0.128104 -0.415466 0.540536 255 0 0
0.18061 -0.428819 0.565351 255 0 0
-0.00276349 -0.261955 0.532523 255 0 0
0.264305 -0.509481 0.581323 255 0 0
-0.0835752 -0.314338 0.544753 255 0 0
-0.187852 -0.411538 0.570893 255 0 0
-0.0758819 -0.257947 0.531519 255 0 0
0.0307039 -0.379812 0.542321 255 0 0
-0.0839141 -0.183029 0.502208 255 0 0
0.0408045 -0.153453 0.494756 255 0 0
0.0451253 -0.254865 0.537141 255 0 0
0.00974315 -0.349451 0.541125 255 0 0
-0.103825 -0.440522 0.565843 255 0 0
-0.112262 -0.405143 0.545053 255 0 0
-0.048127 -0.188972 0.504069 255 0 0
-0.0213614 -0.447974 0.563277 255 0 0
-0.0553903 -0.302985 0.562475 255 0 0
-0.161071 -0.293347 0.494473 255 0 0
-0.073218 -0.498012 0.606058 255 0 0
0.0660153 -0.54762 0.587285 255 0 0
-0.123029 -0.146479 0.498174 255 0 0
-0.0536931 -0.470647 0.560562 255 0 0
-0.0360885 -0.325866 0.537841 255 0 0
-0.0157339 -0.540604 0.545062 255 0 0
-0.0936308 -0.444059 0.560997 255 0 0
-0.029902 -0.333232 0.540767 255 0 0
-0.0485319 -0.308845 0.547584 255 0 0
-0.0487909 -0.308911 0.548564 255 0 0
-0.212051 -0.343047 0.555684 255 0 0
0.0160222 -0.36633 0.542402 255 0 0
0.00339151 -0.464507 0.583045 255 0 0
-0.0597373 -0.379602 0.518548 255 0 0
-0.004066 -0.350994 0.543676 255 0 0
0.0683898 -0.136673 0.519903 255 0 0
-0.129129 -0.434675 0.575259 255 0 0
-0.103042 -0.440351 0.567685 255 0 0
-0.149241 -0.271073 0.514551 255 0 0
0.0195915 -0.0800861 0.488473 255 0 0
-0.108636 -0.378978 0.543524 255 0 0
-0.0601919 -0.17365 0.502429 255 0 0
-0.0602249 -0.0845239 0.508857 255 0 0
-0.0603015 -0.371818 0.515336 255 0 0
-0.0576431 -0.440132 0.568129 255 0 0
-0.0882891 -0.446814 0.56717 255 0 0
-0.143371 -0.292865 0.528787 255 0 0
-0.0712968 -0.278801 0.522392 255 0 0
-9.95747e-05 -0.463852 0.577755 255 0 0
-0.111668 -0.374231 0.552876 255 0 0
-0.191143 -0.270598 0.51944 255 0 0
-0.00988132 -0.478909 0.58219 255 0 0
0.0125586 -0.259183 0.549551 255 0 0
0.0331115 -0.37635 0.550231 255 0 0
-0.00674066 -0.3696 0.556777 255 0 0
-0.106039 -0.405652 0.567778 255 0 0
0.0170896 -0.365901 0.544725 255 0 0
-0.101038 -0.363694 0.548917 255 0 0
-0.1016 -0.444853 0.558888 255 0 0
-0.141092 -0.444349 0.564404 255 0 0
-0.0330445 -0.331611 0.549617 255 0 0
-0.028837 -0.33452 0.543729 255 0 0
0.0149454 -0.0860935 0.48025 255 0 0
-0.0391414 -0.191343 0.484095 255 0 0
-0.15241 -0.260099 0.512792 255 0 0
-0.198833 -0.216707 0.517079 255 0 0
-0.109064 -0.318838 0.323939 255 0 0
-0.148116 -0.441753 0.562887 255 0 0
-0.0700545 -0.31584 0.547917 255 0 0
-0.00157694 -0.272062 0.540234 255 0 0
0.0158288 -0.335258 0.53916 255 0 0
-0.0625709 -0.380723 0.512251 255 0 0
-0.041929 -0.294177 0.54266 255 0 0
-0.017312 -0.442189 0.574843 255 0 0
-0.146724 -0.477307 0.56597 255 0 0
-0.0415788 -0.170344 0.500163 255 0 0
0.0083189 -0.453633 0.57776 255 0 0
-0.131031 -0.484476 0.581084 255 0 0
-0.0862762 -0.437468 0.563346 255 0 0
0.0106919 -0.419037 0.553608 255 0 0
-0.182605 -0.259064 0.518445 255 0 0
-0.139387 -0.0547162 0.488132 255 0 0
-0.148463 -0.462612 0.56689 255 0 0
-0.107597 -0.376241 0.543949 255 0 0
-0.0157568 -0.387732 0.558386 255 0 0
-0.0360691 -0.439431 0.556495 255 0 0
-0.0254453 -0.215237 0.494373 255 0 0
0.0126384 -0.270734 0.538122 255 0 0
-0.0672751 -0.440545 0.590738 255 0 0
-0.113532 -0.113511 0.494124 255 0 0
-0.0534813 -0.101329 0.513398 255 0 0
-0.0419264 -0.335885 0.545592 255 0 0
-0.111313 -0.378885 0.531409 255 0 0
-0.0525958 -0.375213 0.532331 255 0 0
-0.0095012 -0.355896 0.545642 255 0 0
-0.0507954 -0.238898 0.519155 255 0 0
-0.0885907 -0.345616 0.541326 255 0 0
-0.0336351 -0.314049 0.537214 255 0 0
-0.107091 -0.438436 0.541972 255 0 0
-0.0355646 -0.181533 0.509222 255 0 0
-0.123186 -0.113981 0.520479 255 0 0
-0.0566373 -0.245472 0.53425 255 0 0
-0.0603004 -0.173457 0.502329 255 0 0
-0.0398546 -0.218478 0.509393 255 0 0
-0.0680302 -0.266952 0.532106 255 0 0
-0.0820844 -0.191686 0.496586 255 0 0
0.261754 -0.372594 0.555345 255 0 0
0.175587 -0.366955 0.545274 255 0 0
0.0809745 -0.317383 0.528627 255 0 0
-0.0297857 -0.330997 0.546775 255 0 0
-0.0666811 -0.508237 0.590028 255 0 0
0.142024 -0.349878 0.529481 255 0 0
0.202406 -0.444434 0.579755 255 0 0
-0.0467587 -0.435411 0.569248 255 0 0
0.128358 -0.485655 0.576101 255 0 0
-0.0215262 -0.511106 0.571378 255 0 0
-0.0373234 -0.383078 0.561484 255 0 0
0.23492 -0.534712 0.581296 255 0 0
-0.0498769 -0.477087 0.558096 255 0 0
0.262952 -0.519903 0.62277 255 0 0
0.284752 -0.488528 0.579687 255 0 0
-0.0712766 -0.374652 0.506999 255 0 0
0.28459 -0.480245 0.580129 255 0 0
0.195278 -0.606955 0.609373 255 0 0
0.0199745 -0.418961 0.539687 255 0 0
0.222948 -0.479481 0.56717 255 0 0
-0.0795716 -0.502748 0.559441 255 0 0
0.175895 -0.619342 0.603517 255 0 0
0.117493 -0.440529 0.550313 255 0 0
-0.0808184 -0.309629 0.538055 255 0 0
0.196552 -0.414443 0.555914 255 0 0
0.206815 -0.586791 0.586067 255 0 0
0.28901 -0.47647 0.584296 255 0 0
0.120586 -0.39889 0.548353 255 0 0
-0.146785 -0.480299 0.565091 255 0 0
0.119519 -0.556124 0.574645 255 0 0
0.0505287 -0.446769 0.575059 255 0 0
0.209851 -0.567649 0.63242 255 0 0
0.238532 -0.558867 0.633439 255 0 0
0.252893 -0.504478 0.560574 255 0 0
0.123559 -0.391522 0.557773 255 0 0
0.268494 -0.568909 0.618706 255 0 0
0.22491 -0.567774 0.605609 255 0 0
0.246663 -0.485069 0.559413 255 0 0
0.109317 -0.483918 0.550238 255 0 0
0.279293 -0.526589 0.572333 255 0 0
0.0945902 -0.400817 0.565018 255 0 0
0.306753 -0.470058 0.579337 255 0 0
0.233465 -0.442836 0.572929 255 0 0
0.138161 -0.362903 0.59692 255 0 0
0.0043622 -0.368937 0.545397 255 0 0
0.0646093 -0.355065 0.554419 255 0 0
0.0679637 -0.400994 0.515182 255 0 0
0.171233 -0.606873 0.548396 255 0 0
0.281665 -0.524591 0.575196 255 0 0
0.309024 -0.459443 0.608355 255 0 0
0.0849675 -0.537619 0.533919 255 0 0
0.333362 -0.402716 0.57535 255 0 0
0.0553466 -0.323687 0.58548 255 0 0
0.178372 -0.451377 0.536524 255 0 0
-0.0646052 -0.434418 0.574808 255 0 0
-0.0572725 -0.506358 0.570475 255 0 0
-0.108639 -0.498259 0.554442 255 0 0
0.0727512 -0.531632 0.590015 255 0 0
-0.0787748 -0.521395 0.600609 255 0 0
0.0178098 -0.428968 0.544577 255 0 0
0.103673 -0.40065 0.554327 255 0 0
0.249903 -0.557178 0.603937 255 0 0
-0.109922 -0.497451 0.554781 255 0 0
0.0729361 -0.34105 0.541141 255 0 0
-0.209128 -0.329196 0.557283 255 0 0
0.226283 -0.521517 0.515838 255 0 0
0.280428 -0.458605 0.607317 255 0 0
-0.111425 -0.256426 0.52737 255 0 0
0.280854 -0.537756 0.580199 255 0 0
0.0813942 -0.509786 0.588503 255 0 0
-0.0201292 -0.437734 0.579756 255 0 0
-0.0550353 -0.505153 0.5674 255 0 0
-0.135506 -0.47666 0.565565 255 0 0
-0.0405929 -0.347235 0.544853 255 0 0
-0.0177032 -0.447676 0.566139 255 0 0
-0.085889 -0.163302 0.497728 255 0 0
-0.0797131 -0.311719 0.535891 255 0 0
-0.206082 -0.398243 0.554137 255 0 0
-0.143454 -0.443297 0.548889 255 0 0
0.00217026 -0.492351 0.588862 255 0 0
-0.143379 -0.442749 0.549005 255 0 0
0.0740043 -0.399973 0.562199 255 0 0
-0.133424 -0.350952 0.555835 255 0 0
0.134843 -0.411878 0.550696 255 0 0
0.123286 -0.488523 0.558642 255 0 0
-0.0790558 -0.25809 0.525308 255 0 0
0.106323 -0.385299 0.555659 255 0 0
0.0257427 -0.372221 0.554089 255 0 0
-0.0576723 -0.506482 0.572281 255 0 0
-0.0347548 -0.39682 0.569929 255 0 0
0.0183199 -0.364678 0.547063 255 0 0
0.129623 -0.579267 0.559979 255 0 0
-0.0480996 -0.473901 0.569094 255 0 0
0.119174 -0.520958 0.590166 255 0 0
0.073421 -0.474689 0.572638 255 0 0
0.192336 -0.595904 0.59145 255 0 0
0.0989045 -0.337225 0.559462 255 0 0
0.054493 -0.481743 0.574815 255 0 0
0.12343 -0.460361 0.571746 255 0 0
0.070155 -0.348882 0.544696 255 0 0
0.0878954 -0.347654 0.539198 255 0 0
0.0720624 -0.339077 0.530566 255 0 0
0.11795 -0.470394 0.574664 255 0 0
-0.00986117 -0.45882 0.575066 255 0 0
-0.00989262 -0.53385 0.560041 255 0 0
-0.0187696 -0.378447 0.551645 255 0 0
-0.0476499 -0.472329 0.573651 255 0 0
0.118015 -0.498996 0.569212 255 0 0
-0.0692975 -0.316544 0.54663 255 0 0
-0.0107886 -0.540182 0.548884 255 0 0
0.0140011 -0.490328 0.579715 255 0 0
-0.130357 -0.190274 0.514187 255 0 0
-0.133823 -0.508211 0.588206 255 0 0
-0.000977646 -0.443127 0.553167 255 0 0
-0.14654 -0.440931 0.555114 255 0 0
-0.0170481 -0.444325 0.567317 255 0 0
0.151868 -0.584494 0.582758 255 0 0
0.0755555 -0.518363 0.579797 255 0 0
-0.042719 -0.499362 0.556443 255 0 0
-0.0183332 -0.448888 0.565707 255 0 0
-0.0824165 -0.313872 0.53351 255 0 0
-0.131735 -0.510921 0.582129 255 0 0
-0.0722079 -0.239151 0.534254 255 0 0
-0.012984 -0.36058 0.539212 255 0 0
-0.00850732 -0.541532 0.55165 255 0 0
-0.120689 -0.178267 0.51378 255 0 0
-0.0483103 -0.429109 0.559099 255 0 0
0.0141573 -0.414286 0.558707 255 0 0
0.0165178 -0.403178 0.553311 255 0 0
-0.114093 -0.327632 0.535352 255 0 0
-0.0380182 -0.448986 0.569041 255 0 0
-0.0174091 -0.447713 0.566677 255 0 0
-0.0472751 -0.43509 0.572393 255 0 0
0.245988 -0.47973 0.565308 255 0 0
-0.00495005 -0.493557 0.583158 255 0 0
-0.00540548 -0.365276 0.540163 255 0 0
0.126085 -0.555105 0.588349 255 0 0
0.247166 -0.480228 0.565556 255 0 0
0.18194 -0.428717 0.563798 255 0 0
-0.0270625 -0.502469 0.573233 255 0 0
0.156793 -0.424142 0.562759 255 0 0
-0.0806751 -0.499675 0.566845 255 0 0
-0.00413702 -0.485782 0.601349 255 0 0
0.167348 -0.34486 0.539584 255 0 0
0.183845 -0.297041 0.54196 255 0 0
0.138377 -0.378779 0.536108 255 0 0
0.216335 -0.38936 0.554843 255 0 0
0.136752 -0.39055 0.552954 255 0 0
0.287418 -0.454932 0.583767 255 0 0
0.116234 -0.365073 0.584545 255 0 0
0.230843 -0.415206 0.565596 255 0 0
0.160287 -0.422715 0.566695 255 0 0
0.106277 -0.398244 0.557116 255 0 0
0.00998973 -0.34767 0.540853 255 0 0
0.216567 -0.570637 0.607245 255 0 0
0.226177 -0.506811 0.588033 255 0 0
0.293901 -0.519329 0.59338 255 0 0
-0.0176889 -0.448246 0.571664 255 0 0
0.291502 -0.43947 0.588275 255 0 0
0.0815688 -0.378003 0.543927 255 0 0
-0.0340868 -0.312046 0.5395 255 0 0
-0.0322187 -0.525425 0.52438 255 0 0
-0.000572102 -0.496977 0.568965 255 0 0
0.0072753 -0.458401 0.565401 255 0 0
0.0190087 -0.377818 0.539771 255 0 0
0.116449 -0.473194 0.571554 255 0 0
0.0155088 -0.405652 0.546855 255 0 0
0.147238 -0.446476 0.587741 255 0 0
0.0347772 -0.509945 0.569647 255 0 0
0.0642787 -0.382187 0.55448 255 0 0
0.00413959 -0.442873 0.553866 255 0 0
0.0980177 -0.418035 0.531259 255 0 0
-0.0264668 -0.372804 0.550499 255 0 0
-0.0517162 -0.437129 0.576917 255 0 0
0.0664663 -0.412252 0.571839 255 0 0
0.0796612 -0.500372 0.575805 255 0 0
-0.0253592 -0.378712 0.546297 255 0 0
0.150592 -0.451567 0.566834 255 0 0
0.222154 -0.458026 0.573855 255 0 0
0.0395815 -0.366945 0.565963 255 0 0
0.232757 -0.466527 0.569192 255 0 0
0.116023 -0.382411 0.554407 255 0 0
-0.0392072 -0.388679 0.55865 255 0 0
-0.0378263 -0.375743 0.553768 255 0 0
0.0872904 -0.462217 0.561978 255 0 0
-0.0723749 -0.208103 0.527511 255 0 0
-0.124106 -0.171689 0.511976 255 0 0
-0.182133 -0.422773 0.541538 255 0 0
-0.134627 -0.429679 0.548994 255 0 0
-0.0135686 -0.478567 0.57148 255 0 0
-0.0392838 -0.510657 0.595231 255 0 0
-0.1036 -0.168889 0.498712 255 0 0
-0.0649926 -0.52389 0.587697 255 0 0
-0.0801044 -0.343124 0.552608 255 0 0
-0.0770799 -0.308953 0.538402 255 0 0
0.00642706 -0.40987 0.573021 255 0 0
-0.187733 -0.405073 0.594468 255 0 0
-0.112436 -0.406478 0.544699 255 0 0
-0.135258 -0.265665 0.516238 255 0 0
-0.0803993 -0.325708 0.534834 255 0 0
-0.199525 -0.28288 0.458287 255 0 0
-0.112082 -0.377428 0.553709 255 0 0
0.181157 -0.427457 0.56779 255 0 0
0.252505 -0.555388 0.605873 255 0 0
0.0665566 -0.560676 0.59127 255 0 0
0.301884 -0.471443 0.5727 255 0 0
0.102989 -0.366295 0.582047 255 0 0
0.285162 -0.479769 0.579626 255 0 0
-3.25035e-05 -0.358914 0.540208 255 0 0
0.108736 -0.484291 0.54949 255 0 0
0.28808 -0.45452 0.604452 255 0 0
0.0625612 -0.482524 0.56751 255 0 0
0.277858 -0.48923 0.593066 255 0 0
0.072838 -0.537776 0.590956 255 0 0
-0.0891916 -0.337455 0.548608 255 0 0
-0.0382438 -0.406251 0.570929 255 0 0
0.0646312 -0.317226 0.539017 255 0 0
0.0811491 -0.316715 0.530563 255 0 0
0.219031 -0.471765 0.572556 255 0 0
-0.158434 -0.45388 0.572881 255 0 0
-0.0785305 -0.364955 0.510848 255 0 0
0.0100173 -0.453217 0.568748 255 0 0
-0.0243744 -0.336831 0.555165 255 0 0
0.239414 -0.56868 0.588539 255 0 0
0.0807069 -0.379292 0.54332 255 0 0
0.020674 -0.417523 0.540256 255 0 0
0.11103 -0.421076 0.575272 255 0 0
0.0488715 -0.383538 0.528913 255 0 0
-0.0246965 -0.33753 0.552411 255 0 0
0.0483493 -0.369863 0.55991 255 0 0
0.105679 -0.393878 0.550686 255 0 0
0.0475846 -0.308358 0.545187 255 0 0
0.0913427 -0.342712 0.541808 255 0 0
-0.000928673 -0.361726 0.547338 255 0 0
-0.0800444 -0.343132 0.555074 255 0 0
-0.0466141 -0.357957 0.565237 255 0 0
-0.0234907 -0.336753 0.553774 255 0 0
-0.118144 -0.202052 0.504328 255 0 0
-0.0850261 -0.435055 0.573573 255 0 0
0.000671524 -0.411199 0.562398 255 0 0
-0.134775 -0.392748 0.557831 255 0 0
0.085826 -0.35348 0.556148 255 0 0
0.327711 -0.36894 0.561319 255 0 0
-0.035153 -0.499631 0.559418 255 0 0
0.138368 -0.355773 0.529669 255 0 0
-0.138388 -0.45489 0.539363 255 0 0
0.0615641 -0.364977 0.570317 255 0 0
-0.0426158 -0.512063 0.550215 255 0 0
-0.046646 -0.501957 0.561528 255 0 0
0.0981044 -0.319586 0.576213 255 0 0
0.160113 -0.339671 0.583374 255 0 0
-0.0231078 -0.534732 0.547433 255 0 0
0.244316 -0.370981 0.541498 255 0 0
0.0141873 -0.409213 0.537829 255 0 0
-0.0190357 -0.502211 0.566514 255 0 0
0.170306 -0.312936 0.530767 255 0 0
0.208195 -0.392517 0.555384 255 0 0
0.26028 -0.245846 0.509676 255 0 0
0.22986 -0.46292 0.571064 255 0 0
0.189232 -0.36715 0.544413 255 0 0
-0.282448 0.491721 2.87595 255 0 0
-0.0373324 -0.422251 0.573094 255 0 0
-0.06717 -0.519233 0.57535 255 0 0
0.0728469 -0.396815 0.565781 255 0 0
0.142404 -0.371612 0.544817 255 0 0
0.214304 -0.263224 0.584172 255 0 0
0.223398 0.477617 1.34658 255 0 0
0.311629 -0.204002 0.865959 255 0 0
0.102227 -0.630976 0.449395 255 0 0
0.125239 -0.554332 0.49683 255 0 0
0.282809 -0.38919 0.471255 255 0 0
-0.106001 -0.480259 0.59433 255 0 0
0.0996547 -0.352973 0.53655 255 0 0
0.0712055 -0.328045 0.547384 255 0 0
0.281394 -0.360297 0.524763 255 0 0
0.288397 -0.374463 0.487487 255 0 0
0.277532 -0.396343 0.554159 255 0 0
0.11506 -0.344972 0.531583 255 0 0
0.209228 -0.28983 0.551481 255 0 0
0.160631 -0.430218 0.550526 255 0 0
0.305245 -0.327057 0.542005 255 0 0
0.243077 -0.405467 0.568676 255 0 0
0.270453 -0.404865 0.557982 255 0 0
-0.0473119 -0.501066 0.563593 255 0 0
-0.0683823 -0.318836 0.544297 255 0 0
0.0673719 -0.311687 0.545345 255 0 0
0.0145067 -0.348607 0.531951 255 0 0
-0.192753 -0.33176 0.560979 255 0 0
0.215281 -0.389421 0.55192 255 0 0
-0.068362 -0.36611 0.515448 255 0 0
-0.0463171 -0.446918 0.555826 255 0 0
-0.0324921 -0.305391 0.540821 255 0 0
0.135846 -0.390119 0.5539 255 0 0
-0.0760079 -0.3793 0.509184 255 0 0
-0.136071 -0.505746 0.600574 255 0 0
0.155817 -0.297421 0.555787 255 0 0
0.174353 -0.43535 0.569866 255 0 0
0.150025 -0.566719 0.607776 255 0 0
0.0570276 -0.30301 0.544921 255 0 0
0.167671 -0.419618 0.561405 255 0 0
0.191167 -0.59653 0.59017 255 0 0
-0.0491686 -0.336252 0.535115 255 0 0
0.232571 -0.467017 0.567931 255 0 0
0.0631266 -0.396948 0.565832 255 0 0
0.0813323 -0.501607 0.583751 255 0 0
-0.0301493 -0.324773 0.536515 255 0 0
0.21303 -0.583113 0.632831 255 0 0
0.296747 -0.441637 0.638996 255 0 0
0.209708 -0.576891 0.576376 255 0 0
-0.0117424 -0.538665 0.538347 255 0 0
0.220896 -0.570375 0.590722 255 0 0
0.252958 -0.554349 0.604457 255 0 0
0.0801085 -0.357794 0.621571 255 0 0
0.009376 -0.355222 0.538409 255 0 0
0.079175 -0.470754 0.567487 255 0 0
-0.14666 -0.498048 0.570038 255 0 0
0.0725672 -0.398106 0.562295 255 0 0
0.040515 -0.382184 0.546689 255 0 0
-0.0425897 -0.377614 0.520592 255 0 0
-0.0362416 -0.49907 0.563463 255 0 0
-0.136789 -0.311743 0.538491 255 0 0
-0.0371031 -0.304977 0.542176 255 0 0
0.169676 -0.417719 0.565431 255 0 0
-0.0170321 -0.449761 0.570126 255 0 0
0.219419 -0.396457 0.554942 255 0 0
0.226965 -0.416612 0.560645 255 0 0
0.230445 -0.414047 0.56584 255 0 0
0.0969946 -0.345458 0.548323 255 0 0
0.000135821 -0.502889 0.577745 255 0 0
0.0854244 -0.351582 0.556908 255 0 0
0.117742 -0.470085 0.574085 255 0 0
0.162316 -0.318362 0.525037 255 0 0
0.168257 -0.30754 0.517653 255 0 0
-0.027966 -0.447766 0.570943 255 0 0
0.209903 -0.390588 0.559272 255 0 0
0.0148557 -0.306062 0.507582 255 0 0
0.172476 -0.313027 0.531561 255 0 0
0.158379 -0.303088 0.525279 255 0 0
0.115629 -0.329412 0.540851 255 0 0
0.261874 -0.375805 0.552745 255 0 0
-0.1489 -0.475935 0.569284 255 0 0
0.186511 -0.378936 0.527041 255 0 0
0.0677773 -0.308526 0.547647 255 0 0
0.140233 -0.347413 0.531778 255 0 0
0.137744 -0.333944 0.608372 255 0 0
-0.0838779 -0.498827 0.557126 255 0 0
0.113215 -0.442363 0.507764 255 0 0
0.237436 -0.205512 0.508076 255 0 0
-0.101056 -0.438778 0.569831 255 0 0
0.236018 -0.373715 0.624065 255 0 0
0.184503 -0.300165 0.537154 255 0 0
0.298962 -0.178337 0.627058 255 0 0
0.299389 -0.307668 0.554532 255 0 0
-0.00236314 -0.552047 0.520123 255 0 0
-0.0825759 -0.440272 0.562964 255 0 0
-0.0103873 -0.547959 0.530352 255 0 0
0.168597 -0.344819 0.539211 255 0 0
0.0849215 -0.324171 0.543983 255 0 0
0.168894 -0.430995 0.540387 255 0 0
-0.0552301 -0.528771 0.549935 255 0 0
0.0532795 -0.187728 1.10193 255 0 0
0.110686 -0.324219 0.53115 255 0 0
0.100337 -0.359364 0.531984 255 0 0
0.160301 -0.284821 0.548862 255 0 0
0.305418 -0.327582 0.563561 255 0 0
0.251583 -0.346989 0.571722 255 0 0
0.255659 -0.369269 0.536874 255 0 0
0.10059 -0.478527 0.537202 255 0 0
-0.0226806 -0.420592 0.588704 255 0 0
0.178341 -0.436191 0.561906 255 0 0
0.282899 -0.3007 0.578376 255 0 0
0.0754107 -0.319171 0.533951 255 0 0
0.0210117 -0.516349 0.556884 255 0 0
0.124824 -0.384427 0.566327 255 0 0
1.34479 6.62147 8.03071 255 0 0
0.0524756 -0.356337 0.605554 255 0 0
0.124048 -0.380495 0.572828 255 0 0
0.232232 -0.413751 0.562988 255 0 0
0.160295 -0.341865 0.54323 255 0 0
0.130852 -0.391259 0.558583 255 0 0
0.177712 -0.334947 0.567824 255 0 0
0.120019 -0.558192 0.566732 255 0 0
0.0405557 -0.113829 0.659683 255 0 0
-0.154065 -0.262834 0.518897 255 0 0
-0.0814366 -0.316073 0.54119 255 0 0
-0.00474503 -0.262928 0.526712 255 0 0
0.0486389 -0.403533 0.525982 255 0 0
0.0656339 -0.315081 0.539412 255 0 0
0.0544393 -0.303684 0.538168 255 0 0
0.175212 -0.368712 0.542052 255 0 0
-0.0696684 -0.243771 0.52668 255 0 0
0.162557 -0.305363 0.525605 255 0 0
0.168705 -0.30753 0.522659 255 0 0
-0.228053 -0.318716 0.563887 255 0 0
0.158121 -0.366311 0.553706 255 0 0
0.073739 -0.392482 0.561165 255 0 0
-0.14587 -0.274617 0.52962 255 0 0
0.138158 -0.299315 0.530689 255 0 0
0.219377 -0.459799 0.570236 255 0 0
0.273645 -0.499089 0.579214 255 0 0
0.27593 -0.455721 0.60942 255 0 0
0.232228 -0.468569 0.56679 255 0 0
0.25779 -0.512225 0.573521 255 0 0
0.250325 -0.556985 0.605667 255 0 0
0.0484635 -0.45376 0.567567 255 0 0
0.217622 -0.48845 0.569702 255 0 0
0.0124562 -0.449703 0.537705 255 0 0
0.00994065 -0.418311 0.545253 255 0 0
0.168328 -0.432304 0.540739 255 0 0
0.261176 -0.333498 0.529954 255 0 0
0.207911 -0.404945 0.537389 255 0 0
-0.0626283 -0.44467 0.553239 255 0 0
0.0985551 -0.37345 0.56015 255 0 0
0.00667399 -0.43837 0.552751 255 0 0
0.108208 -0.377643 0.555018 255 0 0
0.0648596 -0.355794 0.55305 255 0 0
0.243184 -0.565102 0.62666 255 0 0
0.113994 -0.521409 0.576627 255 0 0
-0.0483742 -0.474849 0.573842 255 0 0
-0.109957 -0.404536 0.566056 255 0 0
0.0655304 -0.583262 0.591755 255 0 0
-0.0103018 -0.356485 0.544225 255 0 0
0.230923 -0.141798 0.55869 255 0 0
0.32754 -0.369206 0.561183 255 0 0
0.18256 -0.426104 0.540961 255 0 0
-0.125046 -0.403911 0.586552 255 0 0
-0.1082 -0.530133 0.582187 255 0 0
-0.0456655 -0.418526 0.561364 255 0 0
0.282846 -0.320836 0.529932 255 0 0
0.257153 -0.360293 0.548366 255 0 0
0.273464 -0.374349 0.549796 255 0 0
0.0886001 -0.377611 0.518819 255 0 0
-0.0656743 -0.520582 0.572318 255 0 0
0.115374 -0.225851 0.51767 255 0 0
-0.0501809 -0.313451 0.544714 255 0 0
-0.0920956 -0.322038 0.537593 255 0 0
0.0684659 -0.325407 0.546974 255 0 0
0.255866 -0.287673 0.488946 255 0 0
0.234263 -0.331678 0.564594 255 0 0
0.0510141 -0.301546 0.536807 255 0 0
0.279622 -0.329167 0.519411 255 0 0
0.30012 -0.34004 0.528618 255 0 0
0.15242 -0.446982 0.545018 255 0 0
0.0341288 -0.226952 0.531054 255 0 0
-0.000233663 -0.257996 0.530338 255 0 0
0.0221904 -0.249903 0.516831 255 0 0
0.0776334 -0.373933 0.554271 255 0 0
0.130003 -0.334548 0.544318 255 0 0
0.251065 -0.395496 0.563268 255 0 0
0.0535165 -0.301682 0.540413 255 0 0
-0.0387939 -0.295257 0.540124 255 0 0
0.303782 -0.333199 0.534691 255 0 0
0.171195 -0.320888 0.522103 255 0 0
0.115318 -0.335762 0.536696 255 0 0
0.278119 -0.30048 0.545258 255 0 0
0.0517169 -0.297673 0.544473 255 0 0
0.302972 -0.334178 0.53345 255 0 0
0.068434 -0.385001 0.544626 255 0 0
0.0643782 -0.360222 0.549831 255 0 0
-0.1084 -0.501768 0.559527 255 0 0
0.0137831 -0.451106 0.534395 255 0 0
0.11674 -0.348149 0.523757 255 0 0
0.251828 -0.379231 0.524884 255 0 0
0.208689 -0.288808 0.546277 255 0 0
0.0238453 -0.504601 0.580353 255 0 0
-0.0289497 -0.340463 0.549184 255 0 0
0.0564262 -0.439167 0.570334 255 0 0
0.0806032 -0.381627 0.518836 255 0 0
-0.111078 -0.50067 0.563503 255 0 0
0.302922 -0.47347 0.561997 255 0 0
-0.113094 -0.352456 0.591532 255 0 0
-0.0205641 -0.458091 0.555179 255 0 0
0.215642 -0.393395 0.551056 255 0 0
-0.00815513 1.02904 1.88089 255 0 0
0.0747053 -0.394957 0.559087 255 0 0
0.051563 -0.320021 0.529908 255 0 0
-0.0171629 -0.499245 0.570276 255 0 0
0.12899 -0.299204 0.531257 255 0 0
-0.0643402 -0.508494 0.561217 255 0 0
0.266202 -0.254973 0.511644 255 0 0
0.0825497 -0.393308 0.56448 255 0 0
0.172236 -0.375247 0.53164 255 0 0
0.0762906 -0.357588 0.547602 255 0 0
0.0813545 -0.312832 0.525752 255 0 0
0.0431994 -0.399136 0.545286 255 0 0
0.276739 -0.312174 0.535438 255 0 0
0.276805 -0.310205 0.537128 255 0 0
0.272794 -0.373141 0.549233 255 0 0
-0.036492 -0.508384 0.575424 255 0 0
0.257207 -0.469756 0.583078 255 0 0
0.291499 -0.508422 0.602384 255 0 0
-0.0752019 -0.437127 0.561396 255 0 0
0.208556 -0.574263 0.596145 255 0 0
0.447323 7.38649 14.4672 255 0 0
-48.4471 148.802 302.215 255 0 0
0.227768 0.221028 1.78193 255 0 0
0.162668 0.696214 2.5247 255 0 0
0.276023 -0.355636 0.549209 255 0 0
0.204472 -0.30107 0.537758 255 0 0
0.0965506 -0.255355 0.581762 255 0 0
0.175267 -0.433135 0.569432 255 0 0
0.0268173 -0.499369 0.594148 255 0 0
0.101404 -0.203081 0.499847 255 0 0
0.0123391 -0.408562 0.54467 255 0 0
0.258079 -0.338312 0.522937 255 0 0
0.276591 -0.309708 0.536325 255 0 0
0.0795103 -0.232689 0.507953 255 0 0
0.138475 -0.254268 0.521504 255 0 0
0.102702 -0.222225 0.484154 255 0 0
-0.0633902 -0.508672 0.581188 255 0 0
0.202446 -0.36099 0.53282 255 0 0
0.258042 -0.336516 0.524326 255 0 0
0.207449 -0.393493 0.556349 255 0 0
0.288595 -0.34358 0.545309 255 0 0
-0.0483457 -0.304081 0.482158 255 0 0
0.247831 -0.400978 0.560416 255 0 0
0.278152 -0.487133 0.610268 255 0 0
0.161871 -0.305176 0.52537 255 0 0
0.0390338 -0.384545 0.547071 255 0 0
0.07726 -0.335174 0.55107 255 0 0
0.248683 -0.362391 0.555915 255 0 0
-0.166674 -0.264305 0.525323 255 0 0
-0.0354585 -0.42134 0.574235 255 0 0
-0.0202148 -0.438315 0.566578 255 0 0
0.161266 -0.349282 0.536383 255 0 0
0.112279 -0.278864 0.423667 255 0 0
0.151781 -0.348141 0.539377 255 0 0
0.105717 -0.395667 0.563707 255 0 0
0.0292024 -0.238635 0.517637 255 0 0
0.029909 -0.230412 0.525946 255 0 0
0.00458608 -0.438404 0.558914 255 0 0
-0.168496 -0.229316 0.546258 255 0 0
0.049375 -0.308551 0.544416 255 0 0
0.24806 -0.367893 0.547739 255 0 0
0.234558 -0.353794 0.537692 255 0 0
-0.0977935 -0.441051 0.563793 255 0 0
0.112921 -0.227272 0.509148 255 0 0
-0.112261 -0.41936 0.59936 255 0 0
-0.0918737 -0.32317 0.53762 255 0 0
0.299523 -0.340449 0.526818 255 0 0
0.1363 -0.265044 0.508539 255 0 0
-0.0421219 -0.294353 0.540935 255 0 0
0.0494097 -0.392405 0.54754 255 0 0
0.138386 -0.298131 0.531188 255 0 0
0.107975 -0.3559 0.519488 255 0 0
-0.0775356 -0.255506 0.5226 255 0 0
0.108457 -0.301332 0.530314 255 0 0
-0.231246 -0.312987 0.568183 255 0 0
0.178195 -0.355786 0.558077 255 0 0
-0.0366261 -0.379871 0.551227 255 0 0
0.0862791 -0.336117 0.540518 255 0 0
0.0297428 -0.372346 0.564293 255 0 0
-0.0619992 -0.3205 0.55076 255 0 0
-0.0311005 -0.437802 0.572416 255 0 0
0.114001 -0.505874 0.568422 255 0 0
-0.0782132 -0.31098 0.534895 255 0 0
-0.122363 -0.39804 0.572754 255 0 0
-0.0641738 -0.370936 0.509092 255 0 0
-0.0053911 -0.360743 0.54459 255 0 0
0.0701572 -0.332426 0.545389 255 0 0
0.269947 -0.468611 0.559516 255 0 0
0.0248109 -0.472153 0.59193 255 0 0
0.298317 -0.480174 0.596431 255 0 0
0.223579 -0.430697 0.554763 255 0 0
0.234182 -0.567301 0.580055 255 0 0
0.216354 -0.412252 0.571225 255 0 0
-0.0426899 -0.365195 0.547186 255 0 0
0.0124958 -0.474131 0.581387 255 0 0
0.0981917 -0.344762 0.549947 255 0 0
0.196319 -0.576824 0.604232 255 0 0
0.306593 -0.455525 0.577251 255 0 0
0.00702871 -0.435887 0.555456 255 0 0
0.128491 -0.380305 0.572665 255 0 0
0.168517 -0.418317 0.56293 255 0 0
0.169436 -0.343563 0.539317 255 0 0
0.0507293 -0.395647 0.541166 255 0 0
0.129371 -0.280173 0.550737 255 0 0
-0.090715 -0.326784 0.535039 255 0 0
0.162473 -0.359017 0.519969 255 0 0
0.167251 -0.345049 0.538338 255 0 0
0.172215 -0.319968 0.531802 255 0 0
0.0763043 -0.313235 0.537929 255 0 0
0.0787428 -0.332767 0.554265 255 0 0
-0.0404945 -0.327264 0.562979 255 0 0
0.125843 -0.48904 0.606157 255 0 0
-0.030908 -0.438793 0.569625 255 0 0
0.0989235 -0.388253 0.586778 255 0 0
0.0183807 -0.424904 0.550634 255 0 0
0.0101989 -0.422835 0.546461 255 0 0
-0.150821 -0.424205 0.575874 255 0 0
-0.0474716 -0.417449 0.569188 255 0 0
0.212292 -0.417704 0.564131 255 0 0
-0.042121 -0.296396 0.539329 255 0 0
0.134438 -0.466106 0.559187 255 0 0
0.126484 -0.346108 0.52717 255 0 0
0.123319 -0.394357 0.558019 255 0 0
0.145085 -0.347875 0.532213 255 0 0
-0.00902446 -0.450339 0.547889 255 0 0
-0.154123 -0.277634 0.53172 255 0 0
-0.21066 -0.215131 0.961589 255 0 0
0.0630935 -0.397924 0.561409 255 0 0
0.20344 0.135818 1.59372 255 0 0
0.0648421 -0.572453 0.584824 255 0 0
0.215685 -0.50552 0.569573 255 0 0
0.0788807 -0.386129 0.561867 255 0 0
-0.101273 -0.381855 0.579454 255 0 0
0.230417 -0.360622 0.528188 255 0 0
0.14265 -0.471623 0.525172 255 0 0
0.0919914 -0.378068 0.543165 255 0 0
-0.106505 0.0413657 1.8657 255 0 0
0.276425 -0.309849 0.535421 255 0 0
0.27338 -0.371146 0.550835 255 0 0
0.173576 -0.337839 0.542806 255 0 0
0.0869994 -0.364715 0.532469 255 0 0
0.272857 -0.332577 0.540682 255 0 0
-0.0568666 -0.529536 0.549637 255 0 0
0.0745293 -0.568745 0.547023 255 0 0
0.154654 -0.414434 0.554529 255 0 0
-0.00441969 -0.549892 0.526544 255 0 0
0.157821 -0.446813 0.560692 255 0 0
0.141694 -0.29332 0.538421 255 0 0
0.157922 -0.434179 0.54111 255 0 0
0.255195 -0.366472 0.535253 255 0 0
0.20546 -0.394722 0.55371 255 0 0
0.174936 -0.315925 0.529953 255 0 0
0.271986 -0.31262 0.526482 255 0 0
-0.114242 -0.393894 0.58913 255 0 0
-0.0368574 -0.422542 0.57163 255 0 0
-0.0770369 -0.256981 0.519852 255 0 0
0.268699 -0.469415 0.558716 255 0 0
0.164886 -0.35793 0.547016 255 0 0
0.16161 -0.294731 0.534134 255 0 0
0.0844711 -0.307491 0.523858 255 0 0
0.0653882 -0.36031 0.545368 255 0 0
0.107831 -0.304931 0.527234 255 0 0
0.0764939 -0.32758 0.53786 255 0 0
0.193736 -0.36465 0.549243 255 0 0
0.23243 -0.353903 0.537214 255 0 0
0.165281 -0.355302 0.548636 255 0 0
-0.0769321 -0.267875 0.535519 255 0 0
0.161269 -0.345713 0.540576 255 0 0
0.0783434 -0.241603 0.49839 255 0 0
-0.0438216 -0.367227 0.551053 255 0 0
0.112846 -0.264958 0.436101 255 0 0
0.151567 -0.34917 0.538057 255 0 0
0.130057 -0.308038 0.534629 255 0 0
0.128963 -0.334997 0.545483 255 0 0
-0.119892 -0.402558 0.559787 255 0 0
0.000270343 -0.36166 0.549026 255 0 0
0.227181 -0.416865 0.56158 255 0 0
-0.153409 -0.244172 0.522892 255 0 0
0.0982386 -0.342052 0.547108 255 0 0
0.049718 -0.289168 0.555875 255 0 0
0.239858 -0.276189 0.466999 255 0 0
0.00922536 -0.501704 0.589884 255 0 0
0.134756 -0.379587 0.566827 255 0 0
0.115308 -0.343624 0.531033 255 0 0
0.119214 -0.357119 0.517573 255 0 0
-0.173855 -0.260022 0.513719 255 0 0
0.170153 -0.328251 0.590456 255 0 0
0.108387 -0.354273 0.521329 255 0 0
0.0586719 -0.40516 0.51687 255 0 0
-0.155938 -0.25921 0.521743 255 0 0
-0.0354166 -0.416466 0.570732 255 0 0
0.172196 -0.320909 0.530295 255 0 0
-0.00873605 -0.257647 0.526118 255 0 0
-0.0190807 -0.384485 0.550321 255 0 0
0.254336 -0.36558 0.578883 255 0 0
0.100166 -0.372523 0.574406 255 0 0
-0.082693 -0.319022 0.538595 255 0 0
0.191442 -0.372632 0.538208 255 0 0
0.143361 -0.452401 0.581602 255 0 0
0.173781 -0.365857 0.545212 255 0 0
0.195522 -0.36721 0.546969 255 0 0
-0.146162 -0.418318 0.596585 255 0 0
-0.0277049 -0.334256 0.548715 255 0 0
0.0360738 -0.47704 0.537005 255 0 0
0.15934 -0.422721 0.565665 255 0 0
-0.0814621 -0.345528 0.529125 255 0 0
-0.103174 -0.446077 0.55863 255 0 0
-0.139146 -0.425744 0.572445 255 0 0
-0.120481 -0.40261 0.561089 255 0 0
0.0658839 -0.378112 0.55528 255 0 0
-0.0683924 -0.322926 0.539872 255 0 0
0.285563 -0.351323 0.534821 255 0 0
0.0767578 -0.233685 0.505443 255 0 0
0.0670713 -0.18762 0.496414 255 0 0
0.181348 -0.354074 0.563458 255 0 0
0.140411 -0.359599 0.56645 255 0 0
0.28667 -0.349571 0.536659 255 0 0
0.259396 -0.336123 0.526052 255 0 0
0.0995685 -0.196721 0.504764 255 0 0
0.29346 -0.107473 0.528865 255 0 0
0.206481 -0.213675 0.460239 255 0 0
-0.00132512 -0.26215 0.528134 255 0 0
-0.0877065 -0.34739 0.543609 255 0 0
0.0693506 -0.328545 0.546251 255 0 0
0.137345 -0.262737 0.511141 255 0 0
-0.0723965 -0.506887 0.54024 255 0 0
0.286808 -0.349196 0.537709 255 0 0
0.262097 -0.331691 0.532675 255 0 0
0.203268 -0.36757 0.523642 255 0 0
-0.0242749 -0.25571 0.560022 255 0 0
-0.0442888 -0.366479 0.551405 255 0 0
0.133812 -0.349998 0.527493 255 0 0
-0.0140783 -0.18385 0.542543 255 0 0
0.138596 -0.372452 0.544146 255 0 0
