ply
format ascii 1.0
comment author: Gordon Liu
element vertex 1366
property double x
property double y
property double z
property uchar red
property uchar green
property uchar blue
end_header
-0.134138 0.0962756 0.466596 255 0 0
-0.00319484 0.0971239 0.470029 255 0 0
-0.00186779 0.0761675 0.477914 255 0 0
-0.0275058 0.0908085 0.523792 255 0 0
0.033265 0.0791944 0.428612 255 0 0
-0.0125383 0.0805712 0.480495 255 0 0
0.0383067 0.0837748 0.480735 255 0 0
-0.00139896 0.06465 0.479383 255 0 0
-0.000460956 0.058765 0.46025 255 0 0
-0.000426655 0.0568046 0.460387 255 0 0
-0.172837 -0.0573682 0.544448 255 0 0
-0.172836 -0.0583848 0.545241 255 0 0
0.0330531 0.0350717 0.508383 255 0 0
0.0326904 0.0348569 0.512079 255 0 0
0.0604488 0.0440284 0.505732 255 0 0
-0.209373 -0.0492799 0.530025 255 0 0
-0.0374392 0.0262367 0.502002 255 0 0
-0.0667734 -0.0819049 0.522514 255 0 0
0.00623824 0.0191726 0.491085 255 0 0
0.000788414 0.0658436 0.495122 255 0 0
0.0547467 0.0884311 0.464543 255 0 0
-0.12779 0.0886455 0.495326 255 0 0
-0.137875 0.0951342 0.48241 255 0 0
-0.102623 0.0269044 0.485689 255 0 0
-0.0765149 -0.0339688 0.525219 255 0 0
-0.0421455 0.0141401 0.502288 255 0 0
-0.023581 -0.0317478 0.514638 255 0 0
-0.196809 -0.0462346 0.528054 255 0 0
-0.200626 -0.0956934 0.551474 255 0 0
-0.200538 -0.0385179 0.529831 255 0 0
-0.197156 -0.00917529 0.509396 255 0 0
-0.13325 -0.0242372 0.523807 255 0 0
-0.022713 -0.113058 0.563249 255 0 0
-0.0332733 -0.0396813 0.518448 255 0 0
-0.0504857 -0.055358 0.63656 255 0 0
-0.0435843 -0.0643838 0.510383 255 0 0
0.119489 -0.0701147 0.543179 255 0 0
0.109477 -0.0598998 0.544186 255 0 0
-0.132609 0.0908327 0.464516 255 0 0
-0.107604 0.0290543 0.511192 255 0 0
0.00130829 0.0915569 0.423347 255 0 0
0.105243 0.127994 0.476632 255 0 0
0.163349 0.171709 0.64337 255 0 0
0.144118 0.0583018 0.497378 255 0 0
-0.0151445 0.069381 0.489964 255 0 0
-0.024208 0.0581358 0.501906 255 0 0
-0.169671 -0.0631259 0.5328 255 0 0
-0.178366 -0.0442599 0.454593 255 0 0
-0.214374 -0.0910851 0.546178 255 0 0
0.0488771 0.0235176 0.506823 255 0 0
0.0257195 0.0730202 0.398034 255 0 0
0.0594174 0.0241756 0.501004 255 0 0
0.0265626 0.0379813 0.503604 255 0 0
-0.00122843 -0.106969 0.559283 255 0 0
0.0952485 -0.041013 0.490998 255 0 0
-0.109642 0.033371 0.518024 255 0 0
-0.0450831 -0.033734 0.513247 255 0 0
-0.0570624 0.0725037 0.495388 255 0 0
0.135549 -0.00600716 0.530438 255 0 0
0.129344 0.08346 0.464414 255 0 0
0.118388 0.104527 0.479902 255 0 0
-0.131193 -0.0245065 0.519414 255 0 0
-0.150613 -0.0169718 0.519374 255 0 0
-0.0267004 0.0559774 0.506718 255 0 0
0.0248962 0.0837828 0.439243 255 0 0
-0.187147 -0.0631683 0.533012 255 0 0
-0.0341441 -0.0381331 0.536871 255 0 0
0.217266 -0.0378625 1.81715 255 0 0
0.0234756 -0.0735872 0.518702 255 0 0
-0.0740455 -0.047291 0.525862 255 0 0
-0.0928354 -0.0429834 0.532599 255 0 0
-0.0839511 -0.0955767 0.545353 255 0 0
0.0508291 0.0446034 0.463287 255 0 0
-0.107072 0.0298704 0.504895 255 0 0
0.0751151 0.192506 0.806859 255 0 0
0.0056621 0.0505223 0.494579 255 0 0
-0.12188 -0.0835557 0.536574 255 0 0
-0.159764 -0.0868704 0.550388 255 0 0
0.0900093 0.0419342 0.47356 255 0 0
0.143033 0.0713965 0.498791 255 0 0
-0.178321 -0.0741048 0.540679 255 0 0
-0.099999 -0.0956232 0.539776 255 0 0
0.094758 -0.0974835 0.601974 255 0 0
0.0484483 0.0254428 0.508067 255 0 0
0.0436634 -0.0180018 0.529901 255 0 0
0.0523756 0.0473801 0.484284 255 0 0
0.041242 0.0995806 0.441679 255 0 0
-0.0837695 0.0682566 0.511975 255 0 0
-0.0659267 0.0493638 0.39992 255 0 0
-0.0783228 0.0622574 0.478059 255 0 0
-0.0535108 0.0880495 0.551321 255 0 0
0.0264797 0.0785115 0.416795 255 0 0
0.130231 0.0889175 0.469656 255 0 0
-0.0887322 0.133454 0.548214 255 0 0
0.116293 0.125942 0.467907 255 0 0
0.115894 0.122861 0.46336 255 0 0
-0.21108 -0.0668875 0.543214 255 0 0
-0.2366 -0.0882695 0.551544 255 0 0
-0.201328 -0.0631657 0.545963 255 0 0
-0.0102979 -0.0351052 0.522884 255 0 0
0.0668951 0.129776 0.477555 255 0 0
0.0671382 0.127188 0.468266 255 0 0
-0.0808445 0.0462339 0.473312 255 0 0
0.00170282 0.0771149 0.483963 255 0 0
0.0103036 0.0659949 0.483469 255 0 0
-0.0111893 0.0795185 0.477416 255 0 0
-0.134043 -0.023859 0.523368 255 0 0
-0.110479 -0.0312439 0.488535 255 0 0
-0.210145 -0.00718669 0.499857 255 0 0
0.115345 -0.116484 0.58246 255 0 0
-0.201504 -0.0955625 0.551363 255 0 0
-0.213737 -0.0912001 0.54587 255 0 0
-0.227781 -0.0709307 0.606604 255 0 0
-0.201405 -0.0808414 0.54761 255 0 0
-0.0279671 0.0426675 0.497905 255 0 0
-0.0407642 0.0256995 0.55933 255 0 0
-0.0433782 0.00126942 0.515685 255 0 0
-0.0646356 -0.042803 0.537153 255 0 0
0.0172418 0.0508169 0.495334 255 0 0
0.12073 -0.115324 0.562497 255 0 0
-0.0883682 -0.0424193 0.523424 255 0 0
-0.107445 -0.0709313 0.547605 255 0 0
-0.0638822 -0.04924 0.53472 255 0 0
-0.0563577 -0.0782252 0.558281 255 0 0
0.133468 0.0677898 0.497858 255 0 0
0.121834 -0.0673301 0.543761 255 0 0
0.00613901 0.0549815 0.500416 255 0 0
-0.0198164 0.0593223 0.489868 255 0 0
-0.00233643 -0.0956758 0.560612 255 0 0
-0.0177088 -0.0977062 0.550679 255 0 0
-0.00342185 -0.117687 0.571427 255 0 0
0.0588179 -0.125679 0.571505 255 0 0
-0.03662 -0.0272522 0.531144 255 0 0
-0.0454386 -0.0238898 0.52379 255 0 0
-0.034176 -0.0418333 0.533417 255 0 0
-0.0443971 -0.0294338 0.526368 255 0 0
0.0881574 -0.0862535 0.558188 255 0 0
-0.0699265 -0.13053 0.570883 255 0 0
0.0634854 -0.0219897 0.520868 255 0 0
0.117156 0.0974492 0.46225 255 0 0
-0.0252417 0.0779034 0.473249 255 0 0
-0.134168 -0.0937354 0.553815 255 0 0
-0.19842 -0.00711256 0.508341 255 0 0
0.0908751 0.131987 0.463542 255 0 0
0.0409275 -0.109901 0.570252 255 0 0
0.131479 -0.119592 0.558582 255 0 0
-0.0350081 0.0458175 0.578678 255 0 0
0.0196621 0.0874598 0.484108 255 0 0
0.146318 0.0602726 0.498775 255 0 0
-0.194305 -0.0469173 0.523769 255 0 0
-0.208071 -0.0644806 0.532772 255 0 0
0.0497057 0.0197104 0.508558 255 0 0
0.0608304 -0.00489803 0.517202 255 0 0
0.069944 0.0508363 0.509653 255 0 0
-0.09787 -0.0730868 0.517782 255 0 0
-0.100978 -0.0695848 0.517865 255 0 0
0.00607703 0.0533447 0.496445 255 0 0
-0.010777 0.0610554 0.505236 255 0 0
0.0201944 0.0429851 0.460083 255 0 0
0.0268218 0.0386059 0.506533 255 0 0
-0.0460422 -0.0240261 0.525035 255 0 0
-0.00404735 0.0877917 0.507135 255 0 0
0.00237901 0.0782821 0.486591 255 0 0
-0.0961356 -0.120001 0.561697 255 0 0
-0.114732 -0.120565 0.536205 255 0 0
-0.0047715 -0.104217 0.560533 255 0 0
-0.0185593 -0.0983021 0.557285 255 0 0
0.10681 -0.0605245 0.543064 255 0 0
0.0871259 -0.0860988 0.551898 255 0 0
0.115925 0.0965511 0.459682 255 0 0
-0.0794561 0.0882611 0.469782 255 0 0
-0.104434 -0.0396814 0.522718 255 0 0
-0.132886 -0.0816249 0.5388 255 0 0
-0.17701 -0.0695244 0.534801 255 0 0
-0.120662 -0.0990954 0.542726 255 0 0
-0.182419 -0.107768 0.541613 255 0 0
-0.196021 0.001684 0.500517 255 0 0
-0.212273 -0.00606066 0.50397 255 0 0
-0.0209984 0.0606114 0.504887 255 0 0
0.140109 0.0588479 0.489107 255 0 0
-0.180646 -0.0411178 0.525749 255 0 0
-0.218318 -0.0390464 0.572377 255 0 0
0.0668219 -0.0600677 0.54101 255 0 0
0.0523712 0.0467713 0.490376 255 0 0
0.0554723 0.0370627 0.49415 255 0 0
0.147237 0.0609939 0.499888 255 0 0
-0.180995 -0.0637382 0.528722 255 0 0
-0.176907 -0.0688139 0.533663 255 0 0
-0.104387 -0.0388582 0.525653 255 0 0
0.0817943 0.0392144 0.486442 255 0 0
0.0600727 0.0213542 0.500835 255 0 0
0.0494971 0.0190136 0.506946 255 0 0
0.0610652 -0.00367965 0.518112 255 0 0
-0.0569885 0.0471397 0.488729 255 0 0
-0.197043 -0.00840923 0.506633 255 0 0
-0.18096 -0.0412104 0.525434 255 0 0
0.135689 -0.00269087 0.526476 255 0 0
0.0105663 0.0661498 0.484223 255 0 0
-0.0129617 0.0860125 0.491368 255 0 0
-0.0117071 0.0825287 0.486057 255 0 0
-0.0925255 0.0848669 0.570296 255 0 0
-0.120315 0.0386288 0.496214 255 0 0
0.13272 -0.0176361 0.488661 255 0 0
0.00670609 0.0210126 0.508253 255 0 0
0.00594939 0.0161627 0.491071 255 0 0
-0.0989491 0.0247562 0.472796 255 0 0
-0.18101 -0.063465 0.528132 255 0 0
0.130027 0.0877674 0.467729 255 0 0
0.006225 0.0514145 0.493743 255 0 0
-0.0105254 0.0579677 0.497184 255 0 0
-0.0269711 -0.102274 0.551753 255 0 0
-0.0451948 -0.115345 0.551132 255 0 0
0.069716 0.0408478 0.496515 255 0 0
0.0165466 0.0517994 0.495469 255 0 0
0.0336615 0.0336038 0.50776 255 0 0
-0.0556646 -0.0767434 0.541422 255 0 0
-0.0879387 -0.0382959 0.604223 255 0 0
-0.0191899 -0.0986541 0.560888 255 0 0
-0.045719 -0.0296513 0.530286 255 0 0
-0.117956 -0.121742 0.549449 255 0 0
0.048857 0.0205665 0.503898 255 0 0
0.0758106 -0.0508346 0.538888 255 0 0
-0.0119929 0.0890402 0.496196 255 0 0
0.0620922 -0.022366 0.510536 255 0 0
0.119582 -0.0684372 0.539911 255 0 0
-0.0281826 -0.0597427 0.537433 255 0 0
-0.0381718 -0.0446022 0.49084 255 0 0
0.105092 0.12988 0.476536 255 0 0
0.185071 -0.0169032 0.667676 255 0 0
0.0869968 -0.0870163 0.552575 255 0 0
-0.121314 0.0837427 0.461591 255 0 0
-0.102053 0.0261296 0.483775 255 0 0
-0.105188 -0.0384472 0.529753 255 0 0
-0.132299 -0.0815932 0.537919 255 0 0
-0.121535 -0.0998547 0.545265 255 0 0
-0.147075 -0.0838776 0.525355 255 0 0
0.0581506 -0.117395 0.579208 255 0 0
0.0910375 0.0596137 0.640371 255 0 0
0.070091 0.0411912 0.499332 255 0 0
-0.182528 -0.063311 0.530826 255 0 0
0.126057 0.0831536 0.453361 255 0 0
-0.0921657 -0.118085 0.543369 255 0 0
-0.131543 -0.0813875 0.535888 255 0 0
-0.0432497 -0.032391 0.506349 255 0 0
-0.0339531 -0.0410151 0.532155 255 0 0
-0.0364511 -0.029633 0.529721 255 0 0
0.0604956 0.0234613 0.503034 255 0 0
0.0654203 0.00898672 0.525954 255 0 0
0.0559292 0.0132164 0.513712 255 0 0
-0.055663 -0.0781689 0.546162 255 0 0
0.0437411 -0.0512621 0.624229 255 0 0
0.0244771 -0.0552069 0.488811 255 0 0
0.0249192 -0.0683365 0.525247 255 0 0
-0.033306 -0.105286 0.544887 255 0 0
0.00235533 0.0793689 0.487971 255 0 0
-0.0138718 0.0716586 0.478919 255 0 0
0.107652 -0.0603805 0.541074 255 0 0
0.056122 0.0380587 0.490924 255 0 0
0.116739 0.123116 0.464928 255 0 0
0.102706 0.0948752 0.454755 255 0 0
0.0670289 -0.0596776 0.54086 255 0 0
0.0392645 -0.107999 0.565692 255 0 0
0.0867659 -0.0876323 0.553159 255 0 0
-0.0199555 -0.0996825 0.56603 255 0 0
-0.102894 0.0273425 0.488416 255 0 0
-0.103586 -0.0393576 0.517621 255 0 0
-0.214149 -0.0909577 0.545499 255 0 0
-0.149892 -0.0844365 0.529048 255 0 0
-0.207675 0.00507621 0.499364 255 0 0
-0.197997 -0.0082071 0.510608 255 0 0
-0.13372 -0.02425 0.524546 255 0 0
-0.151518 -0.0150679 0.522666 255 0 0
-0.151729 0.10666 0.461231 255 0 0
-0.0921965 -0.0428076 0.52808 255 0 0
-0.103735 -0.069741 0.52745 255 0 0
-0.0834671 -0.0947099 0.545104 255 0 0
0.075855 -0.0536012 0.534058 255 0 0
0.0907711 -0.0661109 0.546687 255 0 0
0.0874146 -0.0683343 0.538328 255 0 0
0.00182629 0.0815954 0.49759 255 0 0
-0.0181264 0.0790822 0.477375 255 0 0
0.00199387 0.0733181 0.457986 255 0 0
-0.0412424 -0.0468567 0.52199 255 0 0
-0.0328447 -0.0800494 0.543888 255 0 0
0.14361 0.0580352 0.495819 255 0 0
0.129172 0.137061 0.50868 255 0 0
0.0556157 0.0384891 0.493089 255 0 0
0.106501 0.133397 0.487585 255 0 0
0.038017 -0.107356 0.562697 255 0 0
0.11058 -0.113449 0.566568 255 0 0
0.127423 0.0188905 0.534303 255 0 0
-0.0186783 0.0650575 0.476651 255 0 0
-0.0229546 0.0582298 0.495193 255 0 0
-0.00851706 0.120849 0.544946 255 0 0
0.0884556 0.127985 0.451163 255 0 0
0.116917 0.127591 0.472221 255 0 0
0.0185137 0.0809205 0.458065 255 0 0
-0.0748566 0.0824513 0.495013 255 0 0
-0.0963367 0.113957 0.640619 255 0 0
0.0758668 -0.0494342 0.54391 255 0 0
-0.179465 -0.0337047 0.471337 255 0 0
-0.0426312 -0.109237 0.581864 255 0 0
-0.0310194 -0.110686 0.545638 255 0 0
-0.0910895 0.0144788 0.480157 255 0 0
-0.10024 0.0257884 0.476837 255 0 0
0.0414581 -0.110202 0.572162 255 0 0
-0.251125 -0.129821 0.602943 255 0 0
0.0676989 -0.0612328 0.539143 255 0 0
0.0576927 -0.0578624 0.52467 255 0 0
-0.00398199 0.0871544 0.504127 255 0 0
-0.0119806 0.0987275 0.539706 255 0 0
-0.0157516 0.0811243 0.479233 255 0 0
-0.139018 0.00873865 0.60397 255 0 0
0.0559387 0.0359855 0.498472 255 0 0
0.0580802 0.0413207 0.49602 255 0 0
-0.235428 -0.0694656 0.566133 255 0 0
-0.0220299 0.059924 0.496768 255 0 0
-0.0271678 0.0640962 0.511177 255 0 0
0.0493459 0.0604975 0.501606 255 0 0
-0.0110427 0.0612898 0.501661 255 0 0
0.000955082 0.0296801 0.465676 255 0 0
0.0658573 0.0913059 0.455136 255 0 0
0.116945 0.0600895 0.515252 255 0 0
-0.013623 0.0661006 0.487022 255 0 0
-0.00114599 0.0630109 0.474365 255 0 0
-0.00121557 0.070161 0.496169 255 0 0
0.00640481 0.0163957 0.489714 255 0 0
-0.0222082 0.0627128 0.50815 255 0 0
-0.129304 0.0601159 0.611173 255 0 0
-0.0932215 0.02103 0.448536 255 0 0
0.0286139 0.0998294 0.674943 255 0 0
0.00698265 -0.0100402 0.498601 255 0 0
-0.0316204 0.0418279 0.508269 255 0 0
0.0703739 0.094832 0.46689 255 0 0
0.0734332 0.100481 0.485077 255 0 0
0.115567 0.055697 0.507489 255 0 0
0.111389 0.0499468 0.480942 255 0 0
-0.0848942 0.100252 0.504617 255 0 0
-0.217532 -0.131959 0.581489 255 0 0
0.0371172 -0.0436636 0.523277 255 0 0
-0.196426 -0.0469065 0.531502 255 0 0
-0.198806 -0.00578187 0.519933 255 0 0
-0.182572 -0.0076098 0.5121 255 0 0
0.0195216 0.084497 0.47441 255 0 0
-0.177403 -0.00394978 0.53067 255 0 0
-0.221453 -0.0590467 0.454805 255 0 0
-0.189887 -0.0453671 0.530787 255 0 0
-0.238244 -0.0749596 0.542147 255 0 0
-0.0196951 -0.0473868 0.520974 255 0 0
-0.182704 -0.0412544 0.53182 255 0 0
-0.240693 -0.0609243 0.530835 255 0 0
-0.244804 -0.069559 0.540799 255 0 0
-0.235524 -0.0759683 0.535563 255 0 0
0.0341086 0.0400172 0.493102 255 0 0
0.0398963 0.0373411 0.502972 255 0 0
-0.150945 -0.012814 0.528597 255 0 0
-0.197229 -0.0434468 0.529749 255 0 0
0.0818886 -0.0338226 0.479955 255 0 0
-0.0968549 0.158451 0.450877 255 0 0
-0.15925 0.108891 0.460051 255 0 0
-0.145692 0.147608 0.567011 255 0 0
-0.213152 0.0486506 0.466668 255 0 0
-0.138854 0.160756 0.60383 255 0 0
-0.212871 0.0576705 0.491191 255 0 0
-0.260737 0.0102268 0.488481 255 0 0
-0.260959 0.0153104 0.503309 255 0 0
-0.26018 0.0122683 0.490915 255 0 0
-0.246113 0.0250059 0.520923 255 0 0
-0.212209 0.0535318 0.488716 255 0 0
-0.212194 0.0494339 0.479649 255 0 0
-0.245442 0.0226011 0.50537 255 0 0
-0.260276 0.014523 0.504025 255 0 0
-0.152102 0.109143 0.470721 255 0 0
-0.211181 0.0472145 0.490575 255 0 0
-0.260706 0.00716177 0.505703 255 0 0
-0.245034 0.019476 0.501143 255 0 0
-0.211617 0.0474655 0.491077 255 0 0
-0.275659 -0.0126877 0.507523 255 0 0
-0.275773 -0.00947673 0.512297 255 0 0
-0.137777 0.104915 0.470403 255 0 0
-0.25654 0.00516283 0.506887 255 0 0
-0.0971322 0.1413 0.438157 255 0 0
-0.245326 0.0167156 0.503653 255 0 0
-0.24564 0.0148698 0.48931 255 0 0
-0.209166 0.0377599 0.494072 255 0 0
-0.0788569 0.156707 0.478218 255 0 0
-0.263456 -0.00432459 0.513109 255 0 0
-0.20812 0.0416117 0.513945 255 0 0
-0.263272 -0.00459244 0.513085 255 0 0
-0.263198 -0.00662872 0.5122 255 0 0
-0.230097 0.00661643 0.514607 255 0 0
-0.228406 0.00120139 0.480412 255 0 0
-0.248574 -0.00890374 0.509358 255 0 0
-0.0779923 0.111847 0.469457 255 0 0
-0.0798714 0.107961 0.462826 255 0 0
-0.247363 -0.017098 0.519292 255 0 0
-0.278175 -0.0413586 0.523421 255 0 0
-0.250173 -0.0287463 0.517778 255 0 0
-0.250332 -0.0286388 0.517889 255 0 0
-0.277004 -0.0450295 0.515939 255 0 0
-0.219712 -0.0102733 0.479987 255 0 0
-0.207597 0.00623828 0.52503 255 0 0
-0.225379 -0.0956051 0.548056 255 0 0
-0.155879 -0.0240314 0.521546 255 0 0
-0.257699 -0.0684783 0.532962 255 0 0
-0.255185 -0.0685975 0.514007 255 0 0
-0.257286 -0.068097 0.527806 255 0 0
-0.258781 -0.0684617 0.532756 255 0 0
-0.240701 -0.0607642 0.525825 255 0 0
-0.241767 -0.0614328 0.5351 255 0 0
-0.279881 0.0679987 0.48319 255 0 0
-0.279767 0.0684492 0.483123 255 0 0
-0.20685 0.137157 0.458688 255 0 0
-0.201617 0.142048 0.45756 255 0 0
-0.208793 0.1331 0.460559 255 0 0
-0.208618 0.132795 0.460747 255 0 0
-0.248752 0.0905342 0.475597 255 0 0
-0.250193 0.0905792 0.476378 255 0 0
-0.25033 0.0900934 0.47666 255 0 0
-0.250073 0.0900731 0.476596 255 0 0
-0.164857 0.17059 0.448234 255 0 0
-0.149817 0.114045 0.449272 255 0 0
-0.144259 0.119086 0.465564 255 0 0
-0.274752 0.0607637 0.487028 255 0 0
-0.275417 0.0591471 0.487333 255 0 0
-0.275173 0.0588607 0.487294 255 0 0
-0.275595 0.0596953 0.487334 255 0 0
-0.190913 0.116127 0.461723 255 0 0
-0.278317 0.0734951 0.480881 255 0 0
-0.278139 0.0734811 0.480837 255 0 0
-0.212864 -0.00319427 0.519669 255 0 0
-0.210801 -0.00685244 0.508891 255 0 0
-0.211374 -0.0051751 0.517135 255 0 0
-0.208925 -0.00714324 0.513368 255 0 0
-0.257687 -0.0679928 0.517324 255 0 0
-0.274615 -0.0849029 0.537024 255 0 0
-0.256242 -0.0728583 0.545734 255 0 0
-0.107124 0.0239385 0.505947 255 0 0
-0.244363 -0.0702525 0.539813 255 0 0
-0.244808 -0.0693294 0.539194 255 0 0
-0.242169 -0.0703287 0.540798 255 0 0
-0.0758798 0.0210438 0.491812 255 0 0
-0.235508 -0.075546 0.534325 255 0 0
-0.0529279 0.0506563 0.488998 255 0 0
-0.215325 0.0841514 0.477686 255 0 0
-0.182735 0.119073 0.466835 255 0 0
-0.279373 0.0259739 0.499392 255 0 0
-0.279098 0.0262629 0.499504 255 0 0
-0.285932 0.0173119 0.50242 255 0 0
-0.12764 0.169969 0.449494 255 0 0
-0.124201 0.172287 0.448417 255 0 0
-0.123378 0.17234 0.448409 255 0 0
-0.234965 0.0565934 0.487088 255 0 0
-0.122979 0.170318 0.449096 255 0 0
-0.121661 0.171647 0.448646 255 0 0
-0.235225 0.0551236 0.486438 255 0 0
-0.235422 0.0557813 0.487687 255 0 0
-0.286797 0.0091448 0.505394 255 0 0
-0.286991 0.00961817 0.505612 255 0 0
-0.285272 0.00760764 0.505543 255 0 0
-0.115587 0.169831 0.449722 255 0 0
-0.119646 0.168779 0.450852 255 0 0
-0.118864 0.168443 0.450679 255 0 0
-0.131594 0.105068 0.471762 255 0 0
-0.261775 -0.00693398 0.506531 255 0 0
-0.262193 -0.00814493 0.51126 255 0 0
-0.262033 -0.0111381 0.51181 255 0 0
-0.208602 0.0308649 0.487512 255 0 0
-0.207867 0.0320128 0.497062 255 0 0
-0.273975 -0.0257088 0.518006 255 0 0
-0.13001 0.0949801 0.462823 255 0 0
-0.0942059 0.118519 0.429486 255 0 0
-0.134995 0.0863985 0.441776 255 0 0
-0.135714 0.0850149 0.437869 255 0 0
-0.135314 0.085539 0.439226 255 0 0
-0.0833403 0.123069 0.456524 255 0 0
-0.0732934 0.138113 0.489871 255 0 0
-0.136235 0.0843179 0.437209 255 0 0
-0.0843015 0.136719 0.461351 255 0 0
-0.0811894 0.125437 0.462614 255 0 0
-0.125992 0.0960694 0.475375 255 0 0
-0.205524 0.0158538 0.499695 255 0 0
-0.205455 0.0167115 0.501789 255 0 0
-0.279254 -0.0393162 0.53501 255 0 0
-0.185996 0.160815 0.450334 255 0 0
-0.244918 -0.0547184 0.524448 255 0 0
-0.231421 -0.065984 0.540285 255 0 0
-0.190818 0.116213 0.461691 255 0 0
-0.259598 0.068202 0.483757 255 0 0
-0.269804 0.0600824 0.487055 255 0 0
-0.242135 0.0765484 0.47899 255 0 0
-0.220176 0.1 0.472647 255 0 0
-0.278513 0.0351687 0.493019 255 0 0
-0.219791 0.100219 0.472738 255 0 0
-0.27588 0.0438291 0.492038 255 0 0
-0.142979 0.173103 0.447375 255 0 0
-0.275859 0.0431175 0.492298 255 0 0
-0.275731 0.0437047 0.492424 255 0 0
-0.220442 0.0994603 0.474004 255 0 0
-0.220551 0.099873 0.473997 255 0 0
-0.220917 0.0989319 0.474169 255 0 0
-0.221677 0.0986654 0.474594 255 0 0
-0.222047 0.095442 0.475785 255 0 0
-0.186762 0.116741 0.465784 255 0 0
-0.195192 0.111863 0.46856 255 0 0
-0.135632 0.172152 0.448673 255 0 0
-0.185694 0.118528 0.46619 255 0 0
-0.185595 0.118412 0.466174 255 0 0
-0.235127 0.0742009 0.48277 255 0 0
-0.131675 0.170822 0.448389 255 0 0
-0.133284 0.171079 0.448781 255 0 0
-0.278924 0.0279453 0.498076 255 0 0
-0.278673 0.0293217 0.498104 255 0 0
-0.192987 0.154656 0.453055 255 0 0
-0.277213 0.0295696 0.496363 255 0 0
-0.279829 0.0295865 0.510196 255 0 0
-0.116756 0.160547 0.432967 255 0 0
-0.235456 0.0550501 0.483265 255 0 0
-0.215026 0.0674888 0.466398 255 0 0
-0.270374 0.0205383 0.500087 255 0 0
-0.166366 0.114643 0.468046 255 0 0
-0.143865 0.112845 0.464101 255 0 0
-0.166061 0.0949239 0.42217 255 0 0
-0.0894784 0.197953 0.518982 255 0 0
-0.158271 0.112701 0.469088 255 0 0
-0.274182 -0.0858265 0.539669 255 0 0
-0.268285 -0.0855404 0.505387 255 0 0
-0.11846 0.168806 0.450545 255 0 0
-0.214306 0.0707441 0.483507 255 0 0
-0.114196 0.168987 0.450056 255 0 0
-0.112796 0.170314 0.449793 255 0 0
-0.112119 0.170024 0.44985 255 0 0
-0.11243 0.169033 0.450013 255 0 0
-0.170221 0.114162 0.46962 255 0 0
-0.237105 0.0494134 0.492585 255 0 0
-0.115716 0.16503 0.452846 255 0 0
-0.284374 -0.00913465 0.511056 255 0 0
-0.161204 0.113915 0.470224 255 0 0
-0.2654 0.00282006 0.507873 255 0 0
-0.279102 -0.0201162 0.508171 255 0 0
-0.280466 -0.268969 -0.0094205 255 0 0
-0.280452 -0.268947 -0.00941138 255 0 0
-0.280468 -0.268965 -0.00941952 255 0 0
0.183645 -0.061941 0.543793 255 0 0
0.200046 -0.0859391 0.539959 255 0 0
0.141441 -0.116495 0.604592 255 0 0
0.201888 -0.0968454 0.544711 255 0 0
0.00765189 0.00074364 0.50118 255 0 0
0.089423 0.045037 0.488762 255 0 0
0.106731 0.0525534 0.481729 255 0 0
0.251638 -0.0117389 0.53941 255 0 0
0.00656713 0.0154154 0.48979 255 0 0
0.18456 -0.0617929 0.547491 255 0 0
0.0899187 0.0444703 0.488021 255 0 0
0.0711288 -0.123665 0.573565 255 0 0
0.244163 -0.00388704 0.527046 255 0 0
0.107732 0.0521099 0.48133 255 0 0
0.143417 0.0916599 0.470336 255 0 0
0.076293 -0.0772808 0.546107 255 0 0
0.0428034 -0.0202424 0.500803 255 0 0
0.0233901 -0.0536046 0.472606 255 0 0
0.0466278 -0.0228215 0.473116 255 0 0
0.155761 0.0818977 0.486342 255 0 0
0.253942 -0.0119387 0.543816 255 0 0
-0.114267 0.0542759 0.488383 255 0 0
0.000900702 0.0965681 0.430833 255 0 0
0.00717451 -0.0107749 0.500205 255 0 0
-0.0861756 -0.116149 0.552004 255 0 0
-0.0862554 -0.0558268 0.504715 255 0 0
0.052772 -0.0228759 0.535416 255 0 0
-0.0416246 -0.0861065 0.535349 255 0 0
0.194851 0.0520894 0.506284 255 0 0
0.222082 -0.0968774 0.543428 255 0 0
0.248779 -0.0130935 0.533471 255 0 0
0.0998842 -0.0384645 0.492206 255 0 0
-0.124483 0.0608439 0.530583 255 0 0
0.0434322 -0.0196156 0.512569 255 0 0
0.00716294 -0.011684 0.499989 255 0 0
0.0680885 -0.0346378 0.494921 255 0 0
-0.0278103 -0.0598368 0.537554 255 0 0
0.0919697 0.0455678 0.49323 255 0 0
0.0470151 0.092107 0.45972 255 0 0
0.16014 -0.104645 0.547843 255 0 0
0.000830109 0.103823 0.461698 255 0 0
0.00743641 0.00277116 0.491044 255 0 0
0.184976 0.0578284 0.50366 255 0 0
0.118117 0.0580143 0.516202 255 0 0
0.0806035 0.0383253 0.433994 255 0 0
0.0463035 0.0904557 0.451424 255 0 0
0.0236839 -0.0545367 0.49041 255 0 0
0.0963206 -0.0392094 0.487786 255 0 0
0.108768 -0.042856 0.495858 255 0 0
0.00668798 0.0187543 0.493935 255 0 0
0.00649771 -0.0170164 0.467095 255 0 0
0.00284473 -0.0347075 0.516818 255 0 0
0.0064771 0.020716 0.494457 255 0 0
0.0472672 -0.0327037 0.489557 255 0 0
0.229029 -0.0150582 0.529366 255 0 0
0.207172 -0.0904974 0.536346 255 0 0
0.144786 0.0926311 0.474427 255 0 0
-0.117929 0.057421 0.504957 255 0 0
-0.0215195 -0.0293717 0.530002 255 0 0
0.000941168 0.0419617 0.510232 255 0 0
0.0523153 0.0460477 0.488777 255 0 0
-0.0217159 -0.0302632 0.527665 255 0 0
-0.0755734 -0.0529059 0.542499 255 0 0
-0.0629665 -0.0973649 0.529278 255 0 0
0.0475773 -0.0290807 0.500695 255 0 0
0.129654 0.0224128 0.491011 255 0 0
0.131733 -0.119601 0.559606 255 0 0
-0.0199375 -0.0500128 0.533711 255 0 0
0.277668 -0.110444 0.595258 255 0 0
0.245835 -0.00429885 0.528769 255 0 0
0.132082 0.0234483 0.500971 255 0 0
0.135946 -0.00319442 0.52957 255 0 0
-0.108409 0.00908466 0.448689 255 0 0
0.0307929 0.0708294 0.414354 255 0 0
0.129225 -0.118995 0.551701 255 0 0
0.102278 -0.0320479 0.484304 255 0 0
-0.113395 -0.0835256 0.55334 255 0 0
0.0772923 -0.0773677 0.552997 255 0 0
0.132853 0.0230379 0.502517 255 0 0
0.0151427 0.0160995 0.468907 255 0 0
0.013806 -0.0439681 0.525568 255 0 0
0.0432379 -0.0462961 0.529414 255 0 0
-0.0275221 -0.104935 0.559847 255 0 0
-0.212042 -0.149884 0.563265 255 0 0
-0.150109 -0.144318 0.559875 255 0 0
-0.204827 -0.134651 0.565153 255 0 0
0.132656 -0.0829247 0.559858 255 0 0
-0.111244 -0.136942 0.551707 255 0 0
-0.113675 -0.0832036 0.554136 255 0 0
-0.203314 -0.134446 0.561841 255 0 0
-0.245153 -0.172383 0.649867 255 0 0
-0.0684767 -0.129577 0.563717 255 0 0
-0.0566119 -0.150129 0.605246 255 0 0
0.0596903 -0.12735 0.568768 255 0 0
-0.0731278 -0.0514569 0.523463 255 0 0
0.0786128 -0.0681674 0.556713 255 0 0
0.015473 0.0162899 0.487896 255 0 0
0.0676396 -0.0481241 0.543786 255 0 0
0.000224811 -0.00804051 0.499302 255 0 0
-0.0393378 -0.0928899 0.668439 255 0 0
0.135702 -0.0170816 0.492485 255 0 0
0.121306 -0.115207 0.5669 255 0 0
-0.208692 -0.064794 0.535179 255 0 0
0.136978 -0.0187757 0.498407 255 0 0
-0.0288188 -0.0164928 0.36473 255 0 0
-0.202646 -0.134339 0.561769 255 0 0
-0.204545 -0.135926 0.570862 255 0 0
-0.156195 -0.025343 0.51783 255 0 0
0.0760984 -0.0794107 0.541485 255 0 0
0.0195223 -0.0631452 0.534532 255 0 0
0.130934 0.0239955 0.498771 255 0 0
0.0311553 0.0295315 0.504441 255 0 0
-0.0377641 -0.0203069 0.523705 255 0 0
-0.0472128 -0.048529 0.522465 255 0 0
0.0885231 -0.065718 0.545875 255 0 0
0.0963416 -0.0418456 0.501632 255 0 0
0.038838 -0.109744 0.60592 255 0 0
-0.0853291 -0.131901 0.556434 255 0 0
0.174684 -0.165408 0.576991 255 0 0
0.018518 -0.220328 0.6053 255 0 0
-0.018036 -0.213653 0.59473 255 0 0
0.0628764 -0.178281 0.586982 255 0 0
0.0571186 -0.19118 0.582689 255 0 0
-0.118881 -0.262489 0.604587 255 0 0
-0.0564577 -0.247924 0.598353 255 0 0
-0.0977369 -0.0946722 0.531446 255 0 0
-0.119659 -0.263611 0.608592 255 0 0
0.082535 0.0299927 0.444345 255 0 0
0.135511 -0.118329 0.573849 255 0 0
0.0175092 -0.218751 0.596025 255 0 0
0.0593855 -0.194562 0.597738 255 0 0
-0.0483236 -0.18803 0.597792 255 0 0
0.221495 -0.110555 0.520912 255 0 0
-0.0758216 -0.0339141 0.523919 255 0 0
0.0485175 0.112709 0.453348 255 0 0
0.0562792 0.0840389 0.433491 255 0 0
0.0940821 -0.076606 0.547235 255 0 0
-0.120314 -0.085433 0.544798 255 0 0
0.125024 -0.0555788 0.52701 255 0 0
-0.14988 -0.0156078 0.518459 255 0 0
0.0648935 0.0095223 0.519877 255 0 0
-0.144832 -0.0792183 0.543902 255 0 0
0.0641114 0.0102779 0.515879 255 0 0
0.0425167 -0.0213521 0.493462 255 0 0
0.138814 0.107965 0.464829 255 0 0
0.00774434 0.00131459 0.501888 255 0 0
-0.0974724 -0.0891055 0.530435 255 0 0
-0.0366882 -0.0296793 0.534189 255 0 0
0.153479 0.0585137 0.497452 255 0 0
-0.0806773 -0.094003 0.54261 255 0 0
-0.0427714 -0.0236425 0.523093 255 0 0
-0.0669801 -0.0976565 0.556034 255 0 0
0.162232 -0.106506 0.556698 255 0 0
0.0772786 -0.0786933 0.549325 255 0 0
-0.0224426 -0.0303504 0.530761 255 0 0
0.060533 0.0224004 0.503376 255 0 0
0.0712199 -0.0819661 0.513298 255 0 0
-0.0152588 -0.0397558 0.538181 255 0 0
0.101364 0.0918992 0.450209 255 0 0
0.038949 -0.113745 0.535346 255 0 0
-0.0294502 -0.0591054 0.543456 255 0 0
-0.0930036 -0.0440907 0.534122 255 0 0
-0.0272347 -0.100988 0.550556 255 0 0
0.0503953 0.0990348 0.479414 255 0 0
0.136251 0.109286 0.462929 255 0 0
0.139852 0.0921759 0.467296 255 0 0
0.117901 -0.0726385 0.545285 255 0 0
0.210537 -0.0140123 0.524551 255 0 0
0.220047 -0.0731347 0.52945 255 0 0
-0.124095 0.00916465 0.504623 255 0 0
-0.02417 -0.0858116 0.550152 255 0 0
0.230581 -0.0119083 0.528244 255 0 0
0.142284 0.0513392 0.493371 255 0 0
0.199152 -0.0853661 0.538314 255 0 0
0.191153 -0.0591567 0.448539 255 0 0
0.0462995 0.112121 0.478307 255 0 0
-0.213449 -0.0908881 0.544838 255 0 0
0.0771902 -0.100377 0.574696 255 0 0
-0.0326136 -0.105063 0.543845 255 0 0
-0.0666603 -0.0992591 0.492112 255 0 0
0.140784 0.0902007 0.465499 255 0 0
-0.0343226 -0.0791829 0.537718 255 0 0
-0.183228 -0.108517 0.543385 255 0 0
0.0577068 -0.12707 0.557587 255 0 0
-0.0755455 -0.107838 0.555915 255 0 0
-0.000748126 -0.0960313 0.559394 255 0 0
-0.181681 -0.107808 0.537225 255 0 0
-0.00940605 -0.0925983 0.558391 255 0 0
0.125914 -0.0541945 0.529639 255 0 0
0.0763709 -0.130351 0.611921 255 0 0
-0.0671059 -0.132488 0.567913 255 0 0
-0.03237 -0.116966 0.548857 255 0 0
-0.0690216 -0.168586 0.561316 255 0 0
-0.0635584 -0.0980141 0.532353 255 0 0
0.0635457 -0.0225634 0.519414 255 0 0
0.152957 0.0810001 0.535582 255 0 0
0.0660346 -0.130365 0.563974 255 0 0
-0.117876 -0.0736979 0.543399 255 0 0
-0.0417731 0.0151754 0.507749 255 0 0
-0.0399662 -0.0176638 0.534198 255 0 0
-0.0759853 -0.0915989 0.515262 255 0 0
0.119688 -0.0599157 0.54102 255 0 0
-0.074699 -0.106477 0.550142 255 0 0
0.108988 -0.0425738 0.495249 255 0 0
0.0213095 -0.145334 0.567767 255 0 0
0.0885233 -0.0696658 0.541968 255 0 0
0.0616076 -0.127085 0.567941 255 0 0
-0.0338084 -0.041316 0.523478 255 0 0
0.107838 -0.0401736 0.492305 255 0 0
-0.0811656 -0.0457441 0.526008 255 0 0
-0.0481188 -0.0512479 0.521104 255 0 0
0.119269 -0.0636199 0.50928 255 0 0
-0.0491406 -0.0823266 0.538197 255 0 0
0.000605141 0.0924232 0.421205 255 0 0
-0.131084 -0.090486 0.536061 255 0 0
0.22046 -0.0123077 0.541874 255 0 0
-0.142224 -0.0309641 0.525418 255 0 0
0.191125 -0.063113 0.557791 255 0 0
0.0124061 -0.00620858 0.491837 255 0 0
-0.0420523 -0.0638222 0.564655 255 0 0
0.0302317 0.0425287 0.522399 255 0 0
-0.0174196 -0.0482135 0.510768 255 0 0
0.0430605 -0.0462232 0.527273 255 0 0
-0.147864 -0.0840661 0.531073 255 0 0
-0.132441 0.00240239 0.506961 255 0 0
0.106171 -0.0606182 0.54189 255 0 0
0.0255859 0.0346963 0.488877 255 0 0
0.132569 0.0232353 0.501512 255 0 0
-0.0641955 -0.110841 0.575183 255 0 0
0.106519 -0.0990192 0.550935 255 0 0
0.0751365 -0.0855941 0.542054 255 0 0
-0.140667 -0.0315111 0.522999 255 0 0
-0.0934001 -0.0915776 0.51662 255 0 0
0.0392173 -0.0516155 0.528233 255 0 0
0.200283 -0.103989 0.541995 255 0 0
0.0371684 -0.0434318 0.529074 255 0 0
0.186544 -0.081903 0.539895 255 0 0
-0.0408087 -0.0719211 0.549318 255 0 0
-0.0394272 -0.0580964 0.536237 255 0 0
-0.0484323 -0.0635485 0.544132 255 0 0
-0.0616795 -0.11795 0.539501 255 0 0
-0.015252 -0.0397016 0.514372 255 0 0
0.156108 0.0803564 0.485225 255 0 0
0.0735555 -0.102219 0.556892 255 0 0
-0.0698437 -0.168752 0.563425 255 0 0
0.212401 -0.0439959 0.557907 255 0 0
0.136231 0.0206735 0.488153 255 0 0
0.127329 -0.0802608 0.539412 255 0 0
-0.00467997 -0.0263554 0.511897 255 0 0
0.000921244 -0.0316472 0.524987 255 0 0
-0.0487856 -0.0520623 0.530326 255 0 0
0.0520179 0.0454472 0.486009 255 0 0
-0.140597 -0.030422 0.521402 255 0 0
0.0692369 0.0411494 0.4876 255 0 0
0.0257819 0.0348472 0.48628 255 0 0
-0.134613 0.0024791 0.514931 255 0 0
-0.189969 -0.0474257 0.518564 255 0 0
0.0886043 -0.0692239 0.542861 255 0 0
0.0308524 -0.0419662 0.524899 255 0 0
-0.0927603 -0.044019 0.534986 255 0 0
-0.0961596 -0.0933461 0.529746 255 0 0
0.131764 0.0938168 0.478677 255 0 0
-0.155142 -0.084888 0.534762 255 0 0
0.0500951 0.0676891 0.410295 255 0 0
0.0044867 -0.148012 0.555984 255 0 0
0.00109277 -0.0419686 0.55025 255 0 0
-0.183433 -0.108346 0.538627 255 0 0
-0.17684 -0.104139 0.510526 255 0 0
-0.104156 -0.0735003 0.526963 255 0 0
0.152233 0.053125 0.491075 255 0 0
-0.0985503 -0.0737747 0.525459 255 0 0
0.0144367 -0.0448385 0.519624 255 0 0
0.185799 -0.0817249 0.539078 255 0 0
-0.030942 -0.0737109 0.543043 255 0 0
-0.0891763 -0.0955823 0.532324 255 0 0
0.0111597 -0.00449045 0.50358 255 0 0
0.00775484 0.00155801 0.501951 255 0 0
-0.0304206 -0.0727504 0.529128 255 0 0
-0.0485699 -0.0819103 0.54624 255 0 0
-0.0636706 -0.0973177 0.534311 255 0 0
-0.0675426 -0.132639 0.578485 255 0 0
-0.0705236 0.0368767 0.275617 255 0 0
0.0511235 -0.0320193 0.523383 255 0 0
0.0325524 -0.0539892 0.618093 255 0 0
-0.172058 -0.061343 0.541551 255 0 0
0.130942 0.0576627 0.500437 255 0 0
-0.0420187 -0.0897731 0.532376 255 0 0
-0.119918 -0.0995327 0.543754 255 0 0
-0.0579742 -0.154909 0.624797 255 0 0
0.06327 -0.131467 0.592043 255 0 0
-0.204507 0.00620115 0.491342 255 0 0
-0.156506 -0.0982402 0.53975 255 0 0
-0.181862 -0.0648712 0.526702 255 0 0
0.0520736 0.0464374 0.489162 255 0 0
0.0845703 0.040367 0.498434 255 0 0
0.0469361 -0.0284071 0.499801 255 0 0
0.15622 0.0667696 0.497357 255 0 0
0.123035 -0.105397 0.550787 255 0 0
0.0197733 0.0305054 0.499221 255 0 0
-0.102731 -0.0499165 0.529402 255 0 0
-0.0180746 -0.0478596 0.516242 255 0 0
0.0861749 -0.0703532 0.499884 255 0 0
0.215757 -0.0166125 0.545135 255 0 0
-0.0594466 0.0432916 0.473122 255 0 0
-0.119121 0.0120977 0.490437 255 0 0
-0.102476 -0.0506719 0.528785 255 0 0
0.154694 -0.0855341 0.427364 255 0 0
0.0498419 -0.0302713 0.522691 255 0 0
-0.140695 -0.0311099 0.523515 255 0 0
0.254092 -0.014212 0.544005 255 0 0
-0.0771251 -0.0412631 0.534359 255 0 0
0.236924 -0.0389176 0.61446 255 0 0
-0.0532446 -0.122911 0.551603 255 0 0
-0.113485 -0.0972812 0.55129 255 0 0
-0.0435858 -0.186967 0.5786 255 0 0
-0.114148 -0.0963768 0.550274 255 0 0
-0.0696716 -0.130493 0.573304 255 0 0
0.0356056 -0.159158 0.578536 255 0 0
-0.025051 -0.0844507 0.549498 255 0 0
0.017385 -0.144616 0.573688 255 0 0
0.017463 -0.14274 0.569279 255 0 0
0.0293972 -0.0629123 0.526577 255 0 0
-0.05331 -0.124061 0.556852 255 0 0
-0.103162 -0.135799 0.55427 255 0 0
0.154077 0.0907354 0.482154 255 0 0
0.197274 -0.0958512 0.538247 255 0 0
0.129099 0.0597487 0.49361 255 0 0
0.0440816 0.0403006 0.470921 255 0 0
0.178806 0.0672463 0.493045 255 0 0
0.109952 -0.145192 0.590133 255 0 0
0.0443518 0.0409135 0.472744 255 0 0
-0.0015192 -0.0383997 0.515859 255 0 0
-0.066392 -0.0881115 0.522664 255 0 0
-0.022636 -0.0309306 0.519119 255 0 0
0.149506 -0.122674 0.571361 255 0 0
0.0196468 -0.106019 0.561224 255 0 0
0.093277 -0.147064 0.577433 255 0 0
-0.0763718 -0.107709 0.550285 255 0 0
0.0923892 -0.147138 0.576517 255 0 0
-0.0226055 -0.0289347 0.531482 255 0 0
0.248565 -0.115117 0.553864 255 0 0
-0.0179602 -0.214017 0.594234 255 0 0
0.0181351 -0.220597 0.604932 255 0 0
0.0549732 -0.203075 0.585331 255 0 0
-0.11765 -0.261399 0.599499 255 0 0
-0.0569719 -0.247593 0.597599 255 0 0
-0.202107 -0.0627375 0.539253 255 0 0
0.0934813 -0.0642116 0.542387 255 0 0
-0.0913152 -0.0978939 0.544827 255 0 0
0.0956487 -0.0571275 0.535444 255 0 0
0.0170102 0.0423163 0.473538 255 0 0
-0.142931 -0.140987 0.564562 255 0 0
-0.0924631 -0.0568351 0.535601 255 0 0
-0.0782083 -0.0921838 0.530892 255 0 0
-0.155082 -0.0243172 0.518902 255 0 0
-0.0265647 -0.110306 0.569715 255 0 0
-0.134829 0.00119741 0.577849 255 0 0
-0.0138264 -0.0374875 0.528129 255 0 0
0.0284187 0.0407831 0.510317 255 0 0
-0.0753984 -0.0343268 0.523672 255 0 0
-0.15498 -0.0247384 0.517379 255 0 0
-0.164476 -0.100761 0.567911 255 0 0
-0.00898746 -0.0930872 0.565249 255 0 0
-0.131724 -0.13458 0.533481 255 0 0
-0.0857667 -0.115196 0.548448 255 0 0
-0.112277 -0.139149 0.549118 255 0 0
-0.0693219 -0.101626 0.57672 255 0 0
0.0876953 0.0522409 0.474793 255 0 0
-0.102073 -0.137303 0.561975 255 0 0
-0.0515362 -0.0823096 0.530472 255 0 0
0.0391496 -0.0559491 0.527202 255 0 0
0.0612291 -0.0192908 0.517855 255 0 0
0.118511 -0.038045 0.49608 255 0 0
-0.133094 -0.0815476 0.533891 255 0 0
0.246137 -0.00923653 0.550085 255 0 0
-0.0344891 -0.0413108 0.530106 255 0 0
0.0395981 0.0354066 0.49519 255 0 0
0.157834 0.0673338 0.499558 255 0 0
0.05273 -0.125406 0.581951 255 0 0
0.138049 -0.181685 0.580286 255 0 0
0.072033 -0.0394056 0.528632 255 0 0
0.17765 -0.168069 0.583527 255 0 0
-0.09864 -0.275254 0.621563 255 0 0
0.137099 -0.18147 0.57682 255 0 0
-0.104886 -0.0519118 0.537171 255 0 0
-0.185522 -0.0587025 0.530305 255 0 0
-0.22502 -0.0954278 0.543046 255 0 0
-0.108086 -0.125852 0.548153 255 0 0
0.0224908 -0.154152 0.616008 255 0 0
0.0358671 0.0424931 0.497589 255 0 0
0.0737834 -0.0236109 0.52265 255 0 0
-0.101992 -0.0627092 0.540837 255 0 0
-0.0957558 -0.0888215 0.528812 255 0 0
-0.0337527 -0.0237953 0.569983 255 0 0
-0.202543 -0.0615965 0.532056 255 0 0
-0.0726746 -0.0551715 0.526322 255 0 0
-0.044846 -0.0882608 0.529996 255 0 0
-0.133156 -0.243905 0.631801 255 0 0
0.102926 0.0989004 0.458054 255 0 0
-0.272873 -0.103633 0.547889 255 0 0
-0.153702 -0.0385961 0.51976 255 0 0
0.120441 0.0341959 0.497513 255 0 0
0.0548921 0.110227 0.460891 255 0 0
0.0849753 0.126473 0.447008 255 0 0
0.0558984 0.0172122 0.495732 255 0 0
0.00341331 0.018024 0.48618 255 0 0
0.00894862 -0.0030069 0.497921 255 0 0
-0.172447 -0.0633697 0.52631 255 0 0
-0.0734384 -0.0554465 0.522503 255 0 0
0.0445472 0.0344106 0.493565 255 0 0
-0.0171787 -0.04758 0.49808 255 0 0
0.0523766 0.103567 0.466983 255 0 0
0.141707 0.0568112 0.491128 255 0 0
-0.231687 -0.123624 0.553472 255 0 0
-0.242552 -0.140611 0.559755 255 0 0
-0.211802 -0.150463 0.563825 255 0 0
-0.0381913 -0.0426211 0.519343 255 0 0
-0.100914 -0.13592 0.55397 255 0 0
-0.22975 -0.121875 0.545327 255 0 0
0.0580696 -0.0190291 0.514235 255 0 0
0.0648166 -0.0560946 0.541102 255 0 0
-0.232561 -0.123017 0.560647 255 0 0
-0.0999801 -0.135583 0.552549 255 0 0
-0.215303 -0.0900033 0.547062 255 0 0
-0.0186075 -0.0259582 0.508349 255 0 0
-0.21985 -0.148357 0.558089 255 0 0
-0.217642 0.00859701 0.524102 255 0 0
-0.0696779 -0.168593 0.56332 255 0 0
-0.0754459 -0.0418977 0.521378 255 0 0
-0.089525 -0.119315 0.542113 255 0 0
-0.0169773 -0.212417 0.586983 255 0 0
-0.0216931 -0.085944 0.556739 255 0 0
-0.0874128 -0.0511848 0.521613 255 0 0
0.169587 -0.170066 0.597578 255 0 0
0.0213876 -0.14381 0.583611 255 0 0
0.0483358 -0.15987 0.578513 255 0 0
0.0177518 -0.220028 0.603658 255 0 0
0.201589 -0.0974563 0.543969 255 0 0
-0.0567348 -0.0758533 0.541049 255 0 0
-0.08207 -0.131639 0.560195 255 0 0
-0.0662337 -0.0889869 0.523523 255 0 0
0.137113 0.0139612 0.509891 255 0 0
0.212813 -0.0155584 0.536598 255 0 0
0.237413 0.0164695 0.515208 255 0 0
0.0481886 0.03854 0.499347 255 0 0
0.155381 0.0806553 0.484739 255 0 0
0.183915 -0.0821659 0.535711 255 0 0
-0.0805461 -0.131134 0.553702 255 0 0
0.10672 -0.053403 0.458175 255 0 0
0.118753 -0.0482519 0.501143 255 0 0
-0.0742718 -0.045833 0.525602 255 0 0
0.0711651 -0.122512 0.57015 255 0 0
0.0869451 -0.0908126 0.558807 255 0 0
0.129488 0.0255407 0.494368 255 0 0
0.215179 0.0441013 0.509316 255 0 0
0.156015 0.0666462 0.497435 255 0 0
-0.032561 -0.110176 0.538185 255 0 0
-0.053801 -0.122155 0.550928 255 0 0
-0.118841 0.00192579 0.514088 255 0 0
0.138354 -0.0546988 0.551701 255 0 0
-0.207546 -0.102557 0.55308 255 0 0
0.132737 -0.0563667 0.541215 255 0 0
-0.130189 -0.0132124 0.511768 255 0 0
0.0536349 0.105151 0.469711 255 0 0
-0.00216033 -0.103803 0.562982 255 0 0
-0.01265 -0.0468607 0.514902 255 0 0
-0.0697873 -0.0909415 0.540343 255 0 0
-0.0962783 -0.0888289 0.523424 255 0 0
0.0543699 0.0937489 0.456245 255 0 0
-0.187998 -0.0528336 0.313693 255 0 0
-0.242407 -0.14023 0.558235 255 0 0
-0.189834 -0.0460978 0.532677 255 0 0
0.00570888 0.0189567 0.491413 255 0 0
-0.207055 -0.0539539 0.548251 255 0 0
-0.231403 -0.0665722 0.535499 255 0 0
-0.171365 -0.0798505 0.150791 255 0 0
0.0463372 0.0872816 0.472401 255 0 0
-0.0964958 -0.0631539 0.57977 255 0 0
-0.00430238 -0.104014 0.556194 255 0 0
-0.0681986 -0.0909179 0.546551 255 0 0
0.0566638 -0.130825 0.568766 255 0 0
-0.0637626 -0.098717 0.53392 255 0 0
0.0603166 0.0422378 0.496198 255 0 0
0.134216 -0.119455 0.567077 255 0 0
0.132752 0.0682667 0.497652 255 0 0
0.0626043 -0.0220691 0.51801 255 0 0
-0.105038 -0.135335 0.554921 255 0 0
0.0312465 -0.141853 0.586324 255 0 0
0.125357 -0.00613308 0.489941 255 0 0
-0.0489925 0.0454016 0.631149 255 0 0
-0.025547 -0.108143 0.544133 255 0 0
0.0655881 -0.129804 0.56547 255 0 0
0.0961677 -0.149725 0.5949 255 0 0
-0.141662 -0.0304139 0.526032 255 0 0
0.000790555 -0.0350774 0.505261 255 0 0
-0.0295003 -0.0849465 0.535216 255 0 0
-0.0829575 0.0742547 0.468196 255 0 0
-0.241977 -0.127325 0.565655 255 0 0
-0.0391491 0.0329822 0.483742 255 0 0
-0.12752 0.0925545 0.466926 255 0 0
-0.286096 -0.0724005 0.535734 255 0 0
0.0343458 -0.16024 0.580446 255 0 0
0.0542505 -0.192237 0.581268 255 0 0
0.0962006 -0.0404872 0.489163 255 0 0
0.10241 -0.143031 0.569627 255 0 0
0.0943631 -0.157673 0.54019 255 0 0
0.0363226 -0.172378 0.505737 255 0 0
-0.0221686 -0.220908 0.627816 255 0 0
0.0629929 -0.177871 0.586134 255 0 0
0.0407815 -0.0266862 0.515317 255 0 0
0.0534695 -0.114267 0.566108 255 0 0
0.0391333 -0.0262291 0.515316 255 0 0
-0.087219 -0.0864862 0.519106 255 0 0
-0.118275 -0.0738687 0.544727 255 0 0
-0.0365661 -0.0289636 0.530235 255 0 0
0.112302 -0.116743 0.571113 255 0 0
-0.0413702 0.0172333 0.505855 255 0 0
-0.155827 -0.0974003 0.537978 255 0 0
-0.0537865 -0.12341 0.55473 255 0 0
-0.104033 -0.0503238 0.528226 255 0 0
0.0730069 -0.0355587 0.517698 255 0 0
-0.220665 -0.14816 0.560044 255 0 0
-0.114519 -0.097127 0.543235 255 0 0
-0.00181873 -0.224474 0.598592 255 0 0
-0.0435852 -0.187388 0.58052 255 0 0
0.162145 0.0726837 0.513561 255 0 0
0.149954 -0.101109 0.512296 255 0 0
0.0981831 -0.0583412 0.542406 255 0 0
-0.0428249 -0.089362 0.542916 255 0 0
-0.242552 -0.041652 0.633861 255 0 0
-0.242787 -0.0418789 0.634519 255 0 0
-0.136421 -0.359758 2.50381 255 0 0
-0.223201 -0.400586 1.73079 255 0 0
-0.223656 -0.400794 1.73429 255 0 0
-0.0255808 0.0449048 0.497394 255 0 0
-0.182169 -0.107359 0.538311 255 0 0
0.547065 0.024417 2.39709 255 0 0
-0.111554 -0.137613 0.55142 255 0 0
0.0156922 0.0515364 0.489747 255 0 0
-0.200314 -0.145253 0.567333 255 0 0
-0.0310839 -0.155823 0.592834 255 0 0
0.041392 -0.162429 0.57087 255 0 0
0.104981 -0.207447 0.606043 255 0 0
0.0891284 -0.147142 0.571245 255 0 0
0.0887861 -0.148463 0.574331 255 0 0
-0.0731448 -0.166334 0.556391 255 0 0
0.0409422 -0.149837 0.573663 255 0 0
-0.123004 -0.136836 0.565482 255 0 0
0.136154 -0.0932818 0.560543 255 0 0
0.120007 -0.0672068 0.539019 255 0 0
0.145515 0.0591286 0.497526 255 0 0
0.222033 -0.0972963 0.542594 255 0 0
-0.0502368 -0.126666 0.561124 255 0 0
0.0752789 -0.0857631 0.54357 255 0 0
0.0439626 -0.178194 0.556341 255 0 0
0.238334 -0.109055 0.548006 255 0 0
0.0382186 -0.161654 0.55216 255 0 0
-0.00166206 -0.0211346 0.506201 255 0 0
0.238457 -0.109067 0.550122 255 0 0
-0.0428268 -0.187439 0.580804 255 0 0
0.105067 -0.144769 0.577783 255 0 0
0.0882636 -0.146489 0.565835 255 0 0
-0.0418823 -0.18818 0.579824 255 0 0
-0.0712729 -0.167182 0.561996 255 0 0
-0.00399899 -0.104409 0.564623 255 0 0
0.0997065 -0.0379985 0.488921 255 0 0
0.12562 -0.11092 0.555446 255 0 0
0.03709 -0.159924 0.582079 255 0 0
0.0783143 -0.0548572 0.536386 255 0 0
-0.0468681 -0.0243889 0.525875 255 0 0
-0.0270749 -0.0853346 0.545588 255 0 0
-0.0146915 -0.0233402 0.523002 255 0 0
-0.106456 -0.0927247 0.541544 255 0 0
-0.241427 -0.139357 0.554989 255 0 0
-0.158631 -0.0989521 0.522355 255 0 0
-0.231547 -0.123548 0.553994 255 0 0
-0.241761 -0.13955 0.555964 255 0 0
-0.22594 -0.0945403 0.543991 255 0 0
-0.0542743 -0.0673329 0.50301 255 0 0
-0.203993 -0.134169 0.557325 255 0 0
-0.212525 -0.15127 0.573848 255 0 0
-0.231578 -0.123604 0.552783 255 0 0
-0.180554 -0.148375 0.570384 255 0 0
0.126161 -0.126103 0.567142 255 0 0
-0.0309074 -0.0367902 0.484357 255 0 0
-0.0367274 -0.0780255 0.556686 255 0 0
-0.063393 -0.0504081 0.530565 255 0 0
0.0113339 -0.0030376 0.506779 255 0 0
-0.0164225 -0.107009 0.576101 255 0 0
0.213257 -0.103929 0.537762 255 0 0
0.221308 -0.096654 0.539758 255 0 0
-0.0638211 -0.0503775 0.531158 255 0 0
0.0388888 -0.120295 0.540048 255 0 0
0.0799219 -0.172563 0.594237 255 0 0
0.0218969 -0.0636052 0.522611 255 0 0
-0.0234106 -0.15956 0.547186 255 0 0
-0.0859129 -0.131913 0.556172 255 0 0
0.0411993 -0.120969 0.552283 255 0 0
-0.0702401 -0.130905 0.563034 255 0 0
0.119525 -0.0275638 0.553456 255 0 0
0.209298 -0.0920762 0.539395 255 0 0
0.129996 -0.143619 0.564798 255 0 0
0.140133 0.052595 0.48946 255 0 0
0.13312 -0.116734 0.560859 255 0 0
0.129828 -0.143256 0.566289 255 0 0
-0.104704 -0.0515252 0.538738 255 0 0
0.227316 -0.00302506 0.523837 255 0 0
-0.178494 -0.147357 0.562895 255 0 0
0.230413 -0.00224047 0.528619 255 0 0
-0.0572352 -0.248744 0.600819 255 0 0
0.128908 -0.0328023 0.546673 255 0 0
-0.221678 -0.121071 0.496759 255 0 0
-0.116917 -0.127259 0.550699 255 0 0
-0.211788 -0.151165 0.568158 255 0 0
-0.0703376 -0.0954913 0.538002 255 0 0
-0.210367 -0.152737 0.570948 255 0 0
-0.231442 -0.123851 0.555826 255 0 0
0.0577934 -0.0194817 0.512759 255 0 0
-0.116635 -0.128247 0.55607 255 0 0
-0.148793 -0.226672 0.55706 255 0 0
-0.0182977 -0.210773 0.575673 255 0 0
0.180787 -0.168436 0.591016 255 0 0
0.00120522 -0.0333752 0.520116 255 0 0
0.0116332 -0.149871 0.577787 255 0 0
0.0108807 -0.149636 0.576439 255 0 0
-0.0195098 -0.213822 0.596756 255 0 0
-0.0211501 -0.212841 0.59362 255 0 0
-0.0268556 -0.212196 0.587077 255 0 0
0.0698209 -0.0292645 0.518255 255 0 0
-0.0846881 -0.0514046 0.543911 255 0 0
0.0653264 -0.057878 0.540216 255 0 0
-0.0383824 -0.191514 0.583132 255 0 0
0.0588936 -0.129731 0.573073 255 0 0
0.0585995 0.0174165 0.502999 255 0 0
-0.164054 0.203793 1.98824 255 0 0
-0.202031 -0.0950659 0.552141 255 0 0
-0.200221 -0.0952672 0.547515 255 0 0
-0.186797 -0.109652 0.545612 255 0 0
-0.00543036 -0.182416 0.583589 255 0 0
0.0516687 -0.0308743 0.527958 255 0 0
0.106618 0.0485798 0.491218 255 0 0
0.0696877 -0.0276275 0.51949 255 0 0
0.103416 0.0501964 0.488874 255 0 0
0.127648 0.0911734 0.4712 255 0 0
-0.115259 -0.0958507 0.542433 255 0 0
-0.0174518 -0.129573 0.54685 255 0 0
0.103485 0.0500919 0.488775 255 0 0
-0.11404 -0.128507 0.5614 255 0 0
0.0125538 0.0787499 0.470186 255 0 0
-0.0730703 -0.128712 0.558924 255 0 0
-0.114098 -0.128585 0.562197 255 0 0
-0.0541826 -0.0281076 0.533676 255 0 0
-0.196845 -0.202798 0.636802 255 0 0
-0.110894 0.0158973 0.501762 255 0 0
0.0362771 0.0807227 0.478994 255 0 0
0.00684905 -0.0153284 0.496121 255 0 0
0.25173 0.257876 1.10639 255 0 0
0.161904 0.252961 1.10343 255 0 0
0.189792 0.191165 0.841295 255 0 0
0.0113935 0.0326104 2.60848 255 0 0
0.197445 -0.168987 1.21477 255 0 0
-0.125284 -0.101495 0.544631 255 0 0
0.151153 0.0510937 0.484852 255 0 0
0.0678164 -0.0295564 0.513264 255 0 0
0.143805 -0.0312182 0.544439 255 0 0
-0.00377309 -0.183675 0.600101 255 0 0
-0.0019996 -0.105295 0.559928 255 0 0
-0.0688316 -0.170969 0.581096 255 0 0
0.00700407 0.0196876 0.49474 255 0 0
-0.0106156 -0.0504568 0.447955 255 0 0
-0.0792507 0.0699254 0.494197 255 0 0
0.0789559 0.0888404 0.458605 255 0 0
-0.0831939 -0.0241475 0.508163 255 0 0
-0.149641 -0.234235 0.592998 255 0 0
-0.188059 -0.0461107 0.515177 255 0 0
0.136684 0.0551947 0.454079 255 0 0
0.0400024 0.0876208 0.456412 255 0 0
0.0466331 0.0872874 0.473151 255 0 0
-0.0708257 -0.0928602 0.536968 255 0 0
-0.0594483 -0.0785839 0.531475 255 0 0
-0.0711487 -0.0944647 0.537523 255 0 0
-0.086608 0.0251206 0.482492 255 0 0
0.0972901 0.096426 0.451318 255 0 0
-0.207091 -0.10235 0.544811 255 0 0
0.0277144 0.108201 0.468708 255 0 0
-0.0859135 0.0258337 0.481957 255 0 0
-0.239625 -0.1528 0.548206 255 0 0
0.0940506 0.0949391 0.481124 255 0 0
-0.112835 -0.0979241 0.549332 255 0 0
-0.0608306 -0.07871 0.525046 255 0 0
-0.243851 -0.141202 0.559365 255 0 0
0.0517626 0.11322 0.441376 255 0 0
0.0550434 0.108119 0.459167 255 0 0
-0.0338165 0.0781452 0.480025 255 0 0
-0.247036 -0.144727 0.582047 255 0 0
-0.0796641 -0.137038 0.603942 255 0 0
-0.00421584 0.0745287 0.471684 255 0 0
0.0321977 0.042336 0.491815 255 0 0
-0.0472679 -0.0286396 0.526722 255 0 0
0.147792 0.0601993 0.468831 255 0 0
-0.114262 -0.128058 0.556957 255 0 0
0.282876 -0.0889836 1.4078 255 0 0
0.00766907 -0.174397 0.696633 255 0 0
-0.118788 -0.0754577 0.544295 255 0 0
-0.176642 -0.106517 0.540011 255 0 0
-0.136615 -0.135686 0.564307 255 0 0
-0.0632461 0.0222239 0.425021 255 0 0
-0.130469 -0.0822403 0.538994 255 0 0
-0.163762 -0.0445505 0.533054 255 0 0
0.134493 0.223104 1.12839 255 0 0
0.00395913 0.187957 2.40816 255 0 0
-0.171166 -0.0637855 0.535398 255 0 0
-0.079965 0.10912 0.464118 255 0 0
0.0180035 0.0830724 0.474699 255 0 0
1.08662 -0.310748 3.41604 255 0 0
-0.0421309 0.00844427 0.511764 255 0 0
0.042918 -0.0473785 0.521948 255 0 0
0.118022 0.0262957 0.509779 255 0 0
-0.172517 -0.0626431 0.534327 255 0 0
-0.0886374 -0.119184 0.559443 255 0 0
-0.0867319 -0.130166 0.552152 255 0 0
0.181229 0.0579007 0.499103 255 0 0
0.102994 0.0994124 0.457856 255 0 0
-0.134764 0.0374409 1.02406 255 0 0
0.0887569 0.0455803 0.488054 255 0 0
-0.0300951 -0.0641289 0.531089 255 0 0
0.0422451 -0.0471807 0.524252 255 0 0
-0.156432 -0.0208087 0.503364 255 0 0
0.0375134 0.083182 0.425663 255 0 0
-0.204114 -0.0793114 0.536087 255 0 0
0.0160868 0.0574754 0.496832 255 0 0
-0.0641978 -0.0763426 0.517152 255 0 0
-0.242818 -0.126742 0.563675 255 0 0
-0.0787875 0.0192447 0.481274 255 0 0
0.160196 0.129205 0.581564 255 0 0
-0.208572 -0.100691 0.531579 255 0 0
-0.0938081 0.0419676 0.479243 255 0 0
-0.0876115 0.0202594 0.486961 255 0 0
0.0152963 0.0284278 0.476236 255 0 0
0.0243772 0.0252698 0.500958 255 0 0
0.0147846 0.10026 0.44782 255 0 0
0.0738892 0.0374381 0.463183 255 0 0
-0.0225617 -0.0387777 0.49947 255 0 0
0.0221593 0.021665 0.486144 255 0 0
0.0126609 0.0975973 0.451638 255 0 0
-0.0763496 -0.045895 0.512935 255 0 0
-0.214616 -0.130217 0.555282 255 0 0
-0.0356431 0.0603768 0.450154 255 0 0
0.0572565 0.109411 0.458999 255 0 0
-0.0798957 0.112354 0.465898 255 0 0
-0.0212895 0.0802946 0.471451 255 0 0
-0.000768608 0.0990674 0.429535 255 0 0
-0.136366 -0.00594724 0.519964 255 0 0
0.227766 0.262677 3.83374 255 0 0
-0.136413 -0.00604165 0.519222 255 0 0
-0.20246 -0.193491 0.64061 255 0 0
-0.232245 -0.146009 0.569847 255 0 0
0.00931799 -0.0444061 0.533402 255 0 0
-0.00225781 0.0975194 0.425332 255 0 0
0.0437416 0.0839775 0.467403 255 0 0
0.0516299 0.106678 0.453262 255 0 0
-0.133119 -0.0269524 0.508207 255 0 0
-0.152705 -0.0369059 0.533917 255 0 0
-0.0336834 0.0804285 0.482289 255 0 0
-0.131313 -0.248129 0.647259 255 0 0
0.114325 -0.0046396 0.515986 255 0 0
-0.272963 -0.103639 0.548074 255 0 0
0.0330369 0.0796713 0.467383 255 0 0
-0.0725446 -0.129046 0.565948 255 0 0
-0.206816 -0.104488 0.540534 255 0 0
-0.119663 -0.127518 0.551607 255 0 0
0.0520728 0.0479099 0.484913 255 0 0
-0.118327 -0.129894 0.566343 255 0 0
-0.208271 -0.15331 0.559608 255 0 0
0.134558 0.275526 1.39585 255 0 0
0.133833 0.0950253 0.481206 255 0 0
0.136308 0.27882 1.40331 255 0 0
0.0565368 0.110895 0.464158 255 0 0
-0.150496 -0.0169211 0.521014 255 0 0
0.147065 0.231914 1.4414 255 0 0
-0.0434875 0.00946067 0.511677 255 0 0
-0.0540108 -0.12172 0.548503 255 0 0
-0.163238 -0.14194 0.558558 255 0 0
-0.306305 -0.135538 1.21046 255 0 0
-0.143241 -0.141286 0.566742 255 0 0
0.0468607 0.0245772 0.478752 255 0 0
-0.249666 -0.0299465 0.508778 255 0 0
-0.145485 -0.0126957 0.558657 255 0 0
-0.0945762 -0.0443281 0.531339 255 0 0
-0.0749165 0.136842 0.486516 255 0 0
0.0374899 0.0936985 0.443958 255 0 0
-0.243991 -0.0702613 0.538434 255 0 0
-0.0981556 -0.0448583 0.535832 255 0 0
-0.199287 -0.0482458 0.528155 255 0 0
-0.130427 -0.0925697 0.559506 255 0 0
-0.00426729 0.0512954 0.483919 255 0 0
0.100944 0.134418 0.467114 255 0 0
-0.147578 -0.142615 0.55539 255 0 0
0.016596 0.0230742 0.47402 255 0 0
-0.198537 -0.095167 0.546659 255 0 0
-0.222184 -0.153146 0.569791 255 0 0
-0.199373 -0.134994 0.557524 255 0 0
-0.0840002 0.0248265 0.49311 255 0 0
0.0153888 0.0993973 0.450925 255 0 0
-0.230777 0.00106172 0.501887 255 0 0
0.0493286 0.0901364 0.445303 255 0 0
-0.154621 -0.0195984 0.519241 255 0 0
0.126274 0.098313 0.463026 255 0 0
-0.178373 -0.217206 0.603741 255 0 0
-0.245412 0.0334882 0.467316 255 0 0
-0.247002 -0.0169619 0.518831 255 0 0
-0.138004 -0.14428 0.591007 255 0 0
-0.0875986 0.0210246 0.484454 255 0 0
0.0402707 0.102628 0.464757 255 0 0
-0.0364724 0.0338078 0.49182 255 0 0
-0.181278 -0.00763815 0.507394 255 0 0
-0.199928 -0.145385 0.569676 255 0 0
-0.212912 -0.00655052 0.494183 255 0 0
-0.199395 -0.0484824 0.524919 255 0 0
-0.2036 -0.0636395 0.527578 255 0 0
-0.0672535 -0.110974 0.574384 255 0 0
-0.00662617 0.0512459 0.47949 255 0 0
-0.0168544 0.0517004 0.479776 255 0 0
