ply
format ascii 1.0
comment author: Gordon Liu
element vertex 1082
property double x
property double y
property double z
property uchar red
property uchar green
property uchar blue
end_header
-0.117097 0.0793244 0.490613 255 0 0
-0.0704169 -0.0871434 0.558826 255 0 0
-0.0978411 -0.00281321 0.526028 255 0 0
-0.112395 -0.00495219 0.535811 255 0 0
-0.164388 0.0781188 0.500842 255 0 0
0.0536275 -0.0921424 0.560741 255 0 0
0.0957074 -0.0653421 0.567233 255 0 0
-0.0986542 -0.00285489 0.534287 255 0 0
-0.200762 -0.0195173 0.517108 255 0 0
-0.195618 0.0582244 0.498315 255 0 0
-0.177019 0.0360952 0.503693 255 0 0
-0.202392 0.0316297 0.514628 255 0 0
-0.191679 0.114619 0.491621 255 0 0
0.114902 -0.0384267 0.663804 255 0 0
0.0888002 -0.0365178 0.520063 255 0 0
-0.0392688 -0.00835626 0.517711 255 0 0
-0.0797933 0.0252252 0.51542 255 0 0
0.0182815 0.0524205 0.528985 255 0 0
0.0232687 0.0464106 0.516396 255 0 0
-0.0050424 -0.0853764 0.589199 255 0 0
-0.0645002 -0.0244208 0.549219 255 0 0
0.123443 0.0207257 0.528242 255 0 0
-0.211428 0.0494374 0.495197 255 0 0
-0.20847 0.04061 0.510193 255 0 0
-0.164108 0.176905 0.442714 255 0 0
-0.0203222 0.237666 0.401194 255 0 0
-0.0194469 0.237458 0.403146 255 0 0
0.0161881 0.223197 0.437504 255 0 0
-0.129585 0.232401 0.427481 255 0 0
-0.0792319 0.241088 0.42659 255 0 0
-0.0501202 0.24337 0.42514 255 0 0
-0.0499518 0.243205 0.425334 255 0 0
-0.0592908 0.25653 0.466667 255 0 0
0.0136444 0.21862 0.422351 255 0 0
-0.140589 0.225866 0.443184 255 0 0
-0.147071 0.237261 0.485239 255 0 0
-0.148861 0.239453 0.494378 255 0 0
-0.129015 0.234734 0.572169 255 0 0
0.0567058 0.25965 0.421813 255 0 0
-0.0282259 0.241523 0.426944 255 0 0
-0.0628092 0.229509 0.429474 255 0 0
-0.0176383 0.241881 0.427941 255 0 0
-0.0152114 0.257446 0.473581 255 0 0
-0.0642065 0.228375 0.430969 255 0 0
0.0617439 0.256491 0.423577 255 0 0
-0.149295 0.211053 0.434363 255 0 0
0.0628461 0.256601 0.423712 255 0 0
-0.150174 0.209882 0.436556 255 0 0
0.067503 0.263029 0.439232 255 0 0
-0.150812 0.209541 0.436596 255 0 0
-0.150856 0.209341 0.436602 255 0 0
-0.0644868 0.227095 0.431804 255 0 0
-0.0160737 0.23726 0.429329 255 0 0
-0.0173139 0.237547 0.429394 255 0 0
-0.154755 0.217271 0.462679 255 0 0
-0.192147 0.0314419 0.486185 255 0 0
0.128069 0.0617391 0.514926 255 0 0
0.128788 0.0485796 0.521638 255 0 0
0.0937526 0.103386 0.486994 255 0 0
0.155269 -0.0636046 0.572269 255 0 0
0.105552 -0.0588468 0.547634 255 0 0
-0.0434639 0.0646464 0.450718 255 0 0
-0.103008 0.14467 0.484143 255 0 0
-0.178074 0.0815632 0.504444 255 0 0
-0.116401 0.0435307 0.493924 255 0 0
-0.113546 0.152934 0.473839 255 0 0
-0.117077 0.105302 0.49031 255 0 0
-0.196771 0.0267674 0.520077 255 0 0
-0.0133541 0.0564259 0.505021 255 0 0
-0.154525 0.0685554 0.497525 255 0 0
-0.138258 0.0670538 0.423212 255 0 0
-0.0049687 -0.0863857 0.595471 255 0 0
-0.117899 0.084235 0.491031 255 0 0
0.110954 -0.0526675 0.566226 255 0 0
-0.142304 0.0467155 0.497604 255 0 0
-0.0557245 -0.100308 0.579509 255 0 0
-0.205024 0.115297 0.473786 255 0 0
-0.194239 0.0576924 0.494621 255 0 0
-0.178546 0.0359848 0.509608 255 0 0
0.0936826 0.0648137 0.50092 255 0 0
-0.18019 0.112856 0.49389 255 0 0
-0.188765 0.152139 0.46167 255 0 0
0.0707504 0.249063 0.423585 255 0 0
0.0699721 0.248362 0.423651 255 0 0
-0.00971419 0.229814 0.428787 255 0 0
0.0705666 0.245014 0.424332 255 0 0
-0.10249 0.207324 0.435005 255 0 0
0.0646702 0.246675 0.425598 255 0 0
-0.174678 0.180515 0.441338 255 0 0
-0.144842 0.18651 0.441869 255 0 0
-0.152159 0.181569 0.442645 255 0 0
-0.153974 0.17624 0.449749 255 0 0
-0.157724 0.177415 0.463139 255 0 0
-0.157903 0.177098 0.462944 255 0 0
-0.0939883 0.182044 0.487621 255 0 0
-0.0741255 0.106932 0.490408 255 0 0
-0.164468 0.114451 0.467988 255 0 0
-0.156966 0.121979 0.478153 255 0 0
-0.165073 0.108143 0.491067 255 0 0
-0.16446 0.0650316 0.50314 255 0 0
-0.143554 0.193461 0.455033 255 0 0
-0.126603 0.190945 0.456078 255 0 0
0.01223 0.184759 0.40406 255 0 0
0.024345 0.206307 0.496282 255 0 0
-0.156721 0.175266 0.455712 255 0 0
-0.155684 0.172911 0.451864 255 0 0
0.0164669 0.192897 0.438049 255 0 0
-0.157986 0.172167 0.458331 255 0 0
0.0241475 0.0455681 0.531424 255 0 0
0.0613476 -0.069957 0.519929 255 0 0
0.0463936 -0.0690078 0.555165 255 0 0
0.159211 -0.0435464 0.545738 255 0 0
0.0533862 -0.0925924 0.559824 255 0 0
-0.173788 -0.0685105 0.506079 255 0 0
0.134455 -0.0665584 0.556164 255 0 0
-0.0389808 0.0660974 0.525773 255 0 0
-0.0135845 -0.00498433 0.524897 255 0 0
0.00225829 -0.0143559 0.574696 255 0 0
0.135564 0.111966 0.478713 255 0 0
0.136045 0.0651625 0.543264 255 0 0
0.0206641 0.132273 0.471179 255 0 0
0.0220768 0.104934 0.475213 255 0 0
0.0807257 0.107816 0.465442 255 0 0
0.156738 -0.0636288 0.577585 255 0 0
0.0394157 -0.0732064 0.550333 255 0 0
0.0151685 -0.0295374 0.544143 255 0 0
-0.0564878 0.0845275 0.60088 255 0 0
-0.102985 0.145177 0.480988 255 0 0
-0.17652 0.081124 0.498453 255 0 0
-0.218643 0.081294 0.492803 255 0 0
-0.234482 0.0596495 0.544352 255 0 0
-0.113507 0.153008 0.474089 255 0 0
-0.117181 0.10519 0.490797 255 0 0
-0.164941 0.108123 0.490017 255 0 0
-0.256529 -0.123285 0.598905 255 0 0
-0.196562 0.0264833 0.520621 255 0 0
-0.164136 0.0168495 0.51632 255 0 0
-0.142953 0.0974076 0.49196 255 0 0
0.117412 0.117961 0.480838 255 0 0
0.0987675 0.115977 0.486464 255 0 0
0.107394 0.104749 0.471286 255 0 0
-0.0197326 0.0381308 0.513879 255 0 0
0.154347 0.063066 0.529453 255 0 0
0.13591 0.0588343 0.516239 255 0 0
-0.0994415 -0.00317873 0.534234 255 0 0
-0.112486 -0.0051796 0.534438 255 0 0
0.0982733 -0.0336766 0.568783 255 0 0
0.123119 0.0205606 0.527309 255 0 0
0.122599 0.0135967 0.540603 255 0 0
-0.0741735 0.105835 0.487167 255 0 0
-0.195256 0.0578589 0.496564 255 0 0
-0.177493 0.0355961 0.507005 255 0 0
-0.200829 0.0309841 0.50865 255 0 0
0.173162 -0.0117561 0.555395 255 0 0
-0.163807 0.114006 0.464907 255 0 0
-0.181236 0.115756 0.457889 255 0 0
-0.180082 0.111925 0.491892 255 0 0
-0.18856 0.113763 0.486222 255 0 0
-0.0966509 0.0470753 0.50178 255 0 0
-0.221797 -0.0511459 0.605124 255 0 0
-0.0381577 0.00643888 0.51789 255 0 0
-0.215078 0.0493153 0.503592 255 0 0
-0.20979 0.040453 0.511377 255 0 0
0.0334159 0.0348974 0.498067 255 0 0
-0.0657337 -0.0275205 0.566056 255 0 0
-0.0797799 0.0247504 0.513498 255 0 0
0.150964 -0.0655112 0.673198 255 0 0
-0.00844943 0.211639 0.383716 255 0 0
-0.175651 0.191511 0.457013 255 0 0
0.00227385 0.238448 0.476661 255 0 0
-0.00470148 0.210664 0.393311 255 0 0
0.0976273 0.258222 0.504504 255 0 0
0.000561402 0.222875 0.435196 255 0 0
-0.078117 0.197983 0.435759 255 0 0
0.0192015 0.28024 0.619772 255 0 0
-0.0782042 0.198751 0.436053 255 0 0
-0.143868 0.188904 0.445233 255 0 0
-0.14336 0.190829 0.449621 255 0 0
-0.079241 0.197788 0.442975 255 0 0
-0.153614 0.214518 0.452935 255 0 0
-0.153671 0.214499 0.45358 255 0 0
0.0687574 0.245569 0.418316 255 0 0
-0.0976314 0.213339 0.438375 255 0 0
-0.0982281 0.215108 0.446237 255 0 0
0.0147649 -0.0287078 0.5401 255 0 0
0.132782 -0.0664371 0.551647 255 0 0
-0.0390078 0.0659959 0.515829 255 0 0
0.00183028 -0.0109993 0.544397 255 0 0
0.00890732 -0.0370055 0.556062 255 0 0
-0.0134457 -0.00609754 0.528099 255 0 0
0.0921082 0.063858 0.495328 255 0 0
0.13186 0.0493142 0.5322 255 0 0
0.0495859 0.155892 0.466781 255 0 0
0.104292 0.13037 0.476446 255 0 0
0.0725674 0.14036 0.484113 255 0 0
0.0960489 0.103765 0.498987 255 0 0
0.156168 -0.0637357 0.576477 255 0 0
0.0394953 -0.075133 0.560102 255 0 0
0.11077 -0.0519988 0.564575 255 0 0
0.0648306 -0.0109177 0.527007 255 0 0
0.0141001 -0.0297333 0.537137 255 0 0
0.119463 -0.00850306 0.540804 255 0 0
-0.0571124 0.0950573 0.489764 255 0 0
-0.102993 0.144338 0.480441 255 0 0
-0.176464 0.0802238 0.499741 255 0 0
-0.116645 0.078831 0.489155 255 0 0
-0.188809 0.151634 0.461638 255 0 0
-0.113493 0.151925 0.473808 255 0 0
-0.162127 0.137349 0.479602 255 0 0
-0.142138 0.0976953 0.485988 255 0 0
-0.0702996 -0.0882885 0.561584 255 0 0
-0.0391685 -0.108487 0.611024 255 0 0
-0.196191 0.025781 0.518919 255 0 0
0.0222393 0.0515084 0.5057 255 0 0
0.0339234 0.0344323 0.501921 255 0 0
0.0236505 0.0447856 0.525393 255 0 0
-0.0442645 0.0580365 0.522654 255 0 0
-0.0314796 0.0483466 0.534712 255 0 0
0.0807532 -0.142002 0.846241 255 0 0
0.0992207 -0.0339467 0.573099 255 0 0
0.101663 0.118491 0.495954 255 0 0
0.103953 0.103758 0.476284 255 0 0
-0.0613362 0.0413822 0.511518 255 0 0
-0.217136 0.049136 0.508217 255 0 0
-0.0207897 0.0137189 0.509648 255 0 0
-0.0382023 0.00493946 0.524065 255 0 0
-0.0796649 0.0240152 0.510235 255 0 0
0.130568 -0.0543967 0.560667 255 0 0
0.151913 0.0494804 0.521111 255 0 0
0.117372 0.0514112 0.450822 255 0 0
0.141924 0.0449658 0.518894 255 0 0
0.00160831 -0.00973896 0.548339 255 0 0
-0.0132321 -0.00570436 0.526431 255 0 0
0.151606 0.0654866 0.519482 255 0 0
0.126149 0.133233 0.466812 255 0 0
0.033313 0.069363 0.515609 255 0 0
0.0921592 0.0635234 0.496991 255 0 0
0.0414664 0.147696 0.475058 255 0 0
0.0556644 0.118014 0.473816 255 0 0
0.104951 0.130509 0.478798 255 0 0
0.0453391 -0.0674121 0.545858 255 0 0
0.0964784 -0.0668028 0.573874 255 0 0
0.0699365 -0.0123292 0.560429 255 0 0
0.116478 0.0027759 0.538135 255 0 0
-0.0562596 0.0945847 0.487436 255 0 0
-0.102929 0.144295 0.481292 255 0 0
-0.0735977 0.106849 0.488658 255 0 0
-0.178159 0.0781071 0.504322 255 0 0
-0.215827 0.0788751 0.486291 255 0 0
-0.176291 0.0352012 0.504694 255 0 0
-0.153566 0.0675759 0.498247 255 0 0
-0.113676 0.0432154 0.484307 255 0 0
-0.142002 0.0477175 0.490245 255 0 0
-0.16606 0.143339 0.493386 255 0 0
-0.179269 0.111283 0.489847 255 0 0
-0.186446 0.118184 0.471004 255 0 0
-0.0947082 0.146659 0.426418 255 0 0
-0.119491 0.10476 0.475811 255 0 0
-0.144694 0.0998229 0.496056 255 0 0
-0.00497876 -0.0909645 0.624785 255 0 0
-0.0410927 -0.113137 0.635406 255 0 0
-0.100021 -0.00251243 0.531337 255 0 0
-0.0641733 -0.0168858 0.566283 255 0 0
-0.138949 0.000524386 0.55407 255 0 0
0.00475027 0.0146431 0.534816 255 0 0
-0.0619536 -0.0161079 0.543252 255 0 0
-0.0731157 -0.00577006 0.53126 255 0 0
-0.0641231 -0.0286097 0.562736 255 0 0
0.104528 -0.0217343 0.568178 255 0 0
0.0993858 -0.033601 0.577598 255 0 0
-0.164379 0.0782726 0.500164 255 0 0
0.0266628 0.051502 0.511916 255 0 0
-0.149449 0.209107 0.430731 255 0 0
-0.0641855 0.225923 0.426057 255 0 0
-0.0174067 0.239848 0.423451 255 0 0
-0.151049 0.207714 0.431871 255 0 0
-0.161416 0.203565 0.433195 255 0 0
0.0575859 0.25641 0.419842 255 0 0
0.0618514 0.256697 0.419602 255 0 0
-0.0960976 0.212103 0.430276 255 0 0
0.0617997 0.254453 0.420482 255 0 0
-0.0969983 0.211663 0.430742 255 0 0
-0.166712 0.197117 0.435716 255 0 0
-0.166689 0.197639 0.435898 255 0 0
-0.166198 0.195062 0.436156 255 0 0
0.0635414 0.251659 0.422886 255 0 0
0.0640779 0.250979 0.42288 255 0 0
0.0646247 0.251091 0.422847 255 0 0
0.0684375 0.24917 0.423306 255 0 0
-0.174508 0.180221 0.439329 255 0 0
0.0706515 0.247624 0.423638 255 0 0
-0.123232 0.246921 0.415171 255 0 0
0.0698692 0.185289 0.466554 255 0 0
0.0170704 0.18734 0.494937 255 0 0
0.0147639 0.182407 0.479306 255 0 0
-0.0727108 -0.00849219 0.545075 255 0 0
-0.0795983 0.0253202 0.51353 255 0 0
0.137573 -0.0680245 0.568276 255 0 0
-0.00627611 -0.0116953 0.530455 255 0 0
0.00869524 -0.0350822 0.551368 255 0 0
-0.0375443 0.063928 0.503856 255 0 0
-0.0299647 0.0484484 0.522328 255 0 0
-0.0516141 0.0473992 0.510839 255 0 0
0.135756 0.0765592 0.495955 255 0 0
-0.161347 0.0417412 0.501711 255 0 0
0.0176758 0.192203 0.441336 255 0 0
0.0854296 0.213558 0.493881 255 0 0
0.0760254 0.199299 0.456096 255 0 0
-0.0944813 0.165995 0.464651 255 0 0
-0.151428 0.159593 0.476491 255 0 0
0.0734432 0.189424 0.47794 255 0 0
-0.158427 0.149111 0.465567 255 0 0
-0.1515 0.15818 0.480622 255 0 0
-0.118108 0.153748 0.459472 255 0 0
-0.102595 0.157771 0.465931 255 0 0
-0.114824 0.147522 0.434326 255 0 0
-0.100658 0.15531 0.45971 255 0 0
-0.243909 0.211127 0.724618 255 0 0
-0.111776 0.148532 0.467015 255 0 0
-0.113701 0.151568 0.478221 255 0 0
-0.111128 0.147357 0.46823 255 0 0
-0.10909 0.153751 0.513499 255 0 0
-0.188635 0.119163 0.48044 255 0 0
-0.209701 0.123188 0.47382 255 0 0
-0.205575 0.133538 0.559677 255 0 0
-0.11314 0.128809 0.490658 255 0 0
-0.214795 0.112393 0.488083 255 0 0
-0.215498 0.114071 0.491367 255 0 0
-0.123049 0.12255 0.479022 255 0 0
-0.170594 0.118512 0.487257 255 0 0
-0.131659 0.196718 0.483875 255 0 0
-0.163684 0.171963 0.430848 255 0 0
-0.182669 0.186991 0.501498 255 0 0
0.0746237 0.218526 0.42512 255 0 0
-0.129846 0.18698 0.45834 255 0 0
-0.126559 0.183918 0.44206 255 0 0
-0.160139 0.171642 0.466345 255 0 0
-0.089325 0.186915 0.481328 255 0 0
-0.190272 0.171414 0.506226 255 0 0
0.0193895 0.197346 0.446946 255 0 0
0.0704738 0.198338 0.426643 255 0 0
0.020485 0.0520741 0.551022 255 0 0
0.0173594 0.0316942 0.516569 255 0 0
-7.67982e-06 -0.00841297 0.532262 255 0 0
0.0083092 -0.035955 0.54337 255 0 0
0.111225 -0.0512917 0.563875 255 0 0
-0.00599346 0.124657 0.487477 255 0 0
-0.125078 -0.0430996 0.357121 255 0 0
-0.196427 0.0250564 0.520397 255 0 0
-0.0693358 0.099999 0.445235 255 0 0
-0.113662 -0.00490427 0.531921 255 0 0
0.144354 0.0636747 0.49867 255 0 0
0.147413 0.061326 0.566051 255 0 0
-0.178353 0.110522 0.487131 255 0 0
-0.113125 0.151516 0.473948 255 0 0
-0.112715 0.0995158 0.442642 255 0 0
-0.146177 0.099896 0.498906 255 0 0
-0.0405415 0.0631332 0.435194 255 0 0
-0.117519 0.078242 0.494669 255 0 0
0.0367544 0.0322918 0.422744 255 0 0
0.129228 0.0488272 0.523432 255 0 0
-0.00661808 -0.0800511 0.563108 255 0 0
-0.0655778 0.0930042 0.490199 255 0 0
0.0460333 -0.0677641 0.554378 255 0 0
0.0364235 -0.069682 0.524509 255 0 0
-0.175785 0.0347312 0.505355 255 0 0
-0.200442 0.0311438 0.510513 255 0 0
0.116697 0.00303037 0.539388 255 0 0
0.120542 -0.00987975 0.546784 255 0 0
0.000226836 -0.00907259 0.54875 255 0 0
-0.00639861 -0.0175943 0.505031 255 0 0
0.00922448 -0.0399548 0.559938 255 0 0
-0.103768 0.144744 0.487192 255 0 0
-0.126376 0.107955 0.497881 255 0 0
-0.0550813 0.0917322 0.478543 255 0 0
-0.0770482 0.106377 0.494663 255 0 0
-0.17762 0.10913 0.485229 255 0 0
-0.183185 0.117048 0.459144 255 0 0
0.0299588 0.0651332 0.507846 255 0 0
0.0358867 0.0299979 0.405392 255 0 0
0.018821 0.0324675 0.52485 255 0 0
-0.121581 0.0793017 0.511889 255 0 0
-0.150964 0.0658581 0.492009 255 0 0
-0.145283 0.0478554 0.490451 255 0 0
0.129131 0.0495376 0.520816 255 0 0
0.107614 0.0577045 0.478602 255 0 0
-0.0397367 0.0653728 0.520073 255 0 0
-0.0315185 0.0501044 0.545972 255 0 0
0.112506 -0.0509109 0.571053 255 0 0
0.0926712 -0.0647755 0.554656 255 0 0
-0.166592 0.0639031 0.509368 255 0 0
-0.177807 0.061751 0.471333 255 0 0
-0.201862 0.0303851 0.511513 255 0 0
0.172765 -0.0420867 0.562763 255 0 0
0.16162 -0.0656036 0.595092 255 0 0
0.0969821 -0.00378573 0.532354 255 0 0
0.0945872 -0.0302089 0.55105 255 0 0
0.0121442 0.0169199 0.500674 255 0 0
0.0162776 -0.032092 0.541153 255 0 0
0.0444662 -0.0641694 0.534464 255 0 0
0.0371882 -0.071632 0.534462 255 0 0
-0.0555569 0.00894268 0.538985 255 0 0
-0.169325 0.117285 0.479172 255 0 0
-0.185981 0.118048 0.467324 255 0 0
-0.176213 0.107808 0.482807 255 0 0
0.0309725 0.0662528 0.516894 255 0 0
0.0185541 0.0316836 0.520818 255 0 0
-0.106167 0.147515 0.507792 255 0 0
-0.125569 0.107806 0.49635 255 0 0
-0.148933 0.0975063 0.498572 255 0 0
0.117451 0.117101 0.485137 255 0 0
0.114312 0.0955895 0.466153 255 0 0
0.0146124 -0.066846 0.872084 255 0 0
-0.0436129 -0.050917 0.506553 255 0 0
-0.163181 0.0785329 0.495949 255 0 0
-0.17511 0.0337475 0.504804 255 0 0
-0.199214 0.0583197 0.510403 255 0 0
-0.110508 0.0810089 0.497785 255 0 0
0.110077 0.0579747 0.497172 255 0 0
-0.0392091 0.0600073 0.526437 255 0 0
0.04604 -0.0657083 0.558244 255 0 0
0.0239127 -0.0462659 0.50727 255 0 0
0.0116089 0.015684 0.505384 255 0 0
0.0158763 -0.0326419 0.521709 255 0 0
0.108159 -0.0481971 0.554068 255 0 0
0.0939327 -0.0675275 0.571938 255 0 0
0.0962141 0.00735757 0.537707 255 0 0
0.092933 -0.0279782 0.546313 255 0 0
-0.0903708 0.0243756 0.522614 255 0 0
0.00132221 0.0133532 0.538314 255 0 0
-0.0413456 0.00234607 0.523647 255 0 0
-0.140989 0.00410952 0.528296 255 0 0
-0.197253 0.023893 0.52343 255 0 0
-0.00635583 0.125619 0.494676 255 0 0
0.166016 -0.0395005 0.5474 255 0 0
0.0993934 0.118725 0.494357 255 0 0
0.0448433 0.0368463 0.49921 255 0 0
-0.109904 0.0831776 0.442229 255 0 0
-0.122358 0.10851 0.484144 255 0 0
0.0109122 -0.0449324 0.563825 255 0 0
-0.0463867 0.0568666 0.514082 255 0 0
-0.0803514 0.0385202 0.520503 255 0 0
-0.164696 0.0809949 0.501072 255 0 0
-0.184042 0.0566957 0.46767 255 0 0
-0.157998 0.102535 0.472063 255 0 0
0.0921208 -0.0549611 0.583843 255 0 0
0.0109443 -0.0049469 0.554138 255 0 0
-0.0156583 0.0469356 0.50085 255 0 0
-0.016703 0.0441229 0.508373 255 0 0
-0.107073 0.0803197 0.493652 255 0 0
0.146574 0.0645245 0.501298 255 0 0
0.0976804 -0.0277801 0.562592 255 0 0
-0.00484184 0.0127529 0.530994 255 0 0
-0.0423255 0.0010047 0.523409 255 0 0
-0.0806488 -0.0242284 0.546883 255 0 0
-0.193285 0.0221693 0.514824 255 0 0
-0.270074 -0.0955509 0.784124 255 0 0
-0.00277925 0.147379 0.54924 255 0 0
0.0978488 0.118017 0.488391 255 0 0
0.0493692 0.104271 0.420417 255 0 0
0.118624 0.0603516 0.53603 255 0 0
-0.0890126 0.247282 0.416877 255 0 0
-0.0903663 0.248072 0.417327 255 0 0
-0.090775 0.247739 0.417561 255 0 0
-0.0905536 0.247593 0.417554 255 0 0
0.0264887 0.274633 0.410493 255 0 0
0.0173975 0.228521 0.450538 255 0 0
-0.127771 0.234751 0.421645 255 0 0
-0.12918 0.233688 0.421758 255 0 0
-0.129105 0.233319 0.421766 255 0 0
-0.129064 0.234249 0.421734 255 0 0
-0.024773 0.240782 0.416595 255 0 0
-0.0246446 0.240808 0.416587 255 0 0
-0.110671 0.233709 0.421932 255 0 0
-0.123916 0.231795 0.422732 255 0 0
-0.0908727 0.232233 0.421288 255 0 0
-0.144586 0.214782 0.426053 255 0 0
-0.0591865 0.241635 0.420646 255 0 0
0.0464797 0.2663 0.4145 255 0 0
0.046605 0.265986 0.414704 255 0 0
-0.0603576 0.241388 0.421722 255 0 0
-0.0602479 0.241799 0.421702 255 0 0
-0.0610494 0.241169 0.421767 255 0 0
-0.0619082 0.241335 0.422009 255 0 0
-0.0640232 0.238804 0.423011 255 0 0
-0.0217518 0.239659 0.421485 255 0 0
-0.0318282 0.239669 0.422232 255 0 0
0.0520104 0.262065 0.417349 255 0 0
0.0547861 0.258993 0.417903 255 0 0
0.0534651 0.260017 0.41794 255 0 0
0.0722894 0.201983 0.426133 255 0 0
-0.0951428 0.170619 0.480698 255 0 0
-0.0190309 0.236192 0.430113 255 0 0
0.0492562 0.227653 0.355564 255 0 0
0.0439949 0.218124 0.333254 255 0 0
-0.16293 0.221764 0.494754 255 0 0
0.0661668 0.250854 0.426419 255 0 0
0.0234114 0.39762 0.918099 255 0 0
-0.0699809 0.214284 0.426868 255 0 0
-0.0751715 0.206448 0.439322 255 0 0
-0.174445 0.185359 0.446244 255 0 0
-0.0762321 0.204507 0.44081 255 0 0
-0.175438 0.182891 0.446536 255 0 0
-0.0783465 0.206296 0.457197 255 0 0
-0.141874 0.192077 0.44539 255 0 0
-0.0805724 0.19332 0.442623 255 0 0
-0.124887 0.189542 0.443125 255 0 0
0.0356458 0.321279 0.766157 255 0 0
0.0029024 0.222994 0.448299 255 0 0
0.000703482 0.21987 0.438057 255 0 0
-0.125176 0.189364 0.444054 255 0 0
-0.171597 0.179283 0.449187 255 0 0
0.0720182 0.233116 0.435578 255 0 0
-0.169462 0.178678 0.449882 255 0 0
-0.146295 0.180156 0.448249 255 0 0
-0.174281 0.172506 0.452119 255 0 0
-0.150642 0.170823 0.429613 255 0 0
-0.181144 0.16504 0.453918 255 0 0
-0.0853958 0.184568 0.448619 255 0 0
-0.085233 0.176229 0.424727 255 0 0
0.01105 0.207343 0.443265 255 0 0
-0.117691 0.164038 0.438518 255 0 0
-0.127746 0.177179 0.491787 255 0 0
-0.11612 0.160397 0.429517 255 0 0
-0.121248 0.166822 0.449526 255 0 0
-0.119988 0.165087 0.448252 255 0 0
0.0698058 0.184945 0.457393 255 0 0
-0.188771 0.151163 0.460253 255 0 0
-0.205886 0.14098 0.465727 255 0 0
-0.151042 0.158547 0.471088 255 0 0
-0.189676 0.152162 0.463759 255 0 0
-0.18867 0.150087 0.459145 255 0 0
-0.159532 0.149805 0.469312 255 0 0
-0.189096 0.147824 0.457864 255 0 0
-0.123384 0.247022 0.415177 255 0 0
0.00336494 0.276392 0.407675 255 0 0
-0.00610085 0.274591 0.408648 255 0 0
-0.127837 0.243179 0.416956 255 0 0
-0.127509 0.243511 0.416927 255 0 0
-0.0274826 0.266444 0.410677 255 0 0
-0.0204425 0.268108 0.410842 255 0 0
-0.0314728 0.263995 0.411977 255 0 0
-0.0315087 0.263661 0.412191 255 0 0
0.11337 0.06621 0.512469 255 0 0
0.0434451 0.128476 0.438846 255 0 0
-0.145347 0.00787148 0.530785 255 0 0
-0.190763 -0.094416 0.609824 255 0 0
0.232855 0.118515 0.490837 255 0 0
0.196003 0.0877724 0.480954 255 0 0
-0.22146 0.0961724 0.488727 255 0 0
0.0841155 0.0434104 0.510696 255 0 0
-0.052752 0.0822569 0.574363 255 0 0
-0.104214 0.0482414 0.551639 255 0 0
0.137605 0.101974 0.455924 255 0 0
-0.16498 0.10769 0.488437 255 0 0
0.197467 0.0424443 0.526235 255 0 0
0.123697 -0.056577 0.572877 255 0 0
0.0190838 0.0290876 0.536389 255 0 0
0.0901641 -0.0472835 0.555004 255 0 0
-0.0892882 -0.00291172 0.526035 255 0 0
0.185259 -0.0483378 0.600031 255 0 0
0.175105 -0.0512731 0.595517 255 0 0
0.164663 0.104976 0.476368 255 0 0
-0.0202151 0.037108 0.539782 255 0 0
0.122941 0.102407 0.495792 255 0 0
0.197128 0.0868987 0.4818 255 0 0
-0.100534 -0.0152258 0.535139 255 0 0
-0.104074 0.0502414 0.526152 255 0 0
0.154674 -0.0401563 0.555568 255 0 0
-0.0889876 0.0245046 0.523381 255 0 0
0.0242471 0.0437486 0.529688 255 0 0
0.152487 0.127727 0.46313 255 0 0
0.147921 0.101118 0.478339 255 0 0
0.0896153 0.0634924 0.484359 255 0 0
-0.112764 0.102372 0.475207 255 0 0
-0.0305182 0.049481 0.523833 255 0 0
0.065661 -0.00130514 0.537758 255 0 0
-0.206623 0.0496609 0.478224 255 0 0
0.15616 0.128483 0.472894 255 0 0
-0.0586558 -0.011152 0.519231 255 0 0
-0.0803408 0.0227581 0.523413 255 0 0
-0.0214659 0.0114849 0.51248 255 0 0
0.203832 0.0847836 0.497833 255 0 0
0.158538 0.129542 0.481795 255 0 0
0.145613 0.0636869 0.501288 255 0 0
0.23657 0.0254273 0.547985 255 0 0
0.151106 0.128806 0.471713 255 0 0
0.0147163 0.0169226 0.500185 255 0 0
-0.0544045 0.0936308 0.500779 255 0 0
-0.0559358 0.100615 0.20214 255 0 0
-0.0101706 0.059474 0.502286 255 0 0
-0.0709361 0.0232109 0.519755 255 0 0
-0.0158997 0.129348 0.480978 255 0 0
-0.0678336 0.114042 0.50912 255 0 0
-0.190801 0.0615311 0.501134 255 0 0
-0.211337 -0.00370991 0.544212 255 0 0
-0.118966 0.0849512 0.495406 255 0 0
-0.0112225 0.059511 0.495484 255 0 0
0.102284 0.123388 0.48694 255 0 0
-0.13956 0.0970749 0.506835 255 0 0
0.0607206 0.0154305 0.510895 255 0 0
-0.0284575 0.000589862 0.523321 255 0 0
-0.0665074 0.0192039 0.523015 255 0 0
0.105232 0.128865 0.479777 255 0 0
-0.175752 0.0754914 0.493282 255 0 0
0.116807 0.0997028 0.475037 255 0 0
0.138003 0.132723 0.433783 255 0 0
-0.0490398 0.113348 0.493366 255 0 0
0.0171798 0.181817 0.473178 255 0 0
-0.104483 -0.00202666 0.538791 255 0 0
-0.132938 0.199432 1.07129 255 0 0
0.179914 0.0458221 0.515857 255 0 0
0.116253 0.00242396 0.535514 255 0 0
-0.0239761 0.0129641 0.509096 255 0 0
0.0272399 0.0513918 0.511071 255 0 0
0.0661946 0.0358062 0.5195 255 0 0
-0.18735 0.0617239 0.503674 255 0 0
0.126376 0.0690359 0.503976 255 0 0
0.108021 0.0649581 0.497406 255 0 0
0.119533 -0.0108333 0.544663 255 0 0
-0.114286 0.200106 0.428136 255 0 0
-0.137976 0.0963154 0.488767 255 0 0
0.0655773 -0.0287251 0.576406 255 0 0
-0.0542569 -0.00783444 0.546646 255 0 0
0.13302 0.0600381 0.576985 255 0 0
0.0539134 -0.0185677 0.50877 255 0 0
0.0984633 0.0970497 0.476565 255 0 0
0.103094 0.0917228 0.50522 255 0 0
-0.0418653 -0.0285814 0.534176 255 0 0
0.0781344 0.11617 0.466916 255 0 0
-0.0341676 0.0596581 0.510846 255 0 0
-0.113248 0.199108 0.422804 255 0 0
-0.21582 0.112783 0.490282 255 0 0
0.0987561 0.096867 0.480823 255 0 0
0.0783335 0.0855653 0.426568 255 0 0
-0.0155741 -0.00681145 0.518109 255 0 0
-0.03425 0.0596073 0.515266 255 0 0
-0.112929 0.197673 0.417969 255 0 0
-0.135845 0.000622136 0.523267 255 0 0
0.0650588 0.179908 0.445754 255 0 0
0.0661024 0.0980567 0.506455 255 0 0
-0.100895 -0.00315542 0.535703 255 0 0
-0.133659 0.000447413 0.518319 255 0 0
-0.00168626 0.0271991 0.562371 255 0 0
0.0226255 0.104738 0.479218 255 0 0
0.0778841 -0.00288858 0.517353 255 0 0
-0.197933 0.0192568 0.587869 255 0 0
-0.0295878 0.000813903 0.51477 255 0 0
0.243682 0.0651221 0.519616 255 0 0
0.0110821 0.163909 0.455042 255 0 0
-0.103756 0.0522957 0.507916 255 0 0
-0.0436778 -0.0332209 0.556646 255 0 0
-0.0829179 0.128322 0.423338 255 0 0
-0.163434 0.0623852 0.49528 255 0 0
0.101175 0.0211119 0.533133 255 0 0
-0.0760648 -0.00767276 0.547307 255 0 0
-0.0010881 -0.0233309 0.550253 255 0 0
-0.21135 0.0492219 0.494431 255 0 0
-0.131285 0.151203 0.373549 255 0 0
0.157021 0.24663 1.16388 255 0 0
-0.143884 0.0712779 0.428692 255 0 0
0.086179 0.132295 0.460669 255 0 0
0.046684 0.0852568 0.508125 255 0 0
0.146045 0.133263 0.4477 255 0 0
0.0566199 0.00802929 0.546886 255 0 0
-0.172502 0.101304 0.482362 255 0 0
-0.0668178 0.026999 0.528156 255 0 0
0.0916421 0.137913 0.490148 255 0 0
-0.16486 0.115099 0.469478 255 0 0
-0.175838 0.102333 0.492426 255 0 0
-0.0349772 -0.0293494 0.527242 255 0 0
0.0421794 0.149748 0.488232 255 0 0
0.18395 0.116152 0.473952 255 0 0
0.18284 0.114453 0.49264 255 0 0
-0.0389905 0.0608333 0.520179 255 0 0
-0.0522101 0.0469705 0.528098 255 0 0
-0.089612 -0.0011209 0.537657 255 0 0
-0.0149205 -0.0335665 0.55713 255 0 0
-0.222111 0.0442625 0.626397 255 0 0
-0.0854786 0.0452451 0.504074 255 0 0
0.180277 -0.0147313 0.575004 255 0 0
0.131164 0.0488016 0.527282 255 0 0
-0.0681077 0.113989 0.51929 255 0 0
-0.131738 0.00156563 0.527541 255 0 0
0.231156 0.0291631 0.534227 255 0 0
-0.126984 0.107526 0.491134 255 0 0
0.0126987 0.0121906 0.526956 255 0 0
0.0778232 0.051376 0.514647 255 0 0
-0.0674609 0.114437 0.521515 255 0 0
-0.0618139 -0.0145534 0.535356 255 0 0
-0.0432608 -0.0356954 0.579415 255 0 0
-0.192504 -0.047017 0.937593 255 0 0
-0.176557 -0.0225711 0.447402 255 0 0
0.0631434 -0.0227089 0.557234 255 0 0
-0.0710294 0.109626 0.478753 255 0 0
-0.0978359 -0.010495 0.51505 255 0 0
-0.0899974 -0.00453387 0.521628 255 0 0
-0.0122271 0.120354 0.472729 255 0 0
0.0477701 0.0863426 0.503346 255 0 0
0.239347 0.028306 0.504465 255 0 0
-0.209481 0.0613063 0.509318 255 0 0
-0.0989752 -0.0111753 0.522365 255 0 0
0.0387283 0.114747 0.489246 255 0 0
-0.163219 0.0655605 0.497271 255 0 0
0.0576716 -0.0197253 0.527173 255 0 0
0.0156917 0.0488329 0.525326 255 0 0
-0.0735119 0.105811 0.482181 255 0 0
-0.0896195 -0.00424385 0.516765 255 0 0
0.177227 0.101781 0.468304 255 0 0
0.160679 0.104434 0.465154 255 0 0
-0.0147834 -0.0317667 0.549258 255 0 0
0.0335016 0.142185 0.478236 255 0 0
-0.128132 0.107672 0.495196 255 0 0
0.0959159 0.00811388 0.519968 255 0 0
0.241586 0.0589242 0.487328 255 0 0
-0.0117987 0.120193 0.467369 255 0 0
-0.118448 0.0846869 0.492935 255 0 0
-0.191582 0.0450594 0.521635 255 0 0
0.210524 0.0386894 0.518454 255 0 0
-0.0378639 0.0607513 0.466928 255 0 0
-0.014902 0.0524893 0.532882 255 0 0
-0.163318 0.0648634 0.497227 255 0 0
0.198516 0.0194824 0.530162 255 0 0
0.135892 0.0368741 0.518804 255 0 0
0.095403 -0.0012771 0.525181 255 0 0
-0.173448 0.100501 0.486721 255 0 0
-0.0576801 0.0197901 0.51634 255 0 0
0.0913001 0.0520716 0.579878 255 0 0
-0.0523215 0.0470539 0.518431 255 0 0
0.0992732 -0.00351777 0.542222 255 0 0
0.0428333 0.150002 0.480271 255 0 0
0.185817 0.105162 0.491724 255 0 0
0.199117 0.0198594 0.531452 255 0 0
0.238938 0.027391 0.504435 255 0 0
0.0194709 0.0301999 0.531444 255 0 0
-0.0608241 0.0177838 0.488481 255 0 0
-0.0254567 0.00916255 0.550205 255 0 0
-0.0766833 0.0435466 0.547137 255 0 0
-0.0392874 0.00472648 0.51702 255 0 0
0.21914 0.0839189 0.482043 255 0 0
-0.0169819 0.0446359 0.503558 255 0 0
-0.0399488 0.00274937 0.52205 255 0 0
0.189722 0.121176 0.461978 255 0 0
0.188135 0.116738 0.482058 255 0 0
0.0923521 0.136695 0.491138 255 0 0
-0.217259 0.0494742 0.503614 255 0 0
0.127268 0.0710656 0.50579 255 0 0
-0.0022856 0.0824439 0.482238 255 0 0
0.241267 0.0288451 0.507785 255 0 0
0.0898107 0.139262 0.489059 255 0 0
0.0165259 0.0488872 0.472098 255 0 0
0.131065 0.0681593 0.520069 255 0 0
0.116673 0.117026 0.48378 255 0 0
0.037894 0.0168895 0.491664 255 0 0
0.0843729 -0.0116388 0.532425 255 0 0
-0.181741 0.0664207 0.502408 255 0 0
-0.0773533 0.0437256 0.537876 255 0 0
0.0330328 0.0347535 0.504592 255 0 0
0.0713484 0.1388 0.47478 255 0 0
0.128094 0.0675274 0.454969 255 0 0
-0.214026 -0.0818177 0.617682 255 0 0
-0.0957365 0.117451 0.199422 255 0 0
0.0040691 0.0306443 0.506317 255 0 0
-0.00706822 -0.0225842 0.539247 255 0 0
0.252272 0.0720513 0.516439 255 0 0
-0.205243 -0.0455205 0.551839 255 0 0
-0.134011 -0.00360286 0.561501 255 0 0
0.013943 0.110702 0.470999 255 0 0
0.168619 0.118601 0.479016 255 0 0
0.240013 0.118612 0.504897 255 0 0
0.0631564 0.0973833 0.489758 255 0 0
-0.0866928 0.133701 0.477653 255 0 0
0.00624494 0.0535987 0.50773 255 0 0
-0.138504 0.0963987 0.494488 255 0 0
0.0943327 0.103079 0.492259 255 0 0
0.17285 0.101967 0.460132 255 0 0
0.122803 0.0176947 0.529077 255 0 0
-0.0814803 0.130099 0.533508 255 0 0
0.142143 0.0464999 0.519425 255 0 0
0.100481 0.0961758 0.48638 255 0 0
0.239261 0.117503 0.50133 255 0 0
0.0178777 0.113697 0.465789 255 0 0
0.182249 0.0425689 0.490732 255 0 0
0.0660782 0.0502817 0.469547 255 0 0
-0.206335 0.0285674 0.518293 255 0 0
-0.205714 0.0975085 0.463802 255 0 0
-0.121953 0.162638 0.443035 255 0 0
-0.16809 0.11736 0.478321 255 0 0
0.0377588 0.0263178 0.499217 255 0 0
0.110522 0.0570544 0.500821 255 0 0
-0.0922701 0.024935 0.506928 255 0 0
0.0852907 0.117227 0.448461 255 0 0
0.0681947 0.184891 0.454081 255 0 0
0.187246 0.0176637 0.532958 255 0 0
0.175989 0.0574257 0.538334 255 0 0
0.113095 0.0605667 0.496175 255 0 0
-0.0609912 0.0509987 0.536408 255 0 0
-0.159238 0.133923 0.464236 255 0 0
-0.135642 0.099323 0.450051 255 0 0
0.0962216 0.0928854 0.432626 255 0 0
-0.00655863 0.0341004 0.531595 255 0 0
0.120486 0.132218 0.480036 255 0 0
-0.182449 0.121726 0.487437 255 0 0
0.0133912 0.110397 0.47162 255 0 0
0.24833 0.0984944 0.504162 255 0 0
0.129908 0.0694869 0.512018 255 0 0
0.138939 0.032513 0.54008 255 0 0
0.0750333 0.0274486 0.500213 255 0 0
-0.00376555 -0.00201364 0.515544 255 0 0
0.0584877 -0.0154053 0.53505 255 0 0
0.0558577 0.106311 0.363733 255 0 0
0.0846144 -0.0112224 0.536823 255 0 0
0.0601637 -0.0149923 0.540423 255 0 0
0.0163401 0.0816277 0.3226 255 0 0
0.237019 0.065586 0.505249 255 0 0
0.185966 0.117339 0.479709 255 0 0
-0.0351898 -0.0293033 0.5309 255 0 0
-0.0844221 0.043229 0.506566 255 0 0
-0.0797667 0.106455 0.498377 255 0 0
0.00516603 0.0313105 0.504777 255 0 0
-0.209388 0.0116624 0.532614 255 0 0
-0.201478 -0.0362289 0.561345 255 0 0
0.0560815 0.092498 0.494996 255 0 0
0.118768 0.0700366 0.45365 255 0 0
0.0706233 0.120059 0.479213 255 0 0
0.150424 0.12794 0.459674 255 0 0
-0.0133938 0.062427 0.463759 255 0 0
-0.00189668 0.0939873 0.492824 255 0 0
-0.0669622 0.110174 0.485965 255 0 0
-0.0724957 0.111905 0.536226 255 0 0
-0.0861559 0.0268272 0.497135 255 0 0
-0.213343 -0.00469066 0.551338 255 0 0
-0.0857068 0.182928 0.451555 255 0 0
-0.212753 0.133797 0.474399 255 0 0
0.0148812 0.0476314 0.526811 255 0 0
-0.107219 0.0888763 0.46932 255 0 0
-0.160471 0.135066 0.470578 255 0 0
-0.086194 0.0267543 0.497141 255 0 0
-0.000175606 0.143962 0.478959 255 0 0
0.165741 0.047299 0.481028 255 0 0
-0.180845 0.0304668 0.539599 255 0 0
-0.0918896 0.0232453 0.521456 255 0 0
0.194541 0.0461421 0.725753 255 0 0
-0.185634 0.0443806 0.506984 255 0 0
0.0741479 0.199408 0.43984 255 0 0
0.191275 0.020397 0.513521 255 0 0
0.00932 0.0925 0.187844 255 0 0
0.248066 0.0572958 0.499055 255 0 0
-0.136263 0.107653 0.479935 255 0 0
0.214435 0.0196961 0.508339 255 0 0
0.034258 0.0193384 0.495087 255 0 0
0.0777921 0.204844 0.454221 255 0 0
0.0713625 0.195674 0.429369 255 0 0
0.0207444 0.103864 0.471738 255 0 0
-0.221282 0.0803356 0.50094 255 0 0
0.104531 0.0152954 0.54193 255 0 0
0.200779 0.0459951 0.570437 255 0 0
-0.0506864 0.0766826 0.187686 255 0 0
0.169562 0.119105 0.48088 255 0 0
-0.0751663 -0.0311754 0.51954 255 0 0
-0.0900775 0.179547 0.469968 255 0 0
-0.100521 0.0511032 0.497022 255 0 0
-0.0860129 0.0461879 0.499618 255 0 0
-0.0723232 -0.00709856 0.535664 255 0 0
-0.109362 0.0896342 0.522239 255 0 0
-0.0760883 -0.0331517 0.529368 255 0 0
0.105716 0.0154614 0.54695 255 0 0
-0.193722 0.020627 0.569487 255 0 0
-0.0719535 -0.00683865 0.519883 255 0 0
-0.0647759 0.111598 0.493829 255 0 0
-0.225126 0.0763194 0.513657 255 0 0
0.11081 0.0595695 0.494926 255 0 0
0.015878 0.112213 0.468788 255 0 0
0.175857 0.0424996 0.506084 255 0 0
0.198614 0.0145444 0.559727 255 0 0
0.150044 0.100662 0.489733 255 0 0
-0.0945075 0.0370588 0.522302 255 0 0
-0.119822 0.035632 0.706755 255 0 0
-0.089734 -0.016981 0.529129 255 0 0
0.0200894 0.0537251 0.503517 255 0 0
-0.111354 0.081762 0.497602 255 0 0
-0.0744624 -0.018906 0.531147 255 0 0
-0.0815022 0.0954159 0.504346 255 0 0
0.095036 0.140134 0.503659 255 0 0
0.149626 0.101604 0.478028 255 0 0
-0.0557822 0.0209437 0.495581 255 0 0
0.018045 0.0494928 0.536861 255 0 0
-0.138249 0.0977577 0.495741 255 0 0
-0.126327 -0.0227134 -0.00936272 255 0 0
-0.126319 -0.0227135 -0.00938159 255 0 0
-0.126327 -0.0227218 -0.00936373 255 0 0
-0.126316 -0.0227147 -0.00938323 255 0 0
-0.126312 -0.0227066 -0.00938562 255 0 0
-0.126319 -0.0227141 -0.00938052 255 0 0
-0.126334 -0.0227144 -0.00935199 255 0 0
-0.126317 -0.0227073 -0.00937806 255 0 0
-0.126318 -0.0227134 -0.00935427 255 0 0
-0.126317 -0.0227084 -0.009374 255 0 0
-0.126308 -0.0227075 -0.00939778 255 0 0
-0.126313 -0.0227074 -0.00938821 255 0 0
-0.126336 -0.0227166 -0.00934432 255 0 0
-0.126309 -0.0227073 -0.00939871 255 0 0
-0.126309 -0.0227067 -0.00939914 255 0 0
-0.126316 -0.0227133 -0.00938579 255 0 0
-0.126318 -0.0227026 -0.00937923 255 0 0
-0.126319 -0.0227026 -0.00939257 255 0 0
-0.126315 -0.0227036 -0.00938232 255 0 0
-0.126315 -0.0227068 -0.00938868 255 0 0
-0.12631 -0.022706 -0.00940015 255 0 0
-0.126313 -0.0227067 -0.00940106 255 0 0
-0.126308 -0.0227061 -0.0093986 255 0 0
-0.12632 -0.0227036 -0.00939462 255 0 0
-0.126311 -0.0227066 -0.00939341 255 0 0
-0.126343 -0.0227363 -0.00926103 255 0 0
-0.126316 -0.0227053 -0.00938921 255 0 0
-0.126323 -0.0227088 -0.00938131 255 0 0
-0.126316 -0.0227081 -0.00939238 255 0 0
-0.126326 -0.0227127 -0.00936828 255 0 0
-0.126312 -0.0227023 -0.00938745 255 0 0
-0.126315 -0.0227031 -0.00938828 255 0 0
-0.126315 -0.0227121 -0.00938963 255 0 0
-0.126311 -0.0227161 -0.00939175 255 0 0
-0.126317 -0.0227115 -0.00939042 255 0 0
-0.126307 -0.0227112 -0.00939493 255 0 0
-0.126311 -0.0227118 -0.00939252 255 0 0
-0.126315 -0.0227022 -0.0093867 255 0 0
-0.126319 -0.0227038 -0.00939553 255 0 0
-0.126312 -0.022709 -0.00939105 255 0 0
-0.126311 -0.0227292 -0.00938657 255 0 0
0.224238 0.11681 0.473892 255 0 0
0.259534 0.0593232 0.521071 255 0 0
0.239617 0.0659278 0.509413 255 0 0
0.0757625 0.0369942 0.498356 255 0 0
0.0297785 0.0206605 0.493414 255 0 0
-0.0643847 0.0935332 0.487007 255 0 0
0.177292 -0.0463211 0.579298 255 0 0
-0.0192457 0.0139432 0.517664 255 0 0
-0.0370271 0.00754269 0.515994 255 0 0
0.186767 0.118108 0.481152 255 0 0
0.226073 0.0843423 0.492942 255 0 0
-0.217179 0.0955777 0.474105 255 0 0
0.0750304 0.0361067 0.49641 255 0 0
-0.0350023 -0.0283533 0.531716 255 0 0
-0.0926479 -0.0143471 0.529353 255 0 0
0.175394 -0.0457106 0.573863 255 0 0
0.0584424 0.0174104 0.523681 255 0 0
0.0387664 0.0157724 0.508219 255 0 0
-0.0544471 0.01387 0.51397 255 0 0
0.190833 -0.0120736 0.530586 255 0 0
-0.0417839 -0.0266559 0.53099 255 0 0
-0.0810363 -0.0624845 0.542972 255 0 0
0.105855 0.014553 0.546847 255 0 0
-0.0924642 -0.0133766 0.527072 255 0 0
0.0757615 0.0370684 0.496833 255 0 0
-0.019766 0.013597 0.517535 255 0 0
-0.0604774 0.0410092 0.503415 255 0 0
0.122132 0.101558 0.492185 255 0 0
-0.0929387 -0.0147281 0.531833 255 0 0
0.0547962 0.0175961 0.489331 255 0 0
0.0622074 0.00185136 0.523481 255 0 0
0.137023 0.112046 0.4752 255 0 0
0.228816 0.08446 0.49805 255 0 0
0.19648 0.0420046 0.522246 255 0 0
0.233125 0.029378 0.535872 255 0 0
0.0754641 0.0352455 0.496329 255 0 0
-0.0821851 -0.0612635 0.543684 255 0 0
0.178671 0.112552 0.485933 255 0 0
0.107189 0.0894207 0.496443 255 0 0
0.196053 -0.0138467 0.544145 255 0 0
0.230624 0.0641687 0.491726 255 0 0
-0.0156284 0.117758 0.473556 255 0 0
-0.082107 -0.0577023 0.533937 255 0 0
-0.0159168 0.114789 0.464241 255 0 0
-0.0856527 -0.0615433 0.562405 255 0 0
0.0729676 0.0330797 0.489335 255 0 0
0.116786 0.00365089 0.540716 255 0 0
-0.213439 -0.097508 0.640301 255 0 0
-0.086751 -0.0586608 0.560093 255 0 0
0.11691 0.00322025 0.543895 255 0 0
0.172314 0.108727 0.470148 255 0 0
0.0447198 -0.0227537 0.557731 255 0 0
-0.0426708 -0.0596668 0.526476 255 0 0
-0.0435517 -0.0609866 0.537421 255 0 0
0.0422417 -0.0228541 0.543945 255 0 0
-0.0816248 -0.0619324 0.543533 255 0 0
-0.0997121 0.0508091 0.495813 255 0 0
0.00899746 -0.0359919 0.555232 255 0 0
-0.146059 -0.000709546 0.585364 255 0 0
-0.0419934 -0.0266119 0.527954 255 0 0
0.232216 0.0296961 0.535179 255 0 0
0.14399 0.043876 0.527566 255 0 0
-0.0804616 0.0931829 0.489047 255 0 0
-0.0962654 -0.0173011 0.549255 255 0 0
-0.0895506 -0.0642843 0.569809 255 0 0
0.237522 0.0277424 0.546436 255 0 0
-0.0454927 0.10316 0.486426 255 0 0
-0.190584 0.0457723 0.51925 255 0 0
0.195108 0.0427516 0.51997 255 0 0
0.0309336 -0.0547666 0.566665 255 0 0
-0.0862262 0.0466347 0.49763 255 0 0
-0.0539137 0.0835743 0.595032 255 0 0
0.18308 0.115075 0.493034 255 0 0
-0.107588 0.0892674 0.508525 255 0 0
-0.109878 0.0807753 0.488412 255 0 0
-0.0690677 -0.0257401 0.518296 255 0 0
0.11158 0.106959 0.485518 255 0 0
0.0190461 0.0289182 0.53534 255 0 0
-0.0287647 0.111024 0.491186 255 0 0
-0.115828 0.217284 0.428916 255 0 0
-0.174889 -0.0515424 0.48658 255 0 0
0.140685 0.114437 0.495239 255 0 0
-0.0970098 0.147435 0.647202 255 0 0
-0.0739474 0.11324 0.365022 255 0 0
-0.0418155 0.0589464 0.532769 255 0 0
0.0658829 0.00065283 0.545916 255 0 0
0.111578 0.107182 0.485306 255 0 0
-0.0543366 -0.00906935 0.552801 255 0 0
-0.178791 0.101073 0.510147 255 0 0
-0.0714093 0.108869 0.289696 255 0 0
0.0132144 0.110393 0.474043 255 0 0
-0.222226 0.0364397 0.513511 255 0 0
0.156535 0.143485 0.605487 255 0 0
0.121078 0.109542 0.435142 255 0 0
-0.132528 -0.00513468 0.598849 255 0 0
0.11796 -0.0100619 0.561711 255 0 0
-0.0342487 0.0598585 0.497535 255 0 0
0.106049 0.0988034 0.50173 255 0 0
-0.0491122 0.0663159 -0.00960776 255 0 0
-0.0506919 -0.0110202 0.569591 255 0 0
-0.22274 0.0290443 0.481064 255 0 0
0.149714 0.0641913 0.512282 255 0 0
-0.0360867 0.106067 0.472929 255 0 0
-0.131858 0.109269 0.531981 255 0 0
-0.119076 0.0183147 1.00372 255 0 0
-0.0847406 0.0921035 0.485392 255 0 0
0.076793 0.0274659 0.513641 255 0 0
-0.033472 0.0630147 0.497153 255 0 0
-0.146602 0.0653351 0.471878 255 0 0
0.0823311 0.208205 0.477701 255 0 0
-0.226213 0.0485497 0.526802 255 0 0
-0.0474066 0.0237002 0.456414 255 0 0
-0.149189 0.0644355 0.501995 255 0 0
-0.214112 0.115126 0.489418 255 0 0
-0.00454521 0.126405 0.496946 255 0 0
0.191239 0.116476 0.484815 255 0 0
0.0751624 0.201196 0.453078 255 0 0
-0.0806219 0.037285 0.522991 255 0 0
0.060413 0.0969341 0.474353 255 0 0
-0.0035243 0.191815 0.360559 255 0 0
-0.214643 0.129089 0.473743 255 0 0
0.0125953 0.00909444 0.534518 255 0 0
0.261687 0.0549431 0.540738 255 0 0
-0.147046 0.0827048 0.49004 255 0 0
0.277198 0.0930767 0.653806 255 0 0
0.0151559 0.219023 0.442913 255 0 0
0.0615877 0.0969915 0.481133 255 0 0
-0.122243 0.19227 1.08166 255 0 0
0.10901 0.0658236 0.486582 255 0 0
0.111508 0.060327 0.5171 255 0 0
0.00528992 -0.0205284 0.54431 255 0 0
-0.117901 0.206629 0.459371 255 0 0
0.0397329 0.0788635 0.497546 255 0 0
-0.0912431 0.140439 0.474392 255 0 0
0.0236348 0.0167948 0.515681 255 0 0
-0.0530162 -0.0102539 0.563202 255 0 0
-0.00317743 0.0304393 0.523382 255 0 0
0.074376 0.107715 0.432325 255 0 0
0.0184489 0.194294 0.447498 255 0 0
0.117519 0.0606663 0.4641 255 0 0
-0.188327 0.152943 0.461126 255 0 0
-0.0484953 0.0143879 0.546788 255 0 0
0.0491922 0.0219433 0.557998 255 0 0
-0.00946957 0.0601756 0.496853 255 0 0
-0.00612932 0.0312448 0.505453 255 0 0
0.0837623 0.110093 0.47046 255 0 0
-0.142752 0.100869 0.477098 255 0 0
-0.0814744 0.125273 0.366445 255 0 0
-0.113681 0.200211 0.427278 255 0 0
-0.22099 0.114156 0.50695 255 0 0
-0.065674 0.0924861 0.482468 255 0 0
-0.219468 0.0300463 0.471499 255 0 0
-0.17474 0.0784952 0.491545 255 0 0
