11878.818606 0.000000000 0.000000000 0.000000000 0.000000000 0.000000000 0.000000000 1.000000000
11878.855469 -0.022902044 -0.013773269 0.022847271 -0.001250894 -0.010955912 0.002056299 0.999937117
11878.892333 -0.044275422 -0.026074776 0.051021412 0.004261892 -0.019571314 0.008576705 0.999762595
11878.929197 -0.065097824 -0.044786442 0.076948188 0.007672854 -0.025808841 0.014194423 0.999536633
11878.966060 -0.080899343 -0.059628993 0.105536088 0.012140121 -0.031641517 0.023038626 0.999159992
11879.002923 -0.089956947 -0.079226516 0.139122158 0.013757795 -0.036031142 0.026009193 0.998917401
11879.039787 -0.121744573 -0.098872967 0.168350443 0.011272427 -0.029961454 0.034671575 0.998885930
11879.076650 -0.138149023 -0.114221066 0.200707376 0.005199894 -0.024186766 0.037432019 0.998992920
11879.113514 -0.141667813 -0.132994518 0.230542004 -0.004459808 -0.018176774 0.039778728 0.999033213
11879.150378 -0.152193740 -0.150811791 0.262329102 -0.012080256 -0.003963249 0.044817112 0.998914301
11879.187241 -0.160969809 -0.164038643 0.291044474 -0.021259081 0.010180627 0.047520716 0.998592079
11879.224104 -0.165148333 -0.181398720 0.318435878 -0.036515757 0.023340093 0.047605965 0.997925639
11879.260968 -0.164966181 -0.197742730 0.348993212 -0.049822345 0.035144970 0.048302349 0.996970117
11879.297831 -0.165542543 -0.209815770 0.375617415 -0.059154455 0.047651622 0.053302336 0.995685160
11879.334695 -0.170594320 -0.225121170 0.405384421 -0.064000271 0.062948331 0.062582172 0.993994415
11879.371558 -0.172951490 -0.247590706 0.433594167 -0.068518125 0.075573578 0.072823130 0.992114246
11879.408422 -0.167447716 -0.248888865 0.469114393 -0.062953077 0.083070695 0.079617642 0.991361260
11879.445285 -0.161180601 -0.276573569 0.496723950 -0.070265010 0.088614337 0.091721959 0.989341915
11879.482149 -0.160836980 -0.282966882 0.535091639 -0.064597912 0.098565757 0.098912522 0.988093197
11879.519012 -0.152919084 -0.291307211 0.569641352 -0.059611484 0.103877544 0.113245063 0.986322224
11879.555876 -0.140916914 -0.303023219 0.606322646 -0.059550129 0.107910633 0.128950715 0.983961761
11879.592739 -0.129207641 -0.310476273 0.642394006 -0.056813043 0.110950820 0.147054031 0.981242716
11879.629603 -0.112811074 -0.329919100 0.673050106 -0.070036151 0.109966636 0.171752766 0.976474881
11879.666466 -0.102618545 -0.337412804 0.704122901 -0.077614382 0.114132404 0.199263856 0.970177174
11879.703330 -0.094600320 -0.342112809 0.730944276 -0.079459444 0.121733338 0.225284591 0.963386774
11879.740193 -0.086637698 -0.355568409 0.754225492 -0.092341900 0.130913183 0.249514133 0.955027461
11879.777057 -0.079317972 -0.352074444 0.775618851 -0.091433309 0.139324397 0.267340511 0.949082553
11879.813920 -0.076488182 -0.356170058 0.793404341 -0.090374567 0.156077325 0.282148182 0.942265749
11879.850784 -0.070571572 -0.357114911 0.806217730 -0.088566937 0.171397820 0.295786023 0.935568988
11879.887647 -0.068913952 -0.364985049 0.812616110 -0.091049306 0.190108851 0.309523642 0.927234411
11879.924510 -0.066744745 -0.366308928 0.818174124 -0.088297501 0.204453871 0.322256655 0.920083046
11879.961374 -0.067974642 -0.367096543 0.822448492 -0.086472511 0.216301590 0.335790485 0.912677884
11879.998238 -0.069347560 -0.367203057 0.826457024 -0.081506401 0.223966107 0.353402466 0.904600799
11880.035101 -0.069306374 -0.367358565 0.829040468 -0.074930847 0.224932924 0.369669646 0.898406863
11880.071965 -0.069896489 -0.367014825 0.830384970 -0.069793224 0.221737310 0.385524243 0.892934799
11880.108828 -0.080024645 -0.370067328 0.827313900 -0.064829700 0.224354446 0.398636550 0.886877120
11880.145692 -0.085453913 -0.368872613 0.825890660 -0.057820313 0.224325418 0.414998978 0.879835665
11880.182555 -0.091573775 -0.370508254 0.821075678 -0.051633101 0.226584867 0.431174785 0.871826589
11880.219419 -0.096342236 -0.370352387 0.815819144 -0.046194281 0.228560135 0.447241694 0.863481998
11880.256282 -0.116898000 -0.369711518 0.811592221 -0.036134847 0.242916524 0.461279452 0.852588475
11880.293145 -0.131032079 -0.367672384 0.805309296 -0.027448449 0.251441717 0.475710243 0.842450798
11880.330009 -0.143641517 -0.367637932 0.790336013 -0.021406295 0.256738842 0.493644178 0.830627739
11880.366873 -0.166660428 -0.371038973 0.765436590 -0.016019627 0.264445215 0.508867800 0.819063902
11880.403736 -0.192068204 -0.365352690 0.754872561 -0.008595373 0.270391852 0.525015950 0.806952655
11880.440599 -0.223194137 -0.365262091 0.743708372 -0.008142965 0.276156217 0.536576629 0.797343671
11880.477463 -0.246808633 -0.359560698 0.726147175 -0.009711221 0.272650510 0.549052894 0.790005207
11880.514326 -0.266259819 -0.359983742 0.710667372 -0.019403839 0.268478155 0.556796670 0.785824716
11880.551190 -0.282124013 -0.361377984 0.690182984 -0.032004215 0.264651090 0.560273230 0.784238100
11880.588053 -0.295466989 -0.359195113 0.667194605 -0.038228337 0.265757382 0.571548104 0.775399446
11880.624917 -0.306653678 -0.360819817 0.643799543 -0.039596319 0.274079412 0.583053410 0.763780892
11880.661780 -0.317752123 -0.365804672 0.618520677 -0.039744362 0.284106314 0.591649175 0.753428996
11880.698644 -0.327307582 -0.369558126 0.599190533 -0.034202270 0.293149084 0.601613760 0.742263198
11880.735507 -0.337991655 -0.370756328 0.574294388 -0.024372311 0.299653530 0.607186198 0.735485375
11880.772371 -0.351701707 -0.372904629 0.564017951 -0.011242214 0.304592162 0.611705720 0.730009139
11880.809234 -0.359790295 -0.379644334 0.545262933 -0.001542690 0.305565208 0.617060483 0.725164711
11880.846098 -0.370224714 -0.381293356 0.529087961 0.013912268 0.303077906 0.629378974 0.715424597
11880.882961 -0.379461497 -0.386755854 0.509868622 0.025170591 0.299403906 0.637756407 0.709218264
11880.919825 -0.384076774 -0.388610780 0.507035255 0.035851311 0.288659334 0.649862766 0.702188551
11880.956688 -0.394219518 -0.394656897 0.504353642 0.038387701 0.277978688 0.657343328 0.699395418
11880.993552 -0.400957555 -0.399367303 0.507384777 0.039690029 0.266065210 0.667931616 0.693902910
11881.030415 -0.407888591 -0.399986267 0.505338907 0.041742820 0.252828658 0.676924586 0.690006018
11881.067279 -0.413289428 -0.400053769 0.503290057 0.040256012 0.239943445 0.677888393 0.693739057
11881.104142 -0.419250637 -0.405292332 0.498564541 0.036366809 0.233459592 0.671060503 0.702746034
11881.141006 -0.423560560 -0.407004863 0.500416875 0.036974408 0.228554770 0.673998713 0.701513588
11881.177869 -0.430511177 -0.408211768 0.492612839 0.039182082 0.224684909 0.682693779 0.694197834
11881.214733 -0.440996766 -0.410980046 0.483465880 0.043607760 0.225838825 0.686608076 0.689684391
11881.251596 -0.452409536 -0.410135895 0.469182312 0.049662482 0.225538075 0.694132388 0.681796491
11881.288460 -0.468949199 -0.410946488 0.453570604 0.056817491 0.226774171 0.701253295 0.673490226
11881.325323 -0.484247446 -0.411689997 0.429551631 0.062274054 0.225317255 0.708196580 0.666191936
11881.362187 -0.504592121 -0.413658977 0.409509867 0.068152182 0.226490498 0.711530387 0.661650896
11881.399050 -0.525935352 -0.413546085 0.387720585 0.075810485 0.226147681 0.718994081 0.652807415
11881.435914 -0.549342930 -0.415895909 0.359776288 0.080232896 0.225029960 0.723274648 0.647918165
11881.472777 -0.571394742 -0.415993869 0.339160115 0.083941199 0.219398811 0.733367682 0.637957573
11881.509640 -0.604084432 -0.422105283 0.290456802 0.083093159 0.216732129 0.735619009 0.636386156
11881.546504 -0.629943848 -0.422655582 0.263467848 0.087841287 0.211563617 0.745300531 0.626140416
11881.583368 -0.655996323 -0.425234467 0.238646358 0.089776598 0.210562676 0.744497359 0.627158046
11881.620231 -0.677761197 -0.427439302 0.200719893 0.089921720 0.208151817 0.745692790 0.626521468
11881.657094 -0.702255607 -0.429592371 0.174915791 0.093151182 0.210575029 0.748162448 0.622281313
11881.693958 -0.726966143 -0.430002511 0.140559390 0.094931923 0.217513680 0.747809112 0.620046139
11881.730821 -0.753013194 -0.434946537 0.110517561 0.095481746 0.228091165 0.745381653 0.619083047
11881.767685 -0.777624369 -0.437288046 0.076315045 0.092592023 0.238569841 0.745838761 0.615008712
11881.804549 -0.803170323 -0.440077811 0.040639699 0.086282849 0.249551892 0.746377051 0.610901237
11881.841412 -0.828109622 -0.443234771 0.012963802 0.077179372 0.260814309 0.746667802 0.607047379
11881.878275 -0.851844370 -0.448338777 -0.019059420 0.065894373 0.273729354 0.745676994 0.603900552
11881.915139 -0.876308203 -0.450852543 -0.045099318 0.054639995 0.283923775 0.749773800 0.595181465
11881.952002 -0.899269164 -0.457534343 -0.074725538 0.041280046 0.295290440 0.749289513 0.591324568
11881.988866 -0.914676428 -0.465187550 -0.098122150 0.028952271 0.305577964 0.749707937 0.586277902
11882.025729 -0.936052084 -0.479518473 -0.133279890 0.015827766 0.312417001 0.751160562 0.581294119
11882.062593 -0.955446362 -0.481505305 -0.161311418 0.002383889 0.313834161 0.751896620 0.579787791
11882.099457 -0.986936748 -0.497685790 -0.207544535 -0.012516487 0.313487470 0.756165922 0.574266434
11882.136320 -1.007291317 -0.502666116 -0.234967560 -0.025331981 0.308303595 0.763100564 0.567436934
11882.173183 -1.014297009 -0.506509125 -0.242530227 -0.032597974 0.305332959 0.773573518 0.554340303
11882.210047 -1.028464079 -0.517415345 -0.270889968 -0.037535831 0.309099048 0.777105272 0.546951830
11882.578682 0.000000000 0.000000000 0.000000000 0.000000000 0.000000000 0.000000000 1.000000000
11882.615545 -0.012629085 0.016890241 -0.025698522 0.004485937 -0.003346462 0.007977041 0.999952495
11882.652409 -0.031980269 0.030119115 -0.045187734 0.004766676 -0.006123699 0.016032105 0.999841332
11882.689272 -0.063253805 0.046248641 -0.052286960 0.002795066 -0.007856291 0.025189485 0.999647915
11882.726136 -0.083790183 0.054864496 -0.073483422 -0.004703461 -0.011359868 0.033094738 0.999376595
11882.762999 -0.109376177 0.070386291 -0.086607598 -0.010528679 -0.014508032 0.039936803 0.999041378
11882.799863 -0.118230186 0.078096263 -0.113664344 -0.012010402 -0.019763388 0.043656863 0.998778880
11882.836726 -0.153729200 0.083054073 -0.119712308 -0.013038435 -0.020974888 0.041350741 0.998839438
11882.873590 -0.177412361 0.087770358 -0.134955451 -0.014944417 -0.022612507 0.038803026 0.998879194
11882.910453 -0.183267727 0.087439500 -0.136000350 -0.014988142 -0.026506642 0.035181034 0.998916984
11882.947317 -0.223623306 0.091861054 -0.158660069 -0.009415181 -0.019992372 0.030886009 0.999278605
11882.984180 -0.226001382 0.094189979 -0.167897388 -0.002346054 -0.021153471 0.023516465 0.999496877
11883.021044 -0.274448425 0.092963614 -0.174946263 0.004843447 -0.011257492 0.017507181 0.999771595
11883.057907 -0.292427808 0.095030226 -0.173941866 0.013220185 -0.008055599 0.013910903 0.999783397
11883.094770 -0.320110500 0.101114474 -0.189201325 0.021774370 -0.001449272 0.011967248 0.999690294
11883.131634 -0.336283386 0.103557862 -0.192212015 0.031326696 0.001176178 0.010818220 0.999449968
11883.168497 -0.356832355 0.108903408 -0.190694258 0.040769909 0.003792815 0.011712987 0.999092698
11883.205361 -0.397425562 0.118451647 -0.185584053 0.048406471 0.010317323 0.013369711 0.998684943
11883.242224 -0.421586037 0.127051413 -0.183615297 0.052729424 0.013495007 0.016611720 0.998379469
11883.279088 -0.445752710 0.133306667 -0.182792053 0.052784480 0.017870020 0.020446019 0.998236656
11883.315952 -0.471967340 0.141662955 -0.173170954 0.050273813 0.023072205 0.021931088 0.998228073
11883.352815 -0.506911695 0.154851496 -0.153465658 0.043746680 0.031293266 0.022867009 0.998290539
11883.389678 -0.531556547 0.156848490 -0.148720831 0.031171143 0.040058985 0.028349672 0.998308539
11883.426542 -0.561144173 0.165769532 -0.141078025 0.025031010 0.050776966 0.035069142 0.997780204
11883.463405 -0.585526466 0.164402187 -0.136392027 0.019979874 0.058655385 0.034885980 0.997468472
11883.500269 -0.626438200 0.161397159 -0.117749088 0.013642377 0.068498529 0.028831972 0.997141182
11883.537133 -0.656624436 0.158379778 -0.100047894 0.003781163 0.074245162 0.023722958 0.996950626
11883.573996 -0.684485853 0.152616814 -0.087777175 -0.006670561 0.079957359 0.022469265 0.996522665
11883.610859 -0.719953895 0.156651840 -0.067653477 -0.013299669 0.086450487 0.024041450 0.995877206
11883.647723 -0.749081969 0.150193140 -0.056779906 -0.017230714 0.091381282 0.022405034 0.995414793
11883.684586 -0.780688345 0.148102671 -0.041098610 -0.017371006 0.096265033 0.021636626 0.994968891
11883.721450 -0.816099405 0.149675295 -0.030066073 -0.014137626 0.101326130 0.021946004 0.994510710
11883.758313 -0.851417959 0.148479164 -0.008224100 -0.012510655 0.104146384 0.022378163 0.994231462
11883.795177 -0.882989705 0.150574371 0.012056276 -0.011462652 0.103909776 0.023251189 0.994248867
11883.832040 -0.917317212 0.154086888 0.032976300 -0.011752884 0.102835998 0.023076691 0.994361162
11883.868904 -0.959625721 0.159268051 0.049289122 -0.013407327 0.102758378 0.022541419 0.994360507
11883.905767 -0.991715968 0.161000594 0.064370900 -0.016405728 0.100815922 0.020885566 0.994550526
11883.942631 -1.017003775 0.163166910 0.088121712 -0.020064216 0.098310515 0.022139912 0.994707108
11883.979494 -1.048611999 0.161436230 0.116580889 -0.031369790 0.099005222 0.027933197 0.994199991
11884.016358 -1.076151371 0.155704409 0.132096678 -0.042439420 0.100686952 0.032581758 0.993478477
11884.053221 -1.093516350 0.153687552 0.148448721 -0.046466999 0.100188725 0.036447499 0.993214309
11884.090085 -1.154022932 0.134877682 0.172257990 -0.051972482 0.112090252 0.037507936 0.991628885
11884.126948 -1.182900667 0.120570265 0.191441670 -0.057713188 0.116296217 0.037164018 0.990839660
11884.163812 -1.205906391 0.117679700 0.209750310 -0.057726860 0.121789292 0.038693130 0.990120113
11884.200675 -1.222270608 0.107933052 0.233028099 -0.059459571 0.127134398 0.042174485 0.989203095
11884.237539 -1.250577569 0.103205152 0.261664063 -0.058019988 0.136105508 0.046415746 0.987904131
11884.274402 -1.270706892 0.096421294 0.293984413 -0.056609020 0.143535376 0.049711347 0.986773431
11884.311265 -1.284608126 0.091792829 0.322184533 -0.054889571 0.150118411 0.053136870 0.985711932
11884.348129 -1.300005674 0.085381135 0.355870008 -0.053440999 0.158415973 0.056462456 0.984307110
11884.384993 -1.305661440 0.079288274 0.391638041 -0.052588739 0.165072575 0.059104953 0.983103275
11884.421856 -1.313233376 0.070248447 0.431243598 -0.053939868 0.172914475 0.061108720 0.981558383
11884.458719 -1.313047767 0.061590821 0.471690238 -0.059965175 0.178302929 0.062502250 0.980155945
11884.495583 -1.327220440 0.052302882 0.512995601 -0.066115946 0.189206839 0.070541747 0.977165937
11884.532447 -1.336451769 0.038525015 0.555620790 -0.071048215 0.198771477 0.078819111 0.974284172
11884.569310 -1.337877035 0.026213873 0.597994030 -0.078796923 0.205015659 0.086691596 0.971722305
11884.606174 -1.344052315 0.010864886 0.637603283 -0.092300192 0.215119705 0.098224193 0.967241526
11884.643037 -1.341673613 0.001805565 0.679179788 -0.103273295 0.223114446 0.110738568 0.962959766
11884.679900 -1.343431234 -0.008643188 0.723227739 -0.115020283 0.231718317 0.119552061 0.958532333
11884.716764 -1.340436935 -0.025294088 0.767329514 -0.131798878 0.238056004 0.129408047 0.953526080
11884.753628 -1.343142152 -0.020080928 0.807846248 -0.137924418 0.245252177 0.134645745 0.950104594
11884.790491 -1.344858050 -0.020535193 0.851600289 -0.146585867 0.251877248 0.143664122 0.945743680
11884.827354 -1.344785810 -0.028532352 0.896156013 -0.157518715 0.258081675 0.155478910 0.940429688
11884.864218 -1.338642001 -0.042221561 0.940017998 -0.166770145 0.260725111 0.171621367 0.935284019
11884.901081 -1.319829345 -0.055702664 0.981204212 -0.177208111 0.255364925 0.191276088 0.931020677
11884.937945 -1.324794888 -0.055484645 1.028774023 -0.178323776 0.260906726 0.205304340 0.926271260
11884.974808 -1.310523033 -0.065339476 1.064775229 -0.181565329 0.256952941 0.228460029 0.921311677
11885.011672 -1.308493733 -0.072444305 1.107648969 -0.183294728 0.258706808 0.241231680 0.917213798
11885.048535 -1.307549834 -0.060648888 1.146900415 -0.175029323 0.257800788 0.248947039 0.917021692
11885.085399 -1.307367682 -0.065709859 1.184501886 -0.173752010 0.261755615 0.255757242 0.914266050
11885.122262 -1.304416418 -0.071713746 1.217468262 -0.171133637 0.263329953 0.267873913 0.910831571
11885.159126 -1.303778887 -0.077289924 1.253105879 -0.175627619 0.265409023 0.281048059 0.905386627
11885.195989 -1.301232576 -0.080121368 1.284857631 -0.175246313 0.268310785 0.297512293 0.899324477
11885.232853 -1.294533610 -0.087390363 1.304392815 -0.179149434 0.268994868 0.308891863 0.894501567
11885.269716 -1.292147636 -0.092770010 1.328460932 -0.184418470 0.274007738 0.320552558 0.887781322
11885.306580 -1.286796212 -0.099972993 1.349174261 -0.185556412 0.281412274 0.335685253 0.879597306
11885.343443 -1.293975472 -0.096271351 1.364149809 -0.177699327 0.293760329 0.341259062 0.875025749
11885.380307 -1.289962411 -0.105058968 1.384431243 -0.180098146 0.303481966 0.355809361 0.865368783
11885.417170 -1.286709547 -0.102938324 1.394791484 -0.171830401 0.306276679 0.368589222 0.860703707
11885.454034 -1.287529230 -0.103826985 1.407599688 -0.164644271 0.311614901 0.379781902 0.855309367
11885.490897 -1.288366795 -0.110205740 1.426283479 -0.159728616 0.320189476 0.392779589 0.847165644
11885.527761 -1.284704924 -0.116458178 1.440480232 -0.155191571 0.323888332 0.410353243 0.838225603
11885.564624 -1.288606405 -0.118818074 1.455809951 -0.141210958 0.329827398 0.425501227 0.830796063
11885.601488 -1.287956953 -0.126211450 1.468080044 -0.133815676 0.331119299 0.441282898 0.823239207
11885.638351 -1.294047236 -0.123370215 1.480245590 -0.114661194 0.331458330 0.458422929 0.816600621
11885.675215 -1.291854382 -0.125857651 1.490108728 -0.102355398 0.324699730 0.481855154 0.807408869
11885.712078 -1.296053052 -0.129193753 1.498201847 -0.088801138 0.316526592 0.501077354 0.800529063
11885.748942 -1.295718193 -0.127679408 1.504155159 -0.074225932 0.302235335 0.521601737 0.794402897
11885.785805 -1.300323486 -0.144423753 1.507459164 -0.076585107 0.293281347 0.537539899 0.786874652
11885.822669 -1.301752090 -0.144248277 1.508813858 -0.075056933 0.273039907 0.551453650 0.784674764
11885.859532 -1.299793959 -0.143757969 1.508658528 -0.073155262 0.250191092 0.564229131 0.783388913
11885.896395 -1.301424503 -0.145229429 1.509495497 -0.067781478 0.236485764 0.573980570 0.781041861
11885.933259 -1.299871802 -0.144125372 1.504124641 -0.059886511 0.218790382 0.584612370 0.778956175
11885.970123 -1.303550124 -0.148266762 1.496857524 -0.050731640 0.207233518 0.594655335 0.775155187
11886.006986 -1.305542946 -0.152462214 1.488027692 -0.041016992 0.196428090 0.604078412 0.771247566
11886.043849 -1.311004043 -0.158300251 1.472928047 -0.026894048 0.188332468 0.612060249 0.767587006
11886.080713 -1.319541335 -0.167435750 1.455870390 -0.013329838 0.183074713 0.615397692 0.766545236
11886.117576 -1.319525957 -0.175723583 1.443094850 -0.004322960 0.176300824 0.626325846 0.759351850
11886.154440 -1.324006081 -0.183089569 1.427549601 0.007759704 0.170965731 0.634166181 0.754018426
11886.191303 -1.326967359 -0.192030728 1.407955408 0.018899182 0.166121110 0.648448288 0.742671788
11886.228167 -1.332690477 -0.197286069 1.387536287 0.032252889 0.162575930 0.657335758 0.735145211
11886.265030 -1.339955091 -0.219466686 1.350060463 0.038634483 0.161231041 0.666518390 0.726818562
11886.301894 -1.336570382 -0.223639309 1.334716558 0.043519195 0.157759130 0.684911311 0.710010290
11886.338757 -1.350406885 -0.240287587 1.306014299 0.047790259 0.161961839 0.696693897 0.697210193
11886.375621 -1.356708646 -0.254561782 1.273010612 0.044390067 0.158402234 0.714304030 0.680226386
11886.412484 -1.367943287 -0.267563939 1.240559101 0.039612550 0.156060472 0.730874240 0.663248658
11886.449348 -1.365370274 -0.286710501 1.208657146 0.022929024 0.152155697 0.741892695 0.652624071
11886.486211 -1.374005556 -0.297691286 1.183420062 0.014500685 0.153132036 0.752923429 0.639880121
11886.523075 -1.379633665 -0.306786746 1.157442093 0.000222020 0.152196586 0.761198699 0.630406737
11886.559938 -1.386479139 -0.315900862 1.129104495 -0.011184378 0.154193535 0.770859540 0.617960274
11886.596802 -1.395173192 -0.327491760 1.098968029 -0.022165809 0.159791768 0.777177870 0.608251393
11886.633665 -1.401040435 -0.336829007 1.072710872 -0.031697374 0.166889951 0.781541288 0.600280106
11886.670529 -1.406021476 -0.345919639 1.050321579 -0.039626878 0.173539400 0.784685016 0.593787134
11886.707392 -1.413657904 -0.358281583 1.017952919 -0.047728151 0.177690879 0.787531316 0.588168681
11886.744256 -1.417918921 -0.366783679 0.996020675 -0.052185025 0.180726871 0.788976610 0.584919214
11886.781119 -1.427904844 -0.376794308 0.964403629 -0.051030286 0.182574570 0.790244639 0.582731366
11886.817983 -1.432387590 -0.382219523 0.943144202 -0.048820011 0.181115687 0.792032421 0.580946088
11886.854846 -1.436855197 -0.391076088 0.923751593 -0.047383703 0.180057108 0.792802632 0.580343127
11886.891710 -1.444069743 -0.403414428 0.893746495 -0.046504762 0.175836399 0.795590043 0.577888608
11886.928573 -1.449238539 -0.412037522 0.871098578 -0.044436522 0.170667872 0.801975548 0.570730269
11886.965437 -1.455591917 -0.421931803 0.848782301 -0.041241463 0.167665318 0.808019340 0.563286960
11887.002300 -1.459859014 -0.430178642 0.818631768 -0.038091153 0.161800131 0.815494835 0.554380655
11887.039164 -1.472857833 -0.443772584 0.785732329 -0.037757330 0.153072998 0.822365701 0.546678841
11887.076027 -1.477313042 -0.453260630 0.758576393 -0.044066943 0.137197569 0.827861428 0.542107403
11887.112890 -1.480284214 -0.458740652 0.738931298 -0.047500592 0.123357318 0.833740830 0.536099792
11887.149754 -1.489838243 -0.470738322 0.711939692 -0.047897212 0.120209053 0.834634542 0.535388470
11887.186618 -1.493460536 -0.475440800 0.701338172 -0.044407766 0.122905105 0.837293923 0.530906081
11887.223481 -1.499701142 -0.485671699 0.670834303 -0.042434894 0.129583910 0.833561361 0.535334289
11887.260345 -1.503605485 -0.492466271 0.644901395 -0.037160438 0.139415309 0.832469702 0.534954846
11887.297208 -1.516458035 -0.513822496 0.609575093 -0.032959882 0.153400153 0.829904735 0.535387874
11887.334071 -1.522053003 -0.523351789 0.582853377 -0.030354507 0.161061972 0.827836335 0.536492944
11887.370935 -1.528399229 -0.535822570 0.554138601 -0.027785763 0.167648733 0.826705933 0.536357343
11887.407799 -1.543015957 -0.548426151 0.536742330 -0.023175219 0.174744621 0.824399531 0.537859321
11887.444662 -1.550146699 -0.555862308 0.518188298 -0.019766228 0.177712783 0.821151972 0.541975021
11887.481525 -1.553405881 -0.568049669 0.494123459 -0.017257350 0.180079043 0.820945501 0.541592300
11887.518389 -1.560063243 -0.576721013 0.472610176 -0.013154713 0.182463691 0.820090353 0.542204559
11887.555252 -1.579628944 -0.613345742 0.435540974 -0.011419914 0.188706711 0.818576932 0.542393982
11887.592116 -1.587120056 -0.624453723 0.414005041 -0.008927734 0.189369857 0.817273438 0.544172347
11887.628979 -1.590424180 -0.637290597 0.396541357 -0.007842937 0.189931110 0.816963851 0.544458210
11887.665843 -1.598746300 -0.648098052 0.364868850 -0.010330232 0.184892178 0.815704703 0.548027337
11887.702707 -1.626257539 -0.686179578 0.340983093 -0.011322930 0.190731138 0.812415659 0.550885081
11887.739570 -1.614730477 -0.675793529 0.325010538 -0.011514522 0.186998621 0.811208308 0.553931475
11887.776433 -1.639393568 -0.711430132 0.296194643 -0.011887547 0.193812564 0.806833506 0.557956219
11887.813297 -1.645402431 -0.719656587 0.278075993 -0.012262112 0.194808647 0.804633439 0.560771108
11887.850160 -1.648831248 -0.731821239 0.254443437 -0.011111368 0.197932690 0.804508209 0.559880078
11887.887024 -1.651703477 -0.735379219 0.247875780 -0.006436519 0.204569072 0.802540958 0.560391009
11887.923887 -1.655064583 -0.743151307 0.229183286 -0.001559206 0.210409313 0.802696049 0.558036327
11887.960751 -1.676300526 -0.766120255 0.197620094 0.002861722 0.217475474 0.798683524 0.561071157
11887.997614 -1.681144476 -0.773119390 0.182357192 0.005951030 0.220543638 0.796838045 0.562471569
11888.034478 -1.682890534 -0.776469171 0.173146844 0.007648285 0.222417921 0.794956505 0.564372182
11888.071341 -1.685940504 -0.779906213 0.167632937 0.008266125 0.224047363 0.794130385 0.564881742
11888.108205 -1.685707688 -0.782952011 0.165128350 0.006549471 0.226533994 0.794041812 0.564036310
11888.145068 -1.701787949 -0.778667927 0.145109236 0.008117787 0.229598626 0.795940638 0.560086727
11888.181932 -1.706561327 -0.783726633 0.135283291 0.005088529 0.234776244 0.798739612 0.553957820
11888.218795 -1.707194328 -0.786915600 0.131067753 0.000324261 0.238558531 0.802003443 0.547613263
11888.255659 -1.709412098 -0.790284336 0.123680592 -0.004941041 0.240848556 0.804804206 0.542455375
11888.292522 -1.700024843 -0.800618708 0.122336328 -0.014456971 0.239688054 0.809794545 0.535325587
11888.329386 -1.696182728 -0.796900392 0.129286289 -0.021001931 0.237177834 0.816012263 0.526715755
11888.366249 -1.726055264 -0.758283734 0.112082481 -0.015387907 0.233346090 0.816512048 0.527845502
11888.403113 -1.726436019 -0.758653164 0.111205280 -0.017287103 0.234165594 0.817393601 0.526056468
11888.439976 -1.729077458 -0.761319399 0.106247783 -0.019478029 0.232319430 0.819146574 0.524067879
11888.476840 -1.728216648 -0.761820316 0.105943263 -0.023521613 0.227460340 0.821355820 0.522573590
11888.513703 -1.723551869 -0.755672336 0.117536515 -0.028407615 0.221768111 0.823388517 0.521577597
11888.550567 -1.724069118 -0.755540848 0.117444396 -0.032568526 0.218510836 0.825288773 0.519702554
11888.587430 -1.725506902 -0.757719755 0.113536835 -0.037114047 0.217772856 0.826238155 0.518196881
11888.624294 -1.725823641 -0.718715072 0.135736972 -0.034221835 0.213956714 0.831710100 0.511184514
11888.661157 -1.726422191 -0.717981815 0.137053162 -0.036027923 0.215115726 0.834615529 0.505810440
11888.698020 -1.725776196 -0.711930811 0.143668056 -0.036300797 0.216774330 0.836081684 0.502651513
11888.734884 -1.719546914 -0.700757980 0.157823592 -0.036236752 0.217342570 0.836948097 0.500966072
11888.771748 -1.713564277 -0.695974588 0.176865101 -0.037599221 0.218147755 0.836704612 0.500922441
11888.808611 -1.708411455 -0.692316890 0.186749220 -0.037583567 0.218788192 0.837453485 0.499390513
11888.845474 -1.701242447 -0.683287621 0.196324736 -0.037050333 0.218015060 0.837698042 0.499358326
11888.882338 -1.697654009 -0.675474107 0.209776372 -0.034718215 0.220056489 0.837359309 0.499198496
11888.919201 -1.691761494 -0.669826686 0.224277973 -0.032737397 0.222612485 0.836755335 0.499211878
11888.956065 -1.682980895 -0.667572021 0.241383433 -0.030595388 0.225962847 0.836529255 0.498220414
11888.992928 -1.675916314 -0.658635080 0.256375402 -0.027631817 0.227412209 0.836681843 0.497477263
11889.029792 -1.665348172 -0.653908789 0.270692527 -0.025647886 0.227885365 0.836285651 0.498032928
11889.066655 -1.654903650 -0.648990393 0.290683955 -0.023005916 0.228058740 0.835471749 0.499446601
11889.103519 -1.647597194 -0.640664935 0.307661653 -0.018891601 0.226760194 0.835300207 0.500496209
11889.140383 -1.635545969 -0.633407414 0.328563392 -0.016202174 0.225042507 0.836529016 0.499312073
11889.177246 -1.621588469 -0.632728338 0.339461803 -0.015551094 0.223479584 0.839234293 0.495480448
11889.214109 -1.614260197 -0.626109779 0.352698326 -0.012719617 0.223665863 0.841063201 0.492366195
11889.250973 -1.604241967 -0.616363823 0.371854454 -0.012549351 0.223285630 0.840582967 0.493362248
11889.287836 -1.599237561 -0.613802254 0.383378386 -0.015371260 0.222145543 0.839208543 0.496129066
11889.324700 -1.592400432 -0.608799338 0.397813141 -0.019826438 0.222384959 0.837856352 0.498145133
11889.361563 -1.584560513 -0.600662529 0.412658334 -0.023819176 0.225613877 0.837705076 0.496770799
11889.398427 -1.576280832 -0.593633235 0.416351587 -0.028751541 0.229388088 0.838597834 0.493262678
11889.435290 -1.572427273 -0.589203715 0.426757753 -0.033527244 0.234567776 0.840369105 0.487476826
11889.472154 -1.570537329 -0.576883376 0.445587903 -0.038135845 0.237690538 0.840921164 0.484665304
11889.509017 -1.560834050 -0.570193946 0.457116097 -0.046137713 0.238277674 0.841138005 0.483303100
11889.545881 -1.555643797 -0.562161684 0.473517030 -0.052549962 0.239812329 0.841338754 0.481536776
11889.582744 -1.551099420 -0.554900229 0.489512265 -0.058634162 0.240826637 0.841824353 0.479475051
11889.619608 -1.544056416 -0.540450633 0.506210148 -0.064579979 0.239474505 0.842521310 0.478162259
11889.656471 -1.537722588 -0.529839873 0.520484746 -0.069473863 0.238901213 0.843547642 0.475948453
11889.693335 -1.532568574 -0.512096047 0.537019014 -0.072171949 0.238927305 0.844356716 0.474095672
11889.730198 -1.527431846 -0.500810027 0.555163383 -0.074761666 0.241709247 0.845219016 0.470735788
11889.767062 -1.521616101 -0.489287555 0.576935172 -0.077251121 0.245703042 0.846005082 0.466837943
11889.803925 -1.516062856 -0.486140728 0.587334514 -0.081303507 0.252683908 0.845018625 0.464202702
11889.840789 -1.508067012 -0.453899175 0.600605369 -0.080031186 0.254282892 0.847588301 0.458834708
11889.877652 -1.503612280 -0.432891458 0.618881464 -0.079922028 0.261104405 0.849778771 0.450902492
11889.914515 -1.498639226 -0.416312039 0.627871275 -0.082463570 0.266221702 0.850568950 0.445935190
11889.951379 -1.495518804 -0.397140712 0.638437092 -0.086866118 0.269515425 0.854048610 0.436367542
11889.988243 -1.490742922 -0.382010043 0.651464701 -0.093977951 0.274466544 0.857673287 0.424538314
11890.025106 -1.484616995 -0.363959670 0.663055718 -0.101046845 0.280885696 0.859618962 0.414666116
11890.061970 -1.479121923 -0.348917365 0.667992711 -0.108510792 0.289444298 0.859604716 0.406850368
11890.098833 -1.479480982 -0.336844265 0.678503156 -0.115636453 0.298981160 0.860149384 0.396713376
11890.135696 -1.479836583 -0.322593212 0.688142717 -0.124411181 0.303352445 0.862063706 0.386452138
11890.172560 -1.476976991 -0.311192453 0.687000871 -0.134322464 0.302859038 0.865077019 0.376663864
11890.209424 -1.475626945 -0.302386910 0.695000112 -0.142706051 0.304754734 0.866785049 0.368026108
11890.246287 -1.474891782 -0.293871343 0.702434480 -0.148686737 0.308667928 0.867776334 0.359973013
11890.283150 -1.475621939 -0.291372061 0.701003611 -0.153913379 0.313313603 0.870541811 0.346846014
11890.320014 -1.474437356 -0.288865536 0.705688834 -0.160041958 0.319630682 0.871034503 0.336929798
