11878.818606 0.000000000 0.000000000 0.000000000 0.000000000 0.000000000 0.000000000 1.000000000
11878.855469 -0.025401929 -0.013353175 0.026577065 -0.000813862 -0.009986741 0.003003132 0.999945283
11878.892333 -0.048776448 -0.028745515 0.055051662 0.003473359 -0.017480962 0.009514388 0.999795914
11878.929197 -0.069144182 -0.047162827 0.085128523 0.007464787 -0.023889676 0.016704632 0.999547124
11878.966060 -0.092850409 -0.067065671 0.114439301 0.009589326 -0.025559239 0.023517303 0.999350607
11879.002923 -0.113640904 -0.087239668 0.144449964 0.011443205 -0.025578948 0.030364558 0.999146044
11879.039787 -0.133691400 -0.107836276 0.176271811 0.007439312 -0.023457861 0.035007972 0.999083996
11879.076650 -0.147616848 -0.126488313 0.207262143 -0.000613652 -0.018672595 0.036903095 0.999144197
11879.113514 -0.160341874 -0.144648746 0.236366168 -0.009588687 -0.008313129 0.041129775 0.999073207
11879.150378 -0.169698745 -0.162834346 0.267299682 -0.017484644 0.005472341 0.046335042 0.998757958
11879.187241 -0.176136747 -0.182833865 0.297251999 -0.030651812 0.019562617 0.048413962 0.998165250
11879.224104 -0.180553466 -0.197255298 0.327253550 -0.044713881 0.033071011 0.049175475 0.997240603
11879.260968 -0.186106086 -0.216417968 0.354047894 -0.059351355 0.047628157 0.051317930 0.995778799
11879.297831 -0.186378986 -0.232740641 0.382426172 -0.070817299 0.060546286 0.057811491 0.993970275
11879.334695 -0.189027816 -0.249491632 0.413440377 -0.077091321 0.075664692 0.066761300 0.991904557
11879.371558 -0.187126994 -0.269765615 0.441111267 -0.081562564 0.086667217 0.075359911 0.990028858
11879.408422 -0.182480246 -0.285388529 0.473373592 -0.084720321 0.094800957 0.084217444 0.988302946
11879.445285 -0.179368079 -0.304123819 0.507733643 -0.088219374 0.103734985 0.092966072 0.986313164
11879.482149 -0.171974897 -0.315115511 0.541956902 -0.085638918 0.110042356 0.104177870 0.984735310
11879.519012 -0.164480597 -0.343047261 0.577499986 -0.094768912 0.117456876 0.117932208 0.981486022
11879.555876 -0.149876893 -0.358696312 0.611887693 -0.098150447 0.120944135 0.137039125 0.978242993
11879.592739 -0.135101736 -0.367508680 0.647874296 -0.098512918 0.123438522 0.156840086 0.974915028
11879.629603 -0.118127100 -0.379966199 0.681213975 -0.108731724 0.123343907 0.180325001 0.969766259
11879.666466 -0.103130013 -0.399786144 0.712162018 -0.127285376 0.127265319 0.211192608 0.960728705
11879.703330 -0.086635448 -0.411503702 0.740286112 -0.137523144 0.132285118 0.240886778 0.951609969
11879.740193 -0.073228426 -0.420082390 0.764980197 -0.149858132 0.138201743 0.265637964 0.942273498
11879.777057 -0.059514455 -0.428291053 0.786717474 -0.161747426 0.145065919 0.287821263 0.932712495
11879.813920 -0.046140507 -0.439281106 0.803619325 -0.170307711 0.156834975 0.306998163 0.923119783
11879.850784 -0.036862113 -0.447986186 0.817147851 -0.177980676 0.172409430 0.321772814 0.913816214
11879.887647 -0.031457484 -0.453401506 0.826096892 -0.182066008 0.189657733 0.334068000 0.905141175
11879.924510 -0.026266932 -0.457338750 0.833864868 -0.184150696 0.204964951 0.347914964 0.896121144
11879.961374 -0.022644356 -0.461782634 0.838117361 -0.187367767 0.215887547 0.363136679 0.886801898
11879.998238 -0.031535491 -0.459690511 0.842979431 -0.178976506 0.230199859 0.376091212 0.879505992
11880.035101 -0.036322564 -0.462955058 0.846082687 -0.173170045 0.237701401 0.390023589 0.872577667
11880.071965 -0.041415229 -0.463960439 0.846675217 -0.166626379 0.239949122 0.403897017 0.866906703
11880.108828 -0.053940341 -0.464540392 0.846882939 -0.157964781 0.246585056 0.416448951 0.860705078
11880.145692 -0.069352835 -0.462655872 0.847945571 -0.145657659 0.256598800 0.429645866 0.853431523
11880.182555 -0.086927593 -0.463793904 0.847652555 -0.133616820 0.269973189 0.440851390 0.845524192
11880.219419 -0.107223332 -0.461798489 0.847108841 -0.118489996 0.285278767 0.453215450 0.836164951
11880.256282 -0.129436657 -0.459646225 0.845402360 -0.104224697 0.301474154 0.465029895 0.825831532
11880.293145 -0.154222414 -0.458106041 0.842663646 -0.088737935 0.319078088 0.476325452 0.814511418
11880.330009 -0.184004918 -0.455346674 0.838958025 -0.071405336 0.337526292 0.486856192 0.802463889
11880.366873 -0.221203402 -0.453446686 0.836851895 -0.053025924 0.358081102 0.498110056 0.787941992
11880.403736 -0.259814620 -0.449352503 0.832035899 -0.037588306 0.372107476 0.510534227 0.774259627
11880.440599 -0.305396020 -0.449276656 0.829300106 -0.027774911 0.385488153 0.522295117 0.760154784
11880.477463 -0.343026757 -0.443281353 0.828243256 -0.019711550 0.391399324 0.532526910 0.750222027
11880.514326 -0.390256345 -0.449201554 0.831706583 -0.020368153 0.406401157 0.532560349 0.742160857
11880.551190 -0.423768759 -0.453652918 0.829857349 -0.026890781 0.413442641 0.534024715 0.736993730
11880.588053 -0.452647060 -0.453639358 0.825338125 -0.025580447 0.423394769 0.540819108 0.726358950
11880.624917 -0.483842462 -0.463077635 0.821057737 -0.020448986 0.442912847 0.548195004 0.709149003
11880.661780 -0.516342700 -0.470852107 0.817901671 -0.011141790 0.462487668 0.553455591 0.692580700
11880.698644 -0.546550214 -0.483373493 0.827968955 0.001947719 0.485431194 0.557843924 0.673173726
11880.735507 -0.572169304 -0.497687668 0.835979700 0.013957321 0.504652858 0.556479514 0.659894764
11880.772371 -0.594288230 -0.508782804 0.841444850 0.027061164 0.516595602 0.554610193 0.651769996
11880.809234 -0.620108128 -0.522967637 0.850020707 0.040882468 0.528398156 0.552727640 0.643130004
11880.846098 -0.637581170 -0.537804961 0.868234694 0.056550778 0.539551556 0.552516341 0.632781029
11880.882961 -0.661708593 -0.549563408 0.894704878 0.075040087 0.551640630 0.551535249 0.621184707
11880.919825 -0.678461194 -0.563286662 0.916628063 0.087515548 0.555521131 0.555617034 0.612394512
11880.956688 -0.698130608 -0.578679800 0.944882393 0.095492251 0.556666911 0.564176977 0.602252066
11880.993552 -0.712936640 -0.595579505 0.961572528 0.096778989 0.555487394 0.570634365 0.597029328
11881.030415 -0.724027038 -0.613098264 0.988750577 0.097548492 0.558521271 0.573757768 0.591050148
11881.067279 -0.736881733 -0.630928338 0.996426523 0.088229932 0.556361258 0.571962476 0.596268833
11881.104142 -0.749662876 -0.648926020 1.012303114 0.080619864 0.558892012 0.568655014 0.598140121
11881.141006 -0.765768528 -0.668201923 1.028253317 0.077893287 0.564866781 0.567996740 0.593496323
11881.177869 -0.785998046 -0.686127663 1.040430069 0.078920379 0.572143435 0.568165362 0.586183965
11881.214733 -0.807316422 -0.704957604 1.054957151 0.082636192 0.581527174 0.567146361 0.577358246
11881.251596 -0.830160618 -0.722997189 1.073194981 0.089017861 0.591886997 0.566027343 0.566884995
11881.288460 -0.859224200 -0.741090775 1.086909771 0.096069090 0.601446688 0.563793123 0.557826042
11881.325323 -0.890484214 -0.758849442 1.109511018 0.104331799 0.611974657 0.560945809 0.547669411
11881.362187 -0.922647834 -0.776671529 1.131463289 0.110554121 0.622063994 0.556134999 0.539933383
11881.399050 -0.959075511 -0.795827329 1.156571984 0.118367366 0.632860065 0.550845563 0.531080544
11881.435914 -0.997349262 -0.814670742 1.180831790 0.124352090 0.641328096 0.546760082 0.523725390
11881.472777 -1.037270427 -0.835135937 1.206600428 0.129378468 0.647079110 0.546569109 0.515569568
11881.509640 -1.077754259 -0.856568098 1.234059334 0.134154677 0.651725829 0.548130572 0.506763101
11881.546504 -1.115605116 -0.876463175 1.255724072 0.138269201 0.656399369 0.546785951 0.501045644
11881.583368 -1.155749798 -0.898832679 1.276269317 0.140375227 0.659916639 0.545964003 0.496717423
11881.620231 -1.191974640 -0.920511007 1.294534922 0.141939729 0.662915647 0.546101868 0.492106438
11881.657094 -1.226979256 -0.936842680 1.313215137 0.145479321 0.669316411 0.542166173 0.486731112
11881.693958 -1.255133629 -0.958082020 1.331139684 0.146770492 0.679145157 0.536997497 0.478386819
11881.730821 -1.289692044 -0.974531472 1.349166512 0.148149043 0.689834118 0.530628502 0.469695807
11881.767685 -1.323851824 -0.983134747 1.363018274 0.149365321 0.699356139 0.526376247 0.459911972
11881.804549 -1.353970528 -0.996502161 1.383788943 0.147600397 0.710335910 0.524237335 0.445883632
11881.841412 -1.388288736 -1.009063363 1.396346688 0.142626852 0.719539523 0.523665130 0.433238089
11881.878275 -1.414341807 -1.011233091 1.422271848 0.140023470 0.731027842 0.521344900 0.417362183
11881.915139 -1.439675212 -1.023849607 1.447366595 0.136669934 0.740919590 0.523621380 0.397718728
11881.952002 -1.465511084 -1.034151196 1.471355677 0.130286276 0.750522256 0.524007559 0.380996048
11881.988866 -1.497512698 -1.037558794 1.491874933 0.125430703 0.759179413 0.522212923 0.367705554
11882.025729 -1.538211346 -1.040646434 1.513327599 0.119269215 0.766173899 0.519758940 0.358612627
11882.062593 -1.550719023 -1.055386424 1.539996862 0.111783497 0.769545674 0.526427686 0.343769997
11882.099457 -1.576444626 -1.062271953 1.555787683 0.107055008 0.768119097 0.536008000 0.333508313
11882.136320 -1.602161884 -1.076939940 1.578544497 0.102075107 0.766019464 0.546528220 0.322648078
11882.173183 -1.626546860 -1.097654581 1.582329392 0.099184185 0.763490617 0.556213021 0.312844247
11882.210047 -1.646842957 -1.115837336 1.602900743 0.102231272 0.766183555 0.559297144 0.299496531
11882.246910 -1.669026613 -1.131949663 1.615482688 0.106064804 0.769027710 0.559859216 0.289662391
11882.283774 -1.681068420 -1.149995446 1.633861542 0.112190150 0.773805559 0.557802916 0.278377980
11882.320637 -1.688332319 -1.167876363 1.643097401 0.114896238 0.780799508 0.550912559 0.271378785
11882.357501 -1.706892610 -1.190466046 1.665230274 0.123633258 0.786868393 0.545609713 0.260505229
11882.394364 -1.721704483 -1.207493186 1.679744959 0.131781772 0.791765511 0.540523887 0.252140522
11882.431228 -1.731447458 -1.226098537 1.707363129 0.141576275 0.796244800 0.536345720 0.241420045
11882.468091 -1.738492012 -1.244642019 1.724557400 0.150683075 0.798771620 0.533708751 0.233266860
11882.504955 -1.734525204 -1.258510590 1.753873825 0.160508543 0.801977694 0.529486775 0.225194633
11882.541818 -1.738090873 -1.278001547 1.769259453 0.167356282 0.803512335 0.526238263 0.222335666
11882.578682 -1.741287112 -1.296406746 1.794751167 0.176611125 0.804210186 0.523729682 0.218544483
11882.615545 -1.720442891 -1.320959449 1.815894127 0.181791261 0.805164814 0.521852016 0.215248793
11882.652409 -1.723471880 -1.336990237 1.838548422 0.190401152 0.803295672 0.521951675 0.214545816
11882.689272 -1.715283632 -1.357737422 1.857168436 0.198378578 0.799229383 0.525937855 0.212762147
11882.726136 -1.717767119 -1.375166893 1.889660835 0.210063443 0.792113900 0.533016741 0.210528061
11882.762999 -1.696852922 -1.398820400 1.909466863 0.211742267 0.788247645 0.537577569 0.211757392
11882.799863 -1.694072008 -1.420443773 1.929527402 0.217669040 0.785490811 0.538987041 0.212408453
11882.836726 -1.683504343 -1.442538738 1.944637418 0.218288839 0.784424245 0.539108157 0.215385601
11882.873590 -1.662001967 -1.461627245 1.957209468 0.216595039 0.783605695 0.539980769 0.217875004
11882.910453 -1.652780056 -1.479307890 1.968593836 0.215562522 0.784078181 0.539346337 0.218768701
11882.947317 -1.637457371 -1.502549648 1.975774050 0.210016936 0.788614690 0.534674466 0.219323888
11882.984180 -1.630642414 -1.521668077 1.986611605 0.205552474 0.793986797 0.528544962 0.219028369
11883.021044 -1.612346411 -1.538288355 1.990847588 0.198952913 0.800404012 0.521778643 0.217986792
11883.057907 -1.597406864 -1.555052280 2.003925085 0.196080372 0.806835055 0.514744997 0.213558614
11883.094770 -1.581672907 -1.573084593 2.014133692 0.193491042 0.812411547 0.508858323 0.208834708
11883.131634 -1.551847219 -1.587900162 2.023518324 0.191040248 0.819018483 0.501471221 0.203073874
11883.168497 -1.532191396 -1.601542950 2.030462027 0.190119609 0.824680805 0.494154274 0.198916301
11883.205361 -1.507102132 -1.607290268 2.043478727 0.192297995 0.828619897 0.488891751 0.193378791
11883.242224 -1.482281446 -1.619965792 2.052565336 0.192450196 0.831055939 0.486639649 0.188389897
11883.279088 -1.461347222 -1.627540112 2.063248158 0.193458140 0.831235170 0.488102406 0.182696745
11883.315952 -1.433487296 -1.632940888 2.076147556 0.192282602 0.830725551 0.491621137 0.176723301
11883.352815 -1.398650527 -1.624323845 2.091120481 0.189357787 0.828748226 0.497849971 0.171654880
11883.389678 -1.372330904 -1.636681437 2.096867085 0.185160428 0.823795915 0.510206103 0.163602084
11883.426542 -1.339207411 -1.644780755 2.102921247 0.182575285 0.821080804 0.518908799 0.152401790
11883.463405 -1.302633047 -1.651378632 2.104932785 0.177065343 0.820312321 0.524297297 0.144388020
11883.500269 -1.272174478 -1.660199761 2.099279404 0.167051420 0.818847954 0.530173659 0.143170536
11883.537133 -1.235188365 -1.664035797 2.095183134 0.157618523 0.815558136 0.538304150 0.142302364
11883.573996 -1.200497866 -1.667882919 2.090687752 0.152479514 0.811169088 0.547290742 0.138663679
11883.610859 -1.164379835 -1.671873569 2.089984655 0.147569835 0.808249533 0.553792298 0.135166124
11883.647723 -1.123447537 -1.678726792 2.086911201 0.142774373 0.807527304 0.557071924 0.131095439
11883.684586 -1.090651155 -1.683238506 2.083789587 0.138563365 0.808574140 0.557178080 0.128688261
11883.721450 -1.048938870 -1.682616472 2.082680702 0.137501866 0.810597479 0.555643499 0.123633496
11883.758313 -1.020267844 -1.691270351 2.083224297 0.138036549 0.811340153 0.554850638 0.121712148
11883.795177 -0.978608370 -1.691794872 2.082261801 0.138285995 0.811898112 0.554082870 0.121204697
11883.832040 -0.935280919 -1.692852736 2.082688808 0.137898803 0.811776459 0.554185927 0.121987104
11883.868904 -0.895920634 -1.696851730 2.088283062 0.136428922 0.811281204 0.554760158 0.124302484
11883.905767 -0.856069803 -1.698706388 2.087158918 0.137134716 0.808975875 0.557648838 0.125618085
11883.942631 -0.812563181 -1.699825048 2.087486744 0.137969762 0.806511819 0.561173379 0.124849796
11883.979494 -0.787216842 -1.693060040 2.092454910 0.141001076 0.800873101 0.568195879 0.125993699
11884.016358 -0.739984751 -1.705152750 2.081635714 0.141425684 0.792893529 0.580722690 0.118658461
11884.053221 -0.711577952 -1.706583023 2.071413994 0.139801264 0.790027082 0.585078478 0.118304722
11884.090085 -0.676341355 -1.710771680 2.061650038 0.137345523 0.788655400 0.587857187 0.116545387
11884.126948 -0.628182411 -1.724061847 2.052334309 0.131160080 0.787324607 0.592281699 0.110088281
11884.163812 -0.592452109 -1.723852158 2.042562962 0.128675118 0.787008286 0.594443440 0.103430033
11884.200675 -0.561223030 -1.721491098 2.028061390 0.127248004 0.785995960 0.597349942 0.095872067
11884.237539 -0.528557658 -1.716237187 2.017364502 0.126377463 0.786738694 0.597863913 0.087348439
11884.274402 -0.499661237 -1.703268886 2.000340700 0.125564232 0.787078738 0.598480821 0.081002772
11884.311265 -0.470725328 -1.690290332 1.991225719 0.125666976 0.788396001 0.597841501 0.072284885
11884.348129 -0.440267444 -1.674244642 1.976192951 0.124285132 0.789344907 0.597916126 0.063119806
11884.384993 -0.408931166 -1.654076457 1.958152533 0.121196538 0.790047467 0.598480403 0.054383475
11884.421856 -0.382944018 -1.630543590 1.939607978 0.118409738 0.789841592 0.599922597 0.047141463
11884.458719 -0.356912434 -1.608921051 1.919671774 0.114522956 0.786742568 0.605244339 0.039998870
11884.495583 -0.330008537 -1.584791422 1.891177535 0.114379503 0.780658484 0.613657951 0.030225549
11884.532447 -0.304417670 -1.558952570 1.866495490 0.114754453 0.777111948 0.618475080 0.020420177
11884.569310 -0.279782414 -1.531841874 1.838211894 0.116212465 0.770389616 0.626799285 0.010821559
11884.606174 -0.259066224 -1.509802818 1.811088324 0.117961995 0.759864450 0.639289200 -0.000588779
11884.643037 -0.233688265 -1.480150700 1.783427835 0.119844727 0.749178767 0.651272416 -0.014583454
11884.679900 -0.210662693 -1.452255249 1.754828691 0.118923791 0.739020646 0.662646055 -0.024614168
11884.716764 -0.190051332 -1.421662331 1.725911379 0.118250720 0.727211058 0.675391316 -0.032053508
11884.753628 -0.170690477 -1.389287233 1.699689269 0.118605830 0.715484440 0.687354565 -0.039476741
11884.790491 -0.147613421 -1.359097600 1.673217416 0.118431807 0.703074813 0.699549258 -0.047860354
11884.827354 -0.126889005 -1.321569562 1.652550697 0.122860193 0.693104386 0.708025694 -0.056668758
11884.864218 -0.107342087 -1.289234519 1.625501037 0.131428301 0.682219505 0.716017544 -0.067985468
11884.901081 -0.085743457 -1.255529165 1.603244066 0.139883041 0.673573911 0.721539617 -0.078175940
11884.937945 -0.067226984 -1.222557187 1.577609539 0.152008995 0.661808729 0.728637874 -0.089383066
11884.974808 -0.045475855 -1.191086411 1.553766012 0.162273452 0.653780341 0.731937706 -0.102497913
11885.011672 -0.026857175 -1.158939123 1.529499054 0.171964198 0.645918608 0.735361934 -0.111625575
11885.048535 -0.006974250 -1.129304767 1.505857587 0.177373841 0.637921691 0.739897668 -0.118936494
11885.085399 0.018404305 -1.100121021 1.476055503 0.180629566 0.628944159 0.744234622 -0.133854419
11885.122262 0.037282147 -1.074016809 1.455209136 0.185804918 0.623892248 0.745027721 -0.145494401
11885.159126 0.055539437 -1.050704718 1.434050202 0.191576898 0.612071335 0.750947297 -0.157305881
11885.195989 0.071119331 -1.024654746 1.413144827 0.198181033 0.601163924 0.754943013 -0.171427131
11885.232853 0.082626909 -1.004099369 1.394393206 0.202820569 0.590876460 0.758823812 -0.184160903
11885.269716 0.091412023 -0.985247016 1.370954156 0.204765707 0.574725568 0.767558455 -0.196508706
11885.306580 0.102207869 -0.967202187 1.352861404 0.204565540 0.564382851 0.770452440 -0.214541495
11885.343443 0.112281963 -0.950487852 1.337323666 0.203449592 0.554220974 0.773127913 -0.231777281
11885.380307 0.122919455 -0.934611201 1.322604060 0.202049598 0.546123207 0.773636401 -0.249824286
11885.417170 0.134062409 -0.919804692 1.312872887 0.201447666 0.541223943 0.771770000 -0.266207844
11885.454034 0.144075543 -0.904636621 1.301246762 0.203493550 0.534361959 0.770006597 -0.283085793
11885.490897 0.155986801 -0.889180064 1.287152767 0.205404952 0.527936339 0.766507387 -0.302586347
11885.527761 0.164794117 -0.873627067 1.274355173 0.210263431 0.521095514 0.762570262 -0.320523530
11885.564624 0.175211608 -0.860279441 1.265483141 0.216197222 0.518937171 0.754652441 -0.338323325
11885.601488 0.181498215 -0.847195983 1.256613135 0.227245331 0.515083551 0.746688783 -0.354265928
11885.638351 0.199424937 -0.831658602 1.241581082 0.230122909 0.509401858 0.739380002 -0.375327080
11885.675215 0.213256672 -0.820042133 1.229947209 0.240748301 0.504489362 0.729168415 -0.394771099
11885.712078 0.230844244 -0.810966253 1.223709345 0.250615120 0.505651474 0.716457605 -0.410118490
11885.748942 0.244048253 -0.804948092 1.217189312 0.264927715 0.505034685 0.703990161 -0.423262477
11885.785805 0.266301364 -0.796432197 1.207116365 0.268533826 0.502868950 0.697721779 -0.433816403
11885.822669 0.283064783 -0.792689443 1.197882175 0.276355207 0.497735918 0.696539700 -0.436714023
11885.859532 0.296849102 -0.791222870 1.188709259 0.282527804 0.495743096 0.695689380 -0.436386406
11885.896395 0.316334188 -0.790301919 1.179433465 0.282570541 0.498057097 0.689961195 -0.442771435
11885.933259 0.325655609 -0.793295860 1.167419195 0.289105088 0.495421350 0.686462283 -0.446928889
11885.970123 0.341703951 -0.797580004 1.163903475 0.292215168 0.504262209 0.676956952 -0.449509948
11886.006986 0.358316183 -0.803691030 1.152516842 0.291105300 0.509789824 0.668785572 -0.456177533
11886.043849 0.373238057 -0.811041951 1.139603138 0.289149731 0.516249716 0.661771119 -0.460366786
11886.080713 0.391477525 -0.821359277 1.132190466 0.287028909 0.528170407 0.650103748 -0.464774698
11886.117576 0.423226982 -0.826067924 1.114202857 0.271713167 0.537505209 0.639203548 -0.478203863
11886.154440 0.443404496 -0.836647034 1.102349758 0.268080324 0.546549082 0.627309144 -0.485695750
11886.191303 0.471352220 -0.846260726 1.093983889 0.262249351 0.557438493 0.610610783 -0.497636467
11886.228167 0.499082446 -0.858887911 1.084193230 -0.256692588 -0.567610919 -0.592642725 0.510589182
11886.265030 0.531258106 -0.867884159 1.069971800 -0.245911658 -0.575507998 -0.577509999 0.524213791
11886.301894 0.567497730 -0.879077613 1.061151862 -0.238276482 -0.583354890 -0.558115363 0.539841235
11886.338757 0.601958632 -0.892717361 1.052313566 -0.234828576 -0.586769640 -0.539974511 0.555863678
11886.375621 0.648864746 -0.895064235 1.042443275 -0.223667875 -0.586905181 -0.525694370 0.573724985
11886.412484 0.685526013 -0.904448986 1.032745481 -0.220363915 -0.581439435 -0.518337667 0.587106466
11886.449348 0.721248388 -0.911785603 1.022434831 -0.212789014 -0.575865090 -0.515313625 0.597956598
11886.486211 0.752761245 -0.925050616 1.013703108 -0.208552584 -0.568767190 -0.513260365 0.607925594
11886.523075 0.785947919 -0.934357524 1.007803440 -0.203683227 -0.559976339 -0.509990275 0.620362461
11886.559938 0.817401290 -0.943644285 0.998864532 -0.196576521 -0.549640656 -0.507474124 0.633816063
11886.596802 0.853113055 -0.952206016 0.994641483 -0.185411826 -0.543390810 -0.503275931 0.645803571
11886.633665 0.883999348 -0.957051635 0.985923648 -0.172613963 -0.536857188 -0.498109043 0.658692777
11886.670529 0.911625326 -0.963518739 0.975039959 -0.162416801 -0.530062020 -0.493177474 0.670396149
11886.707392 0.940833509 -0.969790041 0.967538178 -0.155332729 -0.524744868 -0.487741351 0.680163801
11886.744256 0.969762564 -0.972940326 0.959651709 -0.147260293 -0.522642612 -0.481800675 0.687769711
11886.781119 0.996824145 -0.975815535 0.951309264 -0.139789209 -0.523285508 -0.475808501 0.692991734
11886.817983 1.025126934 -0.979580283 0.943450928 -0.133887172 -0.525708020 -0.471074551 0.695553005
11886.854846 1.053856134 -0.979986787 0.935684681 -0.128732488 -0.529050350 -0.465194285 0.697945476
11886.891710 1.083060503 -0.978086114 0.930638492 -0.126845688 -0.531916976 -0.458849847 0.700308025
11886.928573 1.116220474 -0.975138366 0.924036503 -0.126714945 -0.534152389 -0.450528860 0.704022944
11886.965437 1.150053263 -0.971835136 0.919418216 -0.126022011 -0.537694514 -0.440042019 0.708072066
11887.002300 1.189215302 -0.964370489 0.914579988 -0.123632178 -0.541503668 -0.429037571 0.712331116
11887.039164 1.226079226 -0.957509995 0.910582185 -0.127520114 -0.541778862 -0.421889544 0.715697885
11887.076027 1.257131338 -0.953210056 0.908616304 -0.135980248 -0.539884031 -0.422432184 0.715252221
11887.112890 1.281542420 -0.959311604 0.898100078 -0.146077588 -0.536117673 -0.425118953 0.714501977
11887.149754 1.304007530 -0.963977098 0.889415085 -0.148517400 -0.535303891 -0.423409253 0.715623438
11887.186618 1.323607206 -0.972457647 0.877943039 -0.146342397 -0.535485744 -0.419230431 0.718390405
11887.223481 1.344934702 -0.981727242 0.867773175 -0.138543963 -0.538151383 -0.414572120 0.720644593
11887.260345 1.367248535 -0.988235950 0.856650531 -0.126653224 -0.541599631 -0.406755149 0.724692345
11887.297208 1.389998555 -0.990423203 0.844483018 -0.115440398 -0.543611348 -0.398036093 0.729881823
11887.334071 1.417654753 -0.997653246 0.832644224 -0.105632655 -0.545703113 -0.393028527 0.732515156
11887.370935 1.445045114 -1.000026822 0.819090903 -0.095531262 -0.547138155 -0.388574272 0.735203087
11887.407799 1.470448852 -1.000940919 0.807989299 -0.086592950 -0.549626768 -0.385234505 0.736210883
11887.444662 1.495696306 -1.002752185 0.796117306 -0.078625463 -0.552287340 -0.384305537 0.735599041
11887.481525 1.521583438 -1.000155330 0.785669506 -0.071226694 -0.555147588 -0.380610347 0.736120760
11887.518389 1.542918682 -0.998549521 0.770770133 -0.066750228 -0.556250036 -0.375433236 0.738363147
11887.555252 1.569165826 -0.997001767 0.759308755 -0.062561296 -0.558139801 -0.372525543 0.738776505
11887.592116 1.595678091 -0.993168652 0.747330129 -0.057552371 -0.560127616 -0.369860232 0.739018440
11887.628979 1.619452238 -0.989265203 0.736659944 -0.053232580 -0.561411917 -0.368595213 0.738999665
11887.665843 1.648185134 -0.984802723 0.723147690 -0.051619150 -0.559749007 -0.370644569 0.739350498
11887.702707 1.673108816 -0.981799245 0.713286638 -0.047614362 -0.559438109 -0.372939885 0.738700032
11887.739570 1.696912766 -0.981076598 0.702377141 -0.041034739 -0.560333192 -0.373538405 0.738113821
11887.776433 1.717942357 -0.987037420 0.696830750 -0.036896665 -0.561565280 -0.375491679 0.736402810
11887.813297 1.731687903 -0.990912020 0.682975113 -0.034177653 -0.560034931 -0.377162486 0.736845434
11887.850160 1.753357768 -0.992168307 0.674430966 -0.029022785 -0.561311305 -0.374379337 0.737514377
11887.887024 1.772908330 -0.997656584 0.670989037 -0.022187639 -0.565384209 -0.369511068 0.737095654
11887.923887 1.787289500 -0.999906182 0.665541828 -0.015656164 -0.568646967 -0.364454508 0.737270892
11887.960751 1.800751209 -1.001551270 0.663806617 -0.010927271 -0.571747720 -0.360651076 0.736828268
11887.997614 1.809820414 -1.009167194 0.663501203 -0.007738526 -0.574937522 -0.359311968 0.735038698
11888.034478 1.819674969 -1.012977600 0.664499879 -0.004627319 -0.577655911 -0.358318001 0.733416975
11888.071341 1.829205751 -1.018846631 0.665097058 -0.002911252 -0.579082966 -0.358317822 0.732299626
11888.108205 1.835189819 -1.025013566 0.669750392 -0.002176149 -0.579355896 -0.357204616 0.732630074
11888.145068 1.849242091 -1.032606483 0.673557222 -0.001801310 -0.578176439 -0.352923185 0.735631704
11888.181932 1.852951050 -1.038573146 0.681956053 -0.002713480 -0.575895309 -0.347846061 0.739824533
11888.218795 1.865201831 -1.045420647 0.686688006 -0.003860539 -0.572390676 -0.343291283 0.744651020
11888.255659 1.871278524 -1.050602674 0.696549356 -0.005691877 -0.569352925 -0.340917766 0.748050809
11888.292522 1.876773238 -1.056158543 0.705272019 -0.010912464 -0.564931035 -0.340975732 0.751311839
11888.329386 1.879815221 -1.062064648 0.711226881 -0.018696807 -0.559878647 -0.339875102 0.755427837
11888.366249 1.883399606 -1.063661933 0.717271090 -0.021883899 -0.557576358 -0.336449534 0.758571982
11888.403113 1.882118940 -1.066476583 0.727512062 -0.023445159 -0.557651997 -0.335328966 0.758965731
11888.439976 1.888453484 -1.064390063 0.736010969 -0.025275519 -0.557593763 -0.335435480 0.758902788
11888.476840 1.886665106 -1.068304539 0.746197581 -0.030846583 -0.556596756 -0.339241892 0.757735729
11888.513703 1.880332112 -1.073484063 0.748311400 -0.037927378 -0.553183556 -0.343863219 0.757830799
11888.550567 1.876034021 -1.076101303 0.755241334 -0.043605581 -0.550784886 -0.345050097 0.758732498
11888.587430 1.871630192 -1.079275370 0.759880185 -0.048530594 -0.547825158 -0.343983889 0.761056840
11888.624294 1.865068078 -1.081147671 0.767568886 -0.053032137 -0.545162618 -0.341154963 0.763936281
11888.661157 1.857831478 -1.083405137 0.778141022 -0.056080818 -0.543878078 -0.338916957 0.765628457
11888.698020 1.851595044 -1.082030654 0.780084968 -0.057273425 -0.542062759 -0.336023390 0.768098950
11888.734884 1.842568159 -1.082005262 0.785611928 -0.058055457 -0.541752219 -0.334264934 0.769026041
11888.771748 1.833763480 -1.079793096 0.786647022 -0.059045173 -0.540534258 -0.333579093 0.770104766
11888.808611 1.819318533 -1.079899430 0.788177490 -0.060168080 -0.539755642 -0.333688706 0.770516396
11888.845474 1.805848360 -1.077128530 0.788219690 -0.060332071 -0.539283156 -0.333543479 0.770897210
11888.882338 1.791191220 -1.075406075 0.790517330 -0.059112355 -0.539963782 -0.333020300 0.770741403
11888.919201 1.779198289 -1.070597291 0.789562166 -0.056839366 -0.540550172 -0.331387997 0.771204770
11888.956065 1.762066841 -1.064588785 0.787794292 -0.055259414 -0.541005850 -0.328549773 0.772213817
11888.992928 1.746913314 -1.062018037 0.785650194 -0.054886241 -0.541343868 -0.326560378 0.772847116
11889.029792 1.728183746 -1.059313178 0.785701990 -0.055034846 -0.542591751 -0.325856268 0.772258401
11889.066655 1.707823753 -1.056968331 0.781553566 -0.055597935 -0.543540359 -0.326443195 0.771302521
11889.103519 1.690872669 -1.055765867 0.779981434 -0.056929696 -0.545622587 -0.326938003 0.769523561
11889.140383 1.669541597 -1.052337170 0.775616169 -0.060291473 -0.545916855 -0.326509774 0.769240618
11889.177246 1.652339697 -1.047941208 0.774214327 -0.064482234 -0.546011984 -0.323483735 0.770111203
11889.214109 1.638905525 -1.042206526 0.772065282 -0.065905496 -0.546034753 -0.319898605 0.771470904
11889.250973 1.621732473 -1.042705178 0.771901846 -0.066907264 -0.545407116 -0.321597725 0.771122158
11889.287836 1.609521389 -1.040050507 0.772202432 -0.066542909 -0.543602765 -0.326555014 0.770344019
11889.324700 1.593811035 -1.040525436 0.772965074 -0.066464044 -0.539966881 -0.331513137 0.770790100
11889.361563 1.581641555 -1.040672660 0.775059462 -0.064750560 -0.535825670 -0.331848621 0.773676097
11889.398427 1.568776131 -1.031662703 0.771290183 -0.061412707 -0.528794229 -0.328801215 0.780060828
11889.435290 1.555035591 -1.033897638 0.776123703 -0.061511543 -0.523136258 -0.327003598 0.784610391
11889.472154 1.541434526 -1.031979322 0.780844331 -0.061685890 -0.516823828 -0.326749563 0.788874328
11889.509017 1.524945498 -1.032733560 0.789710581 -0.062664181 -0.511237919 -0.329918802 0.791114748
11889.545881 1.509837866 -1.031620502 0.795936227 -0.062995709 -0.505569756 -0.332894832 0.793480814
11889.582744 1.495815516 -1.029824734 0.802564144 -0.064374022 -0.500083804 -0.334344715 0.796232224
11889.619608 1.477668881 -1.028340459 0.810298204 -0.067548297 -0.494377702 -0.336504459 0.798619211
11889.656471 1.463271856 -1.028566122 0.822043717 -0.069655724 -0.491198838 -0.338105649 0.799722672
11889.693335 1.445314169 -1.028748512 0.833180428 -0.071422689 -0.488090456 -0.338605046 0.801257253
11889.730198 1.428661227 -1.030297041 0.844872594 -0.072029255 -0.485776484 -0.338784903 0.802532077
11889.767062 1.411242604 -1.034686446 0.860598266 -0.074334949 -0.484094173 -0.336412638 0.804334342
11889.803925 1.395887613 -1.036079168 0.874512851 -0.074080504 -0.481839895 -0.332715452 0.807244003
11889.840789 1.376830101 -1.043880701 0.890140533 -0.074044995 -0.480202973 -0.328961372 0.809757292
11889.877652 1.361036539 -1.051533937 0.904260218 -0.073636211 -0.478048593 -0.323422551 0.813292742
11889.914515 1.338982582 -1.063863516 0.925380588 -0.076237015 -0.475258350 -0.320594460 0.815804303
11889.951379 1.323581457 -1.072199821 0.941614032 -0.080815494 -0.469119310 -0.315917373 0.820726573
11889.988243 1.301007628 -1.089515209 0.961248994 -0.087515786 -0.461165607 -0.313712180 0.825379848
11890.025106 1.285752535 -1.096383095 0.977378547 -0.089085624 -0.452583820 -0.307835758 0.832147121
11890.061970 1.272886276 -1.110491872 0.994282544 -0.088413820 -0.445127100 -0.303579181 0.837785542
11890.098833 1.257894278 -1.120914698 1.013587236 -0.087552100 -0.437394768 -0.300766885 0.842947066
11890.135696 1.248613715 -1.124118090 1.029073954 -0.089584209 -0.427335262 -0.296836466 0.849262834
11890.172560 1.234323740 -1.136838555 1.047530174 -0.097891845 -0.418018967 -0.297093064 0.852885127
11890.209424 1.222273588 -1.143661261 1.059309244 -0.102954075 -0.408634573 -0.296388179 0.857071936
11890.246287 1.212766171 -1.148044705 1.072779655 -0.104348920 -0.401621878 -0.294168174 0.860974014
11890.283150 1.208909750 -1.154941320 1.088308215 -0.106670000 -0.396253586 -0.289243191 0.864836991
11890.320014 1.199672341 -1.162261724 1.106570959 -0.110601790 -0.391261697 -0.284167767 0.868291557
