11878.818606 0.000000000 0.000000000 0.000000000 0.000000000 0.000000000 0.000000000 1.000000000
11878.855469 -0.023311015 -0.014505356 0.023838069 -0.001484238 -0.010759332 0.002063755 0.999938905
11878.892333 -0.045306038 -0.026348248 0.052657004 0.004147656 -0.019271655 0.008615212 0.999768555
11878.929197 -0.063524425 -0.042673700 0.075245179 0.008276572 -0.026622683 0.013769859 0.999516428
11878.966060 -0.084259763 -0.061362326 0.105852313 0.011533535 -0.030154057 0.023547770 0.999201298
11879.002923 -0.097266242 -0.080567449 0.136858344 0.013609665 -0.033250030 0.027891193 0.998965144
11879.039787 -0.118529260 -0.100821197 0.169608474 0.009983564 -0.030766312 0.033797622 0.998905122
11879.076650 -0.135920584 -0.116914436 0.198948652 0.003396142 -0.024974532 0.036061030 0.999031723
11879.113514 -0.143755510 -0.133891717 0.231135637 -0.004865534 -0.016983997 0.040910747 0.999006569
11879.150378 -0.154552698 -0.149159551 0.261256844 -0.011442125 -0.002855793 0.045257911 0.998905718
11879.187241 -0.161253601 -0.165752783 0.288035959 -0.022563979 0.010588816 0.047865301 0.998542786
11879.224104 -0.171419606 -0.182633325 0.317010432 -0.037161686 0.026675439 0.050137427 0.997694194
11879.260968 -0.168530852 -0.197888643 0.346317112 -0.050136473 0.037071347 0.050313536 0.996785104
11879.297831 -0.166265666 -0.209816232 0.371207118 -0.059423704 0.047843739 0.055588286 0.995534897
11879.334695 -0.171587825 -0.228576586 0.397605836 -0.066479154 0.062887043 0.064277045 0.993727446
11879.371558 -0.171832487 -0.245714873 0.430663943 -0.068841115 0.075642429 0.072225899 0.992130280
11879.408422 -0.168841898 -0.259133607 0.462078333 -0.070278741 0.084135845 0.079954647 0.990751922
11879.445285 -0.162358508 -0.276448846 0.492852896 -0.072222993 0.089754321 0.088902280 0.989355505
11879.482149 -0.165245563 -0.280806631 0.533637226 -0.065143541 0.101886049 0.097094752 0.987900913
11879.519012 -0.147967309 -0.298062950 0.565143049 -0.067239717 0.101974733 0.109970376 0.986400783
11879.555876 -0.141987309 -0.299352765 0.604077458 -0.059249636 0.109273441 0.127880022 0.983969271
11879.592739 -0.133122951 -0.320064068 0.639238477 -0.065203764 0.114728123 0.148055151 0.980135500
11879.629603 -0.115506664 -0.331119597 0.671070278 -0.072986886 0.112807564 0.171797618 0.975926697
11879.666466 -0.112029001 -0.336602956 0.700892031 -0.078478947 0.121441036 0.197442681 0.969592452
11879.703330 -0.101392448 -0.346453428 0.730308771 -0.084639311 0.128662139 0.222732618 0.962638259
11879.740193 -0.090726927 -0.354537129 0.754773140 -0.093667544 0.135309130 0.247465909 0.954818547
11879.777057 -0.082835644 -0.360748380 0.774645746 -0.100555621 0.144777030 0.267407656 0.947323263
11879.813920 -0.081643388 -0.368213445 0.791191578 -0.101412758 0.163734734 0.282885909 0.939617991
11879.850784 -0.075817034 -0.371868849 0.802041888 -0.101247407 0.179581076 0.296520263 0.932510197
11879.887647 -0.069269270 -0.380364001 0.809639573 -0.106338136 0.194970235 0.311038196 0.924085498
11879.924510 -0.067978188 -0.386216819 0.815749526 -0.107408784 0.212131530 0.325069040 0.915310681
11879.961374 -0.067739516 -0.385109365 0.821349025 -0.104533315 0.223246112 0.340374172 0.907402575
11879.998238 -0.068936989 -0.382506222 0.823777318 -0.096975222 0.229579523 0.355822802 0.900710344
11880.035101 -0.067552671 -0.383958310 0.824877739 -0.092021652 0.229185775 0.372015417 0.894768357
11880.071965 -0.068522781 -0.384334266 0.823519230 -0.086612552 0.225747958 0.388140708 0.889315963
11880.108828 -0.069813102 -0.384284437 0.821336150 -0.081953354 0.221348986 0.407027990 0.882392466
11880.145692 -0.071184590 -0.383184910 0.820666671 -0.076710753 0.219284773 0.425545037 0.874609053
11880.182555 -0.078749955 -0.380351871 0.818552256 -0.066532768 0.222562656 0.441537589 0.866650939
11880.219419 -0.078805983 -0.382372379 0.813287079 -0.064425863 0.222204685 0.460208803 0.857136071
11880.256282 -0.079441592 -0.383252978 0.807243228 -0.063033752 0.222886726 0.483428061 0.844183385
11880.293145 -0.087020412 -0.384907901 0.799391150 -0.058950663 0.229011193 0.503036201 0.831284106
11880.330009 -0.089235574 -0.381121576 0.795184612 -0.052908897 0.229428530 0.522020876 0.819791079
11880.366873 -0.103888303 -0.382653236 0.778174043 -0.049493253 0.236148924 0.536198676 0.808872759
11880.403736 -0.119956970 -0.382070690 0.759029984 -0.047496758 0.237489879 0.553907871 0.796573102
11880.440599 -0.142487526 -0.382862747 0.738981724 -0.049528569 0.238229945 0.566512346 0.787310064
11880.477463 -0.160231799 -0.382965207 0.713535666 -0.055015530 0.234081969 0.577119470 0.780456305
11880.514326 -0.179162830 -0.385583997 0.694305658 -0.064855717 0.231337294 0.580708206 0.777852714
11880.551190 -0.194166243 -0.387045711 0.672999144 -0.076402128 0.227409676 0.583269596 0.776043952
11880.588053 -0.201443732 -0.384074092 0.652281880 -0.083204158 0.226357564 0.595762014 0.766098559
11880.624917 -0.226766497 -0.391957730 0.634571195 -0.081220262 0.246854842 0.604358435 0.753138065
11880.661780 -0.241253823 -0.399527282 0.609608710 -0.080516070 0.260305107 0.614191294 0.740626335
11880.698644 -0.251099318 -0.407748491 0.587862313 -0.076452643 0.272679567 0.621580422 0.730368793
11880.735507 -0.263139606 -0.415553451 0.565809548 -0.067819059 0.283104509 0.626788795 0.722764254
11880.772371 -0.277819633 -0.424952745 0.547210455 -0.057302594 0.291632175 0.627445519 0.719707668
11880.809234 -0.281061292 -0.428123295 0.533770323 -0.046296310 0.291127741 0.636297345 0.712900400
11880.846098 -0.289494008 -0.433127850 0.516821563 -0.032944988 0.291224211 0.644806445 0.705923319
11880.882961 -0.298098385 -0.436989158 0.499946892 -0.019941535 0.287609339 0.655739069 0.697774649
11880.919825 -0.296537399 -0.436982572 0.485680461 -0.011940739 0.273049861 0.672753751 0.687534332
11880.956688 -0.311458915 -0.451411784 0.468992293 -0.010295815 0.264454395 0.683635890 0.680146933
11880.993552 -0.317566603 -0.459621638 0.456831634 -0.010932780 0.252216458 0.695464075 0.672753334
11881.030415 -0.325652003 -0.468184143 0.445768625 -0.011514703 0.242984742 0.700531185 0.670881450
11881.067279 -0.331707180 -0.477902800 0.430004060 -0.016836859 0.231424823 0.699025154 0.676404357
11881.104142 -0.341222197 -0.485317945 0.418069780 -0.019346043 0.223680362 0.697818160 0.680178404
11881.141006 -0.347779840 -0.492050409 0.394987255 -0.021362005 0.217174232 0.702709913 0.677183747
11881.177869 -0.357729614 -0.499844462 0.377209902 -0.020678638 0.216886908 0.705866098 0.674007058
11881.214733 -0.368053466 -0.506166935 0.357983887 -0.017394952 0.218292162 0.710226893 0.669046879
11881.251596 -0.383258939 -0.512253582 0.350650758 -0.011583005 0.222076401 0.713584363 0.664338291
11881.288460 -0.397499919 -0.514056742 0.344064295 -0.003560878 0.224558532 0.721713543 0.654744446
11881.325323 -0.416250199 -0.520869553 0.322234809 0.002288422 0.226664633 0.726642549 0.648543298
11881.362187 -0.434098274 -0.523413599 0.297900885 0.008832678 0.225769252 0.733747721 0.640753031
11881.399050 -0.456416756 -0.529204667 0.267422229 0.015449128 0.228066504 0.736998916 0.636065662
11881.435914 -0.486365527 -0.538433492 0.219539315 0.020760976 0.227198914 0.744707823 0.627184153
11881.472777 -0.515278041 -0.552355707 0.179230347 0.020243980 0.228053346 0.742856979 0.629082978
11881.509640 -0.547821522 -0.565046430 0.124304801 0.020614710 0.225204945 0.748231173 0.623704970
11881.546504 -0.578878820 -0.580880761 0.065722585 0.021497358 0.224474370 0.750365555 0.621369898
11881.583368 -0.603019178 -0.593583703 0.036979169 0.022025025 0.223262683 0.752320230 0.619421482
11881.620231 -0.641166389 -0.611005366 -0.023971170 0.022255775 0.223585591 0.751879334 0.619831920
11881.657094 -0.666707039 -0.626804054 -0.070525318 0.022744831 0.228009969 0.751476824 0.618689418
11881.693958 -0.687628210 -0.632709742 -0.109135091 0.024224175 0.234808877 0.749718785 0.618223011
11881.730821 -0.709698379 -0.640952587 -0.142670661 0.024368485 0.244242832 0.748439968 0.616108060
11881.767685 -0.729993463 -0.649582148 -0.189599156 0.020327250 0.253179252 0.749556661 0.611270726
11881.804549 -0.756743431 -0.659926891 -0.225439429 0.013854709 0.265775442 0.747068465 0.609147131
11881.841412 -0.780379176 -0.675803661 -0.263398260 0.002934111 0.277370572 0.747938454 0.603029788
11881.878275 -0.803093076 -0.689447105 -0.293076426 -0.008122651 0.290701866 0.746924222 0.597938657
11881.915139 -0.826160192 -0.694310308 -0.330878377 -0.019410774 0.300742418 0.747068703 0.592507899
11881.952002 -0.851620078 -0.712261021 -0.386771768 -0.034690324 0.311482459 0.744332969 0.589697957
11881.988866 -0.866840601 -0.721556544 -0.411030352 -0.047445070 0.321258783 0.742684424 0.585629225
11882.025729 -0.897866249 -0.737226546 -0.468106210 -0.058721188 0.328216165 0.741074145 0.582782090
11882.062593 -0.918878376 -0.750415921 -0.506642461 -0.072554030 0.329651147 0.742538869 0.578534245
11882.099457 -0.933084607 -0.760075927 -0.533726633 -0.086772077 0.327396870 0.746539235 0.572678864
11882.136320 -0.959602356 -0.774789512 -0.579206944 -0.100033090 0.324341059 0.749237537 0.568717301
11882.173183 -0.972007632 -0.783848226 -0.604145288 -0.108117782 0.323809743 0.754830360 0.560079396
11882.210047 -1.010282755 -0.803665817 -0.666564107 -0.110163696 0.328920215 0.755717635 0.555487394
11882.578682 0.000000000 0.000000000 0.000000000 0.000000000 0.000000000 0.000000000 1.000000000
11882.615545 -0.012629085 0.016890241 -0.025698522 0.004485937 -0.003346462 0.007977041 0.999952495
11882.652409 -0.031980269 0.030119115 -0.045187734 0.004766676 -0.006123699 0.016032105 0.999841332
11882.689272 -0.064749286 0.045257684 -0.051560454 0.002677254 -0.007656159 0.024879919 0.999657571
11882.726136 -0.082139485 0.052191284 -0.076497242 -0.004635242 -0.011113772 0.030976789 0.999447584
11882.762999 -0.097437046 0.063729867 -0.093885064 -0.011366948 -0.015827417 0.038113281 0.999083400
11882.799863 -0.118618421 0.070671849 -0.107188016 -0.012791629 -0.019665413 0.040776625 0.998892844
11882.836726 -0.120424420 0.070947386 -0.120420903 -0.015252668 -0.027424537 0.038582359 0.998762548
11882.873590 -0.142381564 0.074181698 -0.129202232 -0.017047292 -0.029582677 0.034954388 0.998805523
11882.910453 -0.143040285 0.074176528 -0.131517619 -0.016854022 -0.034653407 0.030484155 0.998792171
11882.947317 -0.173378348 0.073742762 -0.145388663 -0.012623554 -0.030532563 0.026891882 0.999092221
11882.984180 -0.175102666 0.074265026 -0.152222723 -0.005764731 -0.032065976 0.019214889 0.999284387
11883.021044 -0.204658523 0.076403715 -0.159630507 0.001868820 -0.026058704 0.014173626 0.999558210
11883.057907 -0.210061803 0.076626197 -0.160625502 0.009757760 -0.025512934 0.011006634 0.999566257
11883.094770 -0.213925600 0.077347517 -0.156164959 0.015482701 -0.025469424 0.013308100 0.999467075
11883.131634 -0.252269894 0.078137979 -0.167857394 0.026797002 -0.017098643 0.006598837 0.999472857
11883.168497 -0.257306099 0.079905167 -0.172577709 0.035111122 -0.017544396 0.008304534 0.999194920
11883.205361 -0.270204186 0.081929207 -0.167508200 0.040816564 -0.017360806 0.010151137 0.998964250
11883.242224 -0.317467064 0.101037540 -0.147502199 0.047883946 -0.010041375 0.013005322 0.998717725
11883.279088 -0.328842372 0.104964204 -0.141394764 0.047239102 -0.008918803 0.016453944 0.998708248
11883.315952 -0.344026715 0.111011930 -0.119407460 0.044253029 -0.007144379 0.017282924 0.998845279
11883.352815 -0.369186014 0.115318328 -0.121782929 0.036254589 0.000452763 0.015893953 0.999216080
11883.389678 -0.388142824 0.118956909 -0.110382825 0.023645312 0.007324284 0.021339543 0.999465764
11883.426542 -0.413299680 0.119442806 -0.109292544 0.015380557 0.017435696 0.027237821 0.999358594
11883.463405 -0.423284292 0.119632609 -0.109282494 0.010307638 0.022203488 0.027924385 0.999310255
11883.500269 -0.456973195 0.123945691 -0.080589846 0.005498089 0.029379167 0.022708694 0.999295235
11883.537133 -0.474269897 0.125749946 -0.063552156 -0.003305509 0.031857505 0.017782614 0.999328732
11883.573996 -0.492519915 0.121753477 -0.061229631 -0.013570388 0.035458069 0.017435275 0.999126911
11883.610859 -0.511265755 0.116143435 -0.035048682 -0.022023821 0.037386224 0.014939900 0.998946428
11883.647723 -0.554284513 0.114880279 -0.028215628 -0.025142664 0.045796245 0.013777005 0.998539329
11883.684586 -0.575611711 0.118754275 -0.016229149 -0.023863846 0.047790013 0.013009585 0.998487532
11883.721450 -0.585670650 0.117142297 0.008296311 -0.021010516 0.045205817 0.009788440 0.998708785
11883.758313 -0.636402667 0.118121333 0.018985361 -0.020044742 0.052453704 0.015434966 0.998302817
11883.795177 -0.657969534 0.121282302 0.033994615 -0.019176295 0.048793804 0.016591495 0.998486936
11883.832040 -0.676654756 0.119481184 0.053913295 -0.020714479 0.043446504 0.014979559 0.998728633
11883.868904 -0.715992987 0.126821741 0.064497195 -0.021762341 0.042927574 0.013614095 0.998748362
11883.905767 -0.732324302 0.124625728 0.073975369 -0.026852665 0.036305834 0.015021888 0.998866916
11883.942631 -0.733138800 0.126238480 0.080123998 -0.030766787 0.026754940 0.015696777 0.999045134
11883.979494 -0.803386569 0.129538074 0.106106579 -0.040668424 0.037804157 0.019223725 0.998272181
11884.016358 -0.815583467 0.127349004 0.145076573 -0.051397339 0.034256123 0.024429381 0.997791588
11884.053221 -0.833013117 0.118489251 0.147315323 -0.057952467 0.033894222 0.028043225 0.997349620
11884.090085 -0.838607848 0.112686522 0.153600678 -0.060580686 0.029432580 0.026110986 0.997387528
11884.126948 -0.906795204 0.107672729 0.158913016 -0.063182838 0.044445708 0.024885908 0.996701181
11884.163812 -0.925843000 0.103615299 0.172508210 -0.063927546 0.048005812 0.027258372 0.996426463
11884.200675 -0.935748279 0.100116387 0.188048154 -0.064010687 0.050788779 0.030581746 0.996186674
11884.237539 -0.970075309 0.095402949 0.214202195 -0.063108511 0.060688559 0.034068178 0.995577037
11884.274402 -0.982849538 0.092679836 0.236143380 -0.060793258 0.064537831 0.037206907 0.995366633
11884.311265 -0.996598303 0.092793509 0.261104465 -0.057994962 0.069658451 0.040128116 0.995074868
11884.348129 -1.005750179 0.088017888 0.284936726 -0.056497253 0.074797682 0.043925952 0.994627535
11884.384993 -1.034525514 0.077245340 0.327495992 -0.057355840 0.086717360 0.047171611 0.993461251
11884.421856 -1.040270209 0.075863265 0.364706248 -0.056505986 0.091784455 0.049969792 0.992917776
11884.458719 -1.031138420 0.077656254 0.390233815 -0.058973659 0.092279896 0.050997805 0.992676079
11884.495583 -1.046074986 0.068387136 0.421109021 -0.065923378 0.101498961 0.058619648 0.990916669
11884.532447 -1.077265382 0.049916390 0.475087017 -0.072781593 0.116158873 0.065889895 0.988366544
11884.569310 -1.079979420 0.044465512 0.515708864 -0.078662097 0.120327771 0.074026205 0.986840189
11884.606174 -1.080789804 0.040509734 0.543595195 -0.089300424 0.126205593 0.085256055 0.984291077
11884.643037 -1.088577628 0.033330135 0.575747728 -0.100235485 0.135662422 0.097060770 0.980881095
11884.679900 -1.104717255 0.017070003 0.629335105 -0.113749392 0.146841198 0.105970420 0.976866901
11884.716764 -1.106269002 0.008350641 0.671937585 -0.127600417 0.151714921 0.113360077 0.973575950
11884.753628 -1.110096812 0.009521358 0.709953904 -0.136313409 0.156466082 0.120877907 0.970734537
11884.790491 -1.098962784 -0.005592778 0.746011972 -0.155037865 0.154430777 0.130093902 0.967052221
11884.827354 -1.115911603 0.001501560 0.791774690 -0.157754987 0.163880855 0.141110331 0.963506281
11884.864218 -1.114981532 0.001039028 0.834074020 -0.161536172 0.163976729 0.156956926 0.960407317
11884.901081 -1.112539649 0.000977144 0.877189636 -0.164650381 0.161710635 0.173184767 0.957469046
11884.937945 -1.113761544 0.000112966 0.917298079 -0.167410731 0.160394773 0.193225980 0.953368187
11884.974808 -1.114095092 0.004882425 0.958850324 -0.163135082 0.158077449 0.212927893 0.950294793
11885.011672 -1.122080922 -0.005767018 0.991168380 -0.165332422 0.160047695 0.224490926 0.946918011
11885.048535 -1.121658325 -0.007052571 1.028877854 -0.164807588 0.155740097 0.236841634 0.944716632
11885.085399 -1.124891400 -0.010308743 1.060802341 -0.161998570 0.156666800 0.247670159 0.942269325
11885.122262 -1.125643373 -0.013175994 1.091308594 -0.157283381 0.155115798 0.262983352 0.939170241
11885.159126 -1.126726389 -0.013656616 1.119186759 -0.158089265 0.151425362 0.278089732 0.935277641
11885.195989 -1.120150685 -0.015938818 1.141615987 -0.158381745 0.146134123 0.294348925 0.931084752
11885.232853 -1.125092268 -0.024159431 1.164347887 -0.160445109 0.150444880 0.306316316 0.926171720
11885.269716 -1.128105760 -0.027392834 1.182117462 -0.162124783 0.154028997 0.319783747 0.920722008
11885.306580 -1.123094559 -0.028815001 1.198531151 -0.160562918 0.156005129 0.335545033 0.915036321
11885.343443 -1.127481341 -0.033601135 1.214437485 -0.160045251 0.165611327 0.346983582 0.909153879
11885.380307 -1.129486799 -0.035388827 1.230635643 -0.156147480 0.172581375 0.359030575 0.903842151
11885.417170 -1.128111124 -0.037266761 1.243201971 -0.152360842 0.175710961 0.371801794 0.898707569
11885.454034 -1.123994231 -0.039334238 1.252272487 -0.148554429 0.175683901 0.390055627 0.891584754
11885.490897 -1.121906161 -0.043323457 1.264470100 -0.143899068 0.176204622 0.407272577 0.884519100
11885.527761 -1.120746017 -0.046399444 1.274414182 -0.136927664 0.175899461 0.426442504 0.876616776
11885.564624 -1.121278882 -0.050389916 1.282213688 -0.128260002 0.174724206 0.443175107 0.869837105
11885.601488 -1.120697975 -0.052484155 1.290974140 -0.118332617 0.170728296 0.463238478 0.861544728
11885.638351 -1.119353294 -0.057197452 1.297681570 -0.110319130 0.163452551 0.486347437 0.851222098
11885.675215 -1.118502736 -0.060966402 1.304175615 -0.101667814 0.153523088 0.510970175 0.839645088
11885.712078 -1.118018389 -0.061455429 1.310313106 -0.091901250 0.139639810 0.532029569 0.830059886
11885.748942 -1.116972685 -0.060023338 1.314965725 -0.080921054 0.122710317 0.551786184 0.820929945
11885.785805 -1.117185593 -0.058243781 1.318087816 -0.075442076 0.103065684 0.573543191 0.809156418
11885.822669 -1.117496371 -0.057807237 1.320399404 -0.076503672 0.080134958 0.587782621 0.801397026
11885.859532 -1.117520332 -0.057722464 1.320729375 -0.075285643 0.058405798 0.597229421 0.796390533
11885.896395 -1.117217064 -0.057540670 1.321477413 -0.071213536 0.041321509 0.604585350 0.792273760
11885.933259 -1.117337823 -0.058002308 1.319516659 -0.066718645 0.026865922 0.614322901 0.785769820
11885.970123 -1.117352247 -0.058090955 1.319572926 -0.060002025 0.013448599 0.624761343 0.778390765
11886.006986 -1.117017627 -0.058541119 1.317857146 -0.053008214 0.002516406 0.634900331 0.770769358
11886.043849 -1.115989566 -0.059341930 1.313253880 -0.043613642 -0.007525397 0.644288599 0.763500750
11886.080713 -1.115706444 -0.059698299 1.311838746 -0.034144640 -0.015489676 0.653380990 0.756100178
11886.117576 -1.114201069 -0.061696976 1.305421114 -0.027154122 -0.021001557 0.666822791 0.744425237
11886.154440 -1.113691092 -0.062428951 1.302934885 -0.019144308 -0.025566030 0.680522203 0.732030988
11886.191303 -1.112781763 -0.062600195 1.300509572 -0.012533399 -0.032580703 0.691730142 0.721311867
11886.228167 -1.107865572 -0.065490760 1.291674733 -0.010694153 -0.035592251 0.707815409 0.705419123
11886.265030 -1.105809927 -0.066546656 1.285255432 -0.006110864 -0.038016688 0.720780671 0.692092896
11886.301894 -1.104225874 -0.067431219 1.279950142 -0.005382689 -0.039865617 0.735110402 0.676752865
11886.338757 -1.100272059 -0.070909455 1.269920230 -0.011885425 -0.036234401 0.758545101 0.650503755
11886.375621 -1.096545458 -0.072430536 1.262297273 -0.023377264 -0.041150913 0.774978638 0.630212903
11886.412484 -1.094803572 -0.073158577 1.258689404 -0.038782708 -0.046975125 0.787693918 0.613047779
11886.449348 -1.093191028 -0.073977470 1.255420804 -0.054905780 -0.050954852 0.794331491 0.602848589
11886.486211 -1.085691810 -0.075986661 1.241631269 -0.072067700 -0.056491032 0.801505923 0.590934217
11886.523075 -1.081321239 -0.076346815 1.234385610 -0.092046052 -0.061123095 0.807940245 0.578812540
11886.559938 -1.078886032 -0.076471627 1.230560303 -0.111204587 -0.062129978 0.814594448 0.565870404
11886.596802 -1.071960926 -0.077384479 1.220832705 -0.131339371 -0.061291102 0.818006873 0.556649029
11886.633665 -1.069962382 -0.078260981 1.216166973 -0.145344466 -0.054774661 0.819871843 0.551076114
11886.670529 -1.068525672 -0.079506010 1.212670207 -0.157057270 -0.046543118 0.822412252 0.544797957
11886.707392 -1.066778421 -0.080318093 1.209911108 -0.169269353 -0.042524610 0.825664163 0.536486864
11886.744256 -1.057542920 -0.080985039 1.195821762 -0.177096248 -0.046423566 0.827979088 0.530030549
11886.781119 -1.055298805 -0.080838367 1.192331433 -0.180124611 -0.046673805 0.830665767 0.524758101
11886.817983 -1.053521276 -0.081739604 1.188915491 -0.181261554 -0.046539892 0.832606673 0.521290958
11886.854846 -1.045300126 -0.084581926 1.179463863 -0.186514750 -0.048623119 0.834580183 0.516065955
11886.891710 -1.043223143 -0.084392861 1.176173210 -0.186824650 -0.054987349 0.837956369 0.509805918
11886.928573 -1.040620565 -0.084413096 1.172776937 -0.188805029 -0.061817043 0.843246579 0.499466211
11886.965437 -1.030506134 -0.083523855 1.164363027 -0.194395408 -0.069601573 0.849793375 0.484991968
11887.002300 -1.027736187 -0.083804555 1.160329103 -0.195801198 -0.073889926 0.855254769 0.474068999
11887.039164 -1.018134594 -0.083097272 1.156653523 -0.207002804 -0.087911710 0.860262215 0.457569927
11887.076027 -1.013668418 -0.083494000 1.147475004 -0.213086933 -0.104719609 0.862261713 0.447361797
11887.112890 -1.012593985 -0.083107606 1.145168543 -0.216535971 -0.119985171 0.861443937 0.443429917
11887.149754 -1.007529378 -0.080666393 1.139870524 -0.218747720 -0.127782851 0.862587512 0.437908322
11887.186618 -1.002922654 -0.081301078 1.131677151 -0.218479782 -0.125329897 0.865360916 0.433254570
11887.223481 -1.000106335 -0.082345873 1.126304150 -0.216802657 -0.116984539 0.867365539 0.432421297
11887.260345 -0.997613430 -0.080536775 1.120082140 -0.212086350 -0.108944751 0.867293894 0.436980188
11887.297208 -0.996123850 -0.080660574 1.118005872 -0.210055545 -0.099188723 0.867181301 0.440493941
11887.334071 -0.993319392 -0.080724433 1.114303708 -0.209511578 -0.091950156 0.868648887 0.439430445
11887.370935 -0.987683058 -0.082082003 1.103293777 -0.208037406 -0.085357226 0.870188415 0.438413799
11887.407799 -0.984957457 -0.081996754 1.098150969 -0.205423057 -0.082408167 0.869890630 0.440795362
11887.444662 -0.983519316 -0.083733991 1.093747139 -0.202428997 -0.078390062 0.869086981 0.444483221
11887.481525 -0.978907347 -0.083015174 1.086513996 -0.199493825 -0.077984564 0.870227993 0.443648279
11887.518389 -0.977138758 -0.082871109 1.082626104 -0.196159780 -0.076056093 0.871256053 0.443452060
11887.555252 -0.974994361 -0.084336549 1.077386737 -0.194318891 -0.074561968 0.871620357 0.443800211
11887.592116 -0.974950433 -0.085491732 1.073639631 -0.190086216 -0.073926307 0.871354759 0.446254402
11887.628979 -0.968362927 -0.082084715 1.065796852 -0.189172611 -0.079318456 0.873259425 0.441973150
11887.665843 -0.966288090 -0.081364781 1.061509371 -0.190302268 -0.086169235 0.871329725 0.444009483
11887.702707 -0.963937700 -0.082433753 1.056179047 -0.190830588 -0.088354893 0.869936943 0.446079403
11887.739570 -0.960361719 -0.082649149 1.050616264 -0.190204054 -0.087774456 0.869493842 0.447323680
11887.776433 -0.958882332 -0.082714558 1.047154188 -0.189400464 -0.087718174 0.868582070 0.449442089
11887.813297 -0.956900477 -0.083125547 1.043038249 -0.189387351 -0.087676950 0.867208302 0.452100545
11887.850160 -0.955238223 -0.083529003 1.038164616 -0.187309206 -0.084472544 0.867057204 0.453862786
11887.887024 -0.951807380 -0.083383814 1.032663107 -0.184125438 -0.079258636 0.866877317 0.456442326
11887.923887 -0.950650275 -0.083570689 1.030504346 -0.180549458 -0.072842717 0.867440879 0.457866967
11887.960751 -0.949415803 -0.083570749 1.028324246 -0.177671716 -0.069249690 0.867242694 0.459921002
11887.997614 -0.948856831 -0.083436430 1.027577758 -0.175125122 -0.065630585 0.868230939 0.459563702
11888.034478 -0.948539615 -0.083811566 1.026264906 -0.172790721 -0.062951215 0.867991745 0.461270869
11888.071341 -0.947322965 -0.084225222 1.024304152 -0.172701895 -0.061815634 0.867493689 0.462393254
11888.108205 -0.945900738 -0.084690921 1.021710396 -0.174659342 -0.059661090 0.867222607 0.462449551
11888.145068 -0.944744349 -0.084865652 1.022452116 -0.179847717 -0.056390628 0.867461443 0.460418820
11888.181932 -0.944098592 -0.085709482 1.019714594 -0.185108393 -0.050210498 0.869006038 0.456116557
11888.218795 -0.942628264 -0.086491592 1.017676353 -0.192654252 -0.046045791 0.869974196 0.451562852
11888.255659 -0.942304075 -0.086461574 1.018537998 -0.200164571 -0.044387769 0.869749844 0.448886424
11888.292522 -0.939641356 -0.089203373 1.016244411 -0.211112469 -0.044015296 0.870306551 0.442787349
11888.329386 -0.939407110 -0.089646608 1.015335441 -0.219360873 -0.045587294 0.871738970 0.435744971
11888.366249 -0.939080358 -0.091093883 1.015235305 -0.224716380 -0.042767268 0.873445690 0.429844290
11888.403113 -0.937638640 -0.091424063 1.012684345 -0.227567896 -0.042180672 0.873421431 0.428449214
11888.439976 -0.935983181 -0.092742831 1.014020085 -0.232550040 -0.043735836 0.872992396 0.426487952
11888.476840 -0.935700774 -0.092970595 1.013708711 -0.236313745 -0.049162239 0.872045159 0.425765336
11888.513703 -0.935317636 -0.093438089 1.012786031 -0.241005972 -0.054300997 0.871962368 0.422668993
11888.550567 -0.936548293 -0.092622384 1.014789820 -0.244571254 -0.057913784 0.872023821 0.420006365
11888.587430 -0.936673999 -0.093826994 1.017507672 -0.250368416 -0.057390269 0.872867167 0.414879382
11888.624294 -0.936819971 -0.093807906 1.018006086 -0.254889607 -0.055876624 0.874565959 0.408709466
11888.661157 -0.936907172 -0.093791068 1.018251181 -0.258346319 -0.054072645 0.875824630 0.404060096
11888.698020 -0.937552989 -0.094016179 1.019418716 -0.260260612 -0.051725019 0.875374496 0.404114336
11888.734884 -0.938725233 -0.095601410 1.022597551 -0.262309939 -0.047390182 0.876669943 0.400496513
11888.771748 -0.939090967 -0.095593125 1.023097992 -0.263075203 -0.046654645 0.877075136 0.399191678
11888.808611 -0.939826310 -0.095619559 1.024150252 -0.263076246 -0.045444839 0.877387047 0.398644745
11888.845474 -0.940168619 -0.095691025 1.024932504 -0.262611926 -0.044507302 0.876968980 0.399974316
11888.882338 -0.941121578 -0.095798939 1.026351571 -0.260781437 -0.041724518 0.877031684 0.401332229
11888.919201 -0.945100307 -0.096463889 1.030824542 -0.257553101 -0.036562454 0.877805352 0.402227938
11888.956065 -0.946332574 -0.096510157 1.032417536 -0.254404396 -0.032527890 0.878403902 0.403270334
11888.992928 -0.948107481 -0.096185833 1.034458518 -0.251065910 -0.029342020 0.879637897 0.402916968
11889.029792 -0.949643850 -0.096382603 1.036497474 -0.247326851 -0.027045546 0.880226076 0.404103965
11889.066655 -0.950766683 -0.096683457 1.038117647 -0.243346885 -0.025840303 0.880351305 0.406320274
11889.103519 -0.956217766 -0.095982119 1.044958949 -0.236332074 -0.024794050 0.882117927 0.406694382
11889.140383 -0.958111465 -0.095354676 1.048240781 -0.232172191 -0.025199400 0.883272588 0.406559467
11889.177246 -0.960744619 -0.093173191 1.054220796 -0.228882179 -0.026364684 0.886072338 0.402235895
11889.214109 -0.963757038 -0.089981735 1.060460091 -0.224670306 -0.027301056 0.887727439 0.400896341
11889.250973 -0.966158986 -0.088834018 1.065030575 -0.222688153 -0.027194818 0.887699664 0.402069300
11889.287836 -0.967528880 -0.088517770 1.067316055 -0.223167285 -0.028863948 0.886684179 0.403923780
11889.324700 -0.969478369 -0.088995919 1.066683650 -0.224463120 -0.028020479 0.884383142 0.408286065
11889.361563 -0.970718861 -0.088559940 1.069379926 -0.228221342 -0.024355927 0.882824719 0.409807712
11889.398427 -0.972257853 -0.088926375 1.071085334 -0.232724115 -0.017269580 0.882322252 0.408715844
11889.435290 -0.973555863 -0.088851631 1.072117686 -0.237869337 -0.011347127 0.881940305 0.406780839
11889.472154 -0.974481821 -0.089332551 1.075021863 -0.245183200 -0.006867507 0.881296158 0.403924644
11889.509017 -0.976843357 -0.088741928 1.077597380 -0.250371784 -0.005565965 0.878228307 0.407428533
11889.545881 -0.977840304 -0.088792413 1.082170129 -0.258016855 -0.003930503 0.877003193 0.405311376
11889.582744 -0.979125440 -0.089252263 1.084446669 -0.264252126 -0.001428439 0.876316309 0.402788430
11889.619608 -0.980757594 -0.089344710 1.088073015 -0.270701230 -0.000636010 0.874849379 0.401695192
11889.656471 -0.982871056 -0.088260531 1.091565371 -0.274831802 -0.000290796 0.872855842 0.403224558
11889.693335 -0.984866619 -0.089071035 1.093948364 -0.278487086 0.004160177 0.872136593 0.402250469
11889.730198 -0.986077309 -0.090082735 1.097284198 -0.283349305 0.009861052 0.870317459 0.402695298
11889.767062 -0.988337278 -0.091731578 1.102223754 -0.288015038 0.018379794 0.869180977 0.401539505
11889.803925 -0.989284217 -0.092686802 1.104545236 -0.292830676 0.027266541 0.867964327 0.400180787
11889.840789 -0.989764988 -0.092798263 1.106232285 -0.296674579 0.037203368 0.868223488 0.395964742
11889.877652 -0.991410136 -0.096541613 1.107001066 -0.300763637 0.054129649 0.866640389 0.394392699
11889.914515 -0.993324041 -0.098386049 1.110251904 -0.306902796 0.067627579 0.864948153 0.391282320
11889.951379 -0.997018933 -0.101990879 1.113039017 -0.314192683 0.082957134 0.861917794 0.389228523
11889.988243 -0.997848213 -0.102180839 1.116718054 -0.325502336 0.094274655 0.861337006 0.378495812
11890.025106 -0.999655306 -0.104664624 1.118249774 -0.334939003 0.108727351 0.856928110 0.376388699
11890.061970 -1.001286745 -0.105653584 1.120688915 -0.344503134 0.124877214 0.852348685 0.373128623
11890.098833 -1.001620650 -0.106869400 1.122217894 -0.355890423 0.139704853 0.848415196 0.366082340
11890.135696 -1.002942443 -0.107467353 1.124678016 -0.367990911 0.150211111 0.845202625 0.357283920
11890.172560 -1.003585577 -0.108288050 1.125609159 -0.379526615 0.156746611 0.842046261 0.349783063
11890.209424 -1.003713012 -0.109109461 1.126832604 -0.390218854 0.162922323 0.839759350 0.340572774
11890.246287 -1.008285761 -0.106168389 1.133726358 -0.396784693 0.168747798 0.839670002 0.330212623
11890.283150 -1.004330158 -0.108806312 1.128154755 -0.405033410 0.178002566 0.838774741 0.317364156
11890.320014 -1.006324291 -0.107969344 1.130689621 -0.411089391 0.185741574 0.836677969 0.310605198
