4030.007200 0.000000000 0.000000000 0.000000000 0.000000000 0.000000000 0.000000000 1.000000000
4030.044064 0.015802732 -0.006599021 0.004893282 -0.000979470 -0.004368642 -0.001163593 0.999989271
4030.080927 0.028697092 -0.014433052 0.012165706 -0.001987811 -0.006805212 -0.000985680 0.999974370
4030.117791 0.038151320 -0.022139650 0.020713337 -0.000571659 -0.007711167 0.000091138 0.999970078
4030.154654 0.048683889 -0.032866374 0.027205996 0.000528684 -0.010367570 0.005713915 0.999929786
4030.191517 0.057621688 -0.041207939 0.034993891 0.003638514 -0.014994826 0.012564243 0.999801993
4030.228381 0.063315310 -0.053205371 0.042417221 0.004464615 -0.021072194 0.018262234 0.999601185
4030.265244 0.065874785 -0.059811555 0.052039400 0.008598500 -0.028785568 0.022719169 0.999290407
4030.302108 0.068728186 -0.075773552 0.055617604 0.008460626 -0.039600383 0.024123834 0.998888493
4030.338971 0.066295281 -0.083229616 0.065644890 0.014747714 -0.049152512 0.023498334 0.998405933
4030.375834 0.063726470 -0.100663468 0.070558153 0.017339934 -0.057975467 0.022949219 0.997903585
4030.412697 0.058569420 -0.114821889 0.076433390 0.020321187 -0.065123834 0.023413245 0.997395456
4030.449561 0.051009748 -0.127141967 0.080060735 0.022665787 -0.069116376 0.024787534 0.997043014
4030.486424 0.039927542 -0.135768071 0.086981028 0.026054488 -0.070430338 0.026315983 0.996829093
4030.523288 0.031202391 -0.145500749 0.091440730 0.026928792 -0.072912849 0.026531458 0.996621609
4030.560151 0.024028737 -0.152438819 0.095084846 0.025800930 -0.075909771 0.026389953 0.996431410
4030.597014 0.011871489 -0.162434548 0.101920038 0.020703852 -0.074307859 0.026722791 0.996662259
4030.633878 0.002214761 -0.171310157 0.106803983 0.012111354 -0.071974508 0.028955070 0.996912539
4030.670741 -0.008362541 -0.179057926 0.111886352 0.001840502 -0.066964321 0.032089103 0.997237563
4030.707604 -0.019837322 -0.185466707 0.114962213 -0.007680745 -0.060146071 0.037223093 0.997465730
4030.744468 -0.034264334 -0.189419761 0.119365670 -0.015435527 -0.051924143 0.043086153 0.997601748
4030.781331 -0.047087915 -0.190692320 0.121185571 -0.019705873 -0.046503026 0.048673369 0.997537017
4030.818194 -0.060754187 -0.193925500 0.121937014 -0.024283033 -0.042487659 0.052637044 0.997413874
4030.855057 -0.074490465 -0.195045665 0.124208525 -0.026515761 -0.040392555 0.053876981 0.997377872
4030.891921 -0.089039378 -0.197214812 0.125805914 -0.029898293 -0.037959568 0.052398898 0.997456491
4030.928784 -0.102913558 -0.199040800 0.129363611 -0.032959793 -0.036184601 0.049572088 0.997570515
4030.965648 -0.117694497 -0.203260586 0.132284567 -0.038410056 -0.032068238 0.046314821 0.997672915
4031.002511 -0.132053792 -0.203283891 0.134338066 -0.040691506 -0.026702801 0.045808878 0.997763872
4031.039374 -0.146391749 -0.205895066 0.137055382 -0.043685045 -0.020883551 0.043089811 0.997897148
4031.076238 -0.161353260 -0.207656756 0.139096782 -0.044684775 -0.014408246 0.040498171 0.998075902
4031.113101 -0.176105797 -0.210957319 0.141546741 -0.045186169 -0.008366651 0.037484523 0.998240054
4031.149964 -0.191335484 -0.213110924 0.143125743 -0.043629829 -0.002404594 0.035172712 0.998425543
4031.186828 -0.205013752 -0.216422498 0.144932553 -0.046225011 0.002634445 0.034540407 0.998330235
4031.223691 -0.220823944 -0.218967691 0.147160530 -0.048737492 0.008386687 0.035171233 0.998156965
4031.260554 -0.235934123 -0.222629651 0.149886847 -0.051609594 0.012060497 0.037312694 0.997897208
4031.297418 -0.250856996 -0.227417976 0.152298182 -0.054492034 0.014205150 0.040731240 0.997581959
4031.334281 -0.264119536 -0.231345430 0.153507680 -0.053832944 0.012715189 0.044751201 0.997465611
4031.371145 -0.277438790 -0.235771924 0.158037409 -0.052372638 0.011668100 0.047311097 0.997438073
4031.408008 -0.289348155 -0.240601972 0.160659865 -0.051559463 0.010931279 0.051763780 0.997267544
4031.444871 -0.299684078 -0.244869456 0.163001299 -0.051883928 0.010900848 0.054368272 0.997112513
4031.481735 -0.309098512 -0.250053316 0.168361619 -0.054421689 0.011903904 0.056528732 0.996845543
4031.518598 -0.315977663 -0.255540043 0.172110617 -0.056342989 0.012528814 0.061194513 0.996455550
4031.555461 -0.322188288 -0.262142777 0.175834984 -0.057094079 0.013683646 0.063828871 0.996232331
4031.592325 -0.326993316 -0.269775629 0.182007432 -0.057149597 0.014653455 0.066076241 0.996068835
4031.629188 -0.329247624 -0.275933117 0.186444238 -0.055662919 0.014132685 0.068538323 0.995994210
4031.666051 -0.331063062 -0.282575309 0.190917701 -0.053243171 0.013548847 0.071966261 0.995892763
4031.702914 -0.330224127 -0.287828803 0.194636405 -0.049159911 0.010879277 0.074150227 0.995975256
4031.739778 -0.328058571 -0.294681191 0.198331237 -0.046192281 0.007271386 0.077955723 0.995859563
4031.776641 -0.323734671 -0.299588233 0.202647626 -0.042255975 0.002640145 0.082993306 0.995650351
4031.813505 -0.318144470 -0.304011047 0.204993501 -0.041391775 -0.001664934 0.089505695 0.995124459
4031.850368 -0.309770048 -0.308300585 0.207367197 -0.042739119 -0.007771784 0.094379596 0.994588077
4031.887231 -0.300727248 -0.313092828 0.212422177 -0.045407552 -0.013802870 0.097734153 0.994080305
4031.924095 -0.288813561 -0.319115311 0.215404153 -0.047437791 -0.021568812 0.097884521 0.993832529
4031.960958 -0.276039809 -0.322322637 0.218620345 -0.047825068 -0.028470201 0.099016443 0.993528068
4031.997821 -0.261863321 -0.325208694 0.223017409 -0.046840578 -0.033312336 0.099778444 0.993348122
4032.034685 -0.245724931 -0.330953866 0.226365417 -0.048575375 -0.036856268 0.102264076 0.992886722
4032.071548 -0.227773041 -0.334768206 0.231481865 -0.049435642 -0.039855860 0.104128785 0.992534518
4032.108411 -0.210628644 -0.337837249 0.234190822 -0.050291505 -0.042493597 0.105205737 0.992268562
4032.145275 -0.193183303 -0.341912448 0.237705499 -0.051240940 -0.045145933 0.107157446 0.991893888
4032.182138 -0.171645477 -0.348371923 0.241880402 -0.053785346 -0.051727396 0.107701711 0.991378725
4032.219002 -0.153064340 -0.350137830 0.246101514 -0.051735867 -0.058315471 0.107501224 0.991143882
4032.255865 -0.135235786 -0.352585077 0.249809384 -0.051420674 -0.066493526 0.105222784 0.990889847
4032.292728 -0.117216289 -0.357000202 0.255466133 -0.053332232 -0.075800896 0.101514719 0.990507305
4032.329592 -0.100856267 -0.362547070 0.259635299 -0.055375148 -0.084637277 0.095934615 0.990235627
4032.366455 -0.083124682 -0.366306007 0.263158351 -0.053916473 -0.093836874 0.092933245 0.989773214
4032.403318 -0.070129186 -0.366909415 0.264827162 -0.048753411 -0.099596553 0.088081203 0.989921868
4032.440181 -0.058885939 -0.368919253 0.265618056 -0.043693859 -0.102916732 0.085904174 0.990009844
4032.477045 -0.040257465 -0.375731051 0.270032644 -0.044249762 -0.112644263 0.083161876 0.989159942
4032.513908 -0.026549023 -0.378650606 0.271998405 -0.042333629 -0.120944567 0.077659331 0.988710940
4032.550771 -0.012243733 -0.382442981 0.277143478 -0.041993346 -0.130590945 0.072887339 0.987861335
4032.587635 0.001231253 -0.386233240 0.282743096 -0.043746550 -0.140637085 0.067852519 0.986764133
4032.624498 0.013807654 -0.388333410 0.288277209 -0.045988929 -0.151461035 0.061574865 0.985471010
4032.661361 0.026909262 -0.387543589 0.292497158 -0.046714798 -0.162368387 0.054940943 0.984091341
4032.698225 0.038055576 -0.386565238 0.297505081 -0.046962589 -0.171345130 0.047240298 0.982956648
4032.735088 0.051572822 -0.384814143 0.301462770 -0.046565212 -0.179741010 0.038728710 0.981847703
4032.771952 0.064235538 -0.381547928 0.304473132 -0.046316259 -0.185535014 0.032578573 0.981004715
4032.808815 0.076677009 -0.378764868 0.307438940 -0.046924762 -0.189105704 0.026985109 0.980463624
4032.845678 0.089784741 -0.374433100 0.310908973 -0.049218867 -0.191892356 0.020468948 0.979967237
4032.882542 0.103084356 -0.370274544 0.314264566 -0.052032981 -0.193439767 0.014187636 0.979628682
4032.919405 0.116347663 -0.365703255 0.318391532 -0.055612221 -0.194255441 0.006779588 0.979349852
4032.956268 0.131347671 -0.358497351 0.321571499 -0.057737287 -0.195009574 -0.001977575 0.979098439
4032.993132 0.145701721 -0.351870835 0.324444234 -0.059606269 -0.195084497 -0.009262524 0.978929698
4033.029995 0.159923613 -0.345762432 0.326093942 -0.060181431 -0.195095479 -0.016195545 0.978802145
4033.066859 0.174896628 -0.337859243 0.329450637 -0.060546558 -0.196340635 -0.023750588 0.978376389
4033.103722 0.189475507 -0.331082880 0.332198679 -0.061188228 -0.198044479 -0.031293973 0.977780700
4033.140585 0.203989387 -0.324554920 0.334567189 -0.061064150 -0.201281667 -0.040090039 0.976805806
4033.177449 0.218309999 -0.319299340 0.338924915 -0.063923441 -0.205872297 -0.047929574 0.975311816
4033.214312 0.233305693 -0.314261049 0.341746271 -0.064937703 -0.211925313 -0.052605465 0.973706007
4033.251175 0.247136235 -0.310649484 0.346649468 -0.065106288 -0.220460773 -0.057922371 0.971495330
4033.288038 0.259348065 -0.309003979 0.351338893 -0.065628029 -0.229613647 -0.060702696 0.969167531
4033.324902 0.272379458 -0.308733761 0.354288280 -0.063946165 -0.240462184 -0.061650258 0.966585755
4033.361765 0.284479231 -0.311365485 0.357785106 -0.061229885 -0.252798766 -0.061056670 0.963647127
4033.398628 0.295235068 -0.313992620 0.361150175 -0.056653239 -0.266011387 -0.059240159 0.960478544
4033.435492 0.302783638 -0.318758965 0.362915099 -0.052777667 -0.278561324 -0.058819342 0.957161605
4033.472355 0.309343368 -0.324345350 0.365976036 -0.052153807 -0.292404920 -0.059272438 0.953029990
4033.509218 0.315089762 -0.328832537 0.369906753 -0.052608896 -0.306645513 -0.060515970 0.948440135
4033.546082 0.319471389 -0.332691640 0.372598678 -0.053747118 -0.319079161 -0.062345363 0.944146574
4033.582945 0.323321819 -0.336125016 0.375869900 -0.054578025 -0.330357611 -0.068442613 0.939787567
4033.619809 0.328363806 -0.340136379 0.379250973 -0.056732815 -0.339051813 -0.074282691 0.936112881
4033.656672 0.328916520 -0.340878457 0.383285314 -0.057480581 -0.341819793 -0.080223553 0.934569120
4033.693535 0.331380844 -0.342360109 0.388480783 -0.057268254 -0.343750626 -0.085696019 0.933387399
4033.730399 0.334069103 -0.344408125 0.392753571 -0.056142721 -0.343407184 -0.091711387 0.933010459
4033.767262 0.335821778 -0.346372873 0.397551000 -0.055383075 -0.342281997 -0.099051580 0.932718933
4033.804125 0.339339733 -0.348891497 0.401975930 -0.055006590 -0.342365235 -0.107601419 0.931762993
4033.840989 0.340748280 -0.349545747 0.407562464 -0.054104738 -0.342007458 -0.114849858 0.931081653
4033.877852 0.343404442 -0.351676464 0.413167059 -0.054714568 -0.342060804 -0.120405585 0.930324256
4033.914715 0.345503002 -0.352384299 0.418880105 -0.054016206 -0.342493892 -0.124774791 0.929629743
4033.951579 0.352017492 -0.355196059 0.428189337 -0.053763233 -0.348287016 -0.129241034 0.926877797
4033.988442 0.360071987 -0.356882930 0.437684119 -0.052633718 -0.354747415 -0.133160561 0.923933029
4034.025306 0.359986782 -0.361278921 0.440845221 -0.053739287 -0.355726123 -0.137320325 0.922883630
4034.062169 0.365749806 -0.364232570 0.449366778 -0.051639773 -0.361138493 -0.139917925 0.920508146
4034.099032 0.371758342 -0.367409796 0.458496839 -0.048707262 -0.366853893 -0.141160727 0.918215394
4034.135895 0.379679620 -0.371180177 0.466676831 -0.046327710 -0.372585297 -0.141943112 0.915907264
4034.172759 0.385243624 -0.373592705 0.474153131 -0.043154396 -0.376866579 -0.142706737 0.914190412
4034.209622 0.395626128 -0.378633410 0.485286295 -0.040503107 -0.386048555 -0.145323649 0.910058796
4034.246485 0.404625714 -0.382923216 0.496357143 -0.036902726 -0.394218922 -0.147997528 0.906270623
4034.283349 0.410143614 -0.384315759 0.505854905 -0.033838809 -0.398129344 -0.150306433 0.904298604
4034.320212 0.419066817 -0.389371574 0.514895976 -0.034653138 -0.402987152 -0.154266387 0.901444614
4034.357075 0.426772267 -0.394425124 0.528693259 -0.036291063 -0.409971654 -0.160407946 0.897148490
4034.393939 0.434013188 -0.399247706 0.539610982 -0.037405100 -0.414241731 -0.167755112 0.893791318
4034.430802 0.441383988 -0.402935147 0.548903227 -0.034804530 -0.417723447 -0.174619496 0.890956700
4034.467666 0.448946416 -0.408734798 0.559995830 -0.032765877 -0.422337651 -0.177753717 0.888234735
4034.504529 0.455225170 -0.411794066 0.569394469 -0.028204676 -0.425895363 -0.180140808 0.886209309
4034.541392 0.460493743 -0.416736096 0.577268779 -0.026906839 -0.429175258 -0.180520773 0.884588540
4034.578255 0.465535045 -0.417801797 0.586071968 -0.024709653 -0.433886945 -0.180463970 0.882362902
4034.615119 0.470127344 -0.420679599 0.593145370 -0.024566373 -0.439458936 -0.181527525 0.879386246
4034.651982 0.474731624 -0.424651235 0.601916969 -0.026756436 -0.446657985 -0.182558388 0.875473142
4034.688846 0.479021132 -0.427280098 0.608364582 -0.027418738 -0.453160107 -0.182931378 0.872026563
4034.725709 0.485101551 -0.430372894 0.616767526 -0.027652577 -0.461594164 -0.181429520 0.867899477
4034.762572 0.490327388 -0.430656493 0.622379720 -0.025125176 -0.468275249 -0.179259211 0.864842832
4034.799436 0.497047186 -0.431148142 0.629024744 -0.022632938 -0.475712955 -0.175314426 0.861655295
4034.836299 0.502749681 -0.431539387 0.635128260 -0.021688318 -0.482348025 -0.170826137 0.858887911
4034.873162 0.510046482 -0.431450903 0.642855644 -0.021860804 -0.490649045 -0.166571483 0.855008543
4034.910026 0.516806304 -0.430645555 0.650775790 -0.022055652 -0.499506712 -0.162632883 0.850621641
4034.946889 0.524490178 -0.428702116 0.658727527 -0.023087598 -0.507887363 -0.159363136 0.846239209
4034.983752 0.531916738 -0.426504016 0.666713655 -0.026247516 -0.515284777 -0.156591684 0.842182696
4035.020616 0.539119005 -0.424775273 0.674908936 -0.030610885 -0.521754920 -0.155928284 0.838165343
4035.057479 0.547466278 -0.419678032 0.685197949 -0.034028351 -0.528342187 -0.155166611 0.834038317
4035.094342 0.556067586 -0.416041553 0.693485081 -0.038596805 -0.532027781 -0.157089725 0.831131458
4035.131206 0.565864801 -0.409102261 0.704791069 -0.043051124 -0.535466194 -0.157848701 0.828556776
4035.168069 0.572170138 -0.403400123 0.713961720 -0.049623925 -0.535671353 -0.157756701 0.828073978
4035.204932 0.579367399 -0.396097004 0.726863384 -0.054912902 -0.538590491 -0.159481719 0.825512230
4035.241796 0.586814046 -0.391601086 0.737174034 -0.062243592 -0.540723622 -0.162449315 0.823015153
4035.278659 0.594892025 -0.387414783 0.747446418 -0.068709388 -0.543855309 -0.166174486 0.819686770
4035.315523 0.602465928 -0.382264823 0.757913649 -0.074246459 -0.546758831 -0.168345392 0.816824377
4035.352386 0.608863235 -0.377870351 0.768256724 -0.078572303 -0.549325645 -0.169236138 0.814510226
4035.389249 0.617031872 -0.373140484 0.780013382 -0.082596406 -0.553441226 -0.168001652 0.811576247
4035.426112 0.623095930 -0.369379491 0.790865183 -0.088129647 -0.557270765 -0.166373849 0.808704019
4035.462976 0.628386796 -0.364474595 0.798598826 -0.092681460 -0.560023248 -0.164596766 0.806654871
4035.499839 0.636541009 -0.357140779 0.809235156 -0.094826601 -0.566255510 -0.161118105 0.802747488
4035.536703 0.640295863 -0.352946371 0.817706287 -0.097346060 -0.571279883 -0.160703287 0.798960268
4035.573566 0.644124746 -0.348482370 0.826427102 -0.097281039 -0.577184975 -0.159780160 0.794898868
4035.610429 0.648082852 -0.344282091 0.833745420 -0.094244331 -0.582529843 -0.157960534 0.791723073
4035.647293 0.652142167 -0.340869665 0.841189265 -0.091207236 -0.587660551 -0.156231910 0.788624108
4035.684156 0.656444669 -0.337002933 0.847873926 -0.088374726 -0.592828512 -0.155475363 0.785220742
4035.721019 0.661180973 -0.333825707 0.855226636 -0.086162925 -0.599253118 -0.156092241 0.780452967
4035.757883 0.665418088 -0.330385208 0.861605704 -0.083994865 -0.606247604 -0.157625392 0.774959922
4035.794746 0.670639038 -0.326080918 0.868873835 -0.081462421 -0.614784718 -0.159556866 0.768078923
4035.831609 0.677349865 -0.324205935 0.875596583 -0.081658177 -0.622880220 -0.162859097 0.760808170
4035.868473 0.683260381 -0.321978867 0.881368399 -0.081092641 -0.629621744 -0.166192591 0.754572988
4035.905336 0.689866543 -0.320235610 0.889842272 -0.080724552 -0.636853874 -0.168982342 0.747894108
4035.942199 0.696043909 -0.319422603 0.896965921 -0.079367623 -0.641403437 -0.172255665 0.743391097
4035.979063 0.702637374 -0.318756402 0.904796422 -0.076172851 -0.645114422 -0.175044179 0.739854395
4036.015926 0.708808184 -0.319288135 0.914337099 -0.073878631 -0.647727728 -0.177804515 0.737140596
4036.052789 0.716916680 -0.318980217 0.925872684 -0.069184974 -0.650655210 -0.180406988 0.734380364
4036.089653 0.722220957 -0.320933461 0.934169412 -0.065800533 -0.650554061 -0.185263753 0.733571410
4036.126516 0.728007317 -0.321502090 0.945256472 -0.062975377 -0.651272774 -0.188555479 0.732341945
4036.163380 0.732918859 -0.322404146 0.954797864 -0.059075724 -0.651770532 -0.193764448 0.730862916
4036.200243 0.739166856 -0.323115021 0.968407989 -0.055474721 -0.655097187 -0.198124215 0.726991773
4036.237106 0.744773924 -0.323729575 0.980255961 -0.051939309 -0.657578826 -0.202738553 0.723733008
4036.273969 0.750054538 -0.323100626 0.993374050 -0.048931304 -0.661331475 -0.206449762 0.719461560
4036.310833 0.755465150 -0.322876751 1.004870772 -0.048127327 -0.664926410 -0.209735915 0.715239465
4036.347696 0.761689186 -0.320363909 1.020329475 -0.046925578 -0.670689583 -0.211781457 0.709311008
4036.421423 0.772686303 -0.316157341 1.045447350 -0.046332199 -0.678342640 -0.213755175 0.701436639
4036.458286 0.777185798 -0.313003480 1.056928158 -0.046771280 -0.680255711 -0.214072779 0.699455142
4036.495150 0.782154739 -0.310745418 1.068370938 -0.048114952 -0.681741178 -0.213201135 0.698182821
4036.532013 0.787600458 -0.307897031 1.081568956 -0.048716985 -0.684034765 -0.211278036 0.696480215
4036.568876 0.793924451 -0.304839790 1.092193246 -0.048338044 -0.684026480 -0.211359456 0.696490049
4036.605740 0.800841451 -0.302256048 1.102193117 -0.048875898 -0.682968140 -0.211319551 0.697502434
4036.642603 0.808450818 -0.297858000 1.112252355 -0.046739183 -0.681612670 -0.210619673 0.699184477
4036.679466 0.817547083 -0.294309855 1.119959116 -0.043665476 -0.678998232 -0.209274486 0.702323973
4036.716330 0.825577736 -0.290556520 1.127797008 -0.040329922 -0.675355852 -0.208733514 0.706185758
4036.753193 0.834986389 -0.285637021 1.136258006 -0.037889089 -0.671769083 -0.206178084 0.710479617
4036.790056 0.845754862 -0.278100610 1.146126866 -0.034815393 -0.669816434 -0.203718811 0.713184774
4036.826920 0.853886902 -0.273073524 1.152271628 -0.033596344 -0.667394519 -0.204008177 0.715427458
4036.863783 0.865480185 -0.264695942 1.158048034 -0.032486517 -0.666360199 -0.200828075 0.717340112
4036.900646 0.872196674 -0.259824872 1.162203193 -0.031442579 -0.666112006 -0.199982613 0.717853189
