4030.007200 0.000000000 0.000000000 0.000000000 0.000000000 0.000000000 0.000000000 1.000000000
4030.044064 0.015245965 -0.006534472 0.006136130 -0.000938643 -0.004089909 -0.001099311 0.999990582
4030.080927 0.028041489 -0.013855595 0.013629988 -0.001580555 -0.006375988 -0.000607429 0.999978244
4030.117791 0.037812177 -0.023133548 0.021562070 -0.001092523 -0.007396000 0.000072204 0.999972045
4030.154654 0.049002733 -0.032362171 0.028070513 0.001037209 -0.010476011 0.006797770 0.999921441
4030.191517 0.056365542 -0.041062020 0.036883280 0.004005139 -0.014237748 0.013154305 0.999804080
4030.228381 0.064830735 -0.052473374 0.043315016 0.004997029 -0.022082608 0.018977910 0.999563515
4030.265244 0.066754811 -0.059756503 0.052210655 0.008805000 -0.029468235 0.023283068 0.999255717
4030.302108 0.070484579 -0.073234499 0.057232596 0.010049847 -0.040784743 0.024332901 0.998821080
4030.338971 0.068624593 -0.091991104 0.063539088 0.010068221 -0.050102495 0.024352344 0.998396397
4030.375834 0.065029077 -0.099480130 0.070052207 0.018025834 -0.058548708 0.024379268 0.997824013
4030.412697 0.058191098 -0.115746059 0.076330759 0.019737434 -0.064568572 0.023483239 0.997441649
4030.449561 0.051474370 -0.127469301 0.080189548 0.022593403 -0.069105245 0.025633132 0.997024059
4030.486424 0.039989691 -0.136785388 0.088494159 0.025351958 -0.070168741 0.028007347 0.996819556
4030.523288 0.031718828 -0.144649789 0.093208812 0.027470464 -0.073073424 0.028423401 0.996542871
4030.560151 0.022385508 -0.154759794 0.098067820 0.024456287 -0.074730240 0.027514352 0.996524096
4030.597014 0.012876133 -0.165467322 0.102677062 0.018645875 -0.074669689 0.027220584 0.996662319
4030.633878 0.001558729 -0.175350338 0.107989490 0.009511325 -0.071511544 0.028405065 0.996989846
4030.670741 -0.007573645 -0.181746721 0.112336800 0.000493693 -0.067446180 0.032023996 0.997208714
4030.707604 -0.018617559 -0.187539801 0.115871474 -0.008688545 -0.060928375 0.038012933 0.997380197
4030.744468 -0.031341575 -0.190616205 0.118472233 -0.015629256 -0.053747959 0.043919180 0.997465789
4030.781331 -0.044674519 -0.193138108 0.120493330 -0.020966019 -0.048214447 0.049098369 0.997409225
4030.818194 -0.059642993 -0.194753319 0.122175440 -0.024450608 -0.043241493 0.052955754 0.997360528
4030.855057 -0.072079509 -0.196038559 0.124275982 -0.026833292 -0.042128243 0.054654207 0.997255266
4030.891921 -0.087719850 -0.197449863 0.126768038 -0.029777110 -0.039055750 0.052458145 0.997414708
4030.928784 -0.102003187 -0.200635180 0.130595759 -0.033789583 -0.036955547 0.049046550 0.997540474
4030.965648 -0.116918206 -0.202536941 0.133599043 -0.037272055 -0.032805268 0.046933051 0.997663200
4031.002511 -0.130470514 -0.204741403 0.135364488 -0.041240063 -0.028052960 0.045223206 0.997730970
4031.039374 -0.144966960 -0.207567200 0.137736678 -0.044398870 -0.022108277 0.042462543 0.997866154
4031.076238 -0.159583256 -0.209038883 0.139951542 -0.045249075 -0.015943760 0.040050562 0.998045206
4031.113101 -0.174442351 -0.212567374 0.141868874 -0.045782238 -0.009716486 0.037338287 0.998206139
4031.149964 -0.188573584 -0.214303911 0.143393576 -0.043993887 -0.004863072 0.035162214 0.998400986
4031.186828 -0.202573255 -0.217320502 0.144819677 -0.046271637 0.000473610 0.034077846 0.998347342
4031.223691 -0.218404219 -0.219793409 0.147073328 -0.048740756 0.006203701 0.034747399 0.998187602
4031.260554 -0.232959300 -0.223616272 0.149484798 -0.051888257 0.009405481 0.037077241 0.997920036
4031.297418 -0.248515651 -0.227287307 0.151849508 -0.053519357 0.011698966 0.040190883 0.997689068
4031.334281 -0.262261331 -0.231878594 0.154016390 -0.053598288 0.010864197 0.044294342 0.997520506
4031.371145 -0.274227470 -0.235859126 0.157604933 -0.051811494 0.008784959 0.047411900 0.997492135
4031.408008 -0.286743432 -0.241051406 0.160647109 -0.051287293 0.008589290 0.051812440 0.997301996
4031.444871 -0.297275335 -0.245122254 0.163856030 -0.051585738 0.008725936 0.054646287 0.997134149
4031.481735 -0.306076109 -0.249879196 0.167844832 -0.053830855 0.009581324 0.057103090 0.996869922
4031.518598 -0.313377917 -0.255450010 0.172346398 -0.055439472 0.010051293 0.061026592 0.996544600
4031.555461 -0.319815785 -0.261824727 0.176812083 -0.056102317 0.011346590 0.063845113 0.996316969
4031.592325 -0.325162619 -0.269831479 0.181746513 -0.056366932 0.012907686 0.065607734 0.996168554
4031.629188 -0.327358931 -0.275679708 0.185589328 -0.054583136 0.012425264 0.068118796 0.996105492
4031.666051 -0.329141527 -0.282447040 0.189168870 -0.052648649 0.011705401 0.070761926 0.996034086
4031.702914 -0.328486651 -0.288195282 0.192977235 -0.048908878 0.009224567 0.073443785 0.996056676
4031.739778 -0.325986505 -0.294912159 0.197894543 -0.045584854 0.005329882 0.077476397 0.995937288
4031.776641 -0.321972847 -0.299336821 0.202424020 -0.041301802 0.000761912 0.082740478 0.995714605
4031.813505 -0.315988600 -0.303979248 0.204177856 -0.040569648 -0.003721599 0.088206120 0.995268762
4031.850368 -0.308453858 -0.308334738 0.208234698 -0.042347431 -0.009112381 0.093509749 0.994675636
4031.887231 -0.297367007 -0.314977437 0.212674230 -0.046085320 -0.016826507 0.097147919 0.994059980
4031.924095 -0.286204606 -0.318378896 0.216266423 -0.046369046 -0.023866719 0.098161370 0.993803084
4031.960958 -0.272584885 -0.324152261 0.220781252 -0.048588239 -0.030999074 0.099247806 0.993392169
4031.997821 -0.257979155 -0.326377690 0.225176737 -0.047175389 -0.036392406 0.099563330 0.993245780
4032.034685 -0.243090734 -0.331188411 0.228118256 -0.048355479 -0.039155748 0.101189114 0.992919564
4032.071548 -0.226722002 -0.335386455 0.232616797 -0.049472839 -0.041421793 0.103116609 0.992574275
4032.108411 -0.208145455 -0.339243948 0.236093789 -0.051118534 -0.044746753 0.103574477 0.992298841
4032.145275 -0.189908877 -0.343874693 0.238609329 -0.052478593 -0.047889523 0.105970636 0.991828024
4032.182138 -0.170328096 -0.349745512 0.244147539 -0.054227930 -0.053153697 0.106065229 0.991455555
4032.219002 -0.153052881 -0.351992667 0.247375920 -0.052367456 -0.058855142 0.105234794 0.991322041
4032.255865 -0.136272803 -0.355546892 0.252221107 -0.052750632 -0.066333637 0.102615908 0.991104066
4032.292728 -0.116939053 -0.361086637 0.257384419 -0.055041097 -0.076227747 0.098493211 0.990686059
4032.329592 -0.098504514 -0.365417570 0.260740519 -0.056771994 -0.086693466 0.094596215 0.990107417
4032.366455 -0.078995220 -0.371294409 0.264047205 -0.056978881 -0.097132877 0.089825928 0.989570558
4032.403318 -0.069211885 -0.369457006 0.264559895 -0.049905416 -0.100666046 0.083771184 0.990130365
4032.440181 -0.056236874 -0.368810773 0.266097665 -0.043551832 -0.105566368 0.082528561 0.990024269
4032.477045 -0.039714847 -0.373666823 0.269698471 -0.042646270 -0.113747925 0.081096172 0.989275575
4032.513908 -0.024817813 -0.377901852 0.272375196 -0.041567083 -0.122817770 0.076146297 0.988630235
4032.550771 -0.010821830 -0.380818784 0.278398305 -0.040708639 -0.132483646 0.071317665 0.987777650
4032.587635 0.003383413 -0.384942949 0.281782508 -0.042567503 -0.142486379 0.067154117 0.986598194
4032.624498 0.015620403 -0.386668354 0.286785156 -0.044496603 -0.152911171 0.061433561 0.985324383
4032.661361 0.027718008 -0.386622578 0.291841060 -0.045668181 -0.163452551 0.053819586 0.984022915
4032.698225 0.039155409 -0.385748774 0.296422213 -0.045887906 -0.172605842 0.045639232 0.982862413
4032.735088 0.053136490 -0.384218901 0.300262988 -0.045713518 -0.181143299 0.037440524 0.981679976
4032.771952 0.064783424 -0.380671769 0.305676758 -0.045220695 -0.186710447 0.030885516 0.980887532
4032.808815 0.077021621 -0.378112704 0.308660924 -0.045898292 -0.190156937 0.025284279 0.980354249
4032.845678 0.089396164 -0.373714954 0.313212991 -0.048272099 -0.192858830 0.019732349 0.979839742
4032.882542 0.103419527 -0.369146138 0.316187441 -0.050833888 -0.194599375 0.012702114 0.979482293
4032.919405 0.117303342 -0.364216983 0.320007086 -0.054248899 -0.195292264 0.005372128 0.979228854
4032.956268 0.129512399 -0.359406561 0.324109197 -0.057866752 -0.195098549 -0.003666839 0.979068220
4032.993132 0.146561950 -0.351121336 0.325900614 -0.058400735 -0.196311027 -0.009850143 0.978751421
4033.029995 0.160417497 -0.344703764 0.329420894 -0.059065886 -0.196883425 -0.017620193 0.978487432
4033.066859 0.175281495 -0.337585509 0.331110239 -0.059710201 -0.197333083 -0.024446351 0.978210986
4033.103722 0.189780310 -0.331236929 0.333466262 -0.060492642 -0.198859423 -0.032274708 0.977626681
4033.140585 0.204438031 -0.324045897 0.336079597 -0.059950031 -0.202104717 -0.041245215 0.976656795
4033.177449 0.218589902 -0.318045348 0.341145784 -0.062430594 -0.206747279 -0.048082933 0.975215852
4033.214312 0.233713478 -0.312876910 0.344630003 -0.063442387 -0.213134229 -0.052889004 0.973525345
4033.251175 0.247881249 -0.309386224 0.348476648 -0.063618101 -0.221514538 -0.058050886 0.971346557
4033.288038 0.260874361 -0.307588279 0.353274763 -0.063923739 -0.231198758 -0.060722049 0.968903363
4033.324902 0.272630602 -0.308243424 0.356190026 -0.063028790 -0.241390333 -0.062476296 0.966361642
4033.361765 0.284667820 -0.310162038 0.359762222 -0.059840780 -0.253612876 -0.061004147 0.963523805
4033.398628 0.294826746 -0.312626898 0.361882687 -0.055218007 -0.265498608 -0.058421768 0.960754037
4033.435492 0.304194808 -0.317262858 0.364104420 -0.051051099 -0.279568404 -0.058369130 0.956989229
4033.472355 0.310684502 -0.322700530 0.368072063 -0.050308399 -0.293726325 -0.059578225 0.952703714
4033.509218 0.316476256 -0.327478498 0.371008813 -0.050749112 -0.307581425 -0.060654260 0.948229551
4033.546082 0.321036160 -0.331579745 0.374748737 -0.052216168 -0.320744455 -0.063091569 0.943618536
4033.582945 0.324052095 -0.335050821 0.377388895 -0.053057492 -0.330783248 -0.068833224 0.939696431
4033.619809 0.328275472 -0.337935477 0.382148802 -0.054442890 -0.340013593 -0.074959263 0.935846090
4033.656672 0.330332160 -0.339868009 0.385881394 -0.055948615 -0.343654394 -0.080637418 0.933953464
4033.693535 0.332002759 -0.342107594 0.389639199 -0.056408711 -0.344190598 -0.086112328 0.933239281
4033.730399 0.335677475 -0.345631450 0.395414233 -0.056394100 -0.345094353 -0.091956325 0.932348430
4033.767262 0.338269323 -0.346898317 0.399866015 -0.055064436 -0.344210446 -0.099330693 0.931998134
4033.804125 0.341069907 -0.348206699 0.405249715 -0.054056287 -0.344312042 -0.107399493 0.931124330
4033.840989 0.342646301 -0.350051910 0.410570830 -0.053695455 -0.344159484 -0.115842573 0.930189013
4033.877852 0.347336262 -0.350849897 0.419883311 -0.053686693 -0.346799970 -0.120158181 0.928660095
4033.914715 0.351406366 -0.351675779 0.425704986 -0.052983094 -0.348325074 -0.123891018 0.927638650
4033.951579 0.351607710 -0.353746116 0.427232862 -0.052306548 -0.347529411 -0.128401726 0.927362025
4033.988442 0.355626762 -0.356615275 0.435050070 -0.052447330 -0.351831526 -0.133001491 0.925080776
4034.025306 0.361013025 -0.359356284 0.443164945 -0.051857594 -0.357078135 -0.136579692 0.922578990
4034.062169 0.366978407 -0.362570256 0.451924980 -0.049768094 -0.362930149 -0.139405981 0.919984162
4034.099032 0.373372227 -0.365676939 0.460871071 -0.046783727 -0.368613422 -0.140372604 0.917731464
4034.135895 0.381648719 -0.369861037 0.469638675 -0.044943746 -0.374851733 -0.140926436 0.915208161
4034.172759 0.387094229 -0.372393101 0.477168590 -0.041637126 -0.379253089 -0.142099798 0.913368046
4034.209622 0.395931959 -0.377210110 0.487638623 -0.038793433 -0.387340605 -0.144898266 0.909652054
4034.246485 0.403765082 -0.381106377 0.498623490 -0.035117239 -0.394949377 -0.147704989 0.906071246
4034.283349 0.410838574 -0.385116369 0.508146524 -0.033515990 -0.399777889 -0.150434226 0.903561771
4034.320212 0.418463469 -0.389345706 0.517810464 -0.033970512 -0.404512584 -0.154475719 0.900751233
4034.357075 0.426467896 -0.393558621 0.528514683 -0.034786094 -0.409617603 -0.160815209 0.897296965
4034.393939 0.432992786 -0.397802323 0.538082182 -0.035253942 -0.412822634 -0.168856114 0.894327819
4034.430802 0.440772146 -0.402384639 0.548705339 -0.033735484 -0.417219222 -0.174913675 0.891176343
4034.467666 0.448096365 -0.407200307 0.559362113 -0.031022459 -0.421407670 -0.177945778 0.888700426
4034.504529 0.453862876 -0.410366654 0.569573641 -0.026914058 -0.425209939 -0.179519698 0.886704445
4034.541392 0.458518296 -0.415630817 0.575951576 -0.025053643 -0.427459866 -0.182394207 0.885089099
4034.578255 0.463541418 -0.418410242 0.583507121 -0.023983115 -0.431769848 -0.182633564 0.882974863
4034.615119 0.468230367 -0.422457606 0.591406167 -0.024744436 -0.437853754 -0.183851093 0.879699111
4034.651982 0.473303050 -0.425440341 0.600136399 -0.025999783 -0.445181370 -0.184733734 0.875791609
4034.688846 0.476981729 -0.427719295 0.606745243 -0.026962696 -0.451412559 -0.184394255 0.872638822
4034.725709 0.482866079 -0.430564463 0.613453746 -0.026945977 -0.458868414 -0.182840839 0.869070113
4034.762572 0.488911271 -0.432357371 0.620636165 -0.024977500 -0.466899008 -0.181546241 0.865114093
4034.799436 0.495596349 -0.431018531 0.627347112 -0.021357300 -0.474291354 -0.176924959 0.862142146
4034.836299 0.502234936 -0.432305425 0.633906901 -0.020959657 -0.481297433 -0.172100157 0.859240949
4034.873162 0.510497153 -0.430848837 0.642489016 -0.020280281 -0.490241766 -0.167002082 0.855197072
4034.910026 0.516289771 -0.430521965 0.649025261 -0.020463975 -0.498253047 -0.164219588 0.851091683
4034.946889 0.523814678 -0.429251194 0.658150017 -0.022189025 -0.507250547 -0.160742149 0.846384406
4034.983752 0.531795025 -0.428387552 0.665527761 -0.025952246 -0.514379621 -0.158707947 0.842348993
4035.020616 0.539149642 -0.426104456 0.673579037 -0.029966163 -0.520878673 -0.157799482 0.838383436
4035.057479 0.547540963 -0.419488877 0.684598982 -0.032631163 -0.527755320 -0.156141952 0.834283650
4035.094342 0.555552006 -0.415421188 0.693521976 -0.037726425 -0.531674027 -0.157001898 0.831414402
4035.131206 0.567111135 -0.406326294 0.705253601 -0.040023807 -0.535586894 -0.157334954 0.828728259
4035.168069 0.575335741 -0.401262432 0.715502381 -0.045895260 -0.537091553 -0.158444613 0.827237368
4035.204932 0.583243489 -0.395249665 0.725709021 -0.052401990 -0.538405001 -0.159937337 0.825708270
4035.241796 0.591230273 -0.390322328 0.736176074 -0.059908491 -0.540550530 -0.162302569 0.823330998
4035.278659 0.599347472 -0.385209352 0.747164071 -0.066058852 -0.544133365 -0.164739102 0.820009828
4035.315523 0.607984364 -0.379380375 0.757951379 -0.070813112 -0.547620535 -0.166703388 0.816888750
4035.352386 0.615194380 -0.375105917 0.769463539 -0.075425684 -0.550978482 -0.167180210 0.814115763
4035.389249 0.620703340 -0.372488260 0.779380739 -0.080580406 -0.553369403 -0.168144986 0.811798215
4035.426112 0.625589490 -0.369465888 0.788827538 -0.086041622 -0.556119621 -0.168074042 0.809369445
4035.462976 0.631864429 -0.365317672 0.798813105 -0.091121033 -0.560359657 -0.166337773 0.806241751
4035.499839 0.637226224 -0.361617446 0.807893157 -0.095153309 -0.565145910 -0.165571854 0.802584529
4035.536703 0.641938806 -0.357552767 0.817435801 -0.098243468 -0.570810020 -0.164060637 0.798503757
4035.573566 0.645277262 -0.351228476 0.825621843 -0.096842572 -0.576428652 -0.162768811 0.794894874
4035.610429 0.648506999 -0.347798645 0.833340287 -0.093930542 -0.581998587 -0.161971092 0.791340709
4035.647293 0.652459025 -0.343907535 0.840598226 -0.090610094 -0.587043405 -0.159926236 0.788412035
4035.684156 0.657638133 -0.340115190 0.846934319 -0.088265695 -0.591959655 -0.158561066 0.785271525
4035.721019 0.661195219 -0.337362617 0.854141474 -0.085960358 -0.598204792 -0.159930289 0.780502498
4035.757883 0.666839063 -0.334509850 0.860727727 -0.084033877 -0.605581164 -0.161378294 0.774704337
4035.794746 0.672052026 -0.330836236 0.868065476 -0.081707329 -0.614180028 -0.163731426 0.767657995
4035.831609 0.678222656 -0.328167439 0.874372184 -0.081481636 -0.621891797 -0.166931570 0.760752976
4035.868473 0.684585392 -0.325430095 0.881141722 -0.080724955 -0.629340351 -0.169948235 0.754010439
4035.905336 0.691016078 -0.324366093 0.888225734 -0.080198810 -0.635673642 -0.173638389 0.747888267
4035.942199 0.697565198 -0.322683662 0.894305885 -0.078233339 -0.639797926 -0.176482931 0.743903160
4035.979063 0.704253554 -0.321815252 0.902124941 -0.074890740 -0.643513501 -0.179133281 0.740400553
4036.015926 0.710442662 -0.323402017 0.910409808 -0.073056467 -0.645370960 -0.182573214 0.738123357
4036.052789 0.717009664 -0.324219555 0.920756459 -0.069309689 -0.647472262 -0.185873732 0.735817075
4036.089653 0.721827447 -0.324179560 0.930746377 -0.065706752 -0.648186862 -0.188695386 0.734799623
4036.126516 0.728532434 -0.327532619 0.942069173 -0.063847274 -0.649227202 -0.193382263 0.732823908
4036.163380 0.734835804 -0.328061402 0.952665269 -0.059207756 -0.650366068 -0.198559552 0.730816245
4036.200243 0.739098668 -0.329629719 0.964798510 -0.055947650 -0.652733862 -0.204262540 0.727382421
4036.237106 0.743952096 -0.330491960 0.976027012 -0.052706156 -0.654994190 -0.208928674 0.724260628
4036.273969 0.749887764 -0.329930395 0.988996089 -0.049439002 -0.658747017 -0.212711379 0.719973624
4036.310833 0.754895389 -0.328124225 1.000358582 -0.047522727 -0.662075460 -0.215856299 0.716103196
4036.347696 0.759581745 -0.325408369 1.012322783 -0.046679787 -0.666166127 -0.218111366 0.711667836
4036.421423 0.770048559 -0.325519979 1.036643624 -0.048083749 -0.673073828 -0.222300529 0.703734338
4036.458286 0.775651395 -0.320163637 1.050860405 -0.047547426 -0.676723361 -0.220343560 0.700880527
4036.495150 0.781242549 -0.316818714 1.063252449 -0.047996141 -0.678751647 -0.218867674 0.699349403
4036.532013 0.786851585 -0.314286411 1.075210810 -0.048726138 -0.680200875 -0.217410341 0.698344648
4036.568876 0.792765498 -0.312262475 1.083165288 -0.049901191 -0.678735554 -0.217190355 0.699754357
4036.605740 0.799547017 -0.307894826 1.097217083 -0.048479952 -0.680073559 -0.216617838 0.698731959
4036.642603 0.806895852 -0.303360999 1.108341455 -0.047060478 -0.679350913 -0.214953050 0.700044930
4036.679466 0.816635728 -0.298835367 1.118122816 -0.043239038 -0.677746713 -0.213020846 0.702432871
4036.716330 0.823835373 -0.298301220 1.123272538 -0.041078236 -0.672552288 -0.214773625 0.707006574
4036.753193 0.834912717 -0.289664924 1.132058263 -0.036835376 -0.669171691 -0.210133851 0.711825967
4036.790056 0.844796956 -0.284764946 1.141373992 -0.034989595 -0.667012691 -0.208750516 0.714348018
4036.826920 0.855437040 -0.278025448 1.149087071 -0.033808693 -0.665325165 -0.207136795 0.716445208
4036.863783 0.864066720 -0.272056490 1.151407719 -0.033383805 -0.662677824 -0.206151456 0.719197571
4036.900646 0.873031020 -0.265136123 1.154721260 -0.031997040 -0.661981642 -0.203317061 0.720707059
