4030.007200 0.0000000 0.0000000 0.0000000 0.0000000 0.0000000 0.0000000 1.0000000
4030.044064 0.0156168 -0.0062359 0.0058042 -0.0007116 -0.0042851 -0.0013048 0.9999897
4030.080927 0.0286061 -0.0144028 0.0134192 -0.0019093 -0.0067463 -0.0011844 0.9999747
4030.154654 0.0495771 -0.0328878 0.0276030 0.0006812 -0.0108358 0.0063125 0.9999211
4030.228381 0.0643402 -0.0525398 0.0432898 0.0049160 -0.0218117 0.0177645 0.9995922
4030.338971 0.0680334 -0.0892104 0.0649953 0.0117503 -0.0503042 0.0229722 0.9984006
4030.486424 0.0387668 -0.1342961 0.0891739 0.0271513 -0.0700032 0.0262093 0.9968327
4030.597014 0.0109281 -0.1615059 0.1033716 0.0214828 -0.0739670 0.0260384 0.9966892
4030.744468 -0.0346863 -0.1879071 0.1196638 -0.0141985 -0.0517155 0.0419136 0.9976809
4030.818194 -0.0607434 -0.1906966 0.1227250 -0.0218385 -0.0427432 0.0523304 0.9974756
4030.928784 -0.1024835 -0.1961057 0.1306280 -0.0306180 -0.0368277 0.0486922 0.9976649
4031.002511 -0.1322472 -0.1998548 0.1353714 -0.0379599 -0.0268822 0.0448176 0.9979117
4031.076238 -0.1608070 -0.2040161 0.1395722 -0.0417872 -0.0150528 0.0400328 0.9982107
4031.149964 -0.1899999 -0.2098889 0.1432762 -0.0410484 -0.0035737 0.0349579 0.9985390
4031.260554 -0.2340824 -0.2195239 0.1490200 -0.0491835 0.0101116 0.0369004 0.9980567
4031.297418 -0.2485713 -0.2237640 0.1517739 -0.0514365 0.0118353 0.0406942 0.9977766
4031.334281 -0.2634407 -0.2283644 0.1543488 -0.0515420 0.0120526 0.0445504 0.9976038
4031.371145 -0.2755256 -0.2328274 0.1579834 -0.0502165 0.0099163 0.0472979 0.9975685
4031.408008 -0.2881007 -0.2372640 0.1609910 -0.0491505 0.0096348 0.0505094 0.9974669
4031.444871 -0.2987205 -0.2416299 0.1642575 -0.0495826 0.0099299 0.0535153 0.9972858
4031.481735 -0.3083151 -0.2464268 0.1682969 -0.0519057 0.0111970 0.0559036 0.9970232
4031.518598 -0.3150874 -0.2519284 0.1729588 -0.0537317 0.0115505 0.0594827 0.9967152
4031.592325 -0.3272607 -0.2664255 0.1824630 -0.0548357 0.0145016 0.0642533 0.9963204
4031.629188 -0.3296056 -0.2730051 0.1862163 -0.0536754 0.0142714 0.0673756 0.9961806
4031.702914 -0.3294195 -0.2853470 0.1948733 -0.0472457 0.0101732 0.0731152 0.9961519
4031.776641 -0.3230172 -0.2959882 0.2027147 -0.0394494 0.0017612 0.0817386 0.9958712
4031.850368 -0.3088368 -0.3064545 0.2102250 -0.0412963 -0.0087288 0.0931587 0.9947562
4031.924095 -0.2848998 -0.3167211 0.2170200 -0.0457978 -0.0244308 0.0970064 0.9939293
4031.960958 -0.2717937 -0.3196425 0.2214124 -0.0460638 -0.0314490 0.0979323 0.9936289
4031.997821 -0.2590604 -0.3233029 0.2238458 -0.0455204 -0.0355456 0.0981742 0.9934919
4032.034685 -0.2442918 -0.3278997 0.2269131 -0.0463174 -0.0383585 0.1002143 0.9931467
4032.071548 -0.2284454 -0.3314360 0.2310934 -0.0469612 -0.0402412 0.1025593 0.9928026
4032.108411 -0.2099594 -0.3361585 0.2343421 -0.0490037 -0.0434929 0.1032999 0.9924899
4032.145275 -0.1920414 -0.3410163 0.2379012 -0.0504531 -0.0464549 0.1053352 0.9920690
4032.219002 -0.1542177 -0.3498414 0.2474031 -0.0507346 -0.0578486 0.1050597 0.9914848
4032.292728 -0.1187954 -0.3586210 0.2562687 -0.0531721 -0.0747106 0.0983986 0.9909131
4032.366455 -0.0820850 -0.3666489 0.2634270 -0.0534367 -0.0947341 0.0897579 0.9900068
4032.403318 -0.0685065 -0.3688816 0.2633828 -0.0489937 -0.1003409 0.0844431 0.9901519
4032.440181 -0.0536344 -0.3699708 0.2667418 -0.0439164 -0.1063532 0.0829585 0.9898880
4032.477045 -0.0386384 -0.3741385 0.2700247 -0.0423817 -0.1137518 0.0797937 0.9893924
4032.513908 -0.0237676 -0.3778285 0.2739421 -0.0411882 -0.1227467 0.0756666 0.9886917
4032.587635 0.0031299 -0.3839372 0.2839169 -0.0417669 -0.1419662 0.0659055 0.9867916
4032.661361 0.0291040 -0.3859264 0.2935181 -0.0450333 -0.1635783 0.0528018 0.9840865
4032.771952 0.0662700 -0.3807296 0.3073195 -0.0450726 -0.1868943 0.0305017 0.9808713
4032.808815 0.0781399 -0.3779881 0.3102607 -0.0455160 -0.1901988 0.0241321 0.9803929
4032.882542 0.1043606 -0.3689193 0.3172316 -0.0502931 -0.1944249 0.0112867 0.9795622
4032.956268 0.1333312 -0.3571191 0.3245364 -0.0559706 -0.1961707 -0.0042109 0.9789620
4033.029995 0.1618510 -0.3435629 0.3294422 -0.0577494 -0.1962330 -0.0183989 0.9786823
4033.066859 0.1763391 -0.3372744 0.3324728 -0.0590200 -0.1971921 -0.0262216 0.9782353
4033.140585 0.2059090 -0.3238820 0.3371266 -0.0592890 -0.2020735 -0.0427925 0.9766371
4033.177449 0.2196914 -0.3186195 0.3409333 -0.0621165 -0.2060633 -0.0502536 0.9752712
4033.251175 0.2490806 -0.3098829 0.3498312 -0.0633344 -0.2212885 -0.0610452 0.9712331
4033.435492 0.3049097 -0.3194284 0.3662166 -0.0519006 -0.2796707 -0.0614407 0.9567213
4033.656672 0.3301750 -0.3405308 0.3869857 -0.0557910 -0.3428121 -0.0836860 0.9340042
4033.988442 0.3554678 -0.3576686 0.4361716 -0.0525878 -0.3507907 -0.1354774 0.9251088
4034.283349 0.4085618 -0.3845976 0.5084877 -0.0328838 -0.3971181 -0.1520758 0.9044827
4034.541392 0.4577367 -0.4138001 0.5765725 -0.0235456 -0.4254878 -0.1825176 0.8860548
4034.873162 0.5084556 -0.4316438 0.6411757 -0.0203115 -0.4871150 -0.1687952 0.8566298
4035.094342 0.5543346 -0.4141347 0.6921055 -0.0361747 -0.5286956 -0.1576973 0.8332490
4035.352386 0.6126791 -0.3767030 0.7661605 -0.0760234 -0.5468295 -0.1688629 0.8165067
4035.647293 0.6530468 -0.3414992 0.8379672 -0.0891343 -0.5838844 -0.1583676 0.7912356
4036.052789 0.7172158 -0.3215768 0.9211311 -0.0686548 -0.6463411 -0.1829863 0.7375945
4036.310833 0.7571874 -0.3244543 1.0015578 -0.0463140 -0.6616079 -0.2121898 0.7177085
4036.568876 0.7958868 -0.3093098 1.0861150 -0.0482872 -0.6793982 -0.2146643 0.7000040
4036.716330 0.8286215 -0.2919627 1.1275139 -0.0388568 -0.6740561 -0.2093694 0.7073210
4036.826920 0.8566902 -0.2762589 1.1464939 -0.0329527 -0.6632639 -0.2061456 0.7186788
