4030.007200 0.0000000 0.0000000 0.0000000 0.0000000 0.0000000 0.0000000 1.0000000
4030.044064 0.0153488 -0.0064424 0.0050807 -0.0009728 -0.0041442 -0.0015373 0.9999897
4030.080927 0.0281461 -0.0148441 0.0124686 -0.0022885 -0.0064218 -0.0012782 0.9999759
4030.154654 0.0493820 -0.0335289 0.0265395 0.0001088 -0.0107232 0.0060706 0.9999241
4030.228381 0.0648341 -0.0539577 0.0412506 0.0038076 -0.0219564 0.0179205 0.9995911
4030.338971 0.0697288 -0.0926120 0.0619569 0.0093968 -0.0510430 0.0232147 0.9983824
4030.486424 0.0407925 -0.1365143 0.0867323 0.0253650 -0.0711644 0.0259828 0.9968035
4030.597014 0.0119459 -0.1649650 0.1007870 0.0187141 -0.0745296 0.0259981 0.9967042
4030.744468 -0.0346362 -0.1921707 0.1171761 -0.0175466 -0.0516452 0.0416947 0.9976404
4030.818194 -0.0604558 -0.1954094 0.1199635 -0.0255450 -0.0428075 0.0516962 0.9974179
4030.891921 -0.0891854 -0.1986206 0.1251579 -0.0312565 -0.0379531 0.0511498 0.9974800
4030.965648 -0.1180152 -0.2022291 0.1307995 -0.0375839 -0.0319381 0.0465765 0.9976963
4031.039374 -0.1470745 -0.2067703 0.1357445 -0.0445093 -0.0205502 0.0420778 0.9979109
4031.113101 -0.1760720 -0.2121181 0.1395378 -0.0463985 -0.0085255 0.0359156 0.9982407
4031.186828 -0.2051490 -0.2168920 0.1430329 -0.0467726 0.0023985 0.0331337 0.9983530
4031.260554 -0.2350663 -0.2236029 0.1477078 -0.0529050 0.0112202 0.0360905 0.9978841
4031.297418 -0.2505355 -0.2278136 0.1505721 -0.0551955 0.0134034 0.0394963 0.9976041
4031.334281 -0.2640055 -0.2323187 0.1527482 -0.0551903 0.0124687 0.0435886 0.9974461
4031.371145 -0.2765617 -0.2361120 0.1566182 -0.0533165 0.0106575 0.0466890 0.9974287
4031.408008 -0.2891960 -0.2408146 0.1583467 -0.0525585 0.0106196 0.0489686 0.9973600
4031.444871 -0.2999140 -0.2452901 0.1618090 -0.0531150 0.0110459 0.0520012 0.9971724
4031.518598 -0.3156243 -0.2555820 0.1700841 -0.0570425 0.0120542 0.0590343 0.9965519
4031.592325 -0.3273757 -0.2693500 0.1798779 -0.0576377 0.0146659 0.0644042 0.9961500
4031.666051 -0.3306882 -0.2823045 0.1875574 -0.0539449 0.0130912 0.0698357 0.9960128
4031.739778 -0.3276626 -0.2942634 0.1960041 -0.0468107 0.0067377 0.0756378 0.9960132
4031.850368 -0.3096955 -0.3087862 0.2070106 -0.0439853 -0.0082799 0.0926963 0.9946880
4031.924095 -0.2856624 -0.3204634 0.2154756 -0.0495342 -0.0240380 0.0964142 0.9938173
4031.960958 -0.2729073 -0.3230114 0.2189748 -0.0494517 -0.0306265 0.0972611 0.9935576
4031.997821 -0.2592372 -0.3257764 0.2214824 -0.0483631 -0.0354930 0.0978796 0.9933885
4032.034685 -0.2454090 -0.3309983 0.2262918 -0.0497472 -0.0376224 0.1002361 0.9930068
4032.071548 -0.2276274 -0.3353982 0.2307788 -0.0509309 -0.0406217 0.1016873 0.9926810
4032.108411 -0.2097893 -0.3393765 0.2341026 -0.0525021 -0.0434370 0.1022975 0.9924173
4032.145275 -0.1910867 -0.3445539 0.2377130 -0.0542451 -0.0468739 0.1037370 0.9920176
4032.219002 -0.1527623 -0.3533752 0.2469482 -0.0545792 -0.0585344 0.1038610 0.9913666
4032.292728 -0.1166290 -0.3618545 0.2560842 -0.0568374 -0.0758778 0.0965995 0.9907979
4032.366455 -0.0800176 -0.3730893 0.2638007 -0.0590936 -0.0958483 0.0872210 0.9898048
4032.403318 -0.0678159 -0.3740237 0.2670180 -0.0539329 -0.1010365 0.0834710 0.9899068
4032.440181 -0.0548653 -0.3751112 0.2684862 -0.0485770 -0.1058329 0.0817505 0.9898265
4032.477045 -0.0387500 -0.3791766 0.2734383 -0.0473278 -0.1140451 0.0799353 0.9891229
4032.513908 -0.0256485 -0.3824561 0.2760042 -0.0456344 -0.1220372 0.0745132 0.9886720
4032.587635 0.0036699 -0.3896800 0.2860993 -0.0468040 -0.1425625 0.0651063 0.9865326
4032.661361 0.0283179 -0.3913369 0.2953818 -0.0498817 -0.1636109 0.0520639 0.9838865
4032.771952 0.0654198 -0.3862899 0.3111452 -0.0502887 -0.1872230 0.0296577 0.9805810
4032.845678 0.0897609 -0.3782547 0.3180995 -0.0524042 -0.1931966 0.0166679 0.9796178
4032.919405 0.1176360 -0.3687581 0.3255791 -0.0582135 -0.1959304 0.0020847 0.9788862
4032.993132 0.1456337 -0.3568745 0.3310703 -0.0628205 -0.1961765 -0.0140301 0.9784536
4033.066859 0.1741978 -0.3431140 0.3367428 -0.0639753 -0.1973983 -0.0287065 0.9778123
4033.140585 0.2040591 -0.3303256 0.3411631 -0.0646085 -0.2023025 -0.0453199 0.9761381
4033.177449 0.2176839 -0.3245080 0.3455716 -0.0669092 -0.2064604 -0.0525842 0.9747472
4033.251175 0.2476707 -0.3160948 0.3541638 -0.0682273 -0.2221537 -0.0623766 0.9706194
4033.398628 0.2955096 -0.3205357 0.3677091 -0.0603615 -0.2672902 -0.0636034 0.9596182
4033.656672 0.3296327 -0.3469067 0.3915416 -0.0606716 -0.3444570 -0.0847329 0.9329998
4033.693535 0.3317922 -0.3487624 0.3953746 -0.0609863 -0.3453399 -0.0891762 0.9322385
4033.988442 0.3550765 -0.3640726 0.4413154 -0.0576620 -0.3532088 -0.1365196 0.9237321
4034.246485 0.4027128 -0.3898996 0.5045480 -0.0411408 -0.3962202 -0.1513515 0.9046600
4034.504529 0.4546419 -0.4203952 0.5771909 -0.0333500 -0.4283958 -0.1837003 0.8840922
4034.910026 0.5154600 -0.4405305 0.6580484 -0.0279081 -0.5013003 -0.1665405 0.8486362
4035.131206 0.5647008 -0.4190285 0.7145874 -0.0495613 -0.5384690 -0.1608255 0.8256693
4035.389249 0.6189976 -0.3836068 0.7883228 -0.0895934 -0.5558593 -0.1700477 0.8087504
4035.868473 0.6831514 -0.3351832 0.8904416 -0.0895488 -0.6321619 -0.1699668 0.7506422
4036.163380 0.7337657 -0.3382853 0.9647829 -0.0692158 -0.6549072 -0.1969749 0.7262965
4036.347696 0.7596943 -0.3344795 1.0245936 -0.0561957 -0.6707550 -0.2157075 0.7073895
4036.568876 0.7929490 -0.3181418 1.0981073 -0.0578544 -0.6850717 -0.2138297 0.6939787
4036.716330 0.8244224 -0.3027339 1.1373520 -0.0500054 -0.6784519 -0.2095150 0.7023575
4036.900646 0.8714811 -0.2717992 1.1652846 -0.0409578 -0.6660652 -0.2013410 0.7170366
