ply
format ascii 1.0
comment author: Gordon Liu
element vertex 2148
property double x
property double y
property double z
property uchar red
property uchar green
property uchar blue
end_header
-0.232339 0.100117 0.73595 255 0 0
0.051648 0.0158404 0.844747 255 0 0
0.139403 0.0102119 0.867549 255 0 0
0.0606016 0.0087569 0.850712 255 0 0
0.13358 0.00791257 0.840422 255 0 0
0.145166 0.011592 0.843354 255 0 0
0.0765472 0.00695615 0.850722 255 0 0
0.131567 0.00743192 0.845358 255 0 0
0.120598 0.00515295 0.839696 255 0 0
0.121773 0.0059371 0.84232 255 0 0
0.122873 0.00537692 0.846389 255 0 0
0.12179 0.00456799 0.847517 255 0 0
0.12604 0.00597827 0.862942 255 0 0
-0.0105371 0.0546191 0.860357 255 0 0
0.0326315 0.0213581 0.861973 255 0 0
0.0659605 0.00547518 0.832281 255 0 0
0.0531483 0.00705309 0.861165 255 0 0
0.0544621 0.00654918 0.858334 255 0 0
0.0262539 0.0160876 0.850071 255 0 0
-0.0742595 -0.0992878 0.662591 255 0 0
-0.0723427 -0.097622 0.643238 255 0 0
-0.0683741 -0.108894 0.654642 255 0 0
-0.0649003 -0.110554 0.659452 255 0 0
-0.209193 -0.016139 0.6348 255 0 0
-0.206855 -0.0187421 0.638829 255 0 0
-0.196047 -0.0718911 0.637951 255 0 0
-0.0685305 -0.0997127 0.640698 255 0 0
-0.0717663 -0.0742431 0.61795 255 0 0
-0.221538 0.0133367 0.620575 255 0 0
-0.223575 0.0140467 0.627473 255 0 0
0.190299 0.142719 0.774349 255 0 0
0.183244 0.137068 0.753889 255 0 0
0.181995 0.137626 0.763138 255 0 0
0.174792 0.131909 0.735474 255 0 0
0.211668 0.180303 0.770558 255 0 0
0.0738748 -0.0101441 0.868956 255 0 0
0.0263276 -0.00552578 0.85267 255 0 0
0.127282 -0.00877555 0.873295 255 0 0
0.128488 -0.00820287 0.871635 255 0 0
-0.263093 0.0570708 0.944191 255 0 0
0.105335 0.0463648 0.707944 255 0 0
-0.0481067 0.0411726 0.748684 255 0 0
0.0966199 0.0491621 0.766047 255 0 0
0.0932121 0.04709 0.759254 255 0 0
-0.104214 -0.250514 1.01076 255 0 0
-0.106009 -0.251206 1.01239 255 0 0
-0.101124 -0.238476 1.0181 255 0 0
-0.105152 -0.245072 1.03122 255 0 0
-0.100461 -0.240413 0.994251 255 0 0
-0.0995885 -0.247752 1.02209 255 0 0
0.280149 0.067976 1.08875 255 0 0
0.28346 0.0750018 1.11289 255 0 0
-0.0716953 0.142867 1.04753 255 0 0
-0.0787589 0.149051 1.07279 255 0 0
-0.0648142 0.14331 1.06108 255 0 0
-0.0647725 0.141889 1.05197 255 0 0
-0.177904 0.17508 1.07169 255 0 0
-0.0565133 0.147886 1.07265 255 0 0
0.288819 0.0759511 1.07351 255 0 0
0.290667 0.0763075 1.07792 255 0 0
-0.0833815 -0.256915 1.03553 255 0 0
-0.0855424 -0.262311 1.06023 255 0 0
-0.0852914 -0.262435 1.06153 255 0 0
-0.0660248 0.140997 1.05982 255 0 0
-0.0932902 0.0836057 1.07607 255 0 0
0.306862 0.0818974 1.11315 255 0 0
-0.0713602 0.127986 1.05036 255 0 0
-0.0820535 0.0723547 1.07376 255 0 0
-0.165923 0.194944 1.08381 255 0 0
-0.0773497 -0.282418 1.0688 255 0 0
-0.0776807 -0.283942 1.07761 255 0 0
-0.0792803 0.0681057 1.05741 255 0 0
-0.0822615 0.0748571 1.09855 255 0 0
-0.0809708 0.0531442 1.09785 255 0 0
-0.0680877 0.0711142 1.07437 255 0 0
-0.080146 0.0557982 1.0877 255 0 0
-0.069114 0.0683489 1.05176 255 0 0
0.322923 0.0656047 1.10117 255 0 0
0.328411 0.0659947 1.10971 255 0 0
-0.122196 0.113393 1.10633 255 0 0
-0.136659 0.0955936 1.11009 255 0 0
-0.133459 0.105201 1.15039 255 0 0
-0.13489 0.107544 1.16588 255 0 0
-0.131138 0.10617 1.14119 255 0 0
-0.140198 0.0829254 1.17985 255 0 0
-0.209315 -0.0139821 0.633917 255 0 0
-0.0710501 -0.0979697 0.635478 255 0 0
-0.0699888 -0.106693 0.669616 255 0 0
-0.0804263 -0.103353 0.685349 255 0 0
0.0903425 0.0636745 0.654419 255 0 0
0.122082 0.0631708 0.664792 255 0 0
0.115351 0.049627 0.701562 255 0 0
0.0192572 0.0773019 0.709618 255 0 0
0.0931732 0.0498713 0.713325 255 0 0
0.0662534 0.0445008 0.729379 255 0 0
0.151243 0.161741 0.73707 255 0 0
0.104134 0.0750805 0.740782 255 0 0
0.118953 0.0572515 0.676489 255 0 0
-0.125452 -0.115188 0.674368 255 0 0
0.0448821 0.0528433 0.70067 255 0 0
0.0456676 0.0532534 0.703146 255 0 0
0.0450266 0.0529637 0.695537 255 0 0
-0.191963 -0.171321 0.874951 255 0 0
-0.190948 -0.170357 0.876645 255 0 0
-0.0246155 0.0918292 0.889101 255 0 0
-0.0236604 0.0952029 0.922019 255 0 0
-0.116506 0.184169 0.894281 255 0 0
0.0323381 -0.00467724 0.890053 255 0 0
-0.111909 0.187092 0.887851 255 0 0
-0.116051 0.183033 0.888064 255 0 0
-0.0471675 0.146204 0.895408 255 0 0
-0.0225706 0.0869167 0.862258 255 0 0
0.142708 -0.0408505 0.887949 255 0 0
0.0838779 -0.0403652 0.92442 255 0 0
0.143704 -0.0358402 0.871172 255 0 0
0.137953 -0.0419698 0.891026 255 0 0
-0.0461759 0.112134 0.897694 255 0 0
0.172847 -0.0350397 0.88435 255 0 0
0.277712 -0.00545148 0.912021 255 0 0
0.274305 -0.0121842 0.928553 255 0 0
0.283756 -0.0123377 0.964059 255 0 0
0.285341 -0.0145879 0.976083 255 0 0
0.259998 -0.0173198 0.914636 255 0 0
-0.249771 0.0408291 0.91113 255 0 0
0.0204418 -0.0461858 0.926367 255 0 0
0.0178646 -0.0511518 0.933209 255 0 0
-0.250692 -0.168315 0.912848 255 0 0
-0.25164 -0.168027 0.917106 255 0 0
-0.248193 -0.16444 0.909485 255 0 0
-0.252859 -0.170423 0.919711 255 0 0
0.240521 -0.032771 0.931244 255 0 0
0.0219568 -0.0573547 0.915206 255 0 0
0.221336 -0.0438329 0.929534 255 0 0
-0.0139892 0.143529 0.929767 255 0 0
0.015667 -0.0621834 0.916559 255 0 0
0.00283533 -0.068343 0.921411 255 0 0
-0.0148342 0.14182 0.939794 255 0 0
-0.0162345 0.133309 0.949619 255 0 0
-0.203827 0.14068 0.95902 255 0 0
-0.150349 -0.246089 0.963949 255 0 0
-0.138174 -0.242066 0.976009 255 0 0
-0.110007 -0.25973 0.984703 255 0 0
-0.111555 -0.263896 0.993532 255 0 0
-0.109629 -0.259043 1.00136 255 0 0
-0.108128 -0.261863 1.00787 255 0 0
0.043397 0.0352002 0.837765 255 0 0
0.128304 0.171628 0.829911 255 0 0
0.0586063 0.0288437 0.791654 255 0 0
0.0357233 0.0373334 0.813115 255 0 0
0.0427145 0.0263273 0.833928 255 0 0
-0.239763 -0.227686 0.838875 255 0 0
0.101221 0.00974351 0.848807 255 0 0
0.0181681 0.0170242 0.847553 255 0 0
0.0250053 0.0144153 0.856909 255 0 0
0.0512517 0.00266743 0.864755 255 0 0
-0.0363007 -0.0525287 0.865191 255 0 0
-0.0842976 -0.105035 0.683189 255 0 0
-0.0802081 -0.101156 0.645411 255 0 0
-0.255313 0.152385 0.670515 255 0 0
-0.0214647 0.0311499 0.863867 255 0 0
-0.0237002 0.023412 0.777238 255 0 0
-0.0165614 0.0257501 0.788019 255 0 0
0.041402 0.0387 0.806756 255 0 0
0.0603269 0.0302407 0.83016 255 0 0
0.0434439 0.0358909 0.806254 255 0 0
0.0408325 0.035052 0.820026 255 0 0
0.0406118 0.0342638 0.827368 255 0 0
-0.0282738 0.0504252 0.787913 255 0 0
0.0373208 0.028241 0.832717 255 0 0
0.0392924 0.0279469 0.835686 255 0 0
0.0383085 0.0282969 0.845006 255 0 0
-0.0710669 -0.0956863 0.63902 255 0 0
-0.18412 -0.0819592 0.6565 255 0 0
-0.198665 -0.0768266 0.645573 255 0 0
0.102266 0.189179 0.758093 255 0 0
0.113798 0.189276 0.760546 255 0 0
0.111013 0.186612 0.764737 255 0 0
0.214792 0.183886 0.774736 255 0 0
-0.231377 0.0771402 0.764559 255 0 0
-0.237228 0.0793382 0.776362 255 0 0
-0.234832 0.0782126 0.767282 255 0 0
-0.238103 0.0811715 0.778747 255 0 0
0.0662431 0.040523 0.794473 255 0 0
-0.0137274 0.0349906 0.796318 255 0 0
-0.0134461 0.0331264 0.788306 255 0 0
-0.206859 -0.0189996 0.638879 255 0 0
0.1047 0.0452779 0.709351 255 0 0
0.0147152 0.0720873 0.711359 255 0 0
0.0659299 0.049024 0.739887 255 0 0
-0.0951607 -0.130258 0.713628 255 0 0
0.140793 -0.0431935 0.915373 255 0 0
0.189348 -0.0124325 0.895336 255 0 0
0.0225929 0.00793431 0.879497 255 0 0
0.138732 0.192853 0.727593 255 0 0
0.0926998 0.204796 0.730412 255 0 0
0.0307412 0.0258544 0.832968 255 0 0
0.0327665 0.0201575 0.843218 255 0 0
-0.0783224 0.11932 1.07465 255 0 0
-0.138983 0.0774879 1.20795 255 0 0
0.0509236 0.0156828 0.841252 255 0 0
0.0532128 0.0114341 0.844995 255 0 0
0.194488 -0.0130407 0.905279 255 0 0
0.140305 0.197413 0.73403 255 0 0
-0.248072 0.0335023 0.895546 255 0 0
0.0388172 0.010981 0.856302 255 0 0
-0.0995607 0.130609 1.08328 255 0 0
0.104647 0.16804 0.858659 255 0 0
0.212196 0.182197 0.759663 255 0 0
0.0979616 0.0507864 0.703369 255 0 0
0.0441003 0.0293366 0.827085 255 0 0
0.0504454 -0.0431019 0.910925 255 0 0
0.173312 -0.0260051 0.883482 255 0 0
0.176436 -0.0318619 0.885315 255 0 0
-0.135275 0.0822 1.15987 255 0 0
-0.00873638 0.000447728 0.92021 255 0 0
-0.122322 0.174385 0.890205 255 0 0
0.260252 -0.0134398 0.893364 255 0 0
0.111708 0.186812 0.756161 255 0 0
-0.233561 0.102707 0.748383 255 0 0
0.104911 0.170319 0.867243 255 0 0
0.0920923 0.202785 0.732632 255 0 0
0.204775 -0.0675237 0.979911 255 0 0
0.00196185 -0.0673967 0.933413 255 0 0
-0.0141086 0.137444 0.941503 255 0 0
0.223488 0.0473949 1.08558 255 0 0
0.0680608 0.0070357 0.84807 255 0 0
0.0949031 0.193284 0.730606 255 0 0
0.179082 0.140947 0.787126 255 0 0
0.0871181 0.195562 0.740903 255 0 0
0.084422 0.19614 0.741574 255 0 0
0.188342 -0.0130385 0.890853 255 0 0
0.0907143 0.180681 0.721119 255 0 0
0.127877 -0.00646838 0.863407 255 0 0
0.24026 -0.0751002 0.985296 255 0 0
0.172996 -0.0263545 0.883956 255 0 0
0.0512232 0.0158739 0.843048 255 0 0
0.270124 -0.00926788 0.903063 255 0 0
-0.149668 0.0686926 1.13741 255 0 0
-0.0988325 0.127757 1.07866 255 0 0
0.0389507 0.0119183 0.851989 255 0 0
0.0376104 0.00449015 0.866869 255 0 0
0.0405976 0.0408411 0.806794 255 0 0
0.0595922 0.0269067 0.824437 255 0 0
0.0431706 0.0282213 0.82194 255 0 0
-0.109307 0.0434886 1.10231 255 0 0
-0.249094 0.0342458 0.899987 255 0 0
-0.257832 0.0217679 0.896404 255 0 0
-0.143392 -0.0754316 0.690536 255 0 0
0.0978291 0.154763 0.852179 255 0 0
-0.137914 0.0758345 1.15178 255 0 0
-0.144505 0.0722508 1.21482 255 0 0
0.171541 -0.0265152 0.881671 255 0 0
0.172759 -0.0338889 0.879482 255 0 0
0.144372 -0.0414856 0.922543 255 0 0
-0.101797 0.122018 1.07137 255 0 0
0.133581 0.00806718 0.832673 255 0 0
0.0541589 0.011768 0.845417 255 0 0
0.0605609 0.0307709 0.808334 255 0 0
0.0598393 0.0271774 0.82065 255 0 0
0.344078 0.160793 0.919892 255 0 0
0.210469 0.176914 0.772144 255 0 0
0.0834772 0.197129 0.738884 255 0 0
0.0991553 -0.00823396 0.861788 255 0 0
0.0403191 0.0279787 0.87294 255 0 0
0.0229522 -0.0386555 0.915495 255 0 0
0.173688 -0.0254628 0.884919 255 0 0
-0.101344 0.115619 1.08213 255 0 0
-0.0110655 -0.000257863 0.903923 255 0 0
-0.0163185 -0.0304995 0.88703 255 0 0
0.221514 0.0463697 1.08527 255 0 0
0.0650068 -0.0290453 0.884845 255 0 0
0.0302638 0.0253891 0.850766 255 0 0
0.196452 0.192821 0.810265 255 0 0
0.212545 0.182054 0.764211 255 0 0
-0.234644 0.103069 0.750799 255 0 0
-0.207333 -0.018049 0.633124 255 0 0
0.378572 0.231662 0.991306 255 0 0
0.104832 0.0467868 0.727122 255 0 0
0.103182 0.0451839 0.711715 255 0 0
0.103286 0.0523156 0.713802 255 0 0
0.0285359 0.0238729 0.835991 255 0 0
0.029255 0.0242149 0.837658 255 0 0
0.105607 0.170029 0.878619 255 0 0
0.0475752 0.00670592 0.820698 255 0 0
-0.0263916 0.0319169 0.780981 255 0 0
0.00238872 -0.0668906 0.926576 255 0 0
0.0740792 0.00803883 0.854022 255 0 0
0.09924 -0.00787192 0.855022 255 0 0
0.0524803 0.00498426 0.850515 255 0 0
0.0415549 0.0252203 0.825319 255 0 0
0.135927 0.00808652 0.830956 255 0 0
0.174096 -0.0309002 0.896653 255 0 0
0.0648338 -0.0279147 0.883714 255 0 0
0.0519314 -0.0425473 0.909566 255 0 0
0.222733 0.0464818 1.0926 255 0 0
0.249845 -0.0771367 0.981339 255 0 0
0.102812 0.0463469 0.721425 255 0 0
0.267715 0.205946 0.770761 255 0 0
0.03988 0.0256742 0.831158 255 0 0
0.374129 0.230065 0.978595 255 0 0
0.373303 0.227868 0.985014 255 0 0
0.068987 0.0484567 0.745255 255 0 0
0.0208227 0.0114896 0.893121 255 0 0
0.0591866 0.0287138 0.820324 255 0 0
-0.00642597 0.0304139 0.790849 255 0 0
0.0134897 0.0399115 0.793389 255 0 0
-0.0730702 0.127978 1.06574 255 0 0
0.0593177 0.00238957 0.859858 255 0 0
0.0408286 0.0133755 0.859007 255 0 0
-0.209471 -0.0176781 0.636417 255 0 0
-0.0724448 -0.0754028 0.620406 255 0 0
0.097313 -0.00917098 0.863132 255 0 0
0.102304 0.170255 0.848006 255 0 0
0.17234 -0.0306786 0.884464 255 0 0
-0.0278617 0.0518946 0.791011 255 0 0
0.246575 -0.0773749 0.97837 255 0 0
0.213353 0.180495 0.781262 255 0 0
-0.029271 0.0337281 0.854693 255 0 0
0.0390229 0.0129776 0.852768 255 0 0
0.10387 0.051183 0.712565 255 0 0
0.262177 -0.0196868 0.93066 255 0 0
0.0381675 0.041291 0.803041 255 0 0
0.0722635 -0.0190271 0.894365 255 0 0
0.0686362 -0.0273484 0.895411 255 0 0
-0.0113572 0.000187608 0.911612 255 0 0
-0.186766 0.0341823 0.788915 255 0 0
0.0166422 -0.0647831 0.933468 255 0 0
0.169097 -0.0329866 0.889768 255 0 0
0.207014 -0.0707153 0.958294 255 0 0
0.0542085 -0.0442403 0.913189 255 0 0
0.072261 0.00826805 0.861442 255 0 0
-0.243881 0.103334 0.7638 255 0 0
-0.232435 0.0781542 0.76227 255 0 0
0.245297 -0.0773711 0.978958 255 0 0
0.00339941 -0.0684405 0.921095 255 0 0
-0.0325783 0.034409 0.86535 255 0 0
0.040585 0.0201241 0.851652 255 0 0
-0.0183701 -0.0303614 0.892318 255 0 0
-0.0782613 0.117991 1.10701 255 0 0
0.244559 -0.0315558 0.933529 255 0 0
0.102351 0.171566 0.877634 255 0 0
0.116768 -0.0115324 0.852827 255 0 0
-0.00616591 0.0330508 0.7882 255 0 0
0.0368682 0.0386547 0.810297 255 0 0
0.240154 -0.0287208 0.904947 255 0 0
0.104963 0.0526468 0.71788 255 0 0
0.0554607 0.0115347 0.840614 255 0 0
-0.0714558 -0.0948334 0.642724 255 0 0
-0.0251452 0.0902367 0.873627 255 0 0
0.0111103 0.0550206 0.73349 255 0 0
0.147467 0.0105608 0.86907 255 0 0
0.229701 0.0207872 1.11123 255 0 0
0.092437 -0.012168 0.860558 255 0 0
0.0207486 0.00958776 0.869409 255 0 0
0.0732579 0.0086596 0.872706 255 0 0
0.184895 0.146544 0.826577 255 0 0
-0.233165 0.102425 0.746296 255 0 0
-0.230936 0.0781365 0.758941 255 0 0
0.241699 -0.0774465 0.979442 255 0 0
0.279776 -0.0173941 0.981069 255 0 0
0.161474 0.0857683 0.624392 255 0 0
0.105235 0.0531497 0.720481 255 0 0
0.0364021 0.0124829 0.843693 255 0 0
-0.0038026 0.0324381 0.797178 255 0 0
-0.256854 0.100839 0.728499 255 0 0
0.0112772 0.0544741 0.731902 255 0 0
0.0962926 -0.0119074 0.930568 255 0 0
0.212039 0.166735 0.776844 255 0 0
0.0985286 0.16209 0.868996 255 0 0
-0.0296156 0.0529653 0.801068 255 0 0
-0.200054 0.134818 0.714374 255 0 0
0.0892276 0.0851395 0.766789 255 0 0
0.0873349 0.0834857 0.765974 255 0 0
-0.212029 0.0350892 0.776366 255 0 0
-0.20697 0.0344298 0.759081 255 0 0
-0.0445174 0.0209335 0.826934 255 0 0
0.0136133 0.0382609 0.781989 255 0 0
-0.0157385 0.0258421 0.77898 255 0 0
-0.20984 -0.0126824 0.637589 255 0 0
0.0257947 0.0156452 0.851847 255 0 0
0.138417 -0.00362329 0.874008 255 0 0
0.101785 0.162102 0.87583 255 0 0
0.0250868 0.0155729 0.842044 255 0 0
0.135569 -0.00345137 0.858189 255 0 0
0.101531 -0.00712985 0.862537 255 0 0
0.101698 -0.00742956 0.871314 255 0 0
0.0965563 -0.00993644 0.869649 255 0 0
0.0315849 0.00825087 0.845378 255 0 0
0.0512509 0.00126793 0.855532 255 0 0
0.0782084 -0.0093749 0.872645 255 0 0
0.0492056 0.00139746 0.856647 255 0 0
0.0210351 0.0125056 0.842096 255 0 0
0.0748841 -0.0106154 0.868932 255 0 0
0.0407792 0.00349483 0.854514 255 0 0
0.0412239 0.00397859 0.868122 255 0 0
0.0975755 0.165896 0.867439 255 0 0
0.0416055 0.00335504 0.872747 255 0 0
0.0693757 -0.00980189 0.87833 255 0 0
-0.200833 0.109474 0.861638 255 0 0
0.069171 -0.0107257 0.894443 255 0 0
-0.219925 0.112696 0.924393 255 0 0
-0.19276 -0.171433 0.875392 255 0 0
-0.210153 -0.01468 0.63567 255 0 0
-0.153114 -0.0757725 0.694048 255 0 0
0.0978017 0.0505993 0.703221 255 0 0
0.101003 0.051027 0.708705 255 0 0
0.0989555 0.0506451 0.704364 255 0 0
-0.107586 -0.122672 0.706577 255 0 0
-0.272072 0.109713 0.729857 255 0 0
0.0675702 0.0454342 0.700972 255 0 0
0.0755846 0.0492415 0.757765 255 0 0
0.0709446 0.0460456 0.724935 255 0 0
-0.222373 0.120411 0.729811 255 0 0
0.0870702 0.19524 0.740097 255 0 0
0.0835965 0.197978 0.739893 255 0 0
0.0823476 0.196865 0.740302 255 0 0
-0.242817 0.100962 0.745004 255 0 0
-0.249749 0.096541 0.736455 255 0 0
-0.237236 0.100298 0.740626 255 0 0
-0.0410683 -0.112447 0.667256 255 0 0
-8.52377e-05 -0.156329 0.678585 255 0 0
-0.00605187 -0.150284 0.687064 255 0 0
-0.0682381 -0.101483 0.643009 255 0 0
-0.0711781 -0.100525 0.629139 255 0 0
-0.064437 -0.103508 0.670072 255 0 0
0.125799 0.063961 0.66848 255 0 0
0.0375088 0.00481202 0.851565 255 0 0
0.037332 0.00542712 0.863892 255 0 0
0.0377147 0.00901648 0.851411 255 0 0
0.0222611 0.0106261 0.898466 255 0 0
0.066018 -0.0104017 0.867291 255 0 0
-0.0506443 0.22061 0.890783 255 0 0
0.0358324 -0.00267372 0.917679 255 0 0
-0.0246477 0.0887438 0.895231 255 0 0
-0.00754945 0.0203589 0.917603 255 0 0
0.14177 -0.0402669 0.905681 255 0 0
-0.0052396 0.0192011 0.887897 255 0 0
0.0204042 -0.00888049 0.898021 255 0 0
0.0194919 -0.0116597 0.903378 255 0 0
0.264014 -0.0155179 0.915172 255 0 0
0.0345332 -0.0384448 0.928755 255 0 0
0.0335774 -0.0271034 0.9063 255 0 0
0.0342749 -0.0395421 0.921672 255 0 0
-0.252868 -0.1704 0.919911 255 0 0
0.0351344 -0.0416234 0.92886 255 0 0
-0.0144381 0.144314 0.929085 255 0 0
-0.0135715 0.142723 0.932209 255 0 0
0.215076 -0.0592774 1.00722 255 0 0
-0.105095 -0.25019 1.01489 255 0 0
-0.102198 -0.250769 1.0248 255 0 0
0.235866 0.0556205 0.978456 255 0 0
0.240235 0.0581878 1.08305 255 0 0
-0.0924949 0.0779678 1.09265 255 0 0
-0.0656575 0.0647801 1.04463 255 0 0
-0.131273 0.107658 1.14513 255 0 0
-0.0982666 -0.287766 1.29839 255 0 0
0.0847958 -0.00918363 0.869118 255 0 0
0.083667 -0.00934254 0.868192 255 0 0
0.0608471 -0.0114396 0.827427 255 0 0
0.0748475 -0.0150824 0.877585 255 0 0
-0.02079 -0.0294684 0.885919 255 0 0
-0.0189023 -0.0293282 0.885159 255 0 0
-0.252051 -0.168015 0.911906 255 0 0
0.117484 0.0228662 0.876019 255 0 0
0.150153 -0.053008 0.897184 255 0 0
0.118452 0.0244944 0.879797 255 0 0
-0.208905 0.0896325 0.944003 255 0 0
-0.0797216 0.149434 1.06445 255 0 0
-0.0893211 0.0957796 1.08874 255 0 0
-0.08104 -0.276676 1.06155 255 0 0
-0.101138 0.116226 1.0795 255 0 0
-0.068382 0.0731491 1.10105 255 0 0
-0.0803954 0.0436454 1.07735 255 0 0
0.230651 0.045891 1.1297 255 0 0
-0.0295878 0.0245525 0.756945 255 0 0
-0.0146244 0.030858 0.818235 255 0 0
0.038671 0.0411108 0.805716 255 0 0
0.0394427 0.0410386 0.812449 255 0 0
0.127472 0.118294 0.798596 255 0 0
0.0385729 0.025522 0.827938 255 0 0
0.053904 0.0112151 0.837538 255 0 0
0.026895 0.0184008 0.851524 255 0 0
0.0195588 0.0195779 0.846302 255 0 0
0.0193764 0.0245234 0.885277 255 0 0
0.0152188 0.0218205 0.862327 255 0 0
-0.0742282 -0.0835887 0.637288 255 0 0
0.030475 0.0504204 0.769704 255 0 0
0.0190966 0.0423638 0.765779 255 0 0
-0.0265492 0.0336608 0.782265 255 0 0
0.014272 0.0396658 0.773032 255 0 0
0.0562895 0.0388555 0.799619 255 0 0
0.13944 0.00871359 0.854989 255 0 0
0.13464 0.00914831 0.832581 255 0 0
0.134225 0.0085061 0.832775 255 0 0
0.13895 0.00860433 0.845042 255 0 0
-0.215976 -0.252287 0.838361 255 0 0
-0.21108 -0.241787 0.844282 255 0 0
-0.230257 -0.241868 0.841372 255 0 0
-0.217161 -0.249092 0.834785 255 0 0
-0.215543 -0.245737 0.836459 255 0 0
-0.216855 -0.248241 0.843766 255 0 0
0.122803 0.005518 0.840768 255 0 0
0.0420232 0.00940112 0.864402 255 0 0
0.0357912 0.010854 0.850712 255 0 0
0.0408942 0.00926139 0.85873 255 0 0
0.0535253 0.00151807 0.855696 255 0 0
0.101812 -0.00670129 0.865687 255 0 0
0.0194011 0.0170463 0.867286 255 0 0
0.0188925 0.015612 0.883615 255 0 0
0.0184841 0.0144759 0.867373 255 0 0
0.0156098 0.0131163 0.869234 255 0 0
0.0185518 0.0109513 0.875386 255 0 0
0.0727826 -0.0154486 0.875365 255 0 0
-0.0159008 -0.0294267 0.89015 255 0 0
0.171344 -0.030919 0.889533 255 0 0
-0.120033 -0.0102772 0.778312 255 0 0
-0.0270208 0.031398 0.779471 255 0 0
-0.00259809 0.0334983 0.794628 255 0 0
0.128564 0.11871 0.794923 255 0 0
-0.0211778 0.0271553 0.800312 255 0 0
0.0430627 0.0352211 0.810053 255 0 0
0.0142055 0.0393863 0.774401 255 0 0
0.127025 0.117441 0.789854 255 0 0
0.122537 0.123445 0.81865 255 0 0
-0.19174 -0.253351 0.807072 255 0 0
0.0445426 0.0288006 0.835384 255 0 0
0.0369198 0.0267117 0.828968 255 0 0
0.0302684 0.0264915 0.833349 255 0 0
-0.245379 -0.227828 0.848249 255 0 0
-0.212709 -0.243039 0.84193 255 0 0
0.0767391 0.00782673 0.8502 255 0 0
0.0766537 0.00955703 0.866324 255 0 0
0.157391 0.0133912 0.870104 255 0 0
0.0554634 0.00577948 0.853623 255 0 0
0.0267839 0.0176093 0.858456 255 0 0
0.04892 0.00444966 0.846889 255 0 0
0.0412089 0.0110984 0.86461 255 0 0
0.0448372 0.00716451 0.863775 255 0 0
0.0280429 0.00412956 0.833111 255 0 0
-0.3203 -0.140639 1.10226 255 0 0
-0.321896 -0.141473 1.10318 255 0 0
-0.200717 -0.163306 1.07681 255 0 0
0.135337 -0.0404832 1.03442 255 0 0
-0.179624 -0.167085 1.07529 255 0 0
0.230404 0.058328 0.984582 255 0 0
0.0137562 0.0573204 0.722192 255 0 0
0.0948964 0.0469289 0.745545 255 0 0
-0.115877 -0.00765797 0.814995 255 0 0
-0.239383 0.0868221 0.752725 255 0 0
-0.239645 0.0869348 0.755013 255 0 0
-0.00902913 -0.150867 0.68189 255 0 0
-0.267227 0.0914938 0.767129 255 0 0
-0.267692 0.094746 0.776866 255 0 0
0.101477 0.0508077 0.705997 255 0 0
0.0972699 0.0475382 0.696625 255 0 0
0.12899 0.0557476 0.742785 255 0 0
0.113441 0.0494631 0.724139 255 0 0
-0.0667023 -0.106124 0.648255 255 0 0
-0.0779695 -0.0999682 0.636364 255 0 0
-0.283033 0.0363868 0.950524 255 0 0
-0.280931 0.056831 0.987653 255 0 0
0.135547 -0.00785303 0.879178 255 0 0
-0.281868 -0.0254015 0.859366 255 0 0
-0.255418 0.000468079 0.938761 255 0 0
-0.255808 0.0024851 0.956759 255 0 0
-0.25453 0.00150236 0.953096 255 0 0
-0.253638 0.000198976 0.938569 255 0 0
0.0657816 0.039179 0.761322 255 0 0
0.178866 0.141186 0.784988 255 0 0
0.181878 0.142805 0.807146 255 0 0
0.130174 0.117451 0.79361 255 0 0
-0.201288 0.0344862 0.768209 255 0 0
-0.202071 0.0331779 0.777901 255 0 0
-0.0325163 0.0225484 0.826415 255 0 0
0.144123 -0.0403545 0.894618 255 0 0
0.0648165 -0.0296955 0.888961 255 0 0
0.0644508 -0.0289524 0.886092 255 0 0
-0.0400839 -0.00274543 0.892907 255 0 0
0.249696 -0.0214948 0.899662 255 0 0
0.250525 -0.0234049 0.912196 255 0 0
0.255982 -0.0260024 0.936789 255 0 0
0.0351223 -0.0404491 0.930546 255 0 0
0.247389 -0.07714 0.973714 255 0 0
0.230432 -0.0739065 0.975202 255 0 0
0.211566 -0.0680659 0.973553 255 0 0
-0.117608 -0.259548 0.976323 255 0 0
-0.11591 -0.263713 1.01926 255 0 0
-0.112657 -0.264365 0.983515 255 0 0
-0.107214 -0.264314 0.995137 255 0 0
-0.0711807 -0.0980979 0.64265 255 0 0
-0.139218 -0.0729222 0.703069 255 0 0
0.103573 0.0546947 0.722378 255 0 0
0.0963503 0.0505521 0.704366 255 0 0
-0.251731 0.0980865 0.740198 255 0 0
-0.248837 0.0952357 0.736343 255 0 0
-0.25228 0.0962528 0.748625 255 0 0
0.131185 0.12081 0.798406 255 0 0
0.131074 0.120872 0.804391 255 0 0
-0.0298308 0.0189157 0.814099 255 0 0
0.176656 0.137911 0.797673 255 0 0
-0.0288899 0.0155446 0.769271 255 0 0
-0.00238204 0.0288152 0.809931 255 0 0
0.177586 0.138708 0.800062 255 0 0
0.178131 0.138567 0.796948 255 0 0
0.0587871 0.0254 0.82671 255 0 0
0.172 -0.027204 0.884187 255 0 0
0.172854 -0.0278126 0.887388 255 0 0
0.170898 -0.0307261 0.883988 255 0 0
0.174584 -0.0348589 0.894353 255 0 0
0.234488 -0.0738032 0.994493 255 0 0
0.24116 -0.0760095 0.986521 255 0 0
-0.078214 0.149997 1.07301 255 0 0
-0.0691566 -0.308966 1.07817 255 0 0
0.09829 0.0500658 0.706923 255 0 0
0.0979278 0.0500227 0.705726 255 0 0
0.0160742 0.0606839 0.730326 255 0 0
-0.173471 -0.082867 0.669435 255 0 0
-0.178076 -0.0850615 0.658842 255 0 0
-0.174325 -0.0813558 0.670594 255 0 0
-0.0670888 -0.0984439 0.641472 255 0 0
-0.057107 -0.10567 0.663967 255 0 0
0.0234493 0.016339 0.849448 255 0 0
0.015313 0.0179403 0.849152 255 0 0
-0.251625 0.0487897 0.933968 255 0 0
0.100966 -0.00627144 0.866491 255 0 0
-0.215805 -0.00162033 0.639573 255 0 0
0.176047 -0.0435229 1.04512 255 0 0
0.240189 -0.0762988 0.967591 255 0 0
-0.321485 -0.142156 1.10213 255 0 0
0.027487 0.0261453 0.829452 255 0 0
-0.0726512 -0.096216 0.637404 255 0 0
-0.172627 -0.0856374 0.664225 255 0 0
-0.069601 -0.103889 0.662645 255 0 0
-0.070831 -0.100455 0.696632 255 0 0
-0.0807317 -0.102083 0.687773 255 0 0
-0.394537 -0.0595671 0.828923 255 0 0
-0.0976756 -0.105145 0.710776 255 0 0
-0.0737122 -0.111336 0.710583 255 0 0
-0.0868803 -0.106126 0.718324 255 0 0
-0.224387 -0.279174 0.74553 255 0 0
-0.222326 -0.275812 0.751192 255 0 0
-0.0846026 -0.109752 0.705691 255 0 0
-0.0721139 -0.105159 0.722116 255 0 0
-0.0657172 -0.10631 0.731628 255 0 0
-0.230234 -0.218765 0.858818 255 0 0
-0.241959 -0.212614 0.838682 255 0 0
-0.184476 -0.239828 0.83769 255 0 0
-0.268264 -0.34013 0.864973 255 0 0
-0.184115 -0.243311 0.844044 255 0 0
-0.235487 0.0550056 0.91782 255 0 0
-0.241913 0.0489269 0.913593 255 0 0
0.0506956 0.014632 0.843752 255 0 0
-0.138273 -0.285396 0.907724 255 0 0
-0.0614062 -0.364615 0.886296 255 0 0
-0.0964446 -0.114984 0.926664 255 0 0
-0.0952949 -0.115297 0.928861 255 0 0
0.139011 0.0103908 0.841688 255 0 0
0.0789933 -0.00717997 0.879615 255 0 0
-0.118899 -0.090299 0.990532 255 0 0
-0.104545 -0.0875537 0.999703 255 0 0
-0.27183 -0.35597 1.07844 255 0 0
-0.273491 -0.358603 1.08473 255 0 0
-0.277741 -0.3568 1.07958 255 0 0
-0.310715 -0.380635 1.10013 255 0 0
-0.190089 -0.172061 1.0854 255 0 0
-0.159251 -0.17182 1.12971 255 0 0
-0.25258 -0.338801 1.1361 255 0 0
-9.26974e-05 -0.139948 1.11798 255 0 0
-0.00188506 -0.14002 1.11389 255 0 0
-0.066854 0.0982093 1.23853 255 0 0
-0.0915062 -0.0969725 0.716642 255 0 0
-0.214747 -0.285148 0.767843 255 0 0
-0.184097 -0.242906 0.842279 255 0 0
-0.267002 -0.340345 0.868887 255 0 0
-0.381008 -0.181542 0.977436 255 0 0
0.0650413 0.0354056 0.806355 255 0 0
-0.380814 -0.180567 0.972741 255 0 0
-0.173994 -0.0856351 0.644004 255 0 0
-0.165941 -0.0833893 0.665188 255 0 0
-0.166836 -0.0832368 0.672617 255 0 0
-0.175668 -0.0870513 0.644415 255 0 0
-0.0631191 -0.092899 0.633631 255 0 0
-0.107362 -0.152637 0.960736 255 0 0
-0.123612 -0.149347 0.93966 255 0 0
-0.117288 -0.155712 0.949943 255 0 0
-0.1214 -0.151341 0.951085 255 0 0
-0.123186 -0.150167 0.94503 255 0 0
-0.130943 -0.147543 0.94486 255 0 0
-0.113858 -0.156812 0.959618 255 0 0
-0.105684 -0.162627 0.951126 255 0 0
-0.110344 -0.138767 0.969507 255 0 0
-0.122243 -0.0922705 0.986627 255 0 0
-0.121401 -0.0910645 0.987821 255 0 0
-0.233446 -0.179453 1.03114 255 0 0
0.235674 -0.0309076 0.913958 255 0 0
0.219665 -0.0405181 0.914121 255 0 0
-0.244618 -0.328096 1.11311 255 0 0
-0.244175 -0.332553 1.13153 255 0 0
-0.24455 -0.329282 1.11636 255 0 0
-0.139497 -0.164146 1.10404 255 0 0
0.024543 -0.178059 1.10131 255 0 0
-0.0428471 0.0095535 1.26738 255 0 0
-0.243039 -0.00108321 0.935421 255 0 0
-0.199837 -0.319778 0.915925 255 0 0
-0.218648 0.0123816 0.943945 255 0 0
-0.105627 -0.303804 0.874334 255 0 0
-0.149568 -0.285928 0.77633 255 0 0
-0.428468 -0.126497 1.03702 255 0 0
-0.428111 -0.126611 1.03635 255 0 0
-0.060113 -0.365146 0.890327 255 0 0
-0.0914832 -0.100964 0.921675 255 0 0
-0.096601 -0.115597 0.927123 255 0 0
0.137535 0.0128673 0.841089 255 0 0
0.144166 0.016171 0.839875 255 0 0
-0.103759 -0.142492 0.953263 255 0 0
-0.125184 -0.0930818 0.986871 255 0 0
-0.269406 -0.351462 1.0673 255 0 0
-0.312187 -0.380625 1.09746 255 0 0
-0.0922933 -0.110375 1.0235 255 0 0
-0.190742 -0.172387 1.08339 255 0 0
-0.190938 -0.164191 1.08503 255 0 0
-0.0659417 0.000199227 1.08749 255 0 0
-0.0638397 0.000838224 1.09296 255 0 0
-0.0649116 0.000757369 1.09129 255 0 0
-0.0742847 -0.00340524 1.10731 255 0 0
-0.0764068 -0.00536411 1.10369 255 0 0
0.0235502 -0.177433 1.10219 255 0 0
0.0250875 -0.177515 1.10345 255 0 0
-0.0678677 0.102359 1.22857 255 0 0
-0.181797 -0.0775709 0.639859 255 0 0
-0.278963 0.0740753 0.81662 255 0 0
-0.24253 -0.225985 0.841504 255 0 0
0.109754 0.050563 0.727444 255 0 0
-0.183368 -0.0823004 0.65814 255 0 0
-0.217723 0.0235153 0.898651 255 0 0
-0.214304 0.0157827 0.951054 255 0 0
-0.213443 0.01731 0.956267 255 0 0
0.103873 0.0124749 0.89195 255 0 0
-0.135028 -0.143966 0.927704 255 0 0
-0.0130794 0.0206335 0.893891 255 0 0
-0.12717 -0.140797 0.939664 255 0 0
0.19846 0.0194273 0.894532 255 0 0
0.149459 0.017589 0.84914 255 0 0
-0.110594 -0.149056 0.963518 255 0 0
-0.110016 -0.153094 0.961711 255 0 0
0.0730838 0.0335153 0.840394 255 0 0
0.060835 0.0285555 0.820168 255 0 0
0.0359359 0.023598 0.82616 255 0 0
0.0309445 0.0225479 0.833311 255 0 0
0.078358 0.0193565 0.892488 255 0 0
-0.16177 -0.287361 0.887609 255 0 0
0.166968 -0.0315716 0.884213 255 0 0
-0.140232 -0.157268 0.939053 255 0 0
0.239327 -0.0288363 0.90528 255 0 0
0.213104 -0.0443516 0.988805 255 0 0
-0.18989 -0.164484 1.07688 255 0 0
-0.179657 -0.166323 1.08394 255 0 0
-0.178456 -0.166536 1.08758 255 0 0
0.181449 -0.0579748 1.0355 255 0 0
0.239709 0.0615448 1.01493 255 0 0
0.250102 0.0638658 1.03843 255 0 0
-0.111545 -0.0559748 0.694242 255 0 0
-0.108024 -0.0545703 0.69592 255 0 0
-0.108214 -0.0537152 0.696982 255 0 0
-0.0765963 -0.104824 0.697433 255 0 0
-0.386393 -0.055125 0.828995 255 0 0
-0.38783 -0.0566933 0.82154 255 0 0
-0.0884933 -0.103284 0.696524 255 0 0
-0.0889117 -0.0954317 0.719026 255 0 0
-0.0984799 -0.0998563 0.712945 255 0 0
-0.0999736 -0.103981 0.713222 255 0 0
-0.0996323 -0.0975961 0.706522 255 0 0
-0.177979 -0.0803542 0.654364 255 0 0
0.0328087 0.0386869 0.797441 255 0 0
0.0246968 0.0320683 0.80335 255 0 0
-0.268344 0.066567 0.910496 255 0 0
0.0425379 0.0419156 0.820402 255 0 0
-0.328272 -0.0370116 0.922948 255 0 0
0.0448996 0.0366805 0.818604 255 0 0
0.0385466 0.0286324 0.849842 255 0 0
-0.24839 0.0672925 0.935994 255 0 0
-0.247859 0.0689141 0.939901 255 0 0
0.0518429 0.0144031 0.837371 255 0 0
0.0470359 0.0155474 0.833648 255 0 0
0.032816 0.0206141 0.845008 255 0 0
0.061272 0.0110042 0.865045 255 0 0
-0.207362 0.0343183 0.948483 255 0 0
0.0599587 -0.0121178 0.857823 255 0 0
0.0728049 -0.00864 0.880614 255 0 0
0.0483832 -0.000413451 0.899245 255 0 0
0.132094 -0.00734393 0.867086 255 0 0
-0.103727 -0.141261 0.955573 255 0 0
0.0717439 -0.0265696 0.902387 255 0 0
-0.102149 -0.155257 0.963765 255 0 0
-0.104148 -0.156092 0.960362 255 0 0
-0.110642 -0.142367 0.958813 255 0 0
-0.104034 -0.158993 0.978446 255 0 0
-0.0803564 -0.16949 0.958276 255 0 0
0.00168238 0.0210053 0.839076 255 0 0
0.0679967 0.00705454 0.841788 255 0 0
0.051804 0.00964117 0.83575 255 0 0
0.0513777 0.00889893 0.851212 255 0 0
-0.152999 -0.286841 0.906196 255 0 0
0.0580404 0.00792181 0.857701 255 0 0
0.134671 -0.000679098 0.816409 255 0 0
-0.262458 0.0603424 0.952905 255 0 0
0.0675593 -0.00986877 0.869102 255 0 0
0.0693773 -0.00683391 0.902518 255 0 0
0.131494 -0.00713515 0.876448 255 0 0
-0.163452 -0.129334 0.947711 255 0 0
-0.208358 0.0565905 0.983495 255 0 0
0.0550269 0.0369988 0.795062 255 0 0
0.0669303 0.0363699 0.808825 255 0 0
0.0528807 0.0329312 0.810496 255 0 0
0.0538865 0.0260931 0.824038 255 0 0
-0.200122 -0.321033 0.919396 255 0 0
-0.199711 -0.319142 0.918499 255 0 0
-0.217401 0.0142659 0.947033 255 0 0
-0.236107 0.00540029 0.957994 255 0 0
-0.234905 0.00623169 0.968419 255 0 0
-0.180221 -0.0812857 0.65248 255 0 0
-0.179822 -0.0830982 0.655819 255 0 0
-0.0673351 -0.0949665 0.646875 255 0 0
-0.0650546 -0.0984684 0.647154 255 0 0
0.00608535 -0.157934 0.682789 255 0 0
0.00955691 -0.152824 0.707767 255 0 0
0.00380475 -0.158445 0.694468 255 0 0
-0.255882 0.0960302 0.750117 255 0 0
-0.283104 -0.0270397 0.89698 255 0 0
-0.0726744 0.137969 1.05064 255 0 0
-0.063566 0.146487 1.069 255 0 0
-0.0791211 0.148773 1.05916 255 0 0
-0.0642238 0.1539 1.06238 255 0 0
-0.0844477 -0.277809 1.05429 255 0 0
-0.0868948 0.103995 1.08575 255 0 0
-0.0697749 0.0750723 1.07317 255 0 0
-0.084896 0.119968 1.12435 255 0 0
-0.0775982 -0.292072 1.06783 255 0 0
-0.0693071 0.0498866 1.08321 255 0 0
-0.101422 0.105343 1.00222 255 0 0
-0.0723433 -0.303069 1.07366 255 0 0
0.0240526 0.0221624 0.836848 255 0 0
-0.20191 -0.208203 0.842026 255 0 0
0.0523408 0.0167485 0.845093 255 0 0
0.0254971 0.0118785 0.886601 255 0 0
0.0816742 -0.00941907 0.863383 255 0 0
0.0193098 0.00826378 0.869615 255 0 0
0.00368497 0.00220105 0.822968 255 0 0
-0.42798 -0.128431 1.03728 255 0 0
-0.119865 -0.29951 0.891673 255 0 0
-0.115925 -0.301708 0.895277 255 0 0
-0.204243 0.0373039 0.947085 255 0 0
-0.123445 -0.133849 0.935038 255 0 0
-0.126054 -0.133585 0.931901 255 0 0
-0.124245 -0.13777 0.941043 255 0 0
-0.0945479 -0.114563 0.930304 255 0 0
-0.124344 -0.140923 0.941528 255 0 0
-0.124232 -0.138156 0.955225 255 0 0
-0.285511 -0.0420532 0.790717 255 0 0
-0.0616746 -0.36396 0.885035 255 0 0
-0.122993 -0.137298 0.944312 255 0 0
-0.128815 -0.137281 0.942939 255 0 0
-0.0955219 -0.114924 0.928192 255 0 0
-0.0954519 -0.115244 0.927991 255 0 0
-0.0942158 -0.115156 0.929693 255 0 0
-0.121687 -0.091942 0.989876 255 0 0
-0.113224 -0.0881247 1.00599 255 0 0
-0.302514 -0.376394 1.09468 255 0 0
-0.194445 -0.172749 1.07806 255 0 0
-0.192033 -0.171681 1.07713 255 0 0
-0.174267 -0.170864 1.0779 255 0 0
-0.185066 -0.16381 1.09638 255 0 0
-0.0630262 0.05327 1.08623 255 0 0
-0.0644873 -0.00151095 1.09149 255 0 0
-0.0724396 -0.00566068 1.09971 255 0 0
-0.0962532 -0.0176065 1.05463 255 0 0
-0.111469 -0.272193 1.24725 255 0 0
-0.10941 -0.27893 1.26661 255 0 0
-0.103506 -0.282402 1.28594 255 0 0
-0.100601 -0.282348 1.29246 255 0 0
-0.0883776 -0.306715 1.32676 255 0 0
0.110039 -0.024118 1.22887 255 0 0
0.11706 -0.0231123 1.22566 255 0 0
0.128651 -0.0258079 1.24235 255 0 0
-0.229052 -0.285249 0.792421 255 0 0
-0.327772 -0.0711486 0.902446 255 0 0
-0.0742953 -0.0881547 0.804612 255 0 0
-0.0748268 -0.0878584 0.813351 255 0 0
-0.0664549 -0.296671 0.795906 255 0 0
-0.149433 -0.0621722 0.854404 255 0 0
0.0219865 -0.185179 0.776379 255 0 0
-0.17896 -0.186749 0.86724 255 0 0
-0.154911 -0.187513 0.922563 255 0 0
-0.350713 -0.0717296 0.860075 255 0 0
-0.380588 -0.182303 0.980266 255 0 0
-0.200463 -0.319861 0.917798 255 0 0
-0.429442 -0.12615 1.03273 255 0 0
-0.428096 -0.126465 1.03847 255 0 0
-0.359793 -0.0861526 1.02327 255 0 0
-0.0931422 -0.101391 0.918956 255 0 0
-0.125383 -0.133734 0.934486 255 0 0
-0.266315 -0.220919 0.899211 255 0 0
-0.352287 -0.0647637 0.875542 255 0 0
-0.300056 -0.00993161 0.95416 255 0 0
-0.299444 -0.010495 0.955391 255 0 0
-0.233731 0.0211846 0.947859 255 0 0
-0.430134 -0.125225 1.03079 255 0 0
-0.215651 0.0430325 0.949558 255 0 0
-0.212467 0.0448958 0.955043 255 0 0
-0.0978279 -0.116495 0.923112 255 0 0
-0.385933 -0.152703 1.07616 255 0 0
-0.115877 -0.160222 0.939622 255 0 0
-0.105334 -0.159716 0.953404 255 0 0
-0.176692 -0.0670759 0.715823 255 0 0
-0.402378 -0.0522406 0.840989 255 0 0
-0.347047 -0.0641087 0.864602 255 0 0
-0.343213 -0.0629849 0.873783 255 0 0
-0.304806 -0.0939628 0.833467 255 0 0
-0.24181 -0.224076 0.835605 255 0 0
-0.237979 -0.22506 0.841663 255 0 0
-0.191569 -0.256552 0.823751 255 0 0
-0.192374 -0.241717 0.829525 255 0 0
-0.192309 -0.238515 0.833112 255 0 0
-0.267761 -0.340684 0.865185 255 0 0
-0.360118 -0.0862599 1.0332 255 0 0
-0.341711 -0.0739183 1.02689 255 0 0
-0.0920114 -0.114229 0.938257 255 0 0
-0.0945939 -0.114919 0.929989 255 0 0
-0.394594 -0.150725 1.06557 255 0 0
-0.385701 -0.155608 1.05776 255 0 0
-0.0948734 -0.149782 0.979942 255 0 0
-0.390848 -0.149787 1.08231 255 0 0
-0.105197 -0.0974934 0.994321 255 0 0
-0.227966 -0.33357 1.03991 255 0 0
-0.318183 -0.139277 1.10312 255 0 0
-0.312529 -0.380609 1.09539 255 0 0
-0.176329 -0.174029 1.07607 255 0 0
-0.0934233 0.0761984 1.08422 255 0 0
-0.173802 -0.153142 1.10023 255 0 0
-0.1707 -0.15305 1.10158 255 0 0
-0.0979955 0.0762076 1.09213 255 0 0
-0.0797029 0.0803143 1.09955 255 0 0
-0.0993455 0.0692879 1.09948 255 0 0
-0.0639275 0.0702117 1.08248 255 0 0
-0.0698355 -0.0031195 1.08422 255 0 0
0.0250432 -0.177531 1.10169 255 0 0
-0.176631 -0.0718492 1.2145 255 0 0
0.0891423 -0.00945574 1.18093 255 0 0
-0.0544233 0.0741546 1.24466 255 0 0
0.130417 -0.0175883 1.20958 255 0 0
0.116955 -0.0176239 1.19837 255 0 0
0.100998 -0.0151341 1.19319 255 0 0
0.104498 -0.0213561 1.21776 255 0 0
0.0858428 -0.0273586 1.18281 255 0 0
0.0985866 -0.0227035 1.20979 255 0 0
0.0404143 -0.0418401 1.11456 255 0 0
-0.151941 -0.0847964 0.681438 255 0 0
-0.146135 -0.0824949 0.692907 255 0 0
-0.161853 -0.074312 0.71949 255 0 0
-0.134685 -0.0822062 0.71781 255 0 0
-0.384597 -0.0594755 0.834741 255 0 0
-0.383895 -0.0609178 0.82695 255 0 0
-0.401811 -0.0521914 0.840288 255 0 0
-0.402889 -0.0517726 0.842427 255 0 0
-0.404466 -0.0516094 0.841552 255 0 0
-0.341861 -0.0704346 0.930026 255 0 0
-0.192153 -0.174335 0.872949 255 0 0
-0.192537 -0.175377 0.868091 255 0 0
-0.256059 -0.220665 0.918446 255 0 0
-0.202548 -0.318447 0.912076 255 0 0
-0.119068 -0.299414 0.888942 255 0 0
-0.294206 -0.0523397 0.758027 255 0 0
0.0632587 0.0374001 0.814583 255 0 0
0.0779275 0.0457089 0.828693 255 0 0
0.0628105 0.0368268 0.820508 255 0 0
-0.248368 0.066333 0.93526 255 0 0
-0.219559 0.0755189 0.946681 255 0 0
-0.237512 0.00348247 0.957618 255 0 0
-0.149946 -0.272538 0.897049 255 0 0
-0.109921 -0.153558 0.95644 255 0 0
-0.349719 -0.0228115 1.08371 255 0 0
-0.347775 -0.022653 1.0867 255 0 0
-0.348692 -0.0230747 1.08395 255 0 0
-0.346453 -0.022261 1.08884 255 0 0
-0.346634 -0.0226107 1.087 255 0 0
-0.168982 -0.283028 1.0275 255 0 0
-0.162266 -0.267818 1.02295 255 0 0
-0.162956 -0.265033 1.01634 255 0 0
-0.258168 -0.115199 1.07553 255 0 0
-0.177285 -0.165559 1.08662 255 0 0
-0.0850467 0.0965991 1.09648 255 0 0
-0.169868 -0.0855425 0.645276 255 0 0
-0.170304 -0.0838481 0.646075 255 0 0
-0.171105 -0.0844025 0.650749 255 0 0
-0.14067 -0.0843941 0.71634 255 0 0
-0.137228 -0.0837094 0.714013 255 0 0
-0.382887 -0.0596986 0.832965 255 0 0
-0.0946803 -0.0974953 0.715433 255 0 0
-0.13469 -0.261411 0.737789 255 0 0
-0.291067 -0.315719 0.816524 255 0 0
-0.359525 -0.0645803 1.05251 255 0 0
-0.359283 -0.0645862 1.05233 255 0 0
-0.330404 -0.0625438 1.03163 255 0 0
-0.391731 0.0295952 1.07282 255 0 0
-0.131933 -0.113355 0.892115 255 0 0
-0.358192 -0.0637945 1.05398 255 0 0
-0.33796 -0.0613501 1.03951 255 0 0
-0.190249 0.0815742 0.929523 255 0 0
-0.388058 0.0263675 1.07523 255 0 0
-0.335075 -0.0595073 1.0413 255 0 0
-0.374395 -0.158042 1.07455 255 0 0
-0.387603 0.00938763 1.10894 255 0 0
-0.39977 0.0579333 1.13174 255 0 0
-0.283032 -0.124828 1.06026 255 0 0
-0.25455 -0.146269 1.06108 255 0 0
-0.0493163 -0.00708909 0.90969 255 0 0
-0.0476981 -0.00642139 0.90874 255 0 0
-0.0233415 -0.0211614 0.892504 255 0 0
-0.0494398 -0.00832172 0.910819 255 0 0
-0.0526271 -0.0199564 0.913609 255 0 0
-0.0499268 -0.00822072 0.911907 255 0 0
-0.0491886 -0.011799 0.912018 255 0 0
-0.0181094 -0.0265851 0.890186 255 0 0
-0.0232914 -0.0214549 0.893961 255 0 0
-0.0211655 -0.0224679 0.892962 255 0 0
-0.0207033 -0.023183 0.894139 255 0 0
-0.0206633 -0.0225827 0.895319 255 0 0
-0.160605 -0.260576 1.01479 255 0 0
-0.167182 -0.269772 1.02437 255 0 0
-0.201847 -0.281917 1.07288 255 0 0
-0.203641 -0.28191 1.07442 255 0 0
-0.211928 -0.153173 1.07575 255 0 0
-0.229431 -0.269831 1.09477 255 0 0
-0.228659 -0.280167 1.10081 255 0 0
-0.113435 -0.16137 1.04173 255 0 0
-0.111652 -0.160776 1.04288 255 0 0
0.0799581 0.149716 0.87496 255 0 0
0.0931628 0.153013 0.886868 255 0 0
0.0869052 0.150316 0.883425 255 0 0
-0.097744 -0.200224 1.04708 255 0 0
-0.411555 -0.0451588 0.812404 255 0 0
-0.436393 -0.0388764 0.823883 255 0 0
-0.199574 -0.0468309 0.695604 255 0 0
-0.415783 -0.0465465 0.816869 255 0 0
-0.416577 -0.0442516 0.818248 255 0 0
-0.363056 -0.0648845 0.845349 255 0 0
-0.362304 -0.0636003 0.843882 255 0 0
-0.358469 -0.0620494 0.855277 255 0 0
-0.342876 -0.0725687 0.842097 255 0 0
-0.343137 -0.0756042 0.835696 255 0 0
-0.358577 -0.0688429 0.856545 255 0 0
-0.255778 -0.109059 0.822646 255 0 0
-0.384535 -0.0596064 0.832774 255 0 0
-0.385296 -0.0595954 0.831828 255 0 0
-0.134126 -0.261888 0.737579 255 0 0
-0.372809 -0.061893 0.840551 255 0 0
-0.354315 -0.0668819 0.850491 255 0 0
-0.352313 -0.0663986 0.855214 255 0 0
0.000673736 0.0223836 1.06468 255 0 0
0.0218487 -0.179353 1.09676 255 0 0
0.0211443 -0.177303 1.09827 255 0 0
0.0192535 -0.177873 1.09463 255 0 0
-0.0126644 0.0872819 1.10707 255 0 0
-0.185309 -0.248996 1.22666 255 0 0
-0.184388 -0.248401 1.2298 255 0 0
-0.185035 -0.247963 1.22578 255 0 0
-0.185118 -0.248218 1.22624 255 0 0
0.0736835 -0.0223303 1.1033 255 0 0
0.0803532 -0.0185749 1.11453 255 0 0
0.0833665 -0.0170713 1.11976 255 0 0
0.0833985 -0.0156447 1.12478 255 0 0
0.080297 -0.00191443 1.1633 255 0 0
0.0754092 -0.00247291 1.15884 255 0 0
0.076364 -0.00446521 1.16284 255 0 0
0.0913963 -0.00993085 1.18317 255 0 0
0.111879 -0.0173833 1.2003 255 0 0
0.118242 -0.0167457 1.20158 255 0 0
0.124982 -0.0140167 1.21344 255 0 0
0.115713 -0.0169335 1.20081 255 0 0
0.126448 -0.0154012 1.19379 255 0 0
-0.0907476 -0.182462 1.48244 255 0 0
-0.423496 -0.0360635 0.795357 255 0 0
-0.200306 -0.0619342 0.694741 255 0 0
-0.433641 -0.045022 0.838974 255 0 0
-0.433001 -0.0455531 0.841084 255 0 0
-0.431846 -0.0441364 0.843855 255 0 0
-0.399076 -0.0532537 0.83485 255 0 0
-0.394485 -0.05107 0.84558 255 0 0
-0.377699 -0.0577782 0.837511 255 0 0
-0.375567 -0.0632847 0.834469 255 0 0
-0.37023 -0.0637627 0.839 255 0 0
-0.283037 -0.123253 1.03268 255 0 0
-0.208508 -0.301135 1.07843 255 0 0
0.0345389 -0.0169415 1.02453 255 0 0
0.0509583 -0.0245059 1.03337 255 0 0
0.0512549 -0.0255669 1.03219 255 0 0
-0.0721711 -0.109424 1.10975 255 0 0
-0.0734956 -0.110432 1.10886 255 0 0
-0.0719827 -0.0938528 1.13214 255 0 0
-0.0741399 -0.109304 1.12506 255 0 0
-0.0702222 -0.12596 1.14629 255 0 0
-0.0709546 -0.126868 1.14456 255 0 0
0.0174007 -0.164963 1.10599 255 0 0
-0.176101 -0.248114 1.24182 255 0 0
0.130476 -0.0153663 1.19897 255 0 0
0.119316 -0.0205157 1.19253 255 0 0
0.112704 -0.0277777 1.16978 255 0 0
-0.117053 -0.122644 1.02151 255 0 0
-0.111164 -0.187351 0.974243 255 0 0
-0.100873 -0.0861337 1.00357 255 0 0
-0.261899 -0.350513 1.06531 255 0 0
-0.178141 -0.165912 1.08559 255 0 0
-0.117129 -0.157559 1.05576 255 0 0
-0.115197 -0.160255 1.08276 255 0 0
-0.131693 -0.162366 1.03939 255 0 0
0.0774284 -0.012418 1.16953 255 0 0
-0.102244 -0.284135 1.28745 255 0 0
0.120289 -0.021607 1.21875 255 0 0
0.124687 -0.0202122 1.22798 255 0 0
0.0827392 -0.020368 1.24728 255 0 0
0.12361 -0.0227173 1.30653 255 0 0
0.0960367 -0.0250333 1.29225 255 0 0
-0.18327 -0.0794255 0.646665 255 0 0
-0.327549 -0.0404067 0.934582 255 0 0
-0.325108 -0.0385984 0.950643 255 0 0
-0.243679 0.0461313 0.910466 255 0 0
-0.0880469 -0.303376 0.846505 255 0 0
-0.0819392 -0.302979 0.844943 255 0 0
0.0518557 0.0372115 0.795732 255 0 0
-0.074863 -0.168378 0.966269 255 0 0
0.173 -0.0269587 0.884417 255 0 0
0.216587 -0.0212136 0.95532 255 0 0
-0.11017 -0.192937 1.02166 255 0 0
0.241237 -0.0313203 0.928069 255 0 0
0.161424 -0.0497864 0.990059 255 0 0
-0.186571 -0.1643 1.10143 255 0 0
-0.17572 -0.15371 1.09247 255 0 0
-0.210448 -0.239268 0.839986 255 0 0
-0.0631283 -0.107601 0.651133 255 0 0
-0.0102961 -0.149817 0.688038 255 0 0
-0.183171 -0.0829091 0.65321 255 0 0
-0.26856 -0.0984823 0.857536 255 0 0
-0.269515 -0.0985109 0.85713 255 0 0
-0.267949 -0.340301 0.864574 255 0 0
-0.267205 -0.340894 0.868527 255 0 0
-0.323017 -0.0544313 1.04185 255 0 0
-0.123689 -0.283355 0.826159 255 0 0
-0.309913 0.012404 0.953579 255 0 0
-0.30814 0.0143682 0.959127 255 0 0
-0.370664 -0.16343 0.982064 255 0 0
-0.190465 -0.0832505 0.927443 255 0 0
-0.136913 -0.294436 0.84806 255 0 0
-0.113844 -0.300875 0.901317 255 0 0
-0.0946114 -0.30824 0.922717 255 0 0
-0.43008 -0.124674 1.03317 255 0 0
-0.185655 -0.0801219 0.649796 255 0 0
-0.434219 -0.0365673 0.819086 255 0 0
-0.0675455 -0.11042 1.09801 255 0 0
0.0321636 -0.0267639 1.01436 255 0 0
-0.0604186 -0.0989382 1.10878 255 0 0
-0.427778 -0.0439106 0.839648 255 0 0
-0.442456 -0.0168364 0.757882 255 0 0
-0.429059 -0.0390112 0.813718 255 0 0
-0.439657 -0.0426209 0.840414 255 0 0
-0.210556 -0.237363 0.837408 255 0 0
-0.231442 0.0544806 0.821126 255 0 0
-0.208336 -0.230989 0.839217 255 0 0
-0.201845 -0.228616 0.839174 255 0 0
-0.192371 -0.234669 0.836333 255 0 0
-0.161445 0.0191959 0.790976 255 0 0
-0.159563 0.0191304 0.792561 255 0 0
-0.201009 -0.206417 0.844778 255 0 0
-0.172866 0.0205238 0.805605 255 0 0
-0.111772 -0.0866083 0.806984 255 0 0
-0.381134 -0.181693 0.974291 255 0 0
-0.225044 0.0663517 0.874806 255 0 0
-0.357131 -0.0866301 1.01819 255 0 0
-0.357357 -0.0862198 1.01883 255 0 0
-0.178425 0.0715225 0.917873 255 0 0
-0.0329907 -0.0868282 0.841601 255 0 0
-0.11158 -0.154924 0.953832 255 0 0
-0.122973 -0.163322 0.98038 255 0 0
-0.107664 -0.188973 1.02093 255 0 0
-0.103657 -0.192532 1.02884 255 0 0
-0.103106 -0.192361 1.02926 255 0 0
-0.0889297 -0.123549 1.05711 255 0 0
-0.0963295 -0.200094 1.04742 255 0 0
-0.0927026 -0.104149 1.06138 255 0 0
-0.107659 -0.176115 1.07914 255 0 0
-0.102987 -0.176532 1.08466 255 0 0
-0.129983 -0.207462 1.16501 255 0 0
-0.150224 -0.227471 1.19426 255 0 0
-0.158675 -0.225286 1.18448 255 0 0
-0.131325 -0.210786 1.1758 255 0 0
-0.201573 0.0384038 0.781097 255 0 0
-0.202001 0.0387551 0.780902 255 0 0
-0.190211 0.0348788 0.792862 255 0 0
-0.228071 -0.230007 0.842554 255 0 0
-0.258924 0.0689894 0.825615 255 0 0
-0.298542 -0.0980407 0.909885 255 0 0
-0.167943 0.0244732 0.796587 255 0 0
-0.164887 0.0261795 0.790116 255 0 0
-0.161752 0.0164329 0.789652 255 0 0
-0.191605 0.0252512 0.81802 255 0 0
-0.199969 -0.206693 0.846751 255 0 0
-0.200857 -0.206065 0.844929 255 0 0
-0.332526 0.00294365 0.830413 255 0 0
-0.205035 0.0401822 0.774435 255 0 0
-0.32028 -0.0954993 0.862647 255 0 0
-0.200488 0.0397349 0.780392 255 0 0
-0.268578 0.0728883 0.821074 255 0 0
-0.201312 0.038607 0.781655 255 0 0
-0.0859228 -0.114772 1.10576 255 0 0
0.0507367 0.00780473 1.14285 255 0 0
0.00161606 0.0406296 1.04852 255 0 0
-0.102458 -0.273754 1.25871 255 0 0
0.0746773 -0.000622254 1.16229 255 0 0
-0.100327 -0.275793 1.26464 255 0 0
-0.100348 -0.269563 1.26229 255 0 0
-0.101182 -0.272526 1.26148 255 0 0
0.0729464 -0.00202223 1.15665 255 0 0
0.0784113 -0.015906 1.15911 255 0 0
0.0750689 0.083151 1.20676 255 0 0
0.0778898 0.0798105 1.2133 255 0 0
0.0931066 -0.0166364 1.18849 255 0 0
0.105422 -0.0180402 1.21208 255 0 0
0.156788 -0.0184293 1.18416 255 0 0
0.108419 -0.0241817 1.22596 255 0 0
0.15588 -0.0270518 1.21326 255 0 0
0.170927 -0.0224976 1.23419 255 0 0
0.164525 -0.0318654 1.22187 255 0 0
-0.0983133 -0.185398 1.45639 255 0 0
-0.0998941 -0.185523 1.45394 255 0 0
-0.195461 0.0653885 0.957303 255 0 0
-0.374014 -0.157117 1.08404 255 0 0
-0.379847 -0.156066 1.07696 255 0 0
-0.377234 -0.158148 1.07431 255 0 0
-0.377402 -0.157507 1.07854 255 0 0
-0.17817 -0.292333 0.983045 255 0 0
-0.123375 -0.140854 0.94325 255 0 0
-0.123718 -0.141193 0.942403 255 0 0
-0.127965 -0.142149 0.9369 255 0 0
-0.156051 -0.265583 1.00503 255 0 0
-0.157451 -0.264631 1.00101 255 0 0
-0.166065 -0.273025 1.01344 255 0 0
-0.165667 -0.27228 1.01608 255 0 0
-0.156021 -0.259318 1.01046 255 0 0
-0.16624 -0.26479 1.01068 255 0 0
-0.276866 -0.115025 1.05933 255 0 0
-0.159303 -0.2605 1.0185 255 0 0
-0.160861 -0.262072 1.02003 255 0 0
-0.243786 -0.150197 1.06618 255 0 0
-0.190295 -0.279987 1.05406 255 0 0
-0.0162799 0.0437092 1.01072 255 0 0
-0.0111596 0.0350942 1.03099 255 0 0
-0.0124171 0.0347991 1.02784 255 0 0
-0.00740346 0.0361368 1.03457 255 0 0
-0.0749527 -0.112411 1.11 255 0 0
-0.0840084 -0.11184 1.10449 255 0 0
-0.0731793 -0.108983 1.1305 255 0 0
-0.131028 -0.0807496 0.724013 255 0 0
-0.200363 -0.27661 0.799209 255 0 0
-0.202192 -0.275132 0.794083 255 0 0
-0.271063 -0.102919 0.815576 255 0 0
-0.0808799 -0.0872319 0.802137 255 0 0
-0.185005 -0.243068 0.837548 255 0 0
-0.266461 -0.340533 0.868293 255 0 0
-0.266647 -0.34058 0.867894 255 0 0
-0.174278 -0.193714 0.864089 255 0 0
0.00582065 -0.167454 0.779287 255 0 0
0.00169116 -0.164282 0.780847 255 0 0
-0.0808976 -0.300407 0.825657 255 0 0
-0.0952544 -0.298314 0.823741 255 0 0
-0.0870074 -0.300568 0.831149 255 0 0
-0.115116 -0.300482 0.873902 255 0 0
-0.126253 -0.297138 0.854594 255 0 0
-0.169561 -0.280018 1.01649 255 0 0
-0.167365 -0.279013 1.00399 255 0 0
-0.217354 -0.336881 1.04167 255 0 0
-0.168922 -0.280264 1.01623 255 0 0
-0.153761 -0.25981 1.01124 255 0 0
-0.164256 -0.272849 1.01778 255 0 0
-0.167565 -0.277341 1.00531 255 0 0
-0.170788 -0.280634 1.01366 255 0 0
-0.154396 -0.261929 1.03319 255 0 0
-0.242159 -0.149729 1.06958 255 0 0
-0.228619 -0.152364 1.06803 255 0 0
-0.146254 -0.244196 1.09109 255 0 0
-0.144833 -0.244698 1.09326 255 0 0
0.0352354 -0.0144052 1.02387 255 0 0
0.0387298 -0.0193867 1.02195 255 0 0
-0.100252 -0.127766 1.1397 255 0 0
-0.0817232 -0.14851 1.07934 255 0 0
-0.0899474 -0.114969 1.09246 255 0 0
-0.0724936 -0.109769 1.12831 255 0 0
-0.0709306 -0.120667 1.14284 255 0 0
-0.0797617 -0.120994 1.12383 255 0 0
-0.426618 -0.044193 0.840439 255 0 0
-0.404794 -0.0498584 0.830942 255 0 0
-0.436654 -0.0381127 0.821872 255 0 0
-0.411206 -0.046891 0.811259 255 0 0
-0.439601 -0.0398423 0.813277 255 0 0
-0.302005 -0.102294 0.875032 255 0 0
-0.175935 0.0193834 0.808915 255 0 0
-0.150475 0.0102526 0.805792 255 0 0
-0.21621 0.0539084 0.846629 255 0 0
-0.368023 -0.043529 0.930354 255 0 0
-0.0812044 -0.300483 0.829951 255 0 0
-0.196078 0.0764263 0.921764 255 0 0
-0.19104 0.078007 0.927486 255 0 0
-0.191267 0.0638621 0.895091 255 0 0
0.00558928 -0.104458 0.850994 255 0 0
-0.0396099 -0.066375 0.885179 255 0 0
-0.104981 -0.0892504 0.749225 255 0 0
-0.0993497 -0.086242 0.763269 255 0 0
-0.103616 -0.0874059 0.759086 255 0 0
-0.204421 -0.232699 0.84305 255 0 0
-0.197247 -0.234769 0.835358 255 0 0
-0.198086 -0.189975 0.859893 255 0 0
-0.197288 -0.189467 0.862246 255 0 0
-0.383368 -0.182722 0.972537 255 0 0
-0.0790869 -0.0895252 0.801768 255 0 0
-0.0760565 -0.0895578 0.80774 255 0 0
-0.296647 -0.00670066 0.96344 255 0 0
-0.299175 -0.0078012 0.959146 255 0 0
-0.29751 -0.00806298 0.958737 255 0 0
-0.428343 -0.12742 1.03453 255 0 0
-0.186599 -0.239957 0.841981 255 0 0
-0.202285 -0.22776 0.840239 255 0 0
-0.205975 0.0395187 0.94636 255 0 0
-0.359961 -0.0622578 0.846948 255 0 0
-0.339921 -0.0701239 0.848949 255 0 0
-0.299927 -0.0686046 0.892521 255 0 0
-0.318467 -0.0788928 0.854379 255 0 0
-0.104584 -0.0893244 0.738356 255 0 0
-0.106335 -0.091048 0.745092 255 0 0
-0.101851 -0.0896781 0.751323 255 0 0
-0.290145 -0.0911072 0.857783 255 0 0
0.154891 -0.027827 1.22495 255 0 0
0.15534 -0.0257227 1.2231 255 0 0
-0.0674918 -0.124054 1.15291 255 0 0
-0.0707953 -0.123081 1.1468 255 0 0
-0.0676734 -0.125347 1.15106 255 0 0
-0.10075 -0.270129 1.26091 255 0 0
0.0669657 0.0901255 1.18603 255 0 0
0.07115 0.0757711 1.20501 255 0 0
0.0734959 0.0782826 1.20573 255 0 0
-0.107511 -0.276951 1.27921 255 0 0
0.109185 -0.0243544 1.22655 255 0 0
0.112886 -0.0237714 1.23358 255 0 0
0.139038 -0.0296844 1.2114 255 0 0
0.15355 -0.0264997 1.22517 255 0 0
-0.157683 -0.150878 1.38563 255 0 0
-0.150669 -0.152694 1.4136 255 0 0
-0.148788 -0.151141 1.41678 255 0 0
-0.368737 -0.0609893 0.845801 255 0 0
-0.330782 -0.0769328 0.843961 255 0 0
-0.322708 -0.0816317 0.842073 255 0 0
-0.320106 -0.0811229 0.846361 255 0 0
-0.285221 -0.0892313 0.837027 255 0 0
-0.254246 -0.11453 0.847646 255 0 0
-0.306734 -0.103718 0.872071 255 0 0
-0.302258 -0.1027 0.876307 255 0 0
-0.301761 -0.102287 0.877982 255 0 0
-0.19225 -0.240791 0.83088 255 0 0
-0.369157 -0.0430547 0.928254 255 0 0
-0.369964 -0.0409836 0.928377 255 0 0
-0.368868 -0.0429126 0.9289 255 0 0
-0.36868 -0.0438023 0.929998 255 0 0
-0.372956 -0.0452274 0.902769 255 0 0
-0.190754 -0.0826463 0.65345 255 0 0
0.152841 -0.0188591 1.21259 255 0 0
-0.0948168 -0.18535 1.46754 255 0 0
-0.382749 -0.183088 0.974348 255 0 0
-0.381827 -0.182502 0.974186 255 0 0
-0.38139 -0.181623 0.974009 255 0 0
-0.372323 -0.166279 0.983808 255 0 0
-0.428484 -0.127372 1.03656 255 0 0
-0.423275 -0.129547 1.04643 255 0 0
-0.268254 0.0434025 0.961412 255 0 0
-0.267459 0.0448293 0.962161 255 0 0
-0.266458 0.0362089 0.959753 255 0 0
-0.199589 0.0709718 0.911097 255 0 0
-0.181773 0.0678487 0.906874 255 0 0
-0.186317 0.0684131 0.907691 255 0 0
-0.207441 0.0845864 0.941173 255 0 0
-0.212645 0.0850705 0.94425 255 0 0
-0.2143 0.089033 0.942236 255 0 0
-0.323346 -0.0545034 1.03945 255 0 0
-0.124406 -0.130398 0.952818 255 0 0
-0.439087 -0.034013 0.840037 255 0 0
-0.434893 -0.0448702 0.838081 255 0 0
-0.392959 -0.0567432 0.816392 255 0 0
-0.397865 -0.058496 0.815738 255 0 0
-0.391729 -0.0563872 0.825757 255 0 0
-0.399429 -0.0527135 0.813846 255 0 0
-0.41138 -0.0458557 0.810373 255 0 0
-0.442875 -0.0423364 0.83841 255 0 0
-0.397558 -0.0590166 0.807768 255 0 0
-0.401174 -0.0475217 0.868796 255 0 0
-0.398448 -0.0481016 0.85653 255 0 0
-0.371222 -0.0610151 0.842785 255 0 0
-0.362231 -0.0633224 0.844615 255 0 0
-0.396875 -0.0569649 0.811654 255 0 0
-0.281743 0.0404149 0.957513 255 0 0
-0.0158211 -0.0971521 0.835906 255 0 0
-0.157485 -0.265375 1.00197 255 0 0
-0.335009 -0.0168787 1.08921 255 0 0
-0.41087 -0.0463914 0.81068 255 0 0
-0.434648 -0.0375265 0.820584 255 0 0
-0.405901 -0.046709 0.866944 255 0 0
-0.426411 -0.0403163 0.847244 255 0 0
-0.192081 0.038211 0.782111 255 0 0
-0.309981 -0.10233 0.865985 255 0 0
-0.220784 0.053225 0.841202 255 0 0
-0.0748087 -0.087834 0.805938 255 0 0
-0.370572 -0.163033 0.982922 255 0 0
-0.383911 -0.154355 1.07993 255 0 0
-0.376964 -0.15755 1.06985 255 0 0
-0.373089 -0.158631 1.07628 255 0 0
-0.372537 -0.158335 1.07676 255 0 0
-0.175809 -0.289805 0.987226 255 0 0
-0.107964 -0.1429 0.949602 255 0 0
-0.158228 -0.269497 1.01242 255 0 0
-0.277804 -0.114889 1.06312 255 0 0
-0.276123 -0.115476 1.05739 255 0 0
-0.283037 -0.112235 1.06078 255 0 0
-0.277803 -0.110173 1.06882 255 0 0
-0.0601773 -0.093827 1.10777 255 0 0
-0.0655421 -0.0931226 1.10004 255 0 0
-0.0590735 -0.0929996 1.1095 255 0 0
-0.0692949 -0.115217 1.09332 255 0 0
-0.070043 -0.111608 1.09393 255 0 0
-0.0647499 -0.109499 1.10219 255 0 0
-0.0712102 -0.108166 1.1101 255 0 0
-0.0215507 0.0825846 1.10687 255 0 0
0.191712 -0.0625406 1.04453 255 0 0
0.201606 -0.0600288 1.05441 255 0 0
-0.101419 -0.263315 1.25853 255 0 0
0.0769722 -0.00271666 1.16191 255 0 0
0.130034 -0.0180517 1.20796 255 0 0
0.144731 -0.0220266 1.21847 255 0 0
-0.259674 -0.222376 0.810229 255 0 0
-0.194695 -0.191219 0.860477 255 0 0
-0.307324 0.0156264 0.96274 255 0 0
-0.201095 0.0795631 0.938435 255 0 0
-0.200722 0.0826043 0.947174 255 0 0
-0.379053 -0.156694 1.06958 255 0 0
-0.375146 -0.157651 1.07494 255 0 0
-0.178963 -0.292963 0.982169 255 0 0
-0.118307 -0.141504 0.953152 255 0 0
-0.111651 -0.143148 0.947467 255 0 0
-0.275764 -0.117697 1.06401 255 0 0
-0.275328 -0.125397 1.0542 255 0 0
-0.16853 -0.273983 1.01899 255 0 0
-0.167562 -0.273786 1.02017 255 0 0
-0.114656 -0.138471 0.947629 255 0 0
-0.119215 -0.135188 0.965428 255 0 0
-0.108156 -0.15311 0.948949 255 0 0
-0.107439 -0.15393 0.951307 255 0 0
-0.378512 -0.156127 1.07773 255 0 0
-0.379206 -0.155031 1.08348 255 0 0
-0.22193 -0.336429 1.0319 255 0 0
-0.175815 -0.17686 1.07407 255 0 0
-0.171608 -0.177947 1.08046 255 0 0
-0.0950612 0.08649 1.07409 255 0 0
-0.133265 -0.150013 1.1165 255 0 0
-0.133452 -0.148561 1.11625 255 0 0
-0.132609 -0.148448 1.11717 255 0 0
-0.058681 0.00449636 1.10243 255 0 0
-0.0718975 -0.116525 1.09382 255 0 0
-0.0711105 -0.123139 1.1467 255 0 0
0.0786834 -0.0198158 1.1125 255 0 0
0.0790298 -0.0245722 1.11188 255 0 0
0.0803215 -0.0183691 1.11644 255 0 0
0.0654161 -0.0256133 1.09341 255 0 0
0.0858572 -0.00780022 1.17327 255 0 0
0.0774715 -0.000117654 1.16549 255 0 0
0.0559473 -0.0288995 1.14695 255 0 0
0.113334 -0.0197409 1.19148 255 0 0
-0.101034 -0.281337 1.29393 255 0 0
0.125991 -0.0195205 1.19978 255 0 0
-0.10172 -0.280537 1.29064 255 0 0
0.138992 -0.0154149 1.21912 255 0 0
0.113044 -0.0244638 1.1807 255 0 0
0.0982872 -0.0201776 1.21091 255 0 0
0.134945 -0.0229975 1.20111 255 0 0
-0.0265446 -0.143619 1.1512 255 0 0
-0.443021 -0.016807 0.757549 255 0 0
-0.450427 -0.0434988 0.838901 255 0 0
-0.441601 -0.0441324 0.832421 255 0 0
-0.360306 -0.0670324 0.835293 255 0 0
-0.247774 0.0675 0.767132 255 0 0
-0.248297 0.0675096 0.767489 255 0 0
-0.249287 0.0764294 0.767485 255 0 0
-0.247702 0.0778173 0.768965 255 0 0
-0.326132 -0.0235625 0.83142 255 0 0
-0.229299 0.0597484 0.755566 255 0 0
-0.228581 0.0591588 0.756652 255 0 0
-0.252587 0.0863095 0.777005 255 0 0
-0.256172 0.0840287 0.784251 255 0 0
-0.256172 0.0840287 0.784251 255 0 0
-0.243873 0.0810429 0.775507 255 0 0
-0.247046 0.0757551 0.785191 255 0 0
-0.247547 0.0753134 0.785811 255 0 0
-0.247315 0.0753092 0.785652 255 0 0
-0.24415 0.0767278 0.783618 255 0 0
-0.244193 0.066914 0.784399 255 0 0
-0.242696 0.0778869 0.784477 255 0 0
-0.240898 0.0790494 0.786917 255 0 0
-0.241449 0.0678338 0.788036 255 0 0
-0.262377 0.0747681 0.802569 255 0 0
-0.219958 0.0482071 0.77676 255 0 0
-0.270339 0.0730482 0.819276 255 0 0
-0.26441 -0.10256 0.826279 255 0 0
-0.21675 0.0463191 0.78248 255 0 0
-0.263627 -0.103075 0.827483 255 0 0
-0.264455 -0.0978058 0.836821 255 0 0
-0.199825 0.0405507 0.779587 255 0 0
-0.203117 0.0390626 0.785356 255 0 0
-0.193287 0.0316719 0.785019 255 0 0
-0.196621 0.0331484 0.789375 255 0 0
-0.229801 0.0585421 0.813803 255 0 0
-0.434953 -0.0265992 0.775099 255 0 0
-0.436251 -0.0339632 0.81521 255 0 0
-0.43564 -0.0257451 0.773123 255 0 0
-0.248107 0.061019 0.769502 255 0 0
-0.325645 -0.0170263 0.833232 255 0 0
-0.255071 0.0847132 0.779957 255 0 0
-0.254695 0.0844897 0.779942 255 0 0
-0.244501 0.080197 0.773252 255 0 0
-0.255065 0.0843136 0.780957 255 0 0
-0.244472 0.0797734 0.773742 255 0 0
-0.234794 -0.133685 0.778419 255 0 0
-0.249956 0.0780305 0.783948 255 0 0
-0.249524 0.07802 0.783637 255 0 0
-0.246341 0.0787306 0.784024 255 0 0
-0.251672 -0.117097 0.802012 255 0 0
-0.34344 -0.0816799 0.867807 255 0 0
-0.337351 -0.0848213 0.864281 255 0 0
-0.343269 -0.0818458 0.868431 255 0 0
-0.248447 -0.120518 0.803035 255 0 0
-0.24982 -0.11964 0.80399 255 0 0
-0.240519 -0.129168 0.800633 255 0 0
-0.207101 0.0412936 0.76959 255 0 0
-0.338651 -0.0844769 0.871377 255 0 0
-0.33897 -0.0842935 0.871847 255 0 0
-0.237835 0.0556321 0.79761 255 0 0
-0.202492 0.0381037 0.779478 255 0 0
-0.234117 0.0564933 0.804022 255 0 0
-0.191482 0.0369872 0.784343 255 0 0
-0.259441 -0.204198 0.835965 255 0 0
-0.46628 -0.0101258 0.794009 255 0 0
-0.288304 0.0818182 0.795394 255 0 0
-0.232303 -0.133137 0.781064 255 0 0
-0.252373 0.0843358 0.787133 255 0 0
-0.261621 0.073212 0.808148 255 0 0
-0.260849 0.0735489 0.808413 255 0 0
-0.260237 0.0733962 0.809397 255 0 0
-0.21529 0.0470689 0.784911 255 0 0
-0.215945 0.046712 0.784763 255 0 0
-0.198147 0.0425753 0.781825 255 0 0
-0.20431 0.0404631 0.781921 255 0 0
-0.159978 -0.0412581 0.745269 255 0 0
-0.304919 -0.102649 0.872422 255 0 0
-0.181921 0.0317398 0.782169 255 0 0
-0.181167 0.0318319 0.782251 255 0 0
-0.184724 0.0310911 0.786071 255 0 0
-0.173641 0.0237647 0.783846 255 0 0
-0.203923 -0.211973 0.844674 255 0 0
-0.145535 0.00924118 0.807168 255 0 0
-0.195516 -0.190456 0.861594 255 0 0
-0.196322 -0.190544 0.860664 255 0 0
-0.197341 -0.190627 0.860908 255 0 0
-0.19606 -0.189751 0.859941 255 0 0
-0.418647 -0.0800552 1.02929 255 0 0
-0.418044 -0.0804372 1.02587 255 0 0
-0.353259 -0.0821812 1.02563 255 0 0
-0.354227 -0.0847741 1.02161 255 0 0
-0.323301 -0.054433 1.04004 255 0 0
-0.365927 -0.1601 1.08182 255 0 0
-0.0572508 -0.0687651 0.87265 255 0 0
-0.0591482 -0.0660426 0.871545 255 0 0
-0.0433663 -0.0611319 0.883411 255 0 0
-0.0606986 -0.025427 0.8805 255 0 0
-0.0140272 -0.0863723 0.854969 255 0 0
0.000504255 -0.0993707 0.854883 255 0 0
-0.341964 -0.0211486 1.08043 255 0 0
-0.11165 -0.157125 0.951018 255 0 0
-0.016656 -0.0263963 0.896208 255 0 0
-0.245706 -0.145929 1.07105 255 0 0
-0.162289 -0.263674 1.01926 255 0 0
-0.244434 -0.145783 1.0706 255 0 0
-0.100272 -0.195189 1.03674 255 0 0
-0.0975726 -0.117872 1.05287 255 0 0
-0.101818 -0.195585 1.03348 255 0 0
-0.0988544 -0.195819 1.0383 255 0 0
-0.10913 -0.155697 1.02978 255 0 0
-0.0969279 -0.196238 1.04143 255 0 0
-0.131898 -0.209489 1.17147 255 0 0
-0.153518 -0.227868 1.20305 255 0 0
-0.143519 -0.224877 1.20169 255 0 0
-0.183188 -0.248407 1.23009 255 0 0
-0.0286356 -0.133047 1.1858 255 0 0
-0.0352956 -0.135802 1.17854 255 0 0
-0.0834623 -0.202914 1.31603 255 0 0
-0.434562 -0.0251622 0.775207 255 0 0
-0.148082 0.00814182 0.804411 255 0 0
-0.120009 -0.0869305 0.797505 255 0 0
-0.371473 -0.164353 0.982898 255 0 0
-0.265671 0.0358496 0.961208 255 0 0
-0.256786 0.0620361 0.960029 255 0 0
-0.236634 0.0838965 0.910013 255 0 0
-0.204944 0.0882846 0.941766 255 0 0
-0.374048 -0.157109 1.08366 255 0 0
-0.182718 0.069171 0.908516 255 0 0
-0.325387 -0.0555736 1.03745 255 0 0
-0.103755 -0.13695 0.938138 255 0 0
-0.111485 -0.140562 0.95105 255 0 0
-0.105855 -0.146334 0.958031 255 0 0
-0.0154261 -0.0254501 0.898185 255 0 0
-0.0159847 -0.0259375 0.897756 255 0 0
-0.118666 -0.161672 0.983863 255 0 0
-0.12036 -0.162668 0.981656 255 0 0
0.00240392 -0.067415 0.934559 255 0 0
0.0045966 -0.0660003 0.935204 255 0 0
-0.114431 -0.15492 1.04731 255 0 0
-0.0870434 -0.118652 1.06783 255 0 0
-0.113523 -0.115413 1.1303 255 0 0
-0.150245 -0.224031 1.20672 255 0 0
0.0894208 -0.03032 1.05129 255 0 0
0.0252217 -0.177813 1.10288 255 0 0
0.0227823 -0.177848 1.10062 255 0 0
0.0237481 -0.178721 1.1002 255 0 0
0.0228251 -0.176831 1.10161 255 0 0
-0.00218974 -0.168992 1.07076 255 0 0
-0.0357205 -0.133573 1.13857 255 0 0
-0.0206976 -0.137726 1.15528 255 0 0
-0.014884 -0.141074 1.14881 255 0 0
-0.0158775 -0.140904 1.1463 255 0 0
-0.0102988 -0.139612 1.15299 255 0 0
-0.00932356 -0.13966 1.15581 255 0 0
0.181996 -0.0635087 1.03692 255 0 0
-0.1012 -0.265337 1.25852 255 0 0
-0.0999208 -0.273156 1.26339 255 0 0
-0.101642 -0.272318 1.26025 255 0 0
-0.441339 -0.0285274 0.804604 255 0 0
-0.413644 -0.0426586 0.80198 255 0 0
-0.442408 -0.0435194 0.835305 255 0 0
-0.421406 -0.0455883 0.829601 255 0 0
-0.43453 -0.0460861 0.837587 255 0 0
-0.433427 -0.0453142 0.838928 255 0 0
-0.433158 -0.0450274 0.84004 255 0 0
-0.399705 -0.0527584 0.841452 255 0 0
-0.248807 0.0631592 0.76692 255 0 0
-0.245674 0.0667634 0.770606 255 0 0
-0.289758 0.0815036 0.792641 255 0 0
-0.288397 0.0806944 0.792944 255 0 0
-0.440224 -0.0241791 0.763984 255 0 0
-0.441712 -0.017789 0.758372 255 0 0
-0.442918 -0.0166812 0.757469 255 0 0
-0.406597 -0.0481987 0.809723 255 0 0
-0.4075 -0.049738 0.818718 255 0 0
-0.418877 -0.0499535 0.842855 255 0 0
-0.417133 -0.0494169 0.845738 255 0 0
-0.466433 -0.0113527 0.795817 255 0 0
-0.434282 -0.0265462 0.776002 255 0 0
-0.422643 -0.0365583 0.79339 255 0 0
-0.434344 -0.0379215 0.831594 255 0 0
-0.399625 -0.0522671 0.820096 255 0 0
-0.395585 -0.0466283 0.868965 255 0 0
-0.280565 0.0750433 0.814522 255 0 0
-0.201143 0.0401383 0.784836 255 0 0
-0.0641272 -0.101793 1.10659 255 0 0
0.0114055 0.0189661 1.05368 255 0 0
-0.079955 -0.115209 1.09871 255 0 0
0.197055 -0.0608988 1.04911 255 0 0
0.198221 -0.061794 1.05027 255 0 0
-0.00018416 -0.0323365 1.04 255 0 0
-0.0982491 -0.265829 1.26759 255 0 0
0.13703 -0.0282052 1.2128 255 0 0
0.149835 -0.0280436 1.20814 255 0 0
-0.0843781 -0.186705 1.48389 255 0 0
-0.349879 -0.0688891 0.840378 255 0 0
-0.359989 -0.0690819 0.854429 255 0 0
-0.292804 -0.0820808 0.825566 255 0 0
-0.212758 0.0383202 0.76393 255 0 0
-0.20859 0.0422531 0.769264 255 0 0
-0.207616 0.0420978 0.770051 255 0 0
-0.220732 0.0456995 0.773862 255 0 0
-0.199114 0.0373144 0.773852 255 0 0
-0.195434 0.0358002 0.780359 255 0 0
-0.18277 0.0449771 0.795567 255 0 0
-0.299551 -0.100859 0.883743 255 0 0
-0.233079 0.0543652 0.818666 255 0 0
-0.205481 -0.234152 0.839093 255 0 0
-0.168816 0.0264389 0.793288 255 0 0
-0.157533 0.0188247 0.794804 255 0 0
-0.172688 0.0214138 0.808339 255 0 0
-0.171257 0.0232525 0.81142 255 0 0
-0.212539 0.0490745 0.824659 255 0 0
-0.215126 0.0471595 0.821048 255 0 0
-0.221891 0.0529508 0.839292 255 0 0
-0.221457 0.0524883 0.84069 255 0 0
-0.219263 0.0536842 0.843844 255 0 0
-0.146536 0.00939823 0.806859 255 0 0
-0.435159 -0.0372077 0.814498 255 0 0
-0.43563 -0.0350872 0.829097 255 0 0
-0.466786 -0.0108946 0.796952 255 0 0
-0.162189 -0.262339 1.01256 255 0 0
-0.245305 -0.147911 1.07161 255 0 0
-0.241258 -0.147678 1.07365 255 0 0
0.00524452 -0.0679196 0.937551 255 0 0
0.00207905 -0.0687089 0.933711 255 0 0
-0.0698507 0.0796042 1.04772 255 0 0
-0.0617046 -0.0934749 1.10443 255 0 0
-0.0714927 -0.118733 1.09188 255 0 0
-0.0683457 -0.115181 1.09446 255 0 0
-0.0663735 -0.115689 1.09908 255 0 0
-0.0750775 -0.162948 1.1129 255 0 0
-0.157919 -0.227985 1.19953 255 0 0
0.084782 -0.019693 1.06082 255 0 0
-0.148151 -0.229339 1.20039 255 0 0
-0.0670864 -0.125691 1.15268 255 0 0
-0.076001 -0.122906 1.13831 255 0 0
0.148676 -0.0647226 1.01362 255 0 0
0.176063 -0.0581414 1.03787 255 0 0
0.200284 -0.061483 1.05251 255 0 0
-0.0980167 -0.26988 1.26551 255 0 0
-0.100309 -0.274544 1.26316 255 0 0
-0.100766 -0.273064 1.26213 255 0 0
0.166832 -0.0241463 1.20462 255 0 0
-0.445746 -0.0142965 0.754475 255 0 0
-0.410129 -0.0446097 0.80288 255 0 0
-0.22991 0.0562556 0.814782 255 0 0
-0.183616 0.0281453 0.788814 255 0 0
-0.226963 0.0648311 0.82158 255 0 0
-0.228593 0.0644256 0.821132 255 0 0
-0.187475 0.0293629 0.7947 255 0 0
-0.173462 0.0250194 0.791137 255 0 0
-0.170588 0.0240856 0.790697 255 0 0
-0.198102 0.0308384 0.831353 255 0 0
-0.286631 -0.0966104 0.88574 255 0 0
-0.199715 0.0264426 0.818727 255 0 0
-0.199869 0.0265673 0.818823 255 0 0
-0.200594 0.0265806 0.81932 255 0 0
-0.200473 0.0276849 0.819395 255 0 0
-0.389009 -0.197168 0.965266 255 0 0
-0.330231 -0.0816177 0.918344 255 0 0
-0.174151 0.0206744 0.804572 255 0 0
-0.173389 0.0211048 0.811122 255 0 0
-0.154015 -0.0697077 0.801968 255 0 0
-0.121333 -0.00155111 0.782481 255 0 0
-0.125556 -0.00407248 0.778753 255 0 0
-0.150317 0.00864172 0.803741 255 0 0
-0.123042 -0.00188778 0.786593 255 0 0
-0.12872 -0.0637546 0.814671 255 0 0
-0.2177 0.0535055 0.846598 255 0 0
-0.215706 0.0544504 0.849106 255 0 0
-0.125844 -0.0595975 0.81541 255 0 0
-0.195867 -0.190531 0.861847 255 0 0
-0.131986 -0.0656415 0.808773 255 0 0
-0.370014 -0.161397 0.982099 255 0 0
-0.369212 -0.159835 0.983755 255 0 0
-0.382391 -0.138638 0.991959 255 0 0
-0.428324 -0.0896914 1.02283 255 0 0
-0.31431 -0.0557723 0.94121 255 0 0
-0.30532 -0.0586307 0.939601 255 0 0
-0.144734 -0.00667018 0.826108 255 0 0
-0.307359 -0.0605468 0.933888 255 0 0
-0.144147 -0.00596367 0.827596 255 0 0
-0.198028 0.0498869 0.864116 255 0 0
-0.439741 -0.0534161 1.03832 255 0 0
-0.196207 0.0494658 0.864115 255 0 0
-0.26845 0.0998589 0.909801 255 0 0
-0.267617 0.0986444 0.910517 255 0 0
-0.154919 -0.0591159 0.848516 255 0 0
-0.261207 0.0981093 0.910429 255 0 0
-0.151396 -0.0623298 0.852583 255 0 0
-0.155321 -0.0627837 0.847826 255 0 0
-0.23819 -0.128552 0.915 255 0 0
-0.101571 -0.01275 0.815953 255 0 0
-0.295107 0.0138188 0.971935 255 0 0
-0.259888 0.0857454 0.941396 255 0 0
-0.259608 0.0854116 0.94123 255 0 0
-0.354213 -0.0854102 1.02178 255 0 0
-0.354917 -0.0849101 1.02247 255 0 0
-0.272595 0.0506907 0.958613 255 0 0
-0.282139 0.0829039 0.962101 255 0 0
-0.28165 0.0835522 0.961592 255 0 0
-0.279517 0.0858827 0.965821 255 0 0
-0.260025 0.062845 0.955631 255 0 0
-0.335977 -0.0682226 1.02862 255 0 0
-0.332563 -0.0699331 1.0269 255 0 0
-0.33054 -0.0686813 1.02785 255 0 0
-0.301741 -0.0742758 1.0134 255 0 0
-0.226746 0.0698699 0.951729 255 0 0
-0.225927 0.071857 0.951745 255 0 0
-0.225538 0.0723874 0.952653 255 0 0
-0.190837 0.0767187 0.926212 255 0 0
-0.188749 0.0777359 0.927487 255 0 0
-0.189189 0.0772659 0.925918 255 0 0
-0.188376 0.0772376 0.928247 255 0 0
-0.185423 0.0764959 0.928695 255 0 0
-0.218809 0.0853182 0.955798 255 0 0
-0.0613778 -0.0746996 0.861905 255 0 0
-0.0612025 -0.0752757 0.862072 255 0 0
-0.0247037 -0.0711162 0.896359 255 0 0
-0.0172905 -0.0852108 0.849527 255 0 0
-0.308937 -0.0396085 1.04896 255 0 0
-0.0585669 -0.025592 0.880998 255 0 0
-0.341979 -0.0199867 1.07786 255 0 0
-0.343374 -0.0204144 1.0734 255 0 0
-0.0874331 -0.0941651 0.920074 255 0 0
-0.379199 0.0106811 1.10709 255 0 0
-0.378486 0.0115547 1.10726 255 0 0
0.0191819 -0.0977511 0.867806 255 0 0
-0.28233 -0.131068 1.0613 255 0 0
-0.279803 -0.132019 1.06356 255 0 0
-0.330511 -0.0167908 1.08847 255 0 0
-0.330382 -0.0161876 1.08833 255 0 0
-0.119393 -0.160599 0.942388 255 0 0
-0.0198153 -0.0269263 0.892691 255 0 0
-0.0189764 -0.02726 0.893114 255 0 0
-0.250359 -0.145293 1.06398 255 0 0
-0.10099 -0.150128 0.972581 255 0 0
-0.223792 -0.161034 1.06794 255 0 0
-0.210734 -0.263486 1.08238 255 0 0
-0.100849 -0.19283 1.03135 255 0 0
-0.319612 -0.00277631 1.16082 255 0 0
-0.106324 -0.157662 1.03739 255 0 0
-0.105365 -0.157633 1.039 255 0 0
-0.182687 -0.135572 1.11241 255 0 0
-0.0148591 0.0368236 1.00077 255 0 0
0.0256631 0.0129834 1.02876 255 0 0
-0.125124 -0.204297 1.16465 255 0 0
-0.124904 -0.203997 1.16378 255 0 0
-0.132586 -0.206055 1.16293 255 0 0
-0.0648841 -0.159029 1.12064 255 0 0
-0.0688841 -0.157461 1.12807 255 0 0
-0.0963256 -0.219997 1.28377 255 0 0
-0.0928377 -0.211204 1.2913 255 0 0
-0.0997099 -0.226555 1.30884 255 0 0
-0.0985863 -0.229603 1.30903 255 0 0
-0.399173 -0.0545792 0.8043 255 0 0
-0.458474 -0.0334089 0.849641 255 0 0
-0.458237 -0.0334147 0.84947 255 0 0
-0.462084 -0.0349151 0.853546 255 0 0
-0.460856 -0.0343634 0.854858 255 0 0
-0.400555 -0.0527418 0.812068 255 0 0
-0.396941 -0.0552608 0.822152 255 0 0
-0.391866 -0.0582225 0.828546 255 0 0
-0.25389 0.0973403 0.739323 255 0 0
-0.255979 0.100063 0.746642 255 0 0
-0.273798 0.0974268 0.761847 255 0 0
-0.256002 0.0980146 0.749214 255 0 0
-0.255595 0.0977671 0.749177 255 0 0
-0.283491 0.0968729 0.769366 255 0 0
-0.282967 0.0969373 0.769231 255 0 0
-0.277551 0.0979839 0.766016 255 0 0
-0.256959 0.0968411 0.752176 255 0 0
-0.277494 0.0973438 0.766989 255 0 0
-0.256959 0.0968412 0.752176 255 0 0
-0.268925 0.0946304 0.763875 255 0 0
-0.268354 0.0936603 0.764738 255 0 0
-0.278494 0.0933302 0.773311 255 0 0
-0.274215 0.09346 0.770461 255 0 0
-0.272571 0.0927862 0.771524 255 0 0
-0.264732 0.0907605 0.771377 255 0 0
-0.249371 0.0617601 0.767668 255 0 0
-0.256486 -0.204462 0.834581 255 0 0
-0.253546 0.0725809 0.821579 255 0 0
-0.256797 -0.20458 0.836045 255 0 0
-0.231719 0.0572163 0.809665 255 0 0
-0.253114 -0.209685 0.83977 255 0 0
-0.253399 -0.209502 0.839969 255 0 0
-0.191656 0.0318272 0.786479 255 0 0
-0.192662 0.0311639 0.793159 255 0 0
-0.185128 0.03042 0.788735 255 0 0
-0.187751 0.0300558 0.79337 255 0 0
-0.18391 0.0291783 0.792597 255 0 0
-0.147897 0.0367144 0.772437 255 0 0
-0.222924 0.0259129 0.828818 255 0 0
-0.231141 -0.238587 0.845146 255 0 0
-0.228595 -0.239825 0.847515 255 0 0
-0.115159 -0.0721337 0.760512 255 0 0
-0.115158 -0.0725687 0.760529 255 0 0
-0.118371 -0.0689838 0.758781 255 0 0
-0.115542 -0.0685714 0.761626 255 0 0
-0.211609 -0.230877 0.837759 255 0 0
-0.18377 0.0157897 0.814535 255 0 0
-0.171734 0.0181455 0.806236 255 0 0
-0.177692 0.0232994 0.811065 255 0 0
-0.383788 -0.185424 0.972683 255 0 0
-0.161387 0.0112428 0.808678 255 0 0
-0.193283 0.0334909 0.831528 255 0 0
-0.206742 0.0424367 0.841123 255 0 0
-0.192122 0.033605 0.831425 255 0 0
-0.198519 -0.191047 0.859046 255 0 0
-0.443307 -0.016727 0.757753 255 0 0
-0.487527 -0.0610076 0.566162 255 0 0
-0.440223 -0.0245539 0.763999 255 0 0
-0.470495 -0.00614185 0.788799 255 0 0
-0.434192 -0.0270148 0.77752 255 0 0
-0.458852 -0.0161414 0.800557 255 0 0
-0.459585 -0.0160899 0.802071 255 0 0
-0.468827 -0.00728166 0.791902 255 0 0
-0.432527 -0.029082 0.779335 255 0 0
-0.426085 -0.0316479 0.783461 255 0 0
-0.426314 -0.0316063 0.783871 255 0 0
-0.426181 -0.0314455 0.783769 255 0 0
-0.424692 -0.031804 0.783202 255 0 0
-0.446987 -0.0238542 0.800949 255 0 0
-0.447155 -0.0234585 0.802288 255 0 0
-0.441221 -0.0285273 0.805127 255 0 0
-0.449282 -0.0309585 0.816977 255 0 0
-0.439347 -0.0330512 0.815072 255 0 0
-0.431331 -0.0373938 0.810451 255 0 0
-0.418368 -0.039428 0.802159 255 0 0
-0.431002 -0.0370411 0.811432 255 0 0
-0.44872 -0.0367659 0.825949 255 0 0
-0.426388 -0.0380187 0.818792 255 0 0
-0.417404 -0.0400991 0.804453 255 0 0
-0.427101 -0.0402718 0.816403 255 0 0
-0.436993 -0.0386317 0.823727 255 0 0
-0.431442 -0.0396718 0.823463 255 0 0
-0.466793 -0.0349226 0.849296 255 0 0
-0.464642 -0.0343127 0.851666 255 0 0
-0.447052 -0.0129979 0.751414 255 0 0
-0.097454 -0.200587 1.04689 255 0 0
-0.0964621 -0.1989 1.04807 255 0 0
0.084592 0.150408 0.881028 255 0 0
-0.182831 -0.131065 1.11552 255 0 0
-0.18475 -0.128529 1.11705 255 0 0
0.0110261 0.00771788 1.02792 255 0 0
0.0113337 0.0073332 1.02771 255 0 0
0.00920133 0.00702013 1.03001 255 0 0
0.0183234 0.0223941 1.03314 255 0 0
-0.13166 -0.208903 1.1703 255 0 0
-0.135556 -0.21141 1.17398 255 0 0
0.0162655 0.0160274 1.06477 255 0 0
0.0139143 0.00743851 1.07374 255 0 0
0.0163831 0.00897003 1.07436 255 0 0
0.165209 0.182577 0.981953 255 0 0
0.162233 0.182331 0.979004 255 0 0
0.0618181 -0.0230284 1.06436 255 0 0
0.177553 0.182501 0.984966 255 0 0
0.0376413 0.245846 1.12732 255 0 0
0.037082 0.244116 1.1278 255 0 0
0.0357916 0.239409 1.13066 255 0 0
0.0363987 0.239756 1.13045 255 0 0
0.0309327 0.240733 1.13732 255 0 0
0.0322866 0.24062 1.13709 255 0 0
-0.0992501 -0.209761 1.25174 255 0 0
-0.104793 -0.221163 1.27869 255 0 0
-0.0963746 -0.21939 1.28364 255 0 0
-0.0932025 -0.211096 1.29112 255 0 0
-0.0933585 -0.209125 1.29362 255 0 0
-0.0933475 -0.267194 1.29828 255 0 0
-0.0923429 -0.268225 1.30131 255 0 0
-0.0917259 -0.202479 1.30278 255 0 0
-0.0913987 -0.20399 1.30335 255 0 0
-0.0907868 -0.205149 1.30617 255 0 0
-0.0915668 -0.207111 1.30733 255 0 0
-0.0917848 -0.205348 1.30864 255 0 0
-0.0974117 -0.210107 1.34029 255 0 0
-0.198784 -0.19104 0.859237 255 0 0
-0.198165 -0.191134 0.860522 255 0 0
-0.307152 -0.0640945 0.933925 255 0 0
-0.196209 -0.190292 0.859813 255 0 0
-0.262336 0.0980784 0.908081 255 0 0
-0.26807 0.0763166 0.913136 255 0 0
-0.258717 0.0964836 0.91006 255 0 0
-0.194206 0.0419995 0.865905 255 0 0
-0.104823 -0.0135027 0.809341 255 0 0
-0.104507 -0.0135104 0.809113 255 0 0
-0.289068 0.0628001 0.941463 255 0 0
-0.103242 -0.0139166 0.810685 255 0 0
-0.100637 -0.0212952 0.815284 255 0 0
-0.100143 -0.0218061 0.81569 255 0 0
-0.100582 -0.0214995 0.816488 255 0 0
-0.374149 -0.0907833 1.02146 255 0 0
-0.253734 -0.0241404 0.93711 255 0 0
-0.282436 0.0375509 0.957726 255 0 0
-0.295817 0.014232 0.969604 255 0 0
-0.288333 0.0201159 0.964445 255 0 0
-0.287428 0.0207328 0.963765 255 0 0
-0.288874 0.0205684 0.965063 255 0 0
-0.36292 -0.08714 1.02603 255 0 0
-0.289999 0.0337872 0.968778 255 0 0
-0.291732 0.0445374 0.969579 255 0 0
-0.283292 0.0106006 0.965152 255 0 0
-0.360178 -0.0865905 1.02502 255 0 0
-0.360879 -0.0871511 1.02555 255 0 0
-0.291345 0.0449879 0.970021 255 0 0
-0.291021 0.0453813 0.96977 255 0 0
-0.414881 0.0366007 1.06234 255 0 0
-0.350797 -0.0821993 1.02447 255 0 0
-0.349998 -0.0819167 1.02413 255 0 0
-0.352491 -0.078582 1.02678 255 0 0
-0.351254 -0.079522 1.02618 255 0 0
-0.267509 0.0457043 0.961413 255 0 0
-0.287604 -0.0888654 0.990954 255 0 0
-0.287269 -0.0890719 0.991955 255 0 0
-0.290278 -0.0861193 0.998202 255 0 0
-0.290279 -0.0858722 0.998192 255 0 0
-0.361541 -0.0646233 1.05248 255 0 0
-0.445309 -0.0149593 0.754928 255 0 0
-0.470492 -0.00587059 0.788793 255 0 0
-0.46951 -0.00720262 0.790389 255 0 0
-0.446266 -0.0135993 0.753587 255 0 0
-0.484978 -0.0568583 0.565874 255 0 0
-0.487106 -0.0593211 0.564305 255 0 0
-0.488147 -0.0610385 0.566364 255 0 0
0.0189674 0.0455414 0.781461 255 0 0
0.563687 -0.706248 4.4208 255 0 0
0.0508277 -0.0437109 0.910995 255 0 0
0.0493742 0.0442928 0.743751 255 0 0
0.0993806 0.0172869 0.896409 255 0 0
-0.330835 -0.0963725 0.79659 255 0 0
0.503719 -0.679584 4.03392 255 0 0
0.531477 -0.690173 4.27851 255 0 0
0.690535 -0.782934 5.02834 255 0 0
0.108657 -0.0216141 1.20506 255 0 0
1.87153 -0.640562 3.1392 255 0 0
1.83649 -0.650197 3.1452 255 0 0
0.085382 -0.0423301 0.92005 255 0 0
0.485462 -0.688074 4.02996 255 0 0
0.316063 0.0853978 1.12949 255 0 0
0.318169 0.0673612 1.11902 255 0 0
0.0559398 0.0620774 0.758356 255 0 0
0.170558 -0.0575748 0.950983 255 0 0
-0.00516638 0.0323483 0.817403 255 0 0
0.16709 -0.0557736 0.991809 255 0 0
1.92035 -0.645324 3.19627 255 0 0
1.94616 -0.649632 3.30467 255 0 0
0.246325 -0.0241541 0.903169 255 0 0
0.0166983 0.0401083 0.786005 255 0 0
1.90414 -0.593478 3.20182 255 0 0
1.85602 -0.617884 3.14975 255 0 0
-0.0761644 -0.109642 0.705921 255 0 0
0.110373 -0.0185731 1.20966 255 0 0
-0.101577 -0.0855474 0.744205 255 0 0
-0.42853 -0.0450772 0.835023 255 0 0
1.90647 -0.613606 3.17675 255 0 0
1.89467 -0.619178 3.20569 255 0 0
1.81021 -0.628326 3.16608 255 0 0
0.048594 -0.0597899 0.953275 255 0 0
1.82639 -0.632574 3.19583 255 0 0
-0.0663801 -0.29792 0.80246 255 0 0
1.65495 -0.60816 2.89563 255 0 0
-0.0119168 -0.15163 0.679769 255 0 0
1.79192 -0.606666 3.14435 255 0 0
-0.120948 -0.172453 0.991547 255 0 0
0.507033 -0.700516 4.32044 255 0 0
-0.211071 -0.240234 0.838256 255 0 0
0.526079 -0.697696 4.12148 255 0 0
0.015562 0.040514 0.767762 255 0 0
1.8161 -0.638504 3.16932 255 0 0
0.000920223 -0.158584 0.66897 255 0 0
-0.122923 -0.0923435 0.707978 255 0 0
-0.0361544 0.0518276 1.02228 255 0 0
-0.0535314 0.0757848 1.09412 255 0 0
-0.320611 -0.0867393 0.833889 255 0 0
1.81341 -0.632409 3.17399 255 0 0
1.73768 -0.628154 3.0469 255 0 0
1.90895 -0.635422 3.24527 255 0 0
-0.0670933 -0.106346 0.72684 255 0 0
1.7729 -0.616659 3.11206 255 0 0
-0.183505 -0.257481 0.825756 255 0 0
-0.067867 -0.110102 0.730624 255 0 0
1.98929 -0.63265 3.27259 255 0 0
0.148368 -0.0443987 0.995491 255 0 0
0.106944 0.0181253 0.902668 255 0 0
1.92929 -0.609303 3.28981 255 0 0
1.95364 -0.626124 3.16056 255 0 0
1.83685 -0.593438 3.16374 255 0 0
1.8894 -0.629482 3.1758 255 0 0
1.83325 -0.602391 3.18936 255 0 0
1.92592 -0.598364 3.25193 255 0 0
0.384754 -0.629199 3.78738 255 0 0
0.574418 -0.670205 4.30145 255 0 0
0.489426 -0.674691 4.24034 255 0 0
-0.100717 -0.276481 1.26367 255 0 0
0.284899 -0.00480622 0.926868 255 0 0
0.0776494 0.0468704 0.704671 255 0 0
0.54971 -0.696854 4.32139 255 0 0
-0.118096 -0.300335 0.873397 255 0 0
0.626337 -0.737795 4.62148 255 0 0
1.92041 -0.627167 3.19166 255 0 0
-0.104492 -0.152752 0.964102 255 0 0
0.622139 -0.729446 4.7388 255 0 0
-0.137337 -0.157298 0.943401 255 0 0
-0.282385 -0.0773088 0.897464 255 0 0
0.500693 -0.699979 4.2953 255 0 0
-0.0982979 -0.110656 0.694399 255 0 0
-0.0903005 -0.11413 0.692326 255 0 0
-0.126694 -0.134546 0.930843 255 0 0
0.512518 -0.717534 4.1835 255 0 0
0.239584 -0.0278843 0.907665 255 0 0
0.240275 -0.0263889 0.897339 255 0 0
1.96551 -0.613603 3.25287 255 0 0
0.252018 -0.0243545 0.922922 255 0 0
1.97098 -0.639534 3.2746 255 0 0
1.82418 -0.607223 3.14873 255 0 0
-0.126616 -0.133647 0.930304 255 0 0
1.9007 -0.666644 3.25317 255 0 0
1.85525 -0.590582 3.18591 255 0 0
-0.135522 -0.161468 0.941537 255 0 0
1.72329 -0.601648 2.98682 255 0 0
-0.123311 -0.153254 0.952579 255 0 0
-0.124409 -0.155586 0.952884 255 0 0
0.531898 -0.658665 4.29695 255 0 0
-0.122008 -0.140688 0.936434 255 0 0
0.487122 -0.671499 4.23483 255 0 0
0.450313 -0.65074 4.26174 255 0 0
0.49516 -0.709704 4.22812 255 0 0
0.556686 -0.70856 4.32053 255 0 0
0.00745413 -0.0672041 0.940189 255 0 0
0.456552 -0.659055 4.29677 255 0 0
0.491963 -0.665619 4.08663 255 0 0
0.565452 -0.732828 4.32391 255 0 0
0.536889 -0.669109 4.34282 255 0 0
0.51353 -0.702481 4.0877 255 0 0
-0.119895 -0.139343 0.940479 255 0 0
0.522765 -0.659854 4.30027 255 0 0
1.86379 -0.653611 3.15678 255 0 0
1.87091 -0.592885 3.20694 255 0 0
1.95275 -0.619543 3.15243 255 0 0
-0.212209 -0.257718 0.857728 255 0 0
-0.050306 0.0544094 1.00869 255 0 0
1.82233 -0.622591 3.17929 255 0 0
0.0371654 0.041331 0.799934 255 0 0
-0.409185 -0.118544 0.687285 255 0 0
-0.0632724 -0.0861486 1.06447 255 0 0
-0.165483 -0.0806961 0.677378 255 0 0
-0.102708 -0.28057 1.28904 255 0 0
-0.291274 -0.0894247 0.907498 255 0 0
-0.166099 -0.075943 0.655273 255 0 0
0.605442 -0.757832 4.45874 255 0 0
0.564916 -0.74993 4.42139 255 0 0
-0.173956 -0.0805624 0.649242 255 0 0
-0.205906 -0.0497365 0.712095 255 0 0
0.548241 -0.733652 4.29946 255 0 0
-0.173106 -0.0758886 0.651514 255 0 0
0.588565 -0.679345 4.35211 255 0 0
0.580153 -0.711604 4.30843 255 0 0
0.522871 -0.646526 4.19708 255 0 0
