11873.252219 0.000000000 0.000000000 0.000000000 0.000000000 0.000000000 0.000000000 1.000000000
11873.289083 0.006980621 -0.023429941 0.042266861 -0.001272073 0.001275373 0.001322950 0.999997497
11873.325947 0.021332812 -0.051474340 0.084492333 -0.006385698 0.002457639 0.001671835 0.999975204
11873.362810 0.029877473 -0.083443046 0.123499200 -0.012233707 0.007132650 0.001227121 0.999898970
11873.399673 0.029974550 -0.114327878 0.163094997 -0.020069577 0.014467438 0.002609595 0.999690473
11873.436537 0.045710251 -0.147094443 0.209471121 -0.029142411 0.017703613 0.004734049 0.999407232
11873.473400 0.048494957 -0.176859707 0.250292361 -0.036770646 0.026208941 0.013047592 0.998894751
11873.510264 0.048756167 -0.199364692 0.289580286 -0.044296101 0.033648744 0.022939252 0.998188078
11873.547127 0.049128480 -0.226615205 0.335297823 -0.056633677 0.038610633 0.031011596 0.997166038
11873.583991 0.046830207 -0.250535488 0.378141165 -0.066173889 0.044736836 0.037746146 0.996089756
11873.620854 0.043773897 -0.273727477 0.424957663 -0.072409838 0.052236907 0.043638423 0.995049655
11873.657718 0.040611379 -0.297478378 0.473378181 -0.078958303 0.059998691 0.050525103 0.993787169
11873.694581 0.035834156 -0.317406952 0.523386180 -0.083619677 0.068228118 0.057334084 0.992504656
11873.731445 0.029724102 -0.334703028 0.575745285 -0.086948141 0.075789414 0.065251425 0.991180241
11873.768308 0.022828788 -0.355425805 0.629183114 -0.093172684 0.082116798 0.073943309 0.989498913
11873.805172 0.012781627 -0.371007383 0.680143833 -0.097672373 0.086699359 0.086171165 0.987683058
11873.842035 0.005043916 -0.386383116 0.734446347 -0.102057926 0.085563712 0.097385496 0.986295640
11873.878899 -0.011185236 -0.408986330 0.782998025 -0.109421559 0.084395260 0.104223877 0.984906971
11873.915762 -0.025029540 -0.423626244 0.829198778 -0.119832702 0.080604896 0.114835300 0.982830524
11873.952626 -0.042207569 -0.434790194 0.874989867 -0.128164768 0.081750207 0.129977450 0.979794145
11873.989489 -0.064688876 -0.447383761 0.911557674 -0.141902775 0.086671099 0.142399982 0.975742757
11874.026353 -0.082306243 -0.456646502 0.951073647 -0.161467716 0.087212533 0.148064166 0.971801996
11874.063216 -0.098584533 -0.466920823 0.992773294 -0.179716557 0.090926364 0.149678409 0.968003452
11874.100080 -0.114416108 -0.469543904 1.030182600 -0.187998086 0.100569852 0.152799591 0.964984298
11874.136943 -0.140969187 -0.478759587 1.059073210 -0.199589968 0.121976197 0.159986734 0.959004641
11874.173807 -0.162460551 -0.483145386 1.087865353 -0.203503400 0.138210639 0.167267606 0.954728067
11874.210670 -0.183294073 -0.491639495 1.114832044 -0.205118448 0.150694296 0.170120209 0.951985657
11874.247534 -0.208318949 -0.501261830 1.141566396 -0.205619484 0.160868853 0.169372529 0.950344563
11874.284397 -0.234535217 -0.500430346 1.163456202 -0.193151563 0.167253271 0.174023420 0.951017678
11874.321261 -0.257338405 -0.506594718 1.183736444 -0.186037570 0.167244256 0.180273250 0.951273322
11874.358124 -0.286957860 -0.511211693 1.201423883 -0.175849840 0.167572349 0.182933360 0.952644587
11874.394988 -0.314064443 -0.515598893 1.216041088 -0.164600655 0.165890396 0.190929770 0.953379691
11874.431851 -0.339353085 -0.516846418 1.227491856 -0.152582318 0.164210081 0.202049151 0.953378081
11874.468714 -0.375201881 -0.515974998 1.238440275 -0.142567083 0.174342558 0.213143826 0.950709701
11874.505578 -0.402696908 -0.514596224 1.244630575 -0.136014238 0.181513175 0.226920620 0.947132587
11874.542442 -0.426536143 -0.514057994 1.250876307 -0.131110743 0.190441072 0.241115913 0.942552507
11874.579305 -0.447463751 -0.516230226 1.258264899 -0.128037035 0.201379776 0.251897514 0.937870085
11874.616168 -0.466607213 -0.522452235 1.264903069 -0.129124254 0.213100806 0.258034945 0.933452129
11874.653032 -0.483505368 -0.529475808 1.271380663 -0.131969348 0.226411179 0.263700098 0.928323388
11874.689895 -0.501492143 -0.532858133 1.276676893 -0.127639666 0.242230535 0.266600102 0.924097836
11874.726759 -0.513718724 -0.542720139 1.282251477 -0.126793027 0.256533980 0.268927157 0.919669509
11874.763623 -0.524305999 -0.551634312 1.285125256 -0.120137103 0.271372020 0.271808743 0.915447593
11874.800486 -0.536858439 -0.557843089 1.288753271 -0.108779505 0.288797170 0.276788890 0.910028100
11874.837349 -0.548798323 -0.562522471 1.291634321 -0.093824930 0.305645078 0.284790337 0.903699279
11874.874213 -0.560418546 -0.567631900 1.297292352 -0.076296978 0.323578119 0.292202473 0.896712720
11874.911076 -0.570231378 -0.574039817 1.303647757 -0.059926428 0.339877278 0.301774740 0.888720572
11874.947940 -0.581410706 -0.577695608 1.312351823 -0.042957220 0.356715024 0.313122243 0.879126549
11874.984803 -0.595060766 -0.581789017 1.322752714 -0.026831090 0.374231488 0.324649632 0.868235886
11875.021667 -0.606369257 -0.583732963 1.330174327 -0.015145090 0.385429174 0.337752759 0.858567417
11875.058530 -0.622322321 -0.584444582 1.340616226 -0.010134563 0.396671891 0.353327423 0.847176731
11875.095394 -0.637665927 -0.584694862 1.352031350 -0.007221184 0.407044828 0.370790333 0.834731638
11875.132257 -0.648851633 -0.586117148 1.361768603 -0.006693637 0.413298815 0.383103460 0.826057553
11875.169121 -0.659530938 -0.592115164 1.368798018 -0.015052448 0.415798426 0.387948930 0.822423697
11875.205984 -0.670288324 -0.596109509 1.371567130 -0.015231692 0.418919772 0.393249542 0.818308651
11875.242848 -0.686605811 -0.601673186 1.378913045 -0.012778373 0.427531064 0.396240503 0.812433004
11875.279711 -0.700799942 -0.608654797 1.378690481 -0.007952910 0.433385789 0.403950602 0.805566490
11875.316575 -0.718619704 -0.612436891 1.380798817 0.002028074 0.442946821 0.411581874 0.796488762
11875.353438 -0.735818744 -0.619342387 1.382091522 0.010828523 0.451996505 0.422249585 0.785676301
11875.390302 -0.754285932 -0.622509599 1.383405805 0.023356987 0.462354571 0.431395590 0.774325848
11875.427165 -0.774494410 -0.625654995 1.386070967 0.037326977 0.475268662 0.439369261 0.761367857
11875.464029 -0.796113253 -0.630821049 1.390494704 0.048425250 0.490008950 0.447298557 0.746639252
11875.500892 -0.819222689 -0.633210599 1.394687414 0.061727587 0.504740953 0.457211733 0.729646266
11875.537756 -0.845769763 -0.633536637 1.405320287 0.075311020 0.521162212 0.467676163 0.709927559
11875.574619 -0.872753501 -0.637206912 1.412451386 0.085392445 0.535110176 0.481102705 0.689133763
11875.611483 -0.904899538 -0.635804296 1.426440954 0.100423694 0.551982999 0.487810880 0.668782771
11875.648346 -0.940345287 -0.642217875 1.443207860 0.109560110 0.567053139 0.494087517 0.649865270
11875.685210 -0.970925570 -0.642890692 1.458492398 0.118557416 0.573964357 0.502291799 0.635776758
11875.722073 -1.001654983 -0.653302908 1.472397804 0.124599971 0.579778135 0.507773936 0.624898255
11875.758937 -1.029996991 -0.666399360 1.485119462 0.133506104 0.587076426 0.505874038 0.617745042
11875.795800 -1.054967403 -0.686150670 1.494021535 0.136972710 0.593516886 0.501024306 0.614777088
11875.832664 -1.074272156 -0.706717849 1.501433372 0.139643922 0.598596692 0.499461681 0.610507607
11875.869527 -1.093461752 -0.725489616 1.507597446 0.146662459 0.606618345 0.497781813 0.602260411
11875.906390 -1.112271786 -0.741158724 1.519856691 0.154518381 0.619580567 0.490571916 0.592944503
11875.943254 -1.129632473 -0.762255311 1.533507705 0.158335268 0.633525312 0.483247608 0.583135843
11875.980118 -1.145194769 -0.780976653 1.548836589 0.160945848 0.648279607 0.473869234 0.573827446
11876.016981 -1.157790661 -0.794378161 1.566112757 0.163922772 0.661893964 0.464837730 0.564758003
11876.053844 -1.167880654 -0.813347101 1.587190151 0.164315417 0.674968541 0.458663732 0.554116786
11876.090708 -1.178988218 -0.825587809 1.609959722 0.167579889 0.685891032 0.452017635 0.545115054
11876.127571 -1.184575319 -0.838341773 1.633818865 0.169762895 0.694654047 0.447500378 0.537010014
11876.164435 -1.189709187 -0.850862980 1.658924460 0.171556607 0.701020360 0.445092857 0.530123770
11876.201298 -1.193270922 -0.862224340 1.679331779 0.174066857 0.702599466 0.447879583 0.524841487
11876.238162 -1.196661949 -0.874767363 1.711507678 0.171802610 0.702288032 0.454684645 0.520132005
11876.275026 -1.196972609 -0.885933995 1.727109075 0.173274755 0.695420980 0.469612539 0.515586615
11876.311889 -1.200415373 -0.897454917 1.744162798 0.170868158 0.691936910 0.472097695 0.518797815
11876.348752 -1.200469494 -0.914738953 1.760736823 0.164022580 0.690571725 0.471020520 0.523781478
11876.385616 -1.204226851 -0.931004465 1.783686280 0.158253595 0.693128228 0.467249572 0.525553823
11876.422479 -1.208702207 -0.942039073 1.804684520 0.155961633 0.695841491 0.468101025 0.521883070
11876.459343 -1.221561432 -0.956782937 1.819963813 0.155915067 0.699449599 0.470310986 0.515042067
11876.496207 -1.233828783 -0.973655522 1.840942860 0.157118142 0.705759346 0.471910447 0.504497945
11876.533070 -1.247823834 -0.985985219 1.862217307 0.159844175 0.712944567 0.470413268 0.494844735
11876.569933 -1.266616702 -1.003588676 1.881285071 0.164556846 0.720359325 0.470368356 0.482449114
11876.606797 -1.283714056 -1.022900581 1.906546950 0.168633357 0.728880167 0.470989227 0.467403114
11876.643660 -1.305255055 -1.035314083 1.935965419 0.174425662 0.737408459 0.470538169 0.452104241
11876.680524 -1.325432539 -1.052207232 1.965945363 0.179876849 0.745320916 0.472679257 0.434413850
11876.717387 -1.344167948 -1.065941215 1.995811939 0.183549315 0.751939058 0.475283563 0.418333352
11876.754251 -1.368947506 -1.078091621 2.025575876 0.185532212 0.756148577 0.480190039 0.404023170
11876.791114 -1.386605263 -1.097348928 2.056108475 0.185069278 0.759494126 0.488883376 0.387183547
11876.827978 -1.401524186 -1.127771616 2.099344492 0.185681537 0.766370773 0.496941686 0.362280548
