11873.252219 0.000000000 0.000000000 0.000000000 0.000000000 0.000000000 0.000000000 1.000000000
11873.289083 0.007472747 -0.022898462 0.042178538 -0.001145229 0.001141973 0.001263429 0.999997914
11873.325947 0.021820862 -0.051394571 0.084666267 -0.006358927 0.002329680 0.001674424 0.999975681
11873.362810 0.029719003 -0.083269574 0.122819990 -0.012200129 0.007244675 0.001296809 0.999898493
11873.399673 0.036377613 -0.117216751 0.165194198 -0.020664774 0.012528069 0.000872444 0.999707580
11873.436537 0.046744887 -0.152861476 0.208759546 -0.031168161 0.017466528 0.005303218 0.999347448
11873.473400 0.046441235 -0.181352749 0.250147462 -0.038505111 0.026933774 0.014075388 0.998796225
11873.510264 0.046269104 -0.203646630 0.289486170 -0.045987383 0.034483451 0.024123831 0.998055160
11873.547127 0.046217218 -0.231594741 0.334113330 -0.058620509 0.039764285 0.032051351 0.996972978
11873.583991 0.042531863 -0.255999804 0.379740417 -0.068249747 0.046497948 0.038521480 0.995839357
11873.620854 0.039054759 -0.278748184 0.425206363 -0.074493833 0.054217342 0.044359125 0.994757950
11873.657718 0.033632051 -0.300142825 0.474346668 -0.080220029 0.062870756 0.051661395 0.993450105
11873.694581 0.031857237 -0.321280241 0.523617923 -0.085537188 0.069910906 0.058859475 0.992134750
11873.731445 0.024950203 -0.337518364 0.575011730 -0.088510029 0.077994540 0.066402361 0.990794420
11873.768308 0.018491291 -0.357043535 0.629825234 -0.094046623 0.084186457 0.074614815 0.989191830
11873.805172 0.007478565 -0.377005577 0.680247247 -0.100295573 0.089784272 0.085610390 0.987193227
11873.842035 -0.003854603 -0.393500984 0.732216835 -0.104888707 0.090797208 0.096193597 0.985647500
11873.878899 -0.016289130 -0.412418365 0.782477915 -0.110810250 0.087698586 0.102872618 0.984605134
11873.915762 -0.029466823 -0.431100965 0.829607189 -0.123563290 0.083804488 0.113669023 0.982236385
11873.952626 -0.050147854 -0.436748505 0.871168673 -0.128460601 0.086886048 0.129792303 0.979337871
11873.989489 -0.070084460 -0.445432723 0.910122037 -0.140133977 0.089960672 0.141082034 0.975892127
11874.026353 -0.092119135 -0.452910185 0.949235022 -0.157944068 0.093042716 0.146124423 0.972133934
11874.063216 -0.101209886 -0.467588454 0.992600501 -0.180075288 0.092587836 0.149195105 0.967853904
11874.100080 -0.118536264 -0.476992577 1.028968811 -0.192684501 0.104464054 0.152807832 0.963643968
11874.136943 -0.138088703 -0.483405679 1.060605288 -0.204149589 0.120591663 0.160158396 0.958190978
11874.173807 -0.160534009 -0.488643080 1.088519335 -0.208671138 0.137893721 0.167062029 0.953693807
11874.210670 -0.183849365 -0.486893505 1.112681389 -0.201135367 0.150253251 0.170245200 0.952882528
11874.247534 -0.202087194 -0.496741802 1.138512731 -0.203025565 0.155573606 0.173323438 0.951071203
11874.284397 -0.233663395 -0.500722766 1.162973404 -0.193801492 0.165840313 0.173585922 0.951212823
11874.321261 -0.252911747 -0.508422196 1.182248116 -0.188365549 0.162284926 0.180260241 0.951676548
11874.358124 -0.280399024 -0.509899735 1.198978424 -0.175684243 0.160652965 0.185112521 0.953445852
11874.394988 -0.306063235 -0.511768878 1.213663459 -0.162641898 0.157496333 0.193770170 0.954565644
11874.431851 -0.335488766 -0.520148396 1.223114491 -0.155547589 0.160528198 0.204319954 0.953041971
11874.468714 -0.361695230 -0.521463394 1.230341792 -0.148179814 0.162606552 0.217920959 0.950848222
11874.505578 -0.390426278 -0.516025424 1.235377073 -0.138062999 0.169920340 0.232665032 0.947593093
11874.542442 -0.412415087 -0.516024649 1.240737438 -0.133897319 0.177365705 0.246775925 0.943246841
11874.579305 -0.435911298 -0.521508455 1.248082399 -0.133260652 0.190269113 0.256320119 0.938263953
11874.616168 -0.454778463 -0.525085688 1.255320311 -0.132781997 0.201456070 0.262624323 0.934244514
11874.653032 -0.469420463 -0.532766104 1.260761499 -0.136625573 0.212926552 0.267735749 0.929684520
11874.689895 -0.487455308 -0.538470030 1.266382098 -0.133598521 0.229741961 0.272772312 0.924643338
11874.726759 -0.501136780 -0.546148598 1.270130157 -0.130278990 0.244141072 0.274055749 0.921040654
11874.763623 -0.514036775 -0.554082155 1.273838162 -0.122814938 0.260830104 0.275675952 0.916998863
11874.800486 -0.527675688 -0.558230042 1.276754618 -0.109519497 0.278552383 0.280684263 0.911937714
11874.837349 -0.539402187 -0.565821409 1.281354070 -0.097237922 0.296748519 0.288683474 0.905067384
11874.874213 -0.550934911 -0.571291745 1.286525130 -0.079845428 0.314612448 0.295967489 0.898357928
11874.911076 -0.560381889 -0.578855455 1.293410182 -0.064803034 0.331202596 0.306045264 0.890191913
11874.947940 -0.573465228 -0.579958737 1.301429749 -0.045274887 0.348617435 0.317372233 0.880733192
11874.984803 -0.589447618 -0.584372878 1.311592102 -0.028764717 0.367585987 0.328162909 0.869690895
11875.021667 -0.595457911 -0.593351543 1.318488359 -0.023612341 0.377349377 0.344295293 0.859366417
11875.058530 -0.611810744 -0.594344556 1.328788400 -0.018376317 0.388831466 0.360249281 0.847757578
11875.095394 -0.627324343 -0.594209909 1.339718103 -0.015377624 0.399077952 0.377485365 0.835467041
11875.132257 -0.641917229 -0.593567610 1.350992799 -0.012958181 0.407393873 0.387685895 0.826778114
11875.169121 -0.651665270 -0.597333133 1.357226253 -0.019933030 0.408431232 0.392946810 0.823637962
11875.205984 -0.662079811 -0.605269432 1.361196041 -0.022723000 0.412834615 0.398475051 0.818699539
11875.242848 -0.677516520 -0.609882653 1.365868807 -0.019724052 0.419832617 0.402034581 0.813461602
11875.279711 -0.691819251 -0.615634978 1.366429806 -0.014484813 0.426222622 0.408639818 0.806931198
11875.316575 -0.708281338 -0.620379269 1.366614819 -0.005179027 0.434845090 0.417435408 0.797891378
11875.353438 -0.726174593 -0.627274752 1.367298007 0.003478659 0.444060296 0.427397609 0.787483096
11875.390302 -0.743769288 -0.629523873 1.367257118 0.016155113 0.453674853 0.436600238 0.776722848
11875.427165 -0.762776971 -0.634405792 1.368049979 0.028810862 0.465863764 0.445537329 0.763961613
11875.464029 -0.785358548 -0.638550103 1.374345660 0.041073944 0.482019693 0.452900231 0.748900056
11875.500892 -0.807514012 -0.641474664 1.377629399 0.053938314 0.496521950 0.463575780 0.731883943
11875.537756 -0.832504869 -0.642864883 1.385444045 0.066241555 0.512034357 0.474629581 0.712853193
11875.574619 -0.862100363 -0.645144641 1.396800876 0.077599749 0.528647780 0.486022532 0.691586554
11875.611483 -0.894920051 -0.646923900 1.408472419 0.090850823 0.545745552 0.493082434 0.671399713
11875.648346 -0.929578304 -0.645285547 1.424164534 0.103138544 0.559435427 0.497815669 0.654655635
11875.685210 -0.961203098 -0.651492178 1.436045289 0.109631442 0.566325784 0.507081389 0.640409648
11875.722073 -0.993561685 -0.664482474 1.449462652 0.114735253 0.573047042 0.512585759 0.629053891
11875.758937 -1.021817923 -0.677011847 1.459503889 0.124310821 0.579438627 0.511620760 0.622126937
11875.795800 -1.045456886 -0.697450638 1.468803287 0.127421767 0.586211562 0.506659210 0.619206071
11875.832664 -1.064473510 -0.718535781 1.476308346 0.129921600 0.591651201 0.505112588 0.614760518
11875.869527 -1.083314538 -0.733629823 1.483702779 0.138208121 0.600074649 0.502192795 0.607133687
11875.906390 -1.102789283 -0.753586888 1.495635390 0.145086497 0.613547504 0.496254742 0.596858859
11875.943254 -1.119855881 -0.773983359 1.509523034 0.149038315 0.627797782 0.488415182 0.587459028
11875.980118 -1.134400606 -0.793956876 1.522777081 0.150770515 0.642204285 0.479509801 0.578716040
11876.016981 -1.147585154 -0.809025049 1.539616108 0.153577387 0.656089723 0.471048921 0.569274247
11876.053844 -1.158836484 -0.825956106 1.560762644 0.154887408 0.669076383 0.464337677 0.559229136
11876.090708 -1.169334412 -0.840245187 1.582489371 0.156981438 0.680237353 0.457759380 0.550536394
11876.127571 -1.177043915 -0.852052629 1.608202815 0.159433395 0.689934015 0.451914877 0.542535841
11876.164435 -1.182108879 -0.864362061 1.632031560 0.161382541 0.695974529 0.450030446 0.535768390
11876.201298 -1.185905218 -0.871120811 1.653882623 0.165353447 0.697644591 0.451745570 0.530920267
11876.238162 -1.188020468 -0.882752419 1.673533559 0.164349318 0.693383753 0.463145614 0.526976824
11876.275026 -1.189611316 -0.903313637 1.699275374 0.162548363 0.690526843 0.476329476 0.519481540
11876.311889 -1.194115877 -0.916601121 1.721872330 0.159698829 0.688776016 0.477312505 0.521782219
11876.348752 -1.195931435 -0.932269752 1.738451004 0.152744383 0.687228203 0.475111902 0.527877927
11876.385616 -1.200287580 -0.942735672 1.753362060 0.148511797 0.686965168 0.472202688 0.532022297
11876.422479 -1.205397606 -0.956851423 1.774843335 0.144755423 0.690116644 0.472780257 0.528454185
11876.459343 -1.216114521 -0.970836401 1.790634632 0.145406902 0.693844855 0.475482702 0.520914912
11876.496207 -1.229707956 -0.990014374 1.812829018 0.146906063 0.700841963 0.477324754 0.509313524
11876.533070 -1.247454286 -1.005518079 1.826204538 0.149284303 0.706119537 0.477886200 0.500733733
11876.569933 -1.266234875 -1.019509196 1.847129941 0.155600280 0.714250207 0.477027148 0.487934738
11876.606797 -1.283127069 -1.038770676 1.876080155 0.158587947 0.724343061 0.475981474 0.472883314
11876.643660 -1.302493334 -1.054278374 1.906086683 0.163368002 0.733566940 0.475863338 0.456885695
11876.680524 -1.320719719 -1.071794033 1.934569597 0.168539658 0.741516769 0.478452027 0.439125210
11876.717387 -1.343026996 -1.085013628 1.960552454 0.172794446 0.747404516 0.481567472 0.423817664
11876.754251 -1.363205194 -1.090530396 1.992025256 0.174739733 0.752707899 0.484465301 0.410109967
11876.791114 -1.381059885 -1.117025614 2.034177780 0.174798086 0.758589268 0.492859989 0.388686180
11876.827978 -1.403225541 -1.131938815 2.064250469 0.176985279 0.762528360 0.499914587 0.370556504
