11873.252219 0.0000000 0.0000000 0.0000000 0.0000000 0.0000000 0.0000000 1.0000000
11873.436537 0.0411933 -0.1500590 0.2095896 -0.0300354 0.0192052 0.0053717 0.9993499
11873.473400 0.0424019 -0.1795287 0.2513934 -0.0376491 0.0281741 0.0139790 0.9987959
11873.547127 0.0440814 -0.2283352 0.3350365 -0.0571842 0.0405316 0.0321323 0.9970229
11873.657718 0.0332049 -0.2989869 0.4737667 -0.0795001 0.0629769 0.0523061 0.9934675
11873.768308 0.0175926 -0.3533703 0.6321616 -0.0919584 0.0843376 0.0754247 0.9893139
11873.878899 -0.0133945 -0.4050267 0.7879249 -0.1069808 0.0851948 0.1052783 0.9849941
11874.026353 -0.0875079 -0.4540377 0.9551303 -0.1588566 0.0899574 0.1496857 0.9717337
11874.173807 -0.1623051 -0.4807706 1.0899930 -0.2005288 0.1378026 0.1696484 0.9549963
11874.284397 -0.2253894 -0.5047867 1.1664553 -0.1967815 0.1597634 0.1790385 0.9506302
11874.358124 -0.2772675 -0.5120460 1.2041466 -0.1761547 0.1597500 0.1890643 0.9527351
11874.468714 -0.3569729 -0.5218302 1.2351041 -0.1466692 0.1597342 0.2221335 0.9505945
11874.616168 -0.4490192 -0.5345181 1.2629383 -0.1386617 0.2004914 0.2675851 0.9321879
11874.837349 -0.5325118 -0.5748460 1.2866856 -0.1027955 0.2942238 0.2924701 0.9040612
11875.021667 -0.5865743 -0.6006545 1.3232555 -0.0290510 0.3740071 0.3482415 0.8590708
11875.316575 -0.6988862 -0.6313163 1.3691221 -0.0123436 0.4315840 0.4222585 0.7970449
11875.500892 -0.7992533 -0.6557862 1.3799967 0.0453915 0.4956554 0.4673007 0.7306815
11875.648346 -0.9194720 -0.6599852 1.4223189 0.0945047 0.5571709 0.5027869 0.6540908
11875.869527 -1.0719495 -0.7483128 1.4819148 0.1305896 0.5985202 0.5068061 0.6065208
11876.164435 -1.1705387 -0.8806802 1.6265296 0.1534105 0.6938609 0.4553241 0.5363788
11876.311889 -1.1815672 -0.9247397 1.7148410 0.1535229 0.6858692 0.4815152 0.5236003
11876.459343 -1.2052083 -0.9866360 1.7859154 0.1376077 0.6921835 0.4800157 0.5210865
11876.606797 -1.2680080 -1.0503132 1.8744185 0.1507338 0.7237510 0.4786347 0.4736799
11876.754251 -1.3470725 -1.1204727 1.9991437 0.1643580 0.7549467 0.4881459 0.4059009
