11873.252219 0.0000000 0.0000000 0.0000000 0.0000000 0.0000000 0.0000000 1.0000000
11873.436537 0.0444890 -0.1511416 0.2080070 -0.0304055 0.0182195 0.0047781 0.9993601
11873.473400 0.0465396 -0.1804323 0.2479342 -0.0379829 0.0269484 0.0133973 0.9988251
11873.547127 0.0477528 -0.2300431 0.3339112 -0.0578093 0.0393085 0.0313403 0.9970610
11873.657718 0.0378810 -0.3022838 0.4733771 -0.0807758 0.0612650 0.0508198 0.9935488
11873.768308 0.0200493 -0.3602081 0.6296872 -0.0949589 0.0837076 0.0738894 0.9891998
11873.915762 -0.0273565 -0.4306647 0.8334556 -0.1233187 0.0822702 0.1147891 0.9822665
11874.063216 -0.1005960 -0.4740420 0.9952405 -0.1835689 0.0928941 0.1493842 0.9671388
11874.210670 -0.1869617 -0.4979191 1.1194987 -0.2087998 0.1543704 0.1692607 0.9507488
11874.321261 -0.2633222 -0.5130600 1.1883516 -0.1904332 0.1718531 0.1764963 0.9502898
11874.431851 -0.3402364 -0.5232708 1.2303832 -0.1578576 0.1656231 0.2017820 0.9523308
11874.505578 -0.3933601 -0.5296963 1.2453034 -0.1493262 0.1759425 0.2304550 0.9453234
11874.726759 -0.5036028 -0.5555341 1.2798505 -0.1384827 0.2493596 0.2701702 0.9195925
11874.874213 -0.5509369 -0.5811924 1.2944462 -0.0881883 0.3176537 0.2935503 0.8972999
11875.058530 -0.6116177 -0.5983546 1.3368908 -0.0237202 0.3908857 0.3552904 0.8487723
11875.205984 -0.6616670 -0.6096035 1.3696826 -0.0283849 0.4157021 0.3935860 0.8194365
11875.427165 -0.7629248 -0.6395746 1.3784683 0.0235723 0.4702361 0.4408027 0.7642090
11875.611483 -0.8956831 -0.6494362 1.4168261 0.0865557 0.5493459 0.4865094 0.6738218
11875.795800 -1.0433345 -0.6970385 1.4766290 0.1234911 0.5886089 0.5012210 0.6221471
11875.943254 -1.1195356 -0.7776980 1.5178436 0.1432321 0.6308135 0.4827282 0.5903663
11876.127571 -1.1786507 -0.8523890 1.6132901 0.1553750 0.6910151 0.4468014 0.5465577
11876.275026 -1.1934013 -0.8962156 1.7097982 0.1590538 0.6930317 0.4677249 0.5250165
11876.459343 -1.2195491 -0.9648453 1.8003320 0.1422666 0.6960400 0.4689694 0.5247439
11876.606797 -1.2858293 -1.0297225 1.8809307 0.1557486 0.7249119 0.4704103 0.4784969
11876.791114 -1.3925223 -1.1073779 2.0351067 0.1731861 0.7582343 0.4883094 0.3957793
