11873.252219 0.0000000 0.0000000 0.0000000 0.0000000 0.0000000 0.0000000 1.0000000
11873.399673 0.0363776 -0.1172168 0.1651942 -0.0206648 0.0125281 0.0008724 0.9997076
11873.436537 0.0467449 -0.1528615 0.2087595 -0.0311682 0.0174665 0.0053032 0.9993474
11873.510264 0.0462691 -0.2036466 0.2894862 -0.0459874 0.0344835 0.0241238 0.9980552
11873.583991 0.0425319 -0.2559999 0.3797404 -0.0682498 0.0464979 0.0385215 0.9958394
11873.694581 0.0318573 -0.3212802 0.5236180 -0.0855372 0.0699109 0.0588595 0.9921347
11873.805172 0.0074786 -0.3770055 0.6802472 -0.1002956 0.0897843 0.0856104 0.9871932
11873.952626 -0.0501479 -0.4367485 0.8711687 -0.1284606 0.0868860 0.1297923 0.9793379
11874.063216 -0.1012099 -0.4675885 0.9926004 -0.1800753 0.0925878 0.1491951 0.9678539
11874.210670 -0.1838494 -0.4868935 1.1126815 -0.2011354 0.1502533 0.1702452 0.9528825
11874.321261 -0.2529118 -0.5084223 1.1822481 -0.1883655 0.1622849 0.1802603 0.9516765
11874.431851 -0.3354887 -0.5201485 1.2231145 -0.1555476 0.1605282 0.2043200 0.9530420
11874.505578 -0.3904262 -0.5160254 1.2353771 -0.1380630 0.1699203 0.2326650 0.9475931
11874.689895 -0.4874553 -0.5384701 1.2663821 -0.1335985 0.2297420 0.2727723 0.9246433
11874.837349 -0.5394022 -0.5658213 1.2813540 -0.0972379 0.2967485 0.2886835 0.9050674
11875.021667 -0.5954580 -0.5933515 1.3184886 -0.0236123 0.3773494 0.3442953 0.8593664
11875.279711 -0.6918193 -0.6156349 1.3664298 -0.0144848 0.4262226 0.4086398 0.8069312
11875.464029 -0.7853585 -0.6385503 1.3743459 0.0410739 0.4820197 0.4529002 0.7489001
11875.648346 -0.9295783 -0.6452855 1.4241645 0.1031385 0.5594354 0.4978157 0.6546556
11875.869527 -1.0833144 -0.7336299 1.4837027 0.1382081 0.6000747 0.5021928 0.6071337
11876.127571 -1.1770440 -0.8520523 1.6082028 0.1594334 0.6899340 0.4519148 0.5425358
11876.311889 -1.1941161 -0.9166010 1.7218724 0.1596988 0.6887760 0.4773125 0.5217822
11876.606797 -1.2831271 -1.0387707 1.8760802 0.1585879 0.7243431 0.4759814 0.4728833
11876.791114 -1.3810596 -1.1170256 2.0341778 0.1747981 0.7585893 0.4928600 0.3886862
