3961.404513 0.0000000 0.0000000 0.0000000 0.0000000 0.0000000 0.0000000 1.0000000
3961.515104 -0.0255177 -0.0163441 0.0133652 0.0131499 -0.0039688 0.0024652 0.9999026
3961.551967 -0.0346788 -0.0225852 0.0164450 0.0143232 -0.0045008 0.0030353 0.9998827
3961.662557 -0.0657091 -0.0375396 0.0239914 0.0249628 0.0030140 -0.0009028 0.9996834
3961.736284 -0.0888367 -0.0491205 0.0251186 0.0291267 0.0194281 -0.0052041 0.9993734
3961.810010 -0.1155904 -0.0597977 0.0270543 0.0356895 0.0403312 -0.0078258 0.9985181
3961.883737 -0.1446317 -0.0702036 0.0299557 0.0415681 0.0598031 -0.0020076 0.9973423
3961.994327 -0.1930243 -0.0827937 0.0374068 0.0383777 0.0767538 0.0102502 0.9962585
3962.104917 -0.2415062 -0.0941972 0.0494293 0.0242145 0.0874693 0.0126211 0.9957929
3962.215507 -0.2810962 -0.1048046 0.0625929 0.0088005 0.1120241 0.0081927 0.9936327
3962.362961 -0.3268644 -0.1131169 0.0809312 0.0071702 0.1551681 -0.0039729 0.9878541
3962.473550 -0.3549212 -0.1204102 0.1021726 0.0138151 0.1691647 -0.0139114 0.9853927
3962.584141 -0.3806329 -0.1312622 0.1289705 0.0223052 0.1650051 -0.0259841 0.9856980
3962.731594 -0.4063604 -0.1535666 0.1686843 0.0256031 0.1608568 -0.0267408 0.9862832
3962.879047 -0.4242940 -0.1766206 0.2078277 0.0282962 0.1641601 -0.0195903 0.9858332
3963.026500 -0.4472130 -0.1914473 0.2415541 0.0147989 0.1747365 -0.0065913 0.9844819
3963.173954 -0.4782494 -0.1988015 0.2759167 -0.0086020 0.1953588 -0.0005450 0.9806939
3963.321407 -0.5197237 -0.1931369 0.3027971 -0.0271704 0.2097756 0.0007629 0.9773717
3963.431998 -0.5516738 -0.1778752 0.3175335 -0.0368757 0.2232905 0.0020120 0.9740521
3963.505724 -0.5730419 -0.1646238 0.3225898 -0.0387445 0.2369751 0.0043749 0.9707330
3963.653177 -0.6088817 -0.1354661 0.3220776 -0.0302990 0.2529892 0.0059556 0.9669762
3963.800631 -0.6291081 -0.1139443 0.3103790 -0.0167201 0.2643600 0.0008250 0.9642788
