ply
format ascii 1.0
comment author: Gordon Liu
element vertex 1508
property double x
property double y
property double z
property uchar red
property uchar green
property uchar blue
end_header
-0.218163 0.0135672 0.611568 255 0 0
-0.2104 0.011493 0.591505 255 0 0
-0.15108 -0.0764277 0.685882 255 0 0
0.0976369 0.0515021 0.699396 255 0 0
-0.144847 -0.0739532 0.69819 255 0 0
0.0619688 0.0467058 0.707499 255 0 0
-0.131014 -0.0839203 0.733147 255 0 0
-0.201555 -0.0164391 0.610767 255 0 0
0.0128809 0.0700863 0.674069 255 0 0
0.0943611 0.0493174 0.68679 255 0 0
0.176385 0.0778264 0.889103 255 0 0
-0.201872 0.013032 0.698381 255 0 0
-0.172904 -0.0794858 0.621393 255 0 0
-0.235483 -0.0724658 0.883841 255 0 0
-0.0689324 -0.0902681 0.603816 255 0 0
-0.0674108 -0.0935899 0.61744 255 0 0
-0.0714857 -0.0803607 0.628795 255 0 0
0.113382 0.0555504 0.777319 255 0 0
-0.240563 0.0888261 0.701011 255 0 0
0.091321 0.046559 0.720289 255 0 0
-0.248887 0.0881454 0.721608 255 0 0
-0.255514 0.101735 0.724628 255 0 0
-0.257614 0.102302 0.732337 255 0 0
-0.238317 0.0940974 0.694073 255 0 0
-0.208613 -0.0148332 0.632163 255 0 0
-0.212948 -0.0184912 0.662115 255 0 0
-0.165124 -0.0762011 0.647096 255 0 0
-0.173124 -0.0799771 0.628198 255 0 0
-0.17138 -0.0783023 0.625341 255 0 0
-0.162451 -0.0799005 0.631525 255 0 0
-0.216181 -0.0182126 0.673546 255 0 0
-0.195079 -0.0714655 0.635616 255 0 0
-0.270277 0.164088 0.713995 255 0 0
0.148221 0.0671504 0.935858 255 0 0
-0.225383 0.123175 0.74382 255 0 0
-0.220587 0.118973 0.721915 255 0 0
-0.223986 0.083931 0.637199 255 0 0
0.211195 0.157804 0.845568 255 0 0
0.0755018 0.183484 0.689417 255 0 0
-0.202552 -0.0128969 0.613861 255 0 0
-0.0670564 -0.0831552 0.539298 255 0 0
-0.065849 -0.0957715 0.610914 255 0 0
-0.0691807 -0.0922856 0.605625 255 0 0
-0.0677559 -0.0887815 0.567212 255 0 0
-0.0639312 -0.103092 0.621838 255 0 0
-0.0638726 -0.0997669 0.58593 255 0 0
-0.187376 -0.074191 0.610401 255 0 0
-0.0679672 -0.0996417 0.603487 255 0 0
-0.0766736 -0.103539 0.693267 255 0 0
0.0193646 0.0785741 0.703603 255 0 0
-0.0838521 -0.107459 0.705656 255 0 0
-0.0806127 -0.102334 0.673991 255 0 0
-0.0596464 -0.102211 0.653701 255 0 0
-0.14756 -0.0545762 0.678488 255 0 0
0.0956133 0.153385 0.842541 255 0 0
0.186392 -0.0123592 0.883265 255 0 0
0.0240522 0.0083078 0.890628 255 0 0
0.131575 0.184641 0.697048 255 0 0
0.0115622 0.0580997 0.732166 255 0 0
0.0999193 0.218942 0.780984 255 0 0
0.160558 0.138984 0.850245 255 0 0
0.0294005 0.0254377 0.821065 255 0 0
0.032035 0.0197182 0.832528 255 0 0
0.0201612 -0.0620224 0.936187 255 0 0
-0.0824904 0.127659 1.13428 255 0 0
-0.16929 0.0962135 1.49213 255 0 0
0.0534712 0.0115573 0.84079 255 0 0
0.203492 -0.0124945 0.943335 255 0 0
0.141143 0.197121 0.735921 255 0 0
0.258981 0.0231874 1.27588 255 0 0
-0.260988 0.0359631 0.943414 255 0 0
0.0949096 0.0914056 0.789548 255 0 0
-0.0659997 -0.0667668 0.579482 255 0 0
0.039309 0.0105676 0.850069 255 0 0
0.0347979 0.0109986 0.84155 255 0 0
0.0523144 0.0109988 0.833734 255 0 0
0.128816 0.205053 1.02897 255 0 0
0.105857 0.169968 0.868529 255 0 0
0.22643 0.194706 0.80906 255 0 0
0.0946539 0.0500875 0.682973 255 0 0
0.0924355 0.20368 0.736145 255 0 0
0.0987916 0.180077 0.730247 255 0 0
0.0406885 0.0365693 0.815562 255 0 0
0.0457951 0.0301775 0.834234 255 0 0
0.173411 -0.0246694 0.883963 255 0 0
0.177768 -0.0318233 0.891864 255 0 0
-0.138417 0.0757792 1.13902 255 0 0
-0.0104183 -0.00144008 0.891395 255 0 0
-0.0159702 -0.0298868 0.879963 255 0 0
-0.124447 0.177079 0.904887 255 0 0
0.242427 -0.0755729 1.12615 255 0 0
0.103799 0.175224 0.710324 255 0 0
-0.238364 0.105101 0.765144 255 0 0
0.135483 0.219802 1.11815 255 0 0
0.00285533 -0.0677094 0.92761 255 0 0
0.00117123 -0.0663925 0.922273 255 0 0
0.0478982 -0.0420063 0.881838 255 0 0
0.204332 -0.0664439 0.976437 255 0 0
0.032109 0.0195821 0.831855 255 0 0
-0.0147329 0.135475 0.932111 255 0 0
0.195049 0.153813 0.849158 255 0 0
0.13356 -0.0370176 0.839787 255 0 0
0.0735878 0.00705241 0.826309 255 0 0
0.0638884 0.00652238 0.818525 255 0 0
0.231388 0.0486578 1.12835 255 0 0
0.0934688 0.191485 0.722516 255 0 0
0.0875153 0.196393 0.742733 255 0 0
0.0812222 0.189965 0.715949 255 0 0
0.0835842 0.191261 0.730343 255 0 0
0.182057 -0.012918 0.865169 255 0 0
0.0550202 0.0106674 0.847007 255 0 0
0.126066 -0.00733411 0.852824 255 0 0
-0.170349 0.0799679 1.31008 255 0 0
0.139549 -0.0402675 0.89418 255 0 0
0.171788 -0.0251197 0.880907 255 0 0
-0.117963 0.151537 1.28963 255 0 0
0.0386647 0.0111278 0.848683 255 0 0
0.0354181 0.0027656 0.838311 255 0 0
0.0400986 0.0400777 0.795171 255 0 0
0.0584411 0.0262537 0.81516 255 0 0
0.0422028 0.0283215 0.813705 255 0 0
0.0630572 -0.0295383 0.874798 255 0 0
-0.128909 -0.1361 0.663408 255 0 0
-0.110477 0.0438863 1.11049 255 0 0
-0.248744 0.0334501 0.898759 255 0 0
-0.139464 -0.0722455 0.667286 255 0 0
-0.133675 0.068648 1.07404 255 0 0
-0.164432 0.0834036 1.40237 255 0 0
0.172441 -0.0271843 0.887357 255 0 0
0.145629 -0.0410529 0.927004 255 0 0
-0.115957 -0.0119439 0.740247 255 0 0
0.145874 -0.000705681 0.907954 255 0 0
0.145418 0.00918306 0.899372 255 0 0
0.0502456 0.0152081 0.832265 255 0 0
0.0572385 0.0302607 0.775052 255 0 0
-0.114516 0.141651 1.22596 255 0 0
0.391498 0.180411 1.05065 255 0 0
0.212963 0.179699 0.780303 255 0 0
0.0831879 0.197031 0.738736 255 0 0
0.0954207 -0.00789325 0.835539 255 0 0
0.0516745 0.0342184 0.982822 255 0 0
0.0229615 -0.0385364 0.910099 255 0 0
-0.100406 0.113652 1.07082 255 0 0
-0.0109902 -0.000949622 0.869325 255 0 0
-0.239114 0.0306462 0.932665 255 0 0
-0.0163543 -0.029971 0.881165 255 0 0
0.0640583 -0.0285066 0.873699 255 0 0
0.0302792 0.0256312 0.841963 255 0 0
0.222659 0.217148 0.906168 255 0 0
0.198954 0.17152 0.71929 255 0 0
0.205365 0.0896908 0.76937 255 0 0
-0.231003 0.102216 0.740457 255 0 0
-0.20095 -0.0149604 0.608651 255 0 0
0.377289 0.231584 0.99139 255 0 0
0.100516 0.045074 0.700864 255 0 0
0.101037 0.0518235 0.697466 255 0 0
0.0284918 0.0247744 0.837964 255 0 0
0.0282542 0.0224343 0.811238 255 0 0
-0.0259495 0.034032 0.838811 255 0 0
0.157063 -0.0471834 1.00005 255 0 0
0.0426348 0.0148242 0.898332 255 0 0
0.0293156 0.00744666 0.819714 255 0 0
-0.125277 0.0809563 1.09171 255 0 0
0.0513447 0.0149979 0.833768 255 0 0
0.0779841 0.00936509 0.899995 255 0 0
0.0976459 -0.00800626 0.848604 255 0 0
0.05273 0.00531954 0.841789 255 0 0
0.0411847 0.026707 0.828788 255 0 0
0.142368 0.00922834 0.861031 255 0 0
-0.011253 -0.0033583 0.861226 255 0 0
-0.0699288 -0.0755216 0.612962 255 0 0
0.184341 -0.0305711 0.937554 255 0 0
0.0637572 -0.0282717 0.874559 255 0 0
0.052481 -0.0433157 0.906654 255 0 0
0.0693947 -0.0121847 0.885759 255 0 0
0.216828 0.0456903 1.06939 255 0 0
0.254512 -0.0773448 0.995521 255 0 0
0.09689 0.0436964 0.685006 255 0 0
0.0385315 0.0245046 0.816067 255 0 0
0.0209516 0.0109326 0.868027 255 0 0
0.0704528 0.0492956 0.745261 255 0 0
0.375253 0.233722 0.987028 255 0 0
0.392338 0.24147 1.03773 255 0 0
0.134718 -0.0063719 0.962425 255 0 0
0.0193065 -0.0421594 0.899397 255 0 0
0.0549235 0.00979293 0.854833 255 0 0
0.0592166 0.0286122 0.815432 255 0 0
-0.00641515 0.0302224 0.772913 255 0 0
0.0781218 0.00974064 0.86004 255 0 0
0.277625 -0.00929781 0.929982 255 0 0
0.0206548 0.0480713 0.934862 255 0 0
0.0595554 0.00484122 0.85709 255 0 0
-0.082185 0.149186 1.21502 255 0 0
0.0384852 0.0126212 0.845006 255 0 0
-0.208824 -0.0177743 0.637591 255 0 0
-0.0177571 -0.0304337 0.874507 255 0 0
0.00281236 -0.0673543 0.926835 255 0 0
-0.0694908 -0.0722836 0.609285 255 0 0
0.0667004 -0.0266335 0.880797 255 0 0
0.0895824 -0.00896053 0.815832 255 0 0
0.0925935 0.156536 0.781521 255 0 0
0.176164 -0.0301677 0.903339 255 0 0
-0.0285388 0.0491539 0.770642 255 0 0
0.250059 -0.0769359 0.994917 255 0 0
0.252431 0.208619 0.91239 255 0 0
-0.0272541 0.0323844 0.833357 255 0 0
0.233548 -0.027779 0.900824 255 0 0
0.102114 0.0513404 0.700448 255 0 0
0.0395605 0.0400817 0.79551 255 0 0
0.045017 0.0246883 0.901738 255 0 0
0.076484 -0.017247 0.906202 255 0 0
0.0692874 -0.0254152 0.898998 255 0 0
-0.167847 0.0310977 0.704971 255 0 0
0.0162635 -0.0630397 0.915669 255 0 0
-0.0738589 -0.0767962 0.643144 255 0 0
0.188264 -0.0328382 0.973618 255 0 0
0.18863 -0.0673825 0.895108 255 0 0
0.05509 -0.0445614 0.911879 255 0 0
0.0918135 -0.00997329 0.839419 255 0 0
0.0600211 0.0137886 0.871869 255 0 0
-0.226292 0.0980258 0.720243 255 0 0
-0.226728 0.0769055 0.742482 255 0 0
-0.262972 0.153552 0.688007 255 0 0
0.11041 0.0210797 2.0036 255 0 0
0.0397435 0.0151346 0.860559 255 0 0
0.00355448 -0.0668376 0.927714 255 0 0
-0.0252665 0.0290631 0.78138 255 0 0
0.08942 0.152617 0.779954 255 0 0
0.114737 -0.0107118 0.848056 255 0 0
-0.364147 0.607567 5.5815 255 0 0
-0.0182194 -0.0308985 0.88821 255 0 0
-0.00548286 0.0379078 0.880253 255 0 0
0.119923 0.0582718 0.798586 255 0 0
0.0473568 0.0458366 0.884315 255 0 0
0.0544959 0.0102821 0.808499 255 0 0
0.0191066 -0.0483912 0.92094 255 0 0
-0.106901 -0.138095 0.954597 255 0 0
-0.0255271 0.0894539 0.862773 255 0 0
0.0101177 0.0531958 0.713647 255 0 0
0.13897 0.0104854 0.827628 255 0 0
0.0216338 0.00998956 0.876971 255 0 0
0.0809034 0.0109502 0.901388 255 0 0
0.179307 0.141368 0.80139 255 0 0
0.14742 0.0787313 0.561119 255 0 0
-0.220206 0.135887 0.994199 255 0 0
-0.240001 0.104606 0.762098 255 0 0
0.246509 -0.0760435 0.998975 255 0 0
0.103679 0.054478 0.698052 255 0 0
0.0421298 0.0141061 0.924344 255 0 0
-0.0437321 0.026529 0.828484 255 0 0
-0.00436916 0.0347263 0.784735 255 0 0
0.00153074 -0.0644316 0.883164 255 0 0
-0.252811 0.0988162 0.713848 255 0 0
0.0930987 -0.011928 0.867739 255 0 0
0.0584022 0.00851291 0.848051 255 0 0
0.0142132 0.0705982 0.69756 255 0 0
0.231519 0.182792 0.841941 255 0 0
0.0998985 0.164553 0.880437 255 0 0
0.257522 -0.0267277 0.950065 255 0 0
-0.0287892 0.0555273 0.815829 255 0 0
-0.192835 0.128882 0.685321 255 0 0
-0.0655752 -0.0950179 0.606431 255 0 0
-0.0678579 -0.091207 0.598143 255 0 0
-0.189413 -0.0738394 0.61754 255 0 0
-0.200587 -0.072055 0.657871 255 0 0
-0.0691472 -0.0931336 0.606688 255 0 0
-0.0688121 -0.0939444 0.613116 255 0 0
-0.0670438 -0.1081 0.692912 255 0 0
-0.0803621 -0.103646 0.697995 255 0 0
-0.0745985 -0.0910939 0.578854 255 0 0
0.0433705 0.0523769 0.678726 255 0 0
0.0987123 0.0437937 0.690371 255 0 0
-0.0908115 -0.121309 0.672045 255 0 0
-0.107724 -0.153303 0.859061 255 0 0
-0.11195 -0.161931 0.926756 255 0 0
-0.275083 0.11138 0.738473 255 0 0
0.0755325 0.0515986 0.755835 255 0 0
0.0659551 0.0431086 0.689172 255 0 0
-0.0648614 -0.104433 0.640461 255 0 0
-0.22184 0.0229629 0.654271 255 0 0
-0.0709753 -0.0783846 0.612614 255 0 0
0.0935768 0.0677723 0.660952 255 0 0
0.0856024 0.0478988 0.674123 255 0 0
0.0638829 0.043486 0.708865 255 0 0
0.0662273 0.0452932 0.722075 255 0 0
-0.239944 0.0957308 0.704178 255 0 0
0.0973792 0.0506847 0.695449 255 0 0
0.107499 0.0550981 0.724871 255 0 0
0.114462 0.0503353 0.715983 255 0 0
0.157521 0.0800129 0.849191 255 0 0
-0.261555 0.0834479 0.769146 255 0 0
0.148066 0.0759135 0.950187 255 0 0
0.0965416 0.0501261 0.689657 255 0 0
0.123078 0.0624423 0.80483 255 0 0
-0.147508 -0.0782664 0.699992 255 0 0
-0.340675 -0.0738377 0.885188 255 0 0
-0.0246228 -0.126811 0.716004 255 0 0
-0.38014 -0.182079 0.940508 255 0 0
-0.236528 0.0640069 0.740231 255 0 0
-0.274461 0.084418 0.771382 255 0 0
-0.235777 0.0796593 0.743954 255 0 0
-0.236293 0.0793521 0.744509 255 0 0
-0.233721 0.0767324 0.746539 255 0 0
-0.231973 0.0801561 0.749447 255 0 0
-0.222392 0.0654832 0.757937 255 0 0
-0.284539 0.0742567 0.728965 255 0 0
-0.218842 0.0866342 0.764417 255 0 0
-0.433957 -0.0415046 0.797391 255 0 0
-0.423026 -0.0426892 0.801256 255 0 0
-0.395766 -0.0531373 0.790098 255 0 0
-0.353164 -0.0651087 0.796536 255 0 0
-0.356044 -0.0657629 0.788947 255 0 0
-0.238641 -0.129923 0.733336 255 0 0
-0.246359 0.0809896 0.753783 255 0 0
-0.19228 0.0441775 0.752031 255 0 0
-0.255729 0.0718612 0.776619 255 0 0
-0.257264 0.0709433 0.774463 255 0 0
-0.168439 0.052746 0.780179 255 0 0
0.0289644 -0.180131 0.768762 255 0 0
0.0122783 -0.150391 0.689705 255 0 0
-0.249057 0.0922091 0.724341 255 0 0
-0.249494 0.0892297 0.717126 255 0 0
-0.284435 -0.0558665 0.705502 255 0 0
-0.0693178 -0.0752045 0.617514 255 0 0
-0.234378 -0.27281 0.669626 255 0 0
-0.107884 -0.0966166 0.681264 255 0 0
0.0188669 -0.15066 0.679964 255 0 0
-0.141111 -0.15491 0.579913 255 0 0
-0.166144 -0.0825232 0.649083 255 0 0
-0.166063 -0.0856346 0.62775 255 0 0
-0.284063 -0.0540176 0.693963 255 0 0
-0.236427 0.0766398 0.702217 255 0 0
-0.234576 0.0800651 0.7123 255 0 0
-0.234135 0.0795813 0.716488 255 0 0
-0.260362 0.0861109 0.736821 255 0 0
-0.26118 0.0905791 0.749219 255 0 0
-0.0536542 -0.10847 0.614702 255 0 0
-0.0640614 -0.0970692 0.622839 255 0 0
0.0406935 0.05133 0.683159 255 0 0
0.0371949 0.0493971 0.674836 255 0 0
-0.0670491 -0.0896586 0.615939 255 0 0
-0.0678688 -0.0949247 0.6084 255 0 0
-0.0619507 -0.0973936 0.625572 255 0 0
-0.0597117 -0.0981034 0.63048 255 0 0
-0.054067 -0.100928 0.635238 255 0 0
-0.0597896 -0.100571 0.62336 255 0 0
-0.0167735 -0.108717 0.680721 255 0 0
-0.0552757 -0.108149 0.608268 255 0 0
-0.122507 -0.0779655 0.700366 255 0 0
-0.364385 -0.0671947 0.7887 255 0 0
-0.326724 -0.0787905 0.797148 255 0 0
-0.424597 -0.0444894 0.795063 255 0 0
-0.396801 -0.0518762 0.795967 255 0 0
-0.122575 -0.0776449 0.699089 255 0 0
-0.120421 -0.0756861 0.704693 255 0 0
-0.345587 -0.0649111 0.836132 255 0 0
-0.158155 -0.241547 0.86074 255 0 0
-0.158574 -0.244157 0.86594 255 0 0
-0.181501 -0.23814 0.805223 255 0 0
-0.199536 -0.180799 0.843094 255 0 0
-0.205445 0.0044494 0.642589 255 0 0
-0.211409 -0.0095238 0.595514 255 0 0
0.0842846 0.0594656 0.623945 255 0 0
0.0858905 0.0606982 0.625574 255 0 0
0.127733 0.0628259 0.71298 255 0 0
0.119986 0.0522272 0.708182 255 0 0
0.0428083 0.051775 0.678146 255 0 0
-0.0661258 -0.100066 0.613499 255 0 0
0.0290983 0.0427797 0.66055 255 0 0
0.856866 0.398326 2.26476 255 0 0
0.0995859 0.0498661 0.693723 255 0 0
-0.0728789 -0.0764925 0.676961 255 0 0
0.0693691 0.0448127 0.709611 255 0 0
-0.0750226 -0.0830417 0.606045 255 0 0
-0.059824 -0.0938004 0.62561 255 0 0
-0.0648066 -0.0961172 0.618592 255 0 0
0.0107691 -0.152324 0.66824 255 0 0
-0.147088 -0.0807252 0.574356 255 0 0
-0.151609 -0.0835051 0.601392 255 0 0
-0.171224 -0.0851195 0.633778 255 0 0
-0.172755 -0.082264 0.643193 255 0 0
-0.164402 -0.0497599 0.637455 255 0 0
-0.163924 -0.0503564 0.635241 255 0 0
-0.0584347 -0.0805671 0.672557 255 0 0
-0.17279 -0.0796172 0.62232 255 0 0
-0.068811 -0.0892836 0.589438 255 0 0
-0.108664 -0.105176 0.577796 255 0 0
-0.374579 -0.051301 0.814568 255 0 0
-0.370765 -0.0399424 0.869005 255 0 0
-0.373853 -0.0573727 0.800796 255 0 0
-0.229391 -0.263967 0.679441 255 0 0
-0.23601 -0.260854 0.661931 255 0 0
-0.167134 -0.0759452 0.64773 255 0 0
-0.16788 -0.0817798 0.613486 255 0 0
-0.0881948 0.08944 1.19099 255 0 0
-0.0723872 0.100109 1.24659 255 0 0
-0.166044 -0.0781679 0.63925 255 0 0
-0.159068 -0.0796871 0.637525 255 0 0
0.126054 -0.0661695 0.983362 255 0 0
-0.0706695 -0.0960016 0.605014 255 0 0
-0.0376214 -0.0957539 0.666613 255 0 0
0.0180069 -0.0911908 0.765112 255 0 0
-0.0442472 -0.0958245 0.658512 255 0 0
-0.0704395 -0.0967689 0.627287 255 0 0
-0.287216 -0.0557719 0.699202 255 0 0
-0.0906458 -0.0192996 0.734007 255 0 0
-0.167586 -0.0806862 0.636691 255 0 0
-0.192327 -0.05172 0.613506 255 0 0
-0.191788 -0.0521473 0.604549 255 0 0
-0.282965 -0.289287 0.768464 255 0 0
-0.253442 -0.0912156 0.861677 255 0 0
-0.167149 -0.238173 0.840122 255 0 0
-0.168627 -0.236725 0.83416 255 0 0
-0.180495 -0.24048 0.812654 255 0 0
-0.264591 -0.332422 0.824447 255 0 0
-0.259413 -0.335779 0.839422 255 0 0
-0.333046 -0.0515983 0.874968 255 0 0
0.105984 0.0522867 0.773085 255 0 0
-0.394896 -0.0533226 0.787487 255 0 0
-0.396821 -0.0535368 0.792693 255 0 0
-0.376508 -0.0600463 0.784192 255 0 0
-0.375998 -0.0590635 0.788056 255 0 0
-0.372959 -0.0618969 0.785314 255 0 0
-0.353001 -0.0615191 0.809671 255 0 0
-0.349687 -0.0667308 0.823025 255 0 0
-0.351837 -0.0686345 0.817611 255 0 0
-0.342443 -0.0630503 0.839337 255 0 0
-0.192898 -0.0449773 0.664412 255 0 0
-0.147856 -0.0825786 0.652085 255 0 0
-0.146034 -0.067808 0.707385 255 0 0
-0.135136 -0.081771 0.688267 255 0 0
-0.106967 -0.0878416 0.719995 255 0 0
-0.29008 -0.100046 0.850825 255 0 0
-0.343044 -0.0631021 0.838414 255 0 0
-0.301862 0.0213936 0.837176 255 0 0
-0.200458 0.032824 0.743773 255 0 0
-0.175105 0.0444242 0.76989 255 0 0
-0.309652 -0.101246 0.826336 255 0 0
-0.215911 0.0531217 0.814446 255 0 0
-0.346146 -0.029333 0.954751 255 0 0
-0.48466 0.0165029 0.729037 255 0 0
-0.427409 -0.0267905 0.718482 255 0 0
-0.451414 -0.00862505 0.753992 255 0 0
-0.459369 -0.0131156 0.735052 255 0 0
-0.458641 -0.0134566 0.737137 255 0 0
-0.419794 -0.02367 0.735552 255 0 0
-0.419995 -0.0244843 0.735936 255 0 0
-0.418479 -0.0242089 0.737103 255 0 0
-0.445698 -0.0149488 0.758908 255 0 0
-0.445969 -0.0142195 0.759819 255 0 0
-0.415696 -0.0276113 0.743936 255 0 0
-0.233197 0.0614981 0.748575 255 0 0
-0.241631 0.0845403 0.760193 255 0 0
-0.241796 0.0842512 0.761237 255 0 0
-0.343346 -0.072749 0.828592 255 0 0
-0.233881 0.0812496 0.762624 255 0 0
-0.264787 -0.0936601 0.795377 255 0 0
-0.24768 0.073534 0.747137 255 0 0
-0.24619 0.0898448 0.813137 255 0 0
-0.22895 0.0561522 0.770947 255 0 0
-0.355215 -0.063145 0.803635 255 0 0
-0.23646 0.106624 0.772924 255 0 0
-0.202609 0.0403062 0.74007 255 0 0
-0.291368 -0.0893081 0.870512 255 0 0
-0.199146 0.0385968 0.748024 255 0 0
-0.428057 -0.038501 0.769697 255 0 0
-0.425201 -0.0369649 0.780491 255 0 0
-0.390146 -0.0603922 0.761205 255 0 0
-0.416476 -0.0435477 0.799197 255 0 0
-0.377835 -0.0599323 0.785367 255 0 0
-0.345207 -0.0569489 0.832075 255 0 0
-0.340366 -0.0659698 0.810793 255 0 0
-0.267603 0.0730885 0.782719 255 0 0
-0.183759 0.0440936 0.76491 255 0 0
-0.264707 0.0704291 0.785784 255 0 0
-0.169331 0.0522919 0.785525 255 0 0
-0.457242 -0.0125962 0.740762 255 0 0
-0.428178 -0.0302146 0.716307 255 0 0
-0.375558 -0.050347 0.801662 255 0 0
-0.188719 -0.186126 0.842786 255 0 0
0.0287713 -0.180881 0.766511 255 0 0
-0.422276 -0.0339976 0.779695 255 0 0
-0.42003 -0.0321655 0.80035 255 0 0
-0.407826 -0.0548807 0.756122 255 0 0
-0.384191 -0.0549436 0.7736 255 0 0
-0.453332 -0.00645449 0.751873 255 0 0
-0.452419 -0.00878948 0.75436 255 0 0
-0.451973 -0.00953366 0.754789 255 0 0
-0.451117 -0.0106172 0.756136 255 0 0
-0.456997 -0.0128714 0.741708 255 0 0
-0.444918 -0.0153774 0.760987 255 0 0
-0.410257 -0.0305706 0.745894 255 0 0
-0.261785 0.0962808 0.745071 255 0 0
-0.261549 0.0966212 0.744925 255 0 0
-0.263329 0.0931564 0.74907 255 0 0
-0.247115 0.094053 0.739812 255 0 0
-0.262663 0.0924463 0.750302 255 0 0
-0.257756 0.0937698 0.747521 255 0 0
-0.243936 0.09321 0.739736 255 0 0
-0.243929 0.0935339 0.739732 255 0 0
-0.249507 0.0920868 0.744331 255 0 0
-0.249093 0.0920749 0.744077 255 0 0
-0.248157 0.0927668 0.74397 255 0 0
-0.243919 0.0927789 0.741836 255 0 0
-0.242991 0.0928194 0.741501 255 0 0
-0.243257 0.0910159 0.743072 255 0 0
-0.241594 0.0917531 0.742519 255 0 0
-0.247507 0.0892565 0.750607 255 0 0
-0.210386 0.0395644 0.746891 255 0 0
-0.266301 0.070388 0.784522 255 0 0
-0.248269 0.0572421 0.726947 255 0 0
-0.285395 0.0766661 0.753514 255 0 0
-0.282614 0.0790728 0.75925 255 0 0
-0.440356 -0.0301969 0.784521 255 0 0
-0.423203 -0.033505 0.776642 255 0 0
-0.406431 -0.0445969 0.74579 255 0 0
-0.415847 -0.0379164 0.774839 255 0 0
-0.415729 -0.0376375 0.774757 255 0 0
-0.423334 -0.0369875 0.788869 255 0 0
-0.443008 -0.044392 0.740005 255 0 0
-0.397209 -0.0443262 0.772494 255 0 0
-0.463178 -0.00927646 0.726931 255 0 0
-0.445744 -0.00358749 0.769948 255 0 0
-0.437923 -0.0211216 0.765818 255 0 0
-0.452827 -0.0215867 0.776449 255 0 0
-0.44437 -0.0245489 0.774505 255 0 0
-0.427379 -0.0277241 0.766109 255 0 0
-0.407112 -0.0351252 0.757338 255 0 0
-0.444483 -0.0266168 0.781853 255 0 0
-0.454946 -0.0299694 0.807104 255 0 0
-0.387878 -0.0517186 0.775065 255 0 0
-0.405833 -0.0472503 0.788973 255 0 0
-0.400602 -0.050414 0.795138 255 0 0
-0.28168 -0.050497 0.724152 255 0 0
-0.278325 -0.049595 0.72561 255 0 0
-0.312485 -0.0638509 0.749241 255 0 0
-0.391568 -0.0522682 0.798718 255 0 0
-0.390795 -0.0525006 0.802937 255 0 0
-0.390414 -0.0525112 0.802702 255 0 0
-0.183341 -0.0469228 0.680992 255 0 0
-0.193021 -0.0508656 0.671297 255 0 0
-0.182176 -0.0487279 0.682863 255 0 0
-0.235417 0.0998563 0.717861 255 0 0
-0.236576 0.101846 0.719274 255 0 0
-0.236573 0.102005 0.719272 255 0 0
-0.240469 0.10219 0.721897 255 0 0
-0.238851 0.102129 0.721373 255 0 0
-0.259174 0.0988318 0.736198 255 0 0
-0.239415 0.10031 0.724533 255 0 0
-0.23382 0.0633436 0.74575 255 0 0
-0.152155 -0.0672967 0.698334 255 0 0
-0.230959 0.0608207 0.747045 255 0 0
-0.231248 0.0817441 0.747432 255 0 0
-0.152691 0.0169186 0.699868 255 0 0
-0.234251 0.086291 0.750207 255 0 0
-0.349192 -0.0701131 0.822624 255 0 0
-0.239571 0.0992543 0.725332 255 0 0
-0.239581 0.0987591 0.725808 255 0 0
-0.261812 0.0995278 0.740396 255 0 0
-0.261808 0.0996873 0.740394 255 0 0
-0.25857 0.0988269 0.738405 255 0 0
-0.262089 0.0991409 0.74127 255 0 0
-0.267468 0.0984275 0.745513 255 0 0
-0.267468 0.0984275 0.745513 255 0 0
-0.254734 0.0956613 0.738161 255 0 0
-0.254541 0.0947621 0.73945 255 0 0
-0.266552 0.0952486 0.747298 255 0 0
-0.26628 0.0952407 0.74713 255 0 0
-0.25436 0.0953487 0.740041 255 0 0
-0.432573 -0.035472 0.75398 255 0 0
-0.431307 -0.0349605 0.757845 255 0 0
-0.425513 -0.0364135 0.766413 255 0 0
-0.437104 -0.0445382 0.777708 255 0 0
-0.43274 -0.0424515 0.792375 255 0 0
0.18036 0.14313 0.791893 255 0 0
0.277098 0.0671567 1.07984 255 0 0
0.16016 0.17085 0.770569 255 0 0
0.299204 0.160307 0.855428 255 0 0
-0.0156957 0.00623949 0.921005 255 0 0
0.17835 0.177365 0.808513 255 0 0
0.175095 0.138039 0.791894 255 0 0
0.228261 0.1738 0.840252 255 0 0
0.0118092 0.0364595 0.756705 255 0 0
0.201019 0.152706 0.82296 255 0 0
-0.0427836 0.139421 0.592456 255 0 0
-0.0238134 0.0902592 0.905077 255 0 0
0.0993087 0.0181936 0.893001 255 0 0
0.0131922 0.0371364 0.763578 255 0 0
0.0791983 0.00908252 0.851319 255 0 0
0.0884973 0.0070243 0.831109 255 0 0
0.0844301 -0.0419038 0.914087 255 0 0
0.0938291 0.176089 0.711353 255 0 0
-0.0055463 0.0437283 0.785876 255 0 0
-0.0161605 0.00703763 0.926092 255 0 0
0.141735 -0.051312 0.859821 255 0 0
0.21124 0.158809 0.858314 255 0 0
0.0875609 0.00755133 0.828651 255 0 0
0.017642 0.089783 0.672649 255 0 0
0.325713 0.127903 0.953124 255 0 0
0.0933176 0.0153644 0.850551 255 0 0
-0.0174255 0.0218299 0.858386 255 0 0
-0.142314 0.148217 1.39586 255 0 0
-0.0116336 0.0456325 0.771854 255 0 0
-0.291461 -0.0718818 0.779522 255 0 0
0.0823696 -0.0417845 0.896873 255 0 0
-0.0671109 0.139215 1.0572 255 0 0
-0.0716158 0.149539 0.689516 255 0 0
0.131049 0.0874089 0.770021 255 0 0
0.31477 0.0833067 1.14892 255 0 0
-0.138913 0.0939394 1.10663 255 0 0
-0.0235327 0.0297628 0.85929 255 0 0
0.102132 0.162185 0.877893 255 0 0
0.129356 0.0318951 0.916085 255 0 0
-0.435269 0.0583007 1.59956 255 0 0
-0.214815 0.0303756 0.796384 255 0 0
0.0940279 -0.0444747 0.96057 255 0 0
-0.0453006 0.0442475 1.1964 255 0 0
-0.294096 -0.0745304 0.787282 255 0 0
0.0789266 0.0573484 0.581446 255 0 0
-0.0133127 0.0333436 0.774012 255 0 0
0.336632 0.0953452 1.30227 255 0 0
0.117842 0.0668848 0.752422 255 0 0
-0.0476948 0.013331 0.684322 255 0 0
0.101744 0.00866309 0.808256 255 0 0
0.0543619 0.0645603 0.751269 255 0 0
0.0179881 0.0426629 0.744949 255 0 0
0.0755735 0.0540804 0.727156 255 0 0
0.206944 0.154856 0.828189 255 0 0
0.0775938 -0.0419035 0.856147 255 0 0
0.0836701 -0.0438024 0.889995 255 0 0
0.298332 0.08036 1.15531 255 0 0
0.0215657 0.0119225 0.864767 255 0 0
-0.0905882 0.0600712 1.70195 255 0 0
0.133011 0.0790771 0.816944 255 0 0
0.0585004 0.0548272 0.719847 255 0 0
0.0158405 0.0881312 0.685989 255 0 0
0.230908 -0.0592843 1.06271 255 0 0
-0.251628 -0.0965009 0.839883 255 0 0
0.178623 -0.0335164 0.902487 255 0 0
0.0999526 0.165735 0.810792 255 0 0
0.0163961 0.056575 0.694564 255 0 0
-0.10657 0.122373 1.14065 255 0 0
0.321748 0.154842 0.915727 255 0 0
0.703243 0.00653765 2.17558 255 0 0
-0.0215783 0.101094 0.987692 255 0 0
0.0438272 0.0489278 0.831849 255 0 0
-0.0151752 0.139828 0.951697 255 0 0
0.223555 0.158443 0.759361 255 0 0
0.144711 -0.0533099 0.862487 255 0 0
0.125717 0.0833275 0.762317 255 0 0
-0.108055 -0.0348418 0.701584 255 0 0
-0.110707 -0.268661 1.08688 255 0 0
-0.105286 -0.255082 0.979511 255 0 0
-0.14185 -0.23215 0.899667 255 0 0
-0.136435 0.108863 1.18341 255 0 0
-0.224041 0.0408041 0.829887 255 0 0
0.0201957 -0.00869672 0.885251 255 0 0
0.343162 0.0702914 1.15792 255 0 0
-0.230354 0.0763883 0.750827 255 0 0
-0.0781137 -0.278484 1.04362 255 0 0
-0.146861 0.117311 1.28267 255 0 0
0.0385234 0.0278616 0.837424 255 0 0
-0.0734898 -0.0756518 1.24762 255 0 0
-0.0841362 0.0597384 1.15521 255 0 0
-0.199395 -0.17956 0.914847 255 0 0
-0.228905 0.0744403 0.747213 255 0 0
0.0203838 0.00868159 0.868243 255 0 0
-0.104352 -0.25489 1.02171 255 0 0
-0.0150833 0.136562 0.902733 255 0 0
0.023083 0.0143904 0.827999 255 0 0
0.0164185 0.00948754 0.823541 255 0 0
-0.112084 -0.281816 1.04684 255 0 0
0.0372163 0.0277351 0.822839 255 0 0
0.114453 0.00456768 0.755502 255 0 0
0.195347 0.0858996 0.740764 255 0 0
0.132966 -0.00182793 0.826866 255 0 0
0.1293 -0.0403408 0.844416 255 0 0
0.0212637 0.0124127 0.777897 255 0 0
0.0486571 0.00454517 0.809888 255 0 0
0.0193949 0.0107403 0.87205 255 0 0
0.0371343 0.00227559 0.822811 255 0 0
0.234344 0.0497618 1.1353 255 0 0
-0.151763 -0.250498 0.970768 255 0 0
-0.00669213 0.0194761 0.912259 255 0 0
0.10223 0.189953 0.758612 255 0 0
0.173977 -0.0253385 0.887046 255 0 0
0.0368684 0.0283168 0.818177 255 0 0
0.12542 0.00693807 0.862008 255 0 0
0.343294 0.0724462 1.16554 255 0 0
0.194694 0.154068 0.849109 255 0 0
-0.195462 0.00260207 0.819967 255 0 0
0.0694104 -0.00997029 0.87593 255 0 0
0.0663188 0.00615977 0.83266 255 0 0
-0.00478351 0.0195756 0.901964 255 0 0
-0.0702264 0.0687028 1.0888 255 0 0
0.33691 0.0697955 1.15825 255 0 0
-0.0807895 0.0633628 1.02351 255 0 0
0.260053 -0.00695871 0.864404 255 0 0
0.191825 0.14547 0.79137 255 0 0
-0.229595 0.0765328 0.749356 255 0 0
-0.263788 0.112653 0.816688 255 0 0
-0.209635 0.031468 0.81403 255 0 0
-0.0169254 0.0338097 0.887813 255 0 0
-0.0714256 0.0680234 1.07636 255 0 0
0.120592 0.00488366 0.832421 255 0 0
0.0399257 0.075042 1.22818 255 0 0
0.055214 0.0283798 0.784227 255 0 0
0.124576 0.00485841 0.859716 255 0 0
0.0212473 -0.0120258 0.930731 255 0 0
-0.262899 0.0405162 0.967402 255 0 0
0.0583833 0.0287037 0.806129 255 0 0
0.0275382 0.0299823 0.723941 255 0 0
0.144591 0.0184137 0.892717 255 0 0
0.229197 -0.0410776 0.954312 255 0 0
-0.202637 -0.0635733 0.902951 255 0 0
-0.247087 0.100405 0.897316 255 0 0
-0.125095 -0.175005 0.975957 255 0 0
0.0174988 0.0677708 1.1571 255 0 0
-0.165001 -0.0808972 0.614923 255 0 0
-0.152814 -0.0711677 0.647766 255 0 0
-0.232652 -0.148243 1.08292 255 0 0
-0.191059 -0.241422 0.826604 255 0 0
-0.307871 -0.208303 0.687965 255 0 0
-0.175898 -0.227854 1.17048 255 0 0
-0.287157 -0.0939855 0.826775 255 0 0
-0.0822093 -0.231199 1.33986 255 0 0
-0.124995 -0.19024 1.10544 255 0 0
-0.12481 -0.194193 1.12448 255 0 0
-0.0931838 -0.166288 1.09676 255 0 0
-0.13082 -0.196683 1.12745 255 0 0
-0.226017 0.0393653 0.836024 255 0 0
0.0362041 -0.0289144 0.939425 255 0 0
0.0412399 0.0446561 0.80172 255 0 0
-0.205343 -0.236404 0.819769 255 0 0
-0.205118 -0.236253 0.820298 255 0 0
0.0756698 0.0499435 0.717228 255 0 0
-0.0602941 -0.108867 0.722473 255 0 0
-0.156842 -0.271058 0.825557 255 0 0
0.127209 -0.0494692 0.931222 255 0 0
-0.114501 -0.167367 0.977799 255 0 0
0.15687 -0.0497796 0.985127 255 0 0
-0.259758 -0.189933 0.769928 255 0 0
-0.0717418 -0.106608 0.684561 255 0 0
-0.155777 -0.275817 0.850036 255 0 0
-0.149503 -0.284145 0.885418 255 0 0
-0.116772 -0.173432 1.01658 255 0 0
-0.121539 -0.144651 0.913285 255 0 0
0.0029124 -0.151942 0.650541 255 0 0
0.109529 0.0546821 0.78506 255 0 0
-0.254406 -0.00340139 0.914802 255 0 0
-0.107125 -0.292262 1.30854 255 0 0
0.117135 0.051607 0.720904 255 0 0
0.134006 -0.00610999 0.881088 255 0 0
-0.126086 -0.133441 0.913674 255 0 0
0.0435108 0.029659 0.818873 255 0 0
0.806913 -1.08752 6.3467 255 0 0
0.782534 -1.11084 6.80619 255 0 0
0.838711 -1.13478 6.74598 255 0 0
0.880853 -1.10147 7.0645 255 0 0
0.897557 -1.20419 6.9269 255 0 0
2.65262 -0.83293 4.56541 255 0 0
2.69291 -0.871116 4.61514 255 0 0
-0.112204 -0.106348 0.662619 255 0 0
-0.0559857 -0.135378 1.11922 255 0 0
-0.0107094 -0.132713 1.20969 255 0 0
-0.116893 -0.0963477 0.674412 255 0 0
0.0694002 0.14721 0.865695 255 0 0
0.00129745 0.0468685 1.058 255 0 0
-0.163093 -0.262799 0.978203 255 0 0
0.154783 0.164744 0.972687 255 0 0
-0.208511 -0.101085 0.901975 255 0 0
-0.14159 -0.0801699 0.656276 255 0 0
-0.122269 -0.28696 0.792881 255 0 0
-0.153211 -0.262748 0.863502 255 0 0
-0.11185 -0.162886 0.95322 255 0 0
0.144703 0.00311061 0.827074 255 0 0
2.51211 -0.889653 4.34599 255 0 0
2.86256 -0.932086 4.86238 255 0 0
2.57109 -0.898573 4.51104 255 0 0
-0.112289 -0.167519 1.00154 255 0 0
0.0169535 0.0884515 0.673455 255 0 0
2.72244 -0.891205 4.54408 255 0 0
2.77944 -0.902244 4.63059 255 0 0
0.0472636 0.00916238 0.817282 255 0 0
0.038735 0.0506989 0.794383 255 0 0
-0.100899 -0.197455 1.03343 255 0 0
-0.0904026 -0.0998306 0.681733 255 0 0
0.217235 0.0498588 0.993097 255 0 0
-0.11881 -0.139432 0.933332 255 0 0
0.017314 0.0441818 0.741753 255 0 0
-0.346163 0.0296493 0.897343 255 0 0
0.121903 -0.00973296 0.862929 255 0 0
0.0686125 0.042582 0.731116 255 0 0
-0.0073787 0.029759 0.780948 255 0 0
0.0397219 -0.0376218 0.978222 255 0 0
0.0336285 -0.0408904 0.91639 255 0 0
0.0501685 0.00168294 0.849852 255 0 0
-0.0296064 0.0169767 0.781486 255 0 0
0.0685175 0.0411911 0.733663 255 0 0
-0.23489 -0.224913 0.817478 255 0 0
-0.0165984 0.0258605 0.782647 255 0 0
0.0957564 0.151642 0.839471 255 0 0
-0.0224556 0.0334829 0.826511 255 0 0
-0.00530906 0.0321427 0.815671 255 0 0
-0.0355954 -0.337853 1.44885 255 0 0
0.115636 0.104461 0.729769 255 0 0
-0.0145199 0.0289192 0.749249 255 0 0
0.0640656 0.0436847 0.650593 255 0 0
0.0456996 0.0384243 0.814002 255 0 0
0.103803 0.0164046 0.909922 255 0 0
0.0426044 0.0521515 0.728454 255 0 0
0.136868 0.00985592 0.834204 255 0 0
0.09608 0.0209816 0.855024 255 0 0
0.0755884 0.0705347 0.568038 255 0 0
-0.0441998 -0.00693545 0.948772 255 0 0
-0.239361 -0.161353 0.856052 255 0 0
0.357306 -0.0221944 1.22735 255 0 0
0.0784708 0.0493537 0.69304 255 0 0
-0.0927786 0.0729264 1.09612 255 0 0
0.0692482 0.0437805 0.638961 255 0 0
0.0606525 0.0481833 0.809548 255 0 0
-0.0457048 -0.011914 0.75438 255 0 0
0.0963939 0.082992 0.691238 255 0 0
0.134711 -0.0210399 0.85469 255 0 0
-0.0110963 0.0631517 0.833378 255 0 0
0.0547642 0.061195 0.671868 255 0 0
0.10935 0.185147 0.757263 255 0 0
-0.315693 -0.371281 1.03822 255 0 0
-0.152135 -0.265988 0.861949 255 0 0
-0.323025 -0.0410395 0.951474 255 0 0
-0.211547 -0.245301 0.809914 255 0 0
-0.377309 -0.182141 0.963304 255 0 0
-0.0717903 -0.0404162 1.08924 255 0 0
-0.130807 -0.288087 0.796717 255 0 0
-0.201722 -0.248862 0.829694 255 0 0
0.0602269 -0.00593453 1.15847 255 0 0
0.0300775 -0.180317 0.766476 255 0 0
0.048763 0.00154684 0.84593 255 0 0
-0.0680091 -0.314015 1.07661 255 0 0
0.127165 0.0728772 0.665349 255 0 0
0.301302 0.0793254 1.1155 255 0 0
-0.177762 0.135753 1.05423 255 0 0
0.17018 -0.0448717 1.06782 255 0 0
-0.0729313 -0.302789 1.07231 255 0 0
0.076289 0.0477222 0.690705 255 0 0
0.0746147 0.050757 0.710467 255 0 0
0.015716 0.0167585 0.831311 255 0 0
-0.00111879 0.0299449 0.818296 255 0 0
-0.211103 -0.24919 0.814272 255 0 0
0.14611 -0.0124401 0.890487 255 0 0
0.127693 0.0117255 0.890307 255 0 0
0.0785002 -0.00868607 0.937115 255 0 0
0.163532 0.0938274 0.753635 255 0 0
0.160822 -0.0537255 0.954188 255 0 0
0.138819 -0.0170404 0.976182 255 0 0
-0.245335 0.0947224 0.719436 255 0 0
-0.224315 0.104222 0.914443 255 0 0
0.253968 -0.0765588 0.993014 255 0 0
-0.25297 0.0976554 0.746269 255 0 0
0.0390504 -0.0307902 0.988753 255 0 0
0.0270198 0.00772479 0.807965 255 0 0
0.160554 0.0876427 0.588799 255 0 0
0.143217 0.0782033 0.545719 255 0 0
0.198236 0.0169248 0.996114 255 0 0
0.172749 -0.0118393 1.03718 255 0 0
0.128882 -0.00805256 0.862597 255 0 0
-0.269094 -0.0968536 0.820506 255 0 0
0.0564661 0.0456765 0.77652 255 0 0
-0.175798 0.132845 1.03451 255 0 0
0.145619 -0.0179411 1.01833 255 0 0
0.0819727 -0.0410679 0.903899 255 0 0
0.303394 0.0932801 1.10381 255 0 0
-0.0490928 0.150527 0.681668 255 0 0
0.126315 0.117013 0.775241 255 0 0
0.0538949 0.0360001 0.751253 255 0 0
-0.0300191 0.0172233 0.784204 255 0 0
-0.117979 -0.26288 0.979973 255 0 0
0.021078 0.0479828 0.751352 255 0 0
0.132086 0.121046 0.797756 255 0 0
-0.0114102 0.0271588 0.741893 255 0 0
0.0404172 0.00387173 0.866807 255 0 0
0.0955491 -0.00749135 0.826857 255 0 0
0.170291 -0.0347008 0.875149 255 0 0
-0.0302421 0.0474356 0.749417 255 0 0
0.0395474 0.0516494 0.662024 255 0 0
0.108539 0.0134341 0.956225 255 0 0
0.0710542 0.0495488 0.692796 255 0 0
0.016982 -0.0612218 0.909964 255 0 0
0.0413987 0.0540822 0.707366 255 0 0
0.0370337 0.0458098 0.689628 255 0 0
-0.00499834 0.0157501 0.911824 255 0 0
0.340218 0.0910195 1.20525 255 0 0
-0.0135086 0.000630197 0.908592 255 0 0
0.268737 -0.0266994 0.987908 255 0 0
0.159906 0.0658592 0.698487 255 0 0
0.00762488 -0.0667378 1.00831 255 0 0
0.398486 0.167027 0.978145 255 0 0
0.0141907 0.0383081 0.767795 255 0 0
-0.0981192 -0.21092 1.4826 255 0 0
-0.377651 -0.159587 1.05615 255 0 0
-0.384903 -0.155351 1.0537 255 0 0
0.0596524 0.0439899 0.783637 255 0 0
0.0141263 0.0406834 0.741196 255 0 0
0.128622 0.00832531 0.813992 255 0 0
0.131467 0.0326062 0.921339 255 0 0
-0.275761 0.065679 0.75761 255 0 0
0.121721 0.00588888 0.835659 255 0 0
0.149848 -0.0553372 0.876628 255 0 0
0.128579 0.115994 0.945966 255 0 0
0.113048 0.00861993 0.975848 255 0 0
0.0477073 0.0068537 0.83715 255 0 0
0.340596 0.132498 0.981372 255 0 0
-0.111064 -0.262487 1.00742 255 0 0
-0.101922 -0.244769 0.978354 255 0 0
0.0695527 0.00791452 0.843589 255 0 0
0.0744302 0.0466118 0.681954 255 0 0
0.060203 0.0286683 0.817223 255 0 0
0.176142 -0.0564127 0.960809 255 0 0
-0.226467 -0.263704 0.816099 255 0 0
-0.223679 -0.257273 0.803464 255 0 0
0.0378902 0.0109706 0.844657 255 0 0
0.148732 0.00319598 0.830458 255 0 0
0.0356201 0.0255621 0.880857 255 0 0
0.0149371 0.0130651 0.860424 255 0 0
-0.0680457 -0.313859 1.07397 255 0 0
-0.19756 -0.206192 0.818369 255 0 0
0.0651069 0.00647734 0.841649 255 0 0
0.269814 -0.0158159 0.937288 255 0 0
-0.199453 0.0782044 0.76617 255 0 0
-0.0811725 -0.292552 1.07736 255 0 0
0.0640278 0.0392925 0.749182 255 0 0
0.244229 -0.0281171 0.924559 255 0 0
0.03551 0.0115342 0.841346 255 0 0
-0.232941 -0.225193 0.816212 255 0 0
0.237507 0.0469497 1.15629 255 0 0
0.0285645 0.00700223 0.818302 255 0 0
0.0760264 -0.0083458 0.935549 255 0 0
0.0709739 0.0425696 0.738767 255 0 0
0.0168138 0.0902173 0.666295 255 0 0
0.0663082 0.044812 0.718466 255 0 0
-0.0113729 0.0295809 0.779096 255 0 0
0.0749312 0.0466544 0.686639 255 0 0
0.208499 -0.0582308 1.01623 255 0 0
0.0380994 0.0519396 0.708488 255 0 0
0.169821 -0.030192 0.890418 255 0 0
0.0657038 -0.0289934 0.889194 255 0 0
-0.0297408 0.047287 0.756726 255 0 0
0.0876796 -0.0415377 0.942518 255 0 0
0.181391 0.0780158 0.752302 255 0 0
0.252519 -0.0236726 0.925845 255 0 0
-0.0944702 -0.15442 1.03882 255 0 0
-0.297851 0.115106 0.877876 255 0 0
-0.0616014 -0.171707 0.961448 255 0 0
0.248481 -0.0560275 1.11339 255 0 0
-0.0878744 -0.230928 1.33112 255 0 0
-0.374935 0.0972952 0.925557 255 0 0
0.0740554 0.145653 0.872136 255 0 0
-0.243181 0.106602 0.907671 255 0 0
-0.140311 -0.231618 1.21959 255 0 0
-0.114046 -0.24181 1.28112 255 0 0
-0.111364 -0.147951 0.945833 255 0 0
0.129193 0.112272 0.795358 255 0 0
0.127066 -0.00832642 0.865887 255 0 0
-0.0628606 -0.110332 0.717139 255 0 0
0.0420105 0.00119725 0.877958 255 0 0
0.0878667 0.0144211 0.846681 255 0 0
0.121182 -0.0277703 0.94903 255 0 0
0.02943 0.0143573 0.906932 255 0 0
-0.0745728 -0.102301 0.663699 255 0 0
-0.0186262 -0.0692316 0.742711 255 0 0
-0.205106 -0.236077 0.816036 255 0 0
-0.197747 -0.206107 0.819788 255 0 0
0.125139 0.0325599 0.910375 255 0 0
-0.206383 -0.238668 0.823395 255 0 0
0.067033 0.0409037 0.72803 255 0 0
-0.113246 -0.272567 1.0047 255 0 0
-0.167283 -0.0847117 0.624281 255 0 0
0.120829 0.0299786 0.891328 255 0 0
0.027618 -0.0174775 0.875958 255 0 0
-0.109043 -0.226962 0.832785 255 0 0
-0.113132 -0.263663 0.973207 255 0 0
0.0659018 -0.0179385 0.839813 255 0 0
-0.0266008 0.0307539 0.76349 255 0 0
0.0837985 0.052853 0.719802 255 0 0
-0.075051 -0.299279 1.06461 255 0 0
0.0578699 0.0254966 0.814909 255 0 0
0.0435983 0.0517582 0.682362 255 0 0
-0.120443 0.113581 1.13331 255 0 0
0.0152213 0.0132237 0.858746 255 0 0
0.0603514 0.0381646 0.765994 255 0 0
0.00197619 -0.0711631 0.95693 255 0 0
-0.109623 -0.26065 0.978197 255 0 0
0.169794 -0.0317578 0.861399 255 0 0
0.0168538 0.0137389 0.847882 255 0 0
0.0235826 0.00581754 0.878377 255 0 0
-0.211622 -0.248287 0.809249 255 0 0
-0.224519 -0.238156 0.816718 255 0 0
0.0770511 -0.00970338 0.862615 255 0 0
0.170831 -0.0503668 1.02025 255 0 0
-0.193189 -0.270835 0.77016 255 0 0
-0.159037 -0.0810325 0.625952 255 0 0
-0.0115316 -0.14362 0.66011 255 0 0
-0.238229 0.0668506 0.940426 255 0 0
-0.102679 -0.159341 0.93954 255 0 0
-0.11656 -0.136934 0.925988 255 0 0
-0.116707 -0.131371 0.935473 255 0 0
-0.186081 -0.270231 0.78745 255 0 0
0.129289 0.11962 0.790801 255 0 0
2.70213 -0.91733 4.71016 255 0 0
2.65108 -0.886527 4.55602 255 0 0
2.56493 -0.880793 4.49489 255 0 0
2.65386 -0.838099 4.56661 255 0 0
2.55947 -0.881989 4.49175 255 0 0
-0.201917 -0.164731 1.06327 255 0 0
0.186982 -0.0644794 1.04094 255 0 0
0.0177949 0.0192443 0.834541 255 0 0
0.0395437 -0.00392456 0.848669 255 0 0
-0.281895 -0.013174 0.937609 255 0 0
0.0781464 -0.00878492 0.870692 255 0 0
0.296564 -0.0180072 1.20668 255 0 0
-0.259983 -0.193499 0.790862 255 0 0
-0.109873 -0.236933 1.12131 255 0 0
0.827854 -1.10821 6.71623 255 0 0
0.318989 0.286729 1.86557 255 0 0
0.918544 -1.11961 6.85425 255 0 0
-0.134369 -0.237621 1.23785 255 0 0
0.925311 -1.11275 7.05076 255 0 0
0.894054 -1.13618 6.80349 255 0 0
-0.120288 -0.188941 0.99447 255 0 0
-0.164057 -0.239781 0.849497 255 0 0
-0.189563 -0.269007 0.777836 255 0 0
-0.065704 -0.176768 1.38807 255 0 0
-0.0771225 -0.168346 0.95102 255 0 0
-0.318463 -0.0339486 0.952932 255 0 0
-0.184588 -0.248247 0.888341 255 0 0
-0.105889 -0.0953611 0.664598 255 0 0
-0.0802437 -0.168614 0.946602 255 0 0
-0.315358 -0.288392 0.766003 255 0 0
0.00386578 -0.161353 0.762133 255 0 0
0.911937 -1.16321 7.08275 255 0 0
-0.204925 -0.23376 0.80521 255 0 0
-0.149025 -0.279435 0.772604 255 0 0
-0.0916535 -0.11118 0.66052 255 0 0
-0.320741 -0.0319809 0.924515 255 0 0
-0.114198 -0.13872 0.931183 255 0 0
0.0232935 0.0201797 0.825341 255 0 0
0.0653356 0.0430344 0.808946 255 0 0
0.00969825 -0.00231754 0.852384 255 0 0
-0.113899 0.11391 1.2016 255 0 0
0.0171554 -0.0104055 0.85699 255 0 0
-0.187127 -0.253982 0.789753 255 0 0
-0.210149 -0.24324 0.81852 255 0 0
0.0633314 -0.029974 0.878852 255 0 0
-0.0111406 0.0322611 0.784249 255 0 0
0.0409554 0.0270858 0.816943 255 0 0
0.0762204 -0.049317 0.925288 255 0 0
0.026944 0.0322632 0.722155 255 0 0
0.0436148 0.00578997 0.851049 255 0 0
-0.182972 -0.271686 0.845596 255 0 0
0.307158 0.0821837 1.13674 255 0 0
0.0314475 0.0188865 0.834725 255 0 0
0.326326 0.0684321 1.13455 255 0 0
-0.00271871 -0.144119 0.671027 255 0 0
2.94436 -1.00768 4.99326 255 0 0
0.0521279 0.0156385 0.837375 255 0 0
2.72706 -0.87772 4.61646 255 0 0
2.72435 -0.933203 4.61181 255 0 0
2.59693 -0.842622 4.53006 255 0 0
0.0532952 0.0111726 0.835549 255 0 0
-0.322859 -0.144395 1.09008 255 0 0
0.176056 -0.024435 0.89143 255 0 0
-0.274571 0.0455733 0.944209 255 0 0
0.173621 -0.0259118 0.887211 255 0 0
-0.277233 0.0477721 0.959896 255 0 0
0.0506697 -0.0313682 0.849136 255 0 0
0.0231157 0.0249092 0.882672 255 0 0
0.0955582 -0.0225838 1.21945 255 0 0
-0.379351 -0.143675 1.17371 255 0 0
0.0505055 -0.0414406 1.11602 255 0 0
-0.133795 -0.153825 0.909926 255 0 0
-0.114998 -0.136788 0.929958 255 0 0
0.124746 0.0707129 0.720063 255 0 0
-0.211526 -0.243285 0.813825 255 0 0
-0.0672713 0.140914 1.06332 255 0 0
0.0748195 -0.0456416 0.98194 255 0 0
0.261004 -0.0285079 0.969196 255 0 0
0.0727403 -0.00347896 0.924069 255 0 0
-0.232716 -0.216876 0.782891 255 0 0
0.0388635 0.0332195 0.802214 255 0 0
0.0536966 -0.0472862 0.839071 255 0 0
-0.0518115 -0.116429 0.707037 255 0 0
-0.175221 -0.25981 0.835075 255 0 0
-0.077059 -0.0993554 0.64926 255 0 0
-0.176338 -0.258966 0.830137 255 0 0
0.151996 -0.0450885 1.00726 255 0 0
0.0139862 0.0381766 0.761598 255 0 0
-0.187668 -0.256316 0.790164 255 0 0
-0.0113934 0.0344795 0.774678 255 0 0
-0.0253695 0.0311375 0.767807 255 0 0
0.0991155 0.0495748 0.750062 255 0 0
0.214722 -0.059467 1.08131 255 0 0
-0.0595849 -0.085765 0.801707 255 0 0
-0.214687 0.0526213 0.820507 255 0 0
-0.0318048 -0.113443 1.1535 255 0 0
-0.071829 -0.12936 1.08804 255 0 0
-0.0963833 -0.163076 1.06031 255 0 0
-0.172953 -0.0709532 0.639059 255 0 0
-0.133591 -0.156131 0.903335 255 0 0
-0.0983075 -0.0884577 0.678382 255 0 0
-0.105074 -0.286945 0.776922 255 0 0
-0.430503 -0.124381 1.00548 255 0 0
0.0118015 -0.166692 0.764128 255 0 0
0.0173399 0.0318128 1.13543 255 0 0
0.143777 0.170332 0.94794 255 0 0
0.342054 -0.0493648 1.20851 255 0 0
0.255564 -0.0533753 1.13192 255 0 0
-0.268125 -0.105449 0.818533 255 0 0
0.023975 -0.138698 1.236 255 0 0
-0.207274 -0.16135 0.832871 255 0 0
-0.456177 -0.0166032 0.754151 255 0 0
-0.278027 0.0719859 0.882217 255 0 0
-0.0956722 -0.095715 0.689039 255 0 0
0.132816 0.166494 0.939291 255 0 0
-0.0600714 0.0713006 1.0609 255 0 0
-0.19424 0.029649 0.754367 255 0 0
-0.182919 -0.257252 1.2471 255 0 0
-0.175108 -0.229483 1.16788 255 0 0
0.278688 -0.0518204 1.1531 255 0 0
-0.195012 -0.048386 0.661688 255 0 0
-0.218833 -0.0294064 0.879926 255 0 0
-0.299683 -0.0997301 0.850364 255 0 0
-0.0643192 -0.0902975 0.795831 255 0 0
-0.347882 -0.192531 1.0246 255 0 0
-0.212518 -0.150612 1.12794 255 0 0
-0.279282 0.0591577 0.92415 255 0 0
-0.135891 -0.218572 1.18675 255 0 0
-0.136628 -0.0840765 0.672124 255 0 0
-0.187382 -0.0744589 0.621829 255 0 0
0.192344 0.165914 0.854397 255 0 0
-0.0329682 0.0860075 1.1291 255 0 0
0.0711958 0.0717653 1.26402 255 0 0
-0.292804 0.0768804 0.915026 255 0 0
-0.210636 -0.225 0.795478 255 0 0
-0.0926914 -0.288483 1.30385 255 0 0
-0.386037 -0.154293 1.05806 255 0 0
0.114307 0.0227974 0.901119 255 0 0
0.143164 -0.00212004 0.88831 255 0 0
2.66947 -0.870938 4.53701 255 0 0
-0.0691131 -0.294245 0.792814 255 0 0
2.73435 -0.890024 4.60477 255 0 0
0.0693002 -0.00898961 0.866889 255 0 0
2.65708 -0.880754 4.64041 255 0 0
2.71352 -0.910595 4.65576 255 0 0
2.18387 -0.8016 3.86446 255 0 0
2.9643 -0.933907 5.07519 255 0 0
2.58255 -0.829579 4.34277 255 0 0
2.684 -0.846494 4.37304 255 0 0
0.00291218 0.0277408 0.793218 255 0 0
0.0276978 -0.00322625 0.880535 255 0 0
-0.193324 -0.188655 0.83114 255 0 0
-0.118133 -0.0888162 0.682464 255 0 0
-0.0652826 -0.135397 1.10594 255 0 0
-0.180611 -0.0728849 0.629443 255 0 0
0.0421622 -0.118292 1.25767 255 0 0
-0.116791 -0.0893513 0.683653 255 0 0
-0.18912 0.0292446 0.744417 255 0 0
-0.235837 -0.21388 0.761542 255 0 0
-0.0916077 -0.23345 1.32519 255 0 0
0.434662 -0.0499407 2.17195 255 0 0
2.17521 -0.0080456 6.79704 255 0 0
-0.211083 -0.079114 0.614685 255 0 0
-0.262229 0.102693 0.889452 255 0 0
-0.158011 -0.283369 0.86389 255 0 0
-0.261888 0.0577925 0.948428 255 0 0
-0.0702556 -0.109683 0.678278 255 0 0
0.131406 -0.00444711 0.866566 255 0 0
0.0629947 0.0371329 0.81131 255 0 0
0.0459212 0.0310977 0.820919 255 0 0
-0.00165037 0.031187 0.787482 255 0 0
0.0215007 0.0322615 0.763031 255 0 0
-0.00434248 0.0288639 0.775233 255 0 0
-0.117787 -0.153736 0.924648 255 0 0
0.120802 0.0600611 0.804809 255 0 0
-0.126173 -0.132758 0.910477 255 0 0
-0.080464 -0.105962 0.678712 255 0 0
-0.0919192 -0.0946434 0.692398 255 0 0
-0.180298 -0.079347 0.629477 255 0 0
-0.25918 0.0254666 0.934857 255 0 0
-0.260909 0.0194701 0.88143 255 0 0
0.00575931 0.00389181 0.817556 255 0 0
-0.252896 -0.00103582 0.937847 255 0 0
-0.10804 -0.140415 1.03426 255 0 0
-0.0449809 -0.114271 0.726655 255 0 0
0.0392262 0.0259017 0.826049 255 0 0
0.0339636 0.036913 0.803596 255 0 0
0.271009 -0.0422081 1.11056 255 0 0
-0.0266149 0.0233531 0.775394 255 0 0
0.102475 0.0365739 0.957727 255 0 0
-0.134191 -0.0635083 0.635565 255 0 0
-0.151691 -0.110189 1.33885 255 0 0
-0.149671 -0.0759803 0.652611 255 0 0
-0.21175 -0.0538432 0.6687 255 0 0
-0.382622 -0.15832 1.05571 255 0 0
-0.172959 -0.072 0.652498 255 0 0
-0.172701 -0.0790701 0.613537 255 0 0
0.00625484 0.0271466 1.07008 255 0 0
0.064981 0.155894 0.780696 255 0 0
0.140802 0.121238 0.803963 255 0 0
-0.153552 -0.0500133 0.85213 255 0 0
-0.257687 0.084545 0.876625 255 0 0
0.0151252 0.0660903 1.15669 255 0 0
-0.30538 0.111879 0.865344 255 0 0
-0.050875 0.00394469 1.05236 255 0 0
0.0966211 0.162886 0.873334 255 0 0
-0.00367158 0.0898418 1.12728 255 0 0
-0.255921 0.0186258 0.94015 255 0 0
-0.202966 -0.259589 0.943657 255 0 0
-0.412108 -0.174571 0.859065 255 0 0
-0.178393 -0.00971979 0.61563 255 0 0
-0.0882898 -0.155046 1.04674 255 0 0
-0.112224 -0.214708 1.28626 255 0 0
0.108558 -0.0137465 1.22864 255 0 0
0.180595 -0.0263225 1.25078 255 0 0
-0.313484 -0.385995 1.08695 255 0 0
-0.123889 -0.131306 0.913378 255 0 0
0.85541 -1.20579 6.95318 255 0 0
0.808737 -1.05011 6.70482 255 0 0
0.791619 -1.14654 6.62156 255 0 0
1.22553 -1.45616 9.07081 255 0 0
2.77889 -0.871619 4.7603 255 0 0
2.84977 -0.920454 4.77654 255 0 0
2.67993 -0.827057 4.53502 255 0 0
-0.178442 -0.251792 0.793618 255 0 0
0.914455 -1.20089 7.39848 255 0 0
-0.122469 -0.13948 0.918079 255 0 0
2.75469 -0.946981 4.65861 255 0 0
2.69621 -0.92634 4.69344 255 0 0
-0.112356 -0.153869 0.981834 255 0 0
0.0264349 -0.179594 1.11024 255 0 0
0.0276489 -0.179706 1.11428 255 0 0
0.0584136 0.0123485 0.846381 255 0 0
-0.0134214 0.0349405 1.02894 255 0 0
-0.376073 -0.157 1.07378 255 0 0
0.829487 -1.10983 6.81656 255 0 0
-0.342425 -0.0193063 1.07664 255 0 0
-0.321557 0.00423725 1.21927 255 0 0
0.00557914 -0.103027 0.838945 255 0 0
-0.381275 -0.158137 1.04535 255 0 0
-0.127442 -0.208121 1.1654 255 0 0
-0.116177 -0.154306 0.929593 255 0 0
-0.171507 0.0104742 0.750388 255 0 0
-0.0515784 -0.136548 1.12416 255 0 0
0.241668 -0.0298987 0.933061 255 0 0
-0.109201 -0.179008 1.00653 255 0 0
-0.162846 -0.0815426 0.621717 255 0 0
-0.124816 -0.13975 0.925017 255 0 0
-0.101771 -0.15545 0.969474 255 0 0
-0.108861 -0.161966 0.960856 255 0 0
-0.236508 0.0494883 0.905375 255 0 0
0.0895573 0.0500413 0.835189 255 0 0
-0.183326 -0.16658 1.06157 255 0 0
-0.131874 -0.131366 0.893792 255 0 0
-0.315756 -0.380177 1.06579 255 0 0
-0.0847468 -0.10959 0.670272 255 0 0
-0.266383 -0.346484 1.02582 255 0 0
-0.256328 -0.376728 1.1516 255 0 0
-0.308426 -0.386997 1.10092 255 0 0
0.95524 -1.24973 8.15126 255 0 0
-0.0127415 -0.25362 1.42192 255 0 0
-0.110299 -0.19675 1.48495 255 0 0
-0.155212 -0.0770935 0.653482 255 0 0
-0.0697902 -0.104536 0.688747 255 0 0
0.0642765 0.0374692 0.816178 255 0 0
0.130191 -0.00750885 0.864028 255 0 0
-0.0670463 -0.102768 0.718575 255 0 0
-0.105889 -0.153491 0.937588 255 0 0
-0.10065 -0.160074 0.944878 255 0 0
-0.360265 -0.185836 0.986612 255 0 0
-0.212866 -0.0504758 0.668369 255 0 0
-0.251742 0.0717146 0.845603 255 0 0
-0.14924 -0.159144 0.929038 255 0 0
-0.148259 -0.221456 1.18278 255 0 0
-0.146113 -0.233228 1.21717 255 0 0
-0.172724 -0.0723646 0.620863 255 0 0
-0.241125 -0.147509 1.06685 255 0 0
-0.287477 -0.13228 1.03099 255 0 0
-0.00818962 -0.143727 0.66289 255 0 0
-0.211677 -0.247013 0.81493 255 0 0
-0.103087 -0.135283 0.980204 255 0 0
-0.136093 -0.153218 0.895902 255 0 0
0.0772511 -0.00823431 0.870761 255 0 0
0.0499906 0.0156074 0.830814 255 0 0
0.0445414 0.0241906 0.863572 255 0 0
-0.127297 -0.133925 0.909468 255 0 0
0.0364923 0.0268478 0.820524 255 0 0
-0.101941 -0.159502 0.940072 255 0 0
0.0666143 0.00699532 0.832988 255 0 0
0.075651 -0.00731515 0.871359 255 0 0
-0.110165 -0.196773 1.00319 255 0 0
0.225101 -0.0196152 0.966716 255 0 0
-0.426257 -0.108294 0.616777 255 0 0
-0.428111 -0.10846 0.619888 255 0 0
-0.165739 -0.0732712 0.648492 255 0 0
-0.110691 -0.291249 1.30278 255 0 0
-0.322502 -0.115591 0.487671 255 0 0
-0.00600185 -0.0605243 0.813476 255 0 0
-0.0242836 -0.120494 0.695002 255 0 0
-0.0211727 -0.120076 0.698521 255 0 0
-0.0357438 -0.122104 0.682085 255 0 0
-0.242071 -0.146701 0.572615 255 0 0
-0.114262 -0.15088 0.941469 255 0 0
0.915566 -1.14828 6.82632 255 0 0
-0.0985781 -0.153333 0.966547 255 0 0
-0.113116 -0.153343 0.939357 255 0 0
-0.240287 -0.164611 0.921794 255 0 0
-0.14635 -0.186082 0.919422 255 0 0
-0.0770164 -0.107962 0.684679 255 0 0
-0.213365 0.0538068 0.820619 255 0 0
-0.121229 -0.210368 1.18082 255 0 0
-0.110125 -0.0899305 0.67044 255 0 0
-0.176557 0.0811627 0.920766 255 0 0
-0.171704 0.0818741 0.927373 255 0 0
-0.144466 -0.0807932 0.6806 255 0 0
0.0831098 0.15732 0.861103 255 0 0
-0.199556 -0.0507294 0.680189 255 0 0
-0.323478 -0.067402 0.870075 255 0 0
-0.064402 -0.132077 1.09964 255 0 0
-0.419473 -0.0420374 0.789434 255 0 0
-0.224883 -0.101847 0.878211 255 0 0
-0.191708 -0.206553 0.974671 255 0 0
-0.162273 -0.229338 1.18609 255 0 0
-0.110635 -0.177219 0.996246 255 0 0
-0.0403707 -0.0538052 1.13623 255 0 0
0.0435172 0.143024 0.830007 255 0 0
-0.165843 0.0764465 0.908459 255 0 0
0.200378 0.18088 1.0107 255 0 0
-0.0780353 -0.146061 1.09108 255 0 0
-0.357026 -0.186674 0.995124 255 0 0
-0.0813545 -0.106761 0.682386 255 0 0
-0.259131 0.0949615 0.879501 255 0 0
-0.130118 -0.0843693 0.651036 255 0 0
0.158263 0.00595383 0.830654 255 0 0
-0.104834 -0.154149 0.940272 255 0 0
0.292876 -0.0177902 0.990046 255 0 0
-0.0963836 -0.296902 0.83305 255 0 0
-0.0976115 -0.157255 0.964961 255 0 0
-0.260149 -0.368072 1.11448 255 0 0
0.105363 0.169364 0.865194 255 0 0
-0.0276335 -0.129415 1.14871 255 0 0
-0.119162 -0.146353 0.941738 255 0 0
-0.0698346 -0.170957 0.951406 255 0 0
-0.119108 -0.109411 1.36045 255 0 0
-0.105063 -0.113939 1.41997 255 0 0
-0.236504 0.0703366 0.835353 255 0 0
-0.147385 -0.158122 0.928064 255 0 0
-0.0675434 -0.354109 0.853052 255 0 0
0.780151 -1.10445 6.37109 255 0 0
0.589435 -0.960918 5.7525 255 0 0
-0.11067 -0.289474 1.29666 255 0 0
-0.361226 -0.0466832 0.954201 255 0 0
0.754049 -1.0486 6.56612 255 0 0
0.0401566 -0.156179 0.802204 255 0 0
-0.118227 -0.292739 0.840646 255 0 0
-0.165157 -0.0774086 0.638987 255 0 0
-0.211264 -0.236985 0.801546 255 0 0
2.73989 -0.84557 4.65362 255 0 0
-0.284876 0.0883275 0.853372 255 0 0
-0.187222 -0.257081 1.24168 255 0 0
-0.380044 -0.180504 0.938061 255 0 0
-0.0897752 -0.208511 1.50569 255 0 0
-0.288763 0.078854 0.922951 255 0 0
-0.0443739 0.0497001 1.01011 255 0 0
-0.0578156 -0.110785 1.11485 255 0 0
-0.146709 -0.144945 0.90508 255 0 0
-0.0287547 -0.105097 0.800507 255 0 0
-0.190005 -0.0733152 0.631039 255 0 0
-0.22078 0.0497361 0.811132 255 0 0
-0.128 -0.0843413 0.650952 255 0 0
-0.131693 -0.130518 0.927382 255 0 0
-0.118784 -0.160346 0.929363 255 0 0
-0.0859009 -0.131229 1.05343 255 0 0
-0.225516 -0.225452 0.808003 255 0 0
-0.215443 -0.237718 0.826964 255 0 0
-0.0187726 0.0850588 1.11027 255 0 0
-0.197849 -0.252389 1.21558 255 0 0
-0.0974163 -0.212904 1.47894 255 0 0
-0.369769 -0.159927 1.08938 255 0 0
-0.193039 0.0630206 0.8748 255 0 0
-0.378758 -0.165947 0.932247 255 0 0
-0.376251 -0.0590389 0.793137 255 0 0
-0.0203519 0.0342006 1.02719 255 0 0
0.130176 -0.0393531 1.04048 255 0 0
-0.168048 -0.280075 1.00031 255 0 0
-0.121305 -0.148454 0.934469 255 0 0
-0.280558 -0.348179 1.01764 255 0 0
-0.210225 -0.247922 0.816873 255 0 0
-0.116234 -0.294687 0.848937 255 0 0
-0.160689 -0.263551 0.981625 255 0 0
-0.0712848 -0.0869897 0.788823 255 0 0
-0.258195 0.0809821 0.808133 255 0 0
-0.166633 -0.00776369 0.779752 255 0 0
-0.0126946 0.0935613 1.1551 255 0 0
0.167801 0.16214 0.851372 255 0 0
-0.263763 -0.103267 0.823719 255 0 0
-0.252552 0.070651 0.843746 255 0 0
0.197952 0.190287 0.973446 255 0 0
-0.275791 0.0888378 0.858361 255 0 0
-0.161157 -0.081524 0.641047 255 0 0
-0.127534 -0.0958797 0.665818 255 0 0
-0.145465 -0.222089 1.1864 255 0 0
-0.381729 -0.0595344 0.778715 255 0 0
0.704865 -1.0604 6.78122 255 0 0
0.0952056 -0.0183427 1.20761 255 0 0
-0.087591 -0.291476 0.801194 255 0 0
-0.270959 -0.353741 1.05128 255 0 0
-0.391793 -0.0620408 0.758622 255 0 0
-0.131597 -0.145053 0.922066 255 0 0
-0.118917 -0.113242 1.38814 255 0 0
-0.167276 -0.0792754 0.641517 255 0 0
-0.273833 0.073024 0.785981 255 0 0
-0.113681 -0.211227 1.19267 255 0 0
-0.096916 -0.114451 0.909602 255 0 0
-0.104769 -0.15948 1.03199 255 0 0
-0.264287 0.083381 0.751583 255 0 0
-0.17109 0.0717404 0.896688 255 0 0
-0.211499 -0.050537 0.668773 255 0 0
-0.302833 0.152916 1.03845 255 0 0
-0.121722 -0.165996 0.956712 255 0 0
-0.120528 -0.0966514 0.67178 255 0 0
-0.174623 -0.0804425 0.612325 255 0 0
0.0128556 -0.102065 0.845776 255 0 0
-0.0155988 -0.111251 1.17648 255 0 0
-0.0321085 -0.128483 1.14267 255 0 0
-0.400694 -0.154008 0.992097 255 0 0
-0.141875 -0.229228 1.19716 255 0 0
-0.127442 -0.159877 0.919431 255 0 0
-0.0598314 -0.171739 0.963385 255 0 0
-0.182842 -0.0792162 0.625267 255 0 0
-0.288903 -0.0881833 0.78158 255 0 0
-0.110235 -0.289269 1.29843 255 0 0
0.731153 -1.05189 6.41373 255 0 0
-0.0665248 0.0691753 1.07835 255 0 0
1.20791 -0.261034 4.2434 255 0 0
-0.188545 -0.0770011 0.6189 255 0 0
0.0192577 0.0458682 0.898937 255 0 0
-0.207003 -0.0778471 0.618804 255 0 0
-0.206529 -0.0777893 0.617173 255 0 0
-0.207217 -0.0776281 0.619471 255 0 0
0.00601679 -0.0632138 0.926765 255 0 0
-0.164873 -0.0759593 0.620547 255 0 0
-0.302958 -0.137243 0.529084 255 0 0
-0.107204 -0.152211 0.933599 255 0 0
-0.301653 -0.137106 0.530024 255 0 0
0.00791218 -0.0628633 0.928601 255 0 0
-0.168587 -0.0728235 0.615175 255 0 0
0.0111073 -0.0622577 0.931595 255 0 0
-0.189036 -0.221018 0.813638 255 0 0
-0.393978 -0.154736 1.03269 255 0 0
0.550932 -0.0033045 1.71943 255 0 0
0.0206865 -0.171285 0.771084 255 0 0
0.152393 -0.0188818 1.23974 255 0 0
-0.152325 -0.271261 1.00486 255 0 0
-0.131949 -0.153522 0.934253 255 0 0
-0.203917 -0.237245 0.812834 255 0 0
-0.110603 -0.29089 1.30137 255 0 0
-0.0362514 -0.102139 0.805009 255 0 0
-0.0566735 0.0755755 1.09671 255 0 0
-0.202751 -0.0477877 0.677849 255 0 0
-0.0640182 0.0707387 1.08334 255 0 0
0.0567801 0.0697065 1.2047 255 0 0
0.78921 -1.13397 6.80524 255 0 0
-0.0896321 -0.0950889 0.694491 255 0 0
-0.190013 -0.254406 1.23189 255 0 0
-0.106667 -0.282343 1.27533 255 0 0
-0.132274 -0.14197 0.911288 255 0 0
-0.0726105 -0.16713 0.956973 255 0 0
-0.0968256 -0.31826 1.34461 255 0 0
-0.429673 -0.126422 1.00626 255 0 0
-0.125189 -0.139532 0.921477 255 0 0
-0.1488 -0.154835 0.895949 255 0 0
0.710096 -1.08468 6.29544 255 0 0
-0.0723763 -0.167245 0.957182 255 0 0
-0.429598 -0.127332 1.00355 255 0 0
-0.168076 -0.230795 1.17912 255 0 0
-0.145884 -0.141286 0.879198 255 0 0
-0.132316 -0.153811 0.916226 255 0 0
-0.10712 -0.282556 1.27271 255 0 0
-0.310786 0.00744622 0.912938 255 0 0
-0.200142 -0.314159 0.882879 255 0 0
-0.304778 0.0153688 0.94319 255 0 0
0.869207 -1.14582 6.93143 255 0 0
-0.130172 -0.113848 0.872399 255 0 0
-0.182691 -0.207859 0.986718 255 0 0
-0.139938 -0.0802751 0.68442 255 0 0
0.101376 0.175949 0.853795 255 0 0
0.0774204 0.159442 0.839119 255 0 0
-0.279637 0.0823811 0.938409 255 0 0
-0.195053 -0.250182 0.94644 255 0 0
-0.151319 -0.0803327 0.623814 255 0 0
0.0851485 -0.0614804 1.00692 255 0 0
-0.0173176 -0.068636 0.909317 255 0 0
-0.145029 -0.0713124 0.709138 255 0 0
-0.0710691 -0.13521 1.09651 255 0 0
0.142878 0.180126 0.908252 255 0 0
-0.127892 -0.19625 1.12994 255 0 0
-0.181295 0.041778 0.758503 255 0 0
-0.0825176 -0.167224 1.11278 255 0 0
-0.161236 -0.263364 0.981245 255 0 0
