4052.309525 0.000000000 0.000000000 0.000000000 0.000000000 0.000000000 0.000000000 1.000000000
4052.346389 -0.001508252 -0.001924077 -0.002693082 0.006248462 0.001742449 0.003050984 0.999974310
4052.383252 -0.003904491 -0.005143525 -0.005668136 0.011687115 0.005284538 0.007750656 0.999887705
4052.420115 -0.006858481 -0.008389841 -0.008040600 0.019072890 0.010089913 0.012019432 0.999694884
4052.456978 -0.010077704 -0.011113182 -0.010886056 0.025260974 0.014274163 0.014887113 0.999468148
4052.493842 -0.012638615 -0.013605911 -0.014274290 0.031641178 0.016360180 0.017506450 0.999212027
4052.530705 -0.015166515 -0.015675545 -0.017829221 0.035627153 0.017380802 0.020971352 0.998993874
4052.567569 -0.017405838 -0.018896256 -0.020040993 0.037059091 0.016341545 0.021938877 0.998938560
4052.604432 -0.017998306 -0.023038205 -0.022634726 0.036609769 0.013239232 0.022344993 0.998992085
4052.641295 -0.018141309 -0.026209960 -0.024888113 0.036976337 0.010733211 0.023224806 0.998988569
4052.678159 -0.017451968 -0.030193146 -0.026781956 0.037327066 0.008956178 0.024095505 0.998972416
4052.715022 -0.015268400 -0.032818835 -0.027940163 0.039342411 0.007670749 0.023683658 0.998915613
4052.751885 -0.011772479 -0.035624512 -0.029707974 0.039109357 0.006837892 0.022901993 0.998949051
4052.788749 -0.008085028 -0.037155632 -0.029643960 0.039727416 0.006677003 0.020751080 0.998972714
4052.825612 -0.003684952 -0.038733415 -0.029155247 0.039801881 0.005118657 0.019256398 0.999008894
4052.862475 0.001580874 -0.041431341 -0.027393518 0.040229637 0.001335388 0.015511222 0.999069154
4052.899338 0.006882252 -0.044335440 -0.024828166 0.039393805 -0.003424691 0.013987288 0.999119937
4052.936202 0.011370822 -0.046931889 -0.021114677 0.038223367 -0.007894992 0.012953022 0.999154091
4052.973065 0.016006429 -0.049942773 -0.016999193 0.035106573 -0.014307891 0.012281005 0.999205709
4053.009929 0.019948287 -0.053219747 -0.011899682 0.031555418 -0.020671070 0.009903722 0.999239147
4053.046792 0.023388995 -0.056932081 -0.006927808 0.029477641 -0.026007500 0.008020771 0.999194801
4053.083655 0.026055627 -0.061052606 -0.002665390 0.031757634 -0.028171843 0.005047414 0.999085724
4053.120519 0.029743921 -0.065349221 0.001161037 0.037902214 -0.029994840 0.001261400 0.998830378
4053.157382 0.033442043 -0.070650443 0.002813464 0.045760512 -0.029935442 -0.005037675 0.998491108
4053.194246 0.038252827 -0.074552566 0.004984808 0.055786699 -0.030544167 -0.007438414 0.997947633
4053.231109 0.044226881 -0.078174986 0.005862772 0.064296655 -0.031882212 -0.009369182 0.997377396
4053.267972 0.051529042 -0.081322521 0.005438180 0.069394976 -0.034565154 -0.007960992 0.996958494
4053.304835 0.059361570 -0.084483564 0.006135183 0.072404981 -0.038184624 -0.006567935 0.996622443
4053.341699 0.068767034 -0.086897731 0.005562225 0.072085492 -0.041566480 -0.004680810 0.996520936
4053.378562 0.079050973 -0.087568514 0.005574639 0.071184158 -0.043507438 -0.000374846 0.996513784
4053.415426 0.091814362 -0.089515820 0.003348253 0.067705445 -0.043790940 0.005196423 0.996730328
4053.452289 0.101568036 -0.089725658 0.002588089 0.067510866 -0.038750514 0.011184272 0.996903002
4053.489152 0.114598565 -0.087123014 0.002318058 0.069410458 -0.034770612 0.017509600 0.996828258
4053.562879 0.137396127 -0.082988508 -0.003258709 0.070872664 -0.022142325 0.033937905 0.996661961
4053.599742 0.148932785 -0.081276067 -0.007403258 0.071385726 -0.017373493 0.040926933 0.996457338
4053.636606 0.162166342 -0.082214981 -0.011578316 0.068826325 -0.016378848 0.048519403 0.996313453
4053.673469 0.175884306 -0.082631178 -0.011336359 0.067903884 -0.019885650 0.056899752 0.995869458
4053.710332 0.184434250 -0.082905725 -0.013859214 0.066706046 -0.021176526 0.063014254 0.995555639
4053.747195 0.193227395 -0.083615974 -0.016334066 0.065714426 -0.024302751 0.070351414 0.995058656
4053.784059 0.200880885 -0.083482720 -0.015951332 0.067119129 -0.027803820 0.079063833 0.994218767
4053.820922 0.208815470 -0.084912047 -0.017882541 0.067317471 -0.031272903 0.088858180 0.993274689
4053.857786 0.215487868 -0.087273732 -0.018502375 0.068763576 -0.034209173 0.099225745 0.992096543
4053.894649 0.219527423 -0.088382475 -0.018824374 0.072119012 -0.036089398 0.108719788 0.990795851
4053.931512 0.219582915 -0.087932691 -0.017251860 0.077548973 -0.037705973 0.116911799 0.989391744
4053.968376 0.221231297 -0.089145340 -0.016294364 0.080624864 -0.042430699 0.126037017 0.987832963
4054.005239 0.220435232 -0.090400361 -0.012971286 0.081862167 -0.048295226 0.133649319 0.986460328
4054.042102 0.217933506 -0.093115337 -0.010081263 0.078648694 -0.054369424 0.138365611 0.985755205
4054.078966 0.214421600 -0.097225398 -0.007830143 0.073377118 -0.059874218 0.138297677 0.985852242
4054.115829 0.210975066 -0.101342522 -0.003944106 0.067004427 -0.064433314 0.137653276 0.986108661
4054.152692 0.204184592 -0.103907391 -0.001242932 0.063268848 -0.063243181 0.132791758 0.987098634
4054.189556 0.194714770 -0.109624766 0.001268707 0.057530869 -0.057898529 0.128337279 0.988366067
4054.226419 0.185526788 -0.113731667 0.002983402 0.053906016 -0.051626958 0.120831601 0.989862859
4054.263283 0.174894214 -0.116949253 0.007577761 0.051548935 -0.045417134 0.110663161 0.991480589
4054.300146 0.163783059 -0.120528273 0.012048276 0.049854055 -0.040453069 0.100917123 0.992821157
4054.337009 0.151271671 -0.126893714 0.014781590 0.047139533 -0.034722861 0.090488069 0.994175076
4054.373873 0.139542535 -0.131162420 0.017631155 0.046487607 -0.031738911 0.080880202 0.995133102
4054.410736 0.121298127 -0.138935164 0.020481188 0.044114798 -0.025422273 0.072781511 0.996047378
4054.447599 0.106346615 -0.144392818 0.023471136 0.044564776 -0.023480097 0.063515976 0.996708751
4054.484463 0.092056297 -0.150625378 0.025594370 0.043870546 -0.023695821 0.056160323 0.997175932
4054.521326 0.073694572 -0.157298222 0.025190823 0.044628944 -0.021696243 0.045218039 0.997743905
4054.558189 0.060351662 -0.163471654 0.028123541 0.045512281 -0.025171684 0.034837574 0.998038709
4054.595052 0.046985049 -0.167430401 0.030717183 0.048564702 -0.028617160 0.024739854 0.998103440
4054.631916 0.031216115 -0.173570842 0.031106990 0.050571259 -0.029092781 0.015832752 0.998171091
4054.668779 0.014306383 -0.183682859 0.029716246 0.050139185 -0.027148634 0.010826349 0.998314500
4054.705642 -0.000398560 -0.191079959 0.027474849 0.052721150 -0.025357643 0.010043784 0.998236716
4054.742506 -0.014759375 -0.198273554 0.026526386 0.057390358 -0.022269502 0.008242493 0.998069346
4054.779369 -0.028359355 -0.204853043 0.026260866 0.062663481 -0.018958542 0.008805909 0.997815788
4054.816233 -0.042923544 -0.210017189 0.025209758 0.067724921 -0.014609743 0.007969266 0.997565210
4054.853096 -0.055540860 -0.216989666 0.023886161 0.069451548 -0.012438380 0.009437230 0.997463107
4054.889959 -0.069720231 -0.229818791 0.023787282 0.065034881 -0.010354191 0.009025583 0.997788429
4054.926823 -0.084625915 -0.236322731 0.023737766 0.065399513 -0.006972394 0.009173976 0.997792661
4054.963686 -0.099103928 -0.241073474 0.024396867 0.065948769 -0.002931230 0.010128075 0.997767329
4055.000549 -0.110151172 -0.247779161 0.025655175 0.063902743 -0.000075120 0.013634556 0.997862995
4055.037413 -0.122050874 -0.251954943 0.027891165 0.062450808 0.004475301 0.018174689 0.997872531
4055.074276 -0.137883395 -0.251642197 0.030713877 0.063768044 0.012492140 0.021451583 0.997655928
4055.111139 -0.153213918 -0.256962746 0.033645242 0.059748989 0.020607196 0.024844121 0.997691393
4055.148003 -0.167637601 -0.257677704 0.037629418 0.056921192 0.028391782 0.028072517 0.997579932
4055.184866 -0.183061391 -0.261314571 0.040935807 0.050272178 0.038186610 0.030994166 0.997523844
4055.221730 -0.198827386 -0.264160961 0.044321604 0.043477967 0.048642509 0.033428606 0.997309387
4055.258593 -0.215108514 -0.265356541 0.046871379 0.037517291 0.060194287 0.035293143 0.996856809
4055.295456 -0.237903923 -0.271021903 0.047773607 0.029790685 0.077232674 0.037330799 0.995868504
4055.332319 -0.256757528 -0.269950300 0.049404889 0.030097319 0.090936914 0.038224652 0.994667530
4055.369183 -0.275670230 -0.269160032 0.050521206 0.031206539 0.104067922 0.038312908 0.993341923
4055.406046 -0.296069086 -0.268259764 0.051845104 0.031528551 0.118035004 0.040201090 0.991694272
4055.442909 -0.315713257 -0.266052097 0.051792298 0.032010473 0.131217048 0.043170888 0.989895821
4055.479773 -0.334690958 -0.263653934 0.051421814 0.031814549 0.142943189 0.047071226 0.988098919
4055.516636 -0.355071366 -0.261381388 0.051049717 0.030461837 0.153875396 0.051510382 0.986276388
4055.553499 -0.376825094 -0.256751478 0.052166428 0.031232560 0.164215133 0.056739457 0.984295964
4055.590363 -0.398492783 -0.252001464 0.050019749 0.034630742 0.171928585 0.061735261 0.982563019
4055.627226 -0.419295996 -0.244959846 0.049692795 0.041605219 0.178803921 0.065966509 0.980788767
4055.664090 -0.438296139 -0.240702748 0.046099596 0.046976563 0.184629366 0.071024053 0.979112267
4055.700953 -0.458564281 -0.230434775 0.042591475 0.057006057 0.193211630 0.075867102 0.976557076
4055.737816 -0.478034049 -0.219582692 0.039907716 0.067012750 0.202586591 0.080832228 0.973619103
4055.774680 -0.493965954 -0.213203251 0.034678116 0.071037650 0.209968299 0.084561706 0.971450627
4055.811543 -0.510412097 -0.203535587 0.030693159 0.075103074 0.217422530 0.087079182 0.969280243
4055.848406 -0.523984611 -0.195727259 0.026213825 0.075013742 0.223469630 0.089401893 0.967699111
4055.885270 -0.536510706 -0.187675238 0.021077648 0.072870962 0.229035124 0.090884760 0.966422617
4055.922133 -0.549431205 -0.179414019 0.015978262 0.071606569 0.235384107 0.091131181 0.964967310
4055.958996 -0.558948517 -0.166030884 0.011874184 0.074833527 0.241667479 0.090720519 0.963206410
4055.995860 -0.564841688 -0.151440993 0.003354162 0.077884108 0.246942058 0.091072120 0.961592197
4056.032723 -0.572197735 -0.143897653 -0.001401171 0.077335827 0.256615043 0.090821527 0.959124267
4056.069587 -0.577774107 -0.134561002 -0.007240996 0.076106295 0.266820043 0.089984186 0.956513345
4056.106450 -0.581192851 -0.127626434 -0.010787755 0.073284276 0.278825551 0.089354783 0.953363240
4056.143313 -0.585335672 -0.120406121 -0.015623719 0.068769746 0.291215867 0.089482576 0.949977338
4056.180176 -0.587835729 -0.115890563 -0.020420700 0.060608119 0.302337855 0.092020005 0.946810842
4056.217040 -0.590914249 -0.111062087 -0.023219705 0.051379774 0.313080341 0.094723150 0.943593323
4056.253903 -0.594868243 -0.106580183 -0.024869740 0.045646869 0.323245585 0.096110456 0.940314531
4056.290766 -0.599111438 -0.099682644 -0.027543545 0.045601260 0.331287086 0.096233740 0.937501192
4056.327630 -0.601304770 -0.091181129 -0.027671486 0.047348984 0.337790847 0.096130744 0.935101211
4056.364493 -0.604732871 -0.083202496 -0.028643787 0.047594141 0.343376458 0.097691312 0.932890058
4056.401356 -0.608907819 -0.075286664 -0.025307417 0.047323931 0.349563867 0.097782925 0.930593371
4056.438220 -0.614749193 -0.065900296 -0.020506918 0.047760330 0.355182588 0.099465676 0.928262293
4056.475083 -0.618701756 -0.058709975 -0.015759736 0.047159683 0.357746571 0.102684483 0.926956952
4056.511947 -0.622344136 -0.052231155 -0.009294450 0.046039995 0.358710200 0.105352342 0.926341295
4056.548810 -0.626453042 -0.046991844 0.000227571 0.043708060 0.358708173 0.107247569 0.926237583
4056.585673 -0.633063436 -0.041593894 0.011481464 0.039930679 0.358430088 0.108538605 0.926365376
4056.622537 -0.636880100 -0.037901521 0.022753209 0.034014501 0.354971558 0.111918412 0.927530289
4056.659400 -0.642503738 -0.035799153 0.037659466 0.024816206 0.352755249 0.113237850 0.928506911
4056.696263 -0.647914171 -0.033899087 0.049007922 0.016195999 0.347107530 0.112390481 0.930925608
4056.733127 -0.654265046 -0.030491581 0.064062983 0.014077635 0.343588680 0.108873531 0.932681739
4056.769990 -0.658030808 -0.028608723 0.077999383 0.014174452 0.338577420 0.106642120 0.934768379
4056.806853 -0.665306330 -0.025334235 0.093234152 0.016159952 0.338459074 0.103266872 0.935157895
4056.843717 -0.672183514 -0.020914672 0.106288195 0.015658343 0.339889050 0.100395560 0.934960425
4056.880580 -0.678639650 -0.013553834 0.119230330 0.015411709 0.344189495 0.099512562 0.933484495
4056.917444 -0.685678244 -0.007471410 0.131263912 0.016382553 0.350124627 0.098789841 0.931335032
4056.954307 -0.693526626 -0.001884799 0.144008040 0.023132170 0.358850390 0.095561758 0.928202152
4056.991170 -0.700933576 0.003277575 0.154567987 0.029951135 0.367148548 0.093967184 0.924918950
4057.028033 -0.709092021 0.007598171 0.164134622 0.032969367 0.376864851 0.092548080 0.921043277
4057.064897 -0.717559218 0.011029749 0.172243208 0.035427265 0.387534827 0.090370513 0.916730523
4057.101760 -0.726508141 0.012490643 0.179947108 0.037980694 0.399350286 0.087025441 0.911868095
4057.138623 -0.736102700 0.014172105 0.185972631 0.043731511 0.410810620 0.083496831 0.906835377
4057.175487 -0.746042609 0.016718883 0.190834939 0.049974617 0.421383083 0.079678483 0.901992321
4057.212350 -0.756467581 0.018873494 0.194100738 0.051694740 0.430121571 0.077462785 0.897954643
4057.249213 -0.767104387 0.022166632 0.197856069 0.053720269 0.437102735 0.073908709 0.894758523
4057.286077 -0.777702749 0.025011340 0.199858159 0.054614995 0.440272480 0.067745723 0.893637419
4057.322940 -0.787987590 0.028101549 0.201963216 0.056037731 0.441636890 0.059581388 0.893457711
4057.359804 -0.798484623 0.031743847 0.203901678 0.055433389 0.442420214 0.051197868 0.893627584
4057.396667 -0.809775949 0.035891838 0.205563307 0.054142423 0.443886667 0.043395128 0.893392444
4057.433530 -0.820877194 0.039910115 0.206933409 0.053396031 0.446741819 0.036043249 0.892340422
4057.470393 -0.832148790 0.044600554 0.209188908 0.053712692 0.451758981 0.029515905 0.890032351
4057.507257 -0.844406366 0.047631547 0.212244034 0.054218046 0.459116966 0.025869567 0.886342347
4057.544120 -0.857807636 0.048726477 0.215476066 0.055542443 0.467759281 0.022333311 0.881826282
4057.580984 -0.871561766 0.047807544 0.220740974 0.058704101 0.477618843 0.019343764 0.876390278
4057.617847 -0.885734320 0.046703707 0.225959182 0.063116230 0.487720668 0.016975710 0.870549679
4057.654710 -0.900452375 0.044107977 0.231626481 0.064025648 0.497671723 0.018027820 0.864811301
4057.691574 -0.916164100 0.041154590 0.240999430 0.064491346 0.508851409 0.020478573 0.858190954
4057.728437 -0.931995153 0.037038233 0.250896692 0.068182498 0.518847048 0.020760747 0.851890743
4057.765301 -0.948343873 0.032333188 0.263217002 0.073511392 0.529258966 0.021559585 0.844994783
4057.802164 -0.964985788 0.028501034 0.274951726 0.078125164 0.538384616 0.025154406 0.838692904
4057.839027 -0.982615352 0.022823185 0.288676053 0.081250787 0.547868788 0.030011708 0.832068145
4057.875890 -0.998757184 0.017691009 0.301070154 0.083576523 0.555239320 0.034202933 0.826773465
4057.912754 -1.014102936 0.014283977 0.315369576 0.085692868 0.562790573 0.038743094 0.821232259
4057.949617 -1.029825211 0.011750519 0.332298070 0.086755000 0.571671367 0.043448366 0.814725518
4057.986480 -1.044535041 0.009634882 0.345738202 0.085656419 0.577585220 0.047720499 0.810420275
4058.023344 -1.055822611 0.003279567 0.355508476 0.081445701 0.580922425 0.053162426 0.808127105
4058.060207 -1.066557169 0.000416193 0.368865341 0.078855947 0.585110128 0.053939592 0.805306375
4058.097070 -1.075845361 -0.002885789 0.382009804 0.077322669 0.588880241 0.054200772 0.802685201
4058.133934 -1.084433556 -0.005206984 0.394933939 0.077268876 0.592814207 0.053875510 0.799811423
4058.170797 -1.092510700 -0.007230543 0.409211487 0.077786796 0.597435117 0.053760603 0.796323001
4058.207661 -1.098686337 -0.009033315 0.422945857 0.077386662 0.602001011 0.053454991 0.792936683
4058.244524 -1.103778362 -0.009326622 0.435178846 0.075930022 0.605917394 0.052078921 0.790181339
4058.281387 -1.107012033 -0.008268096 0.449766934 0.072554313 0.610976636 0.050594602 0.786691546
4058.318250 -1.108985662 -0.006212298 0.461744666 0.068053290 0.614900410 0.049421523 0.784106970
4058.355114 -1.110031605 -0.003707569 0.474920690 0.064342126 0.618967891 0.050123077 0.781169951
4058.391977 -1.109396935 -0.000225164 0.486736745 0.057622842 0.621384382 0.051599946 0.779678464
4058.428841 -1.106868029 0.006009346 0.498723269 0.053655460 0.622264683 0.051243510 0.779282928
4058.465704 -1.104360938 0.014218235 0.510143936 0.051394690 0.622242332 0.046253618 0.779765129
4058.502567 -1.100176573 0.020541159 0.520811379 0.050475299 0.621235907 0.042344753 0.780848980
4058.539431 -1.094580173 0.027841253 0.531479895 0.049101934 0.620618582 0.037432417 0.781677961
