3983.964881 0.000000000 0.000000000 0.000000000 0.000000000 0.000000000 0.000000000 1.000000000
3984.001745 -0.001673899 -0.005630859 -0.001865308 0.008615413 0.001959061 -0.004691093 0.999949992
3984.038608 -0.003345769 -0.014373965 -0.002485028 0.013777209 0.004090388 -0.008093999 0.999863982
3984.075471 -0.003354942 -0.023344215 -0.003002532 0.014634388 0.005571573 -0.009922004 0.999828160
3984.112335 -0.004727670 -0.029684842 -0.003037441 0.018516343 0.008180061 -0.012671083 0.999714792
3984.149198 -0.005811974 -0.036681101 -0.003620748 0.023752034 0.010356323 -0.014717650 0.999555886
3984.186061 -0.007486237 -0.043528803 -0.003574651 0.028512392 0.012404571 -0.013436249 0.999426186
3984.222925 -0.007426541 -0.048305228 -0.002813955 0.033236891 0.012439342 -0.011807371 0.999300361
3984.259788 -0.007935440 -0.053216066 -0.001171594 0.036540948 0.011562903 -0.010691423 0.999208033
3984.296651 -0.006605739 -0.057939835 0.001072765 0.039638214 0.008153879 -0.009732654 0.999133408
3984.333515 -0.005226734 -0.061908975 0.002930548 0.042885516 0.003768649 -0.011687843 0.999004543
3984.370378 -0.002945218 -0.064068638 0.005887103 0.046925459 -0.000751967 -0.014072936 0.998798966
3984.407242 0.001080971 -0.070022970 0.008126544 0.046144772 -0.006028453 -0.014498081 0.998811364
3984.444105 0.005468259 -0.073042348 0.010616383 0.046942711 -0.010602048 -0.016331842 0.998707771
3984.480968 0.011042744 -0.076188900 0.012490926 0.046977144 -0.015116333 -0.018455448 0.998611093
3984.517832 0.018215284 -0.078840226 0.014129538 0.048665620 -0.020325404 -0.018621027 0.998434663
3984.554695 0.025552204 -0.080868565 0.015423373 0.051954877 -0.024859292 -0.019459365 0.998150289
3984.591558 0.034036405 -0.084289744 0.015482937 0.054163676 -0.029323230 -0.019027149 0.997920036
3984.628422 0.045565076 -0.086344332 0.015925534 0.056848142 -0.034999229 -0.018320996 0.997600973
3984.665285 0.055740152 -0.088566542 0.015715886 0.058731388 -0.038757466 -0.017096747 0.997374654
3984.702148 0.068398103 -0.092226461 0.014445832 0.058881026 -0.044047263 -0.016811663 0.997151077
3984.739012 0.080027618 -0.095758803 0.013902642 0.058570925 -0.048876010 -0.018179961 0.996920288
3984.775875 0.093891904 -0.098636135 0.013298678 0.058379557 -0.054847356 -0.018387131 0.996617019
3984.812738 0.106654428 -0.100303732 0.012119145 0.060163941 -0.059590150 -0.018204046 0.996241927
3984.849602 0.118517250 -0.104270160 0.008598542 0.060386825 -0.063301437 -0.020184282 0.995961308
3984.886465 0.132490650 -0.107209377 0.007163901 0.062120263 -0.068854511 -0.020409269 0.995481551
3984.923328 0.145629480 -0.110168837 0.005776329 0.062144250 -0.073316373 -0.020209026 0.995165527
3984.960192 0.157324836 -0.112326056 0.002712931 0.059298273 -0.075953297 -0.020357011 0.995138347
3984.997055 0.169744596 -0.115122743 0.001901724 0.053369321 -0.079871908 -0.022079602 0.995130479
3985.033918 0.180557340 -0.117187619 0.002047747 0.049331624 -0.083743714 -0.023996340 0.994976163
3985.070781 0.191040993 -0.120110974 0.001616064 0.046175186 -0.087927476 -0.025841659 0.994720459
3985.107645 0.200191841 -0.121248767 0.002768667 0.044005450 -0.090663344 -0.027892616 0.994517803
3985.144508 0.209146813 -0.124152087 0.003925435 0.039812934 -0.092022724 -0.030383889 0.994496644
3985.181372 0.217536494 -0.127191976 0.006968107 0.035243575 -0.091211557 -0.031256482 0.994716763
3985.218235 0.226138130 -0.129878595 0.010362070 0.031881802 -0.089671470 -0.030168137 0.995003760
3985.255099 0.231296629 -0.133621678 0.012762494 0.028388763 -0.086091563 -0.028336287 0.995479465
3985.291962 0.237194732 -0.137709424 0.017133998 0.025687259 -0.084762059 -0.026327545 0.995722055
3985.328825 0.242815524 -0.142246082 0.022368222 0.024559552 -0.085056245 -0.024849577 0.995763421
3985.365688 0.247189894 -0.146970794 0.027875714 0.023916554 -0.085833862 -0.022443110 0.995769501
3985.402552 0.251061410 -0.151440173 0.032881979 0.022760877 -0.087168686 -0.020670203 0.995719016
3985.439415 0.253095180 -0.155802324 0.037931785 0.020475248 -0.087875567 -0.019635489 0.995727420
3985.476278 0.255488425 -0.159722060 0.043749794 0.016502727 -0.089292087 -0.018234430 0.995701790
3985.513142 0.258129865 -0.163049087 0.050289311 0.012328323 -0.090915501 -0.015713479 0.995658338
3985.550005 0.260395199 -0.166405588 0.055950485 0.008490006 -0.093022481 -0.012963317 0.995543420
3985.586869 0.261912018 -0.167677596 0.062735125 0.007509905 -0.094771378 -0.009704745 0.995423436
3985.623732 0.264309078 -0.170772284 0.068011813 0.006867386 -0.096744820 -0.006857511 0.995261908
3985.660595 0.266401261 -0.173901111 0.073676310 0.007438476 -0.097801358 -0.003354841 0.995172501
3985.697459 0.268947154 -0.176478177 0.079337887 0.008493584 -0.098569639 -0.001028826 0.995093346
3985.734322 0.271479875 -0.179162890 0.084897697 0.010119813 -0.099042952 -0.000093278 0.995031714
3985.771185 0.275844872 -0.181424320 0.089764327 0.011070070 -0.100162111 0.000712131 0.994909286
3985.808049 0.278824240 -0.183296084 0.093291529 0.011570198 -0.099599980 0.001874849 0.994958520
3985.844912 0.281944513 -0.185001016 0.096741468 0.012760435 -0.099170960 0.003489685 0.994982481
3985.881775 0.286147296 -0.187034845 0.099062704 0.013422363 -0.099732660 0.005471981 0.994908690
3985.918638 0.290552586 -0.188863754 0.100886673 0.014827070 -0.100654930 0.007298444 0.994784117
3985.955502 0.296078682 -0.189633116 0.102405943 0.015382734 -0.102414764 0.009330607 0.994579077
3985.992365 0.301873714 -0.189977854 0.103625074 0.014403805 -0.104714088 0.010155660 0.994346201
3986.029229 0.308075100 -0.189363062 0.105653316 0.014514439 -0.107383683 0.010150131 0.994059861
3986.066092 0.315153927 -0.188882828 0.106266461 0.014076705 -0.109715737 0.010004137 0.993812978
3986.102955 0.322969556 -0.187968597 0.107475534 0.016588580 -0.111373208 0.009917458 0.993590653
3986.139819 0.331364393 -0.187584460 0.107514516 0.019597622 -0.111427978 0.011021937 0.993518114
3986.176682 0.342545778 -0.187058836 0.108014286 0.021774542 -0.111913167 0.012688278 0.993398368
3986.213545 0.353110284 -0.185371429 0.108105652 0.024442594 -0.112013727 0.015373601 0.993287027
3986.250409 0.365119994 -0.184596047 0.108999297 0.025399432 -0.113859557 0.017798502 0.993012667
3986.287272 0.376140684 -0.183708817 0.109371498 0.025720870 -0.116843522 0.018307982 0.992648363
3986.324135 0.389529616 -0.180849642 0.111710966 0.027935810 -0.123130232 0.019001331 0.991815209
3986.360999 0.400561601 -0.182332709 0.112721622 0.027643623 -0.128192991 0.018449672 0.991192222
3986.397862 0.414779663 -0.181048170 0.116782464 0.028509310 -0.136028290 0.017775936 0.990135133
3986.434726 0.430882394 -0.179760873 0.118106768 0.028325124 -0.144411355 0.017594887 0.988955736
3986.471589 0.445212722 -0.180095509 0.121805169 0.027015656 -0.151958331 0.017587712 0.987861097
3986.508452 0.459712774 -0.181457832 0.124712959 0.025472879 -0.158769011 0.017539641 0.986831248
3986.545316 0.474296331 -0.183136791 0.129049182 0.024728443 -0.165419996 0.017874932 0.985751092
3986.582179 0.484443277 -0.178394452 0.132907465 0.029107109 -0.168591693 0.018070720 0.985090375
3986.619042 0.504151225 -0.186568812 0.135854691 0.024420632 -0.176668361 0.017109400 0.983818650
3986.655905 0.516949773 -0.188902944 0.139889851 0.024340721 -0.180959627 0.016393201 0.983052552
3986.692769 0.529096127 -0.190572500 0.143868789 0.026223168 -0.184945405 0.014806972 0.982287288
3986.729632 0.542917669 -0.192971349 0.150928169 0.028011326 -0.190724999 0.013575539 0.981149852
3986.766495 0.555161357 -0.198403791 0.155943871 0.026300548 -0.194912165 0.012576448 0.980387330
3986.803359 0.567595005 -0.200787351 0.161892578 0.026835192 -0.199264482 0.012422515 0.979499459
3986.840222 0.577756822 -0.203423634 0.167233422 0.026095610 -0.202400655 0.012543443 0.978874683
3986.877086 0.588285804 -0.206328571 0.174484774 0.024606327 -0.206660822 0.011935796 0.978030324
3986.913949 0.597815752 -0.204593614 0.183543503 0.026252471 -0.211513653 0.011896029 0.976949990
3986.950812 0.604593039 -0.205641985 0.190021351 0.026273238 -0.214164883 0.010961044 0.976382613
3986.987676 0.614416420 -0.206761479 0.197912365 0.025699474 -0.218259916 0.010868175 0.975491643
3987.024539 0.624136567 -0.207037240 0.205306381 0.024957940 -0.221219435 0.012214148 0.974828124
3987.061402 0.632069170 -0.207103118 0.213248670 0.024916824 -0.222532451 0.013713796 0.974510312
3987.098266 0.641763866 -0.208431900 0.220733240 0.023794623 -0.224007741 0.015429669 0.974174678
3987.135129 0.650323689 -0.204606488 0.229572847 0.027164929 -0.224428922 0.016988223 0.973963618
3987.171992 0.658951879 -0.205209777 0.237122744 0.026857561 -0.224044189 0.019618530 0.974011302
3987.208856 0.669826925 -0.210315689 0.243734285 0.021881340 -0.224519163 0.020537652 0.974007487
3987.245719 0.677550197 -0.209446758 0.250364840 0.019593727 -0.223952264 0.020961637 0.974177659
3987.282583 0.685291052 -0.203779966 0.259420842 0.019862022 -0.224782363 0.021064267 0.973978758
3987.319446 0.692561507 -0.201123044 0.265642643 0.018725384 -0.225875452 0.021555100 0.973737657
3987.356309 0.700297654 -0.198177844 0.272223502 0.017626390 -0.228007540 0.021244857 0.973267972
3987.393173 0.705963314 -0.193900198 0.277683020 0.017899873 -0.228168055 0.020601926 0.973239183
3987.430036 0.713231325 -0.188304424 0.284342408 0.019566795 -0.229984179 0.021060565 0.972769678
3987.466899 0.718811035 -0.187606066 0.285825670 0.016662272 -0.229167074 0.022862304 0.972975910
3987.503762 0.723532140 -0.182945758 0.288084567 0.017144136 -0.228878960 0.024728399 0.972989738
3987.540626 0.730367541 -0.177846819 0.292640150 0.018016076 -0.232791752 0.026517846 0.971998096
3987.577489 0.735877275 -0.174019471 0.293985069 0.019001037 -0.236592725 0.026357925 0.971065402
3987.614352 0.742150128 -0.171476930 0.296496809 0.019670334 -0.242681250 0.026554169 0.969543099
3987.651216 0.747405827 -0.167618811 0.299469650 0.021764722 -0.248207033 0.026020939 0.968112826
3987.688079 0.753445804 -0.165552825 0.300664425 0.021754313 -0.252678037 0.025266418 0.966975749
3987.724943 0.759376764 -0.161528468 0.301745832 0.022340117 -0.255907089 0.024541883 0.966131568
3987.761806 0.765921652 -0.157701895 0.302124381 0.024414647 -0.258102477 0.022190521 0.965554059
3987.798669 0.772697210 -0.154565006 0.303880334 0.028345494 -0.259756178 0.019600507 0.965059102
3987.835533 0.779187024 -0.151453778 0.305258542 0.030394744 -0.260588557 0.017065134 0.964820445
3987.872396 0.784781694 -0.147112414 0.306416422 0.031702053 -0.261304826 0.014866048 0.964621007
3987.909259 0.789086580 -0.144575343 0.307382107 0.031638067 -0.263785064 0.010749553 0.964002550
3987.946123 0.792774975 -0.140859962 0.308913916 0.030578585 -0.268296391 0.006389868 0.962829769
3987.982986 0.794958293 -0.134144276 0.311013162 0.029255705 -0.272630721 0.003034994 0.961669087
3988.019849 0.796680927 -0.127830014 0.311858952 0.026973179 -0.275828898 0.002403711 0.960825205
3988.056713 0.796963632 -0.119785614 0.313589275 0.026524834 -0.277048886 0.002808365 0.960485518
3988.093576 0.797992706 -0.113862619 0.312855482 0.027381400 -0.276341796 0.002737217 0.960665405
3988.130440 0.798818588 -0.106039658 0.314391315 0.031111795 -0.275239885 0.006009752 0.960853219
3988.167303 0.798544109 -0.097375154 0.315760851 0.035032637 -0.272243947 0.009598825 0.961542368
3988.204166 0.798322558 -0.089755967 0.317151636 0.036519013 -0.269644499 0.012448822 0.962186694
3988.241030 0.798389494 -0.083348930 0.319253981 0.036230497 -0.268256277 0.014585553 0.962555528
3988.277893 0.796934366 -0.076105103 0.321592301 0.037493993 -0.266068220 0.014523958 0.963115215
3988.314756 0.795328498 -0.068681769 0.324658841 0.037565831 -0.264154971 0.015802788 0.963618815
3988.351619 0.793013930 -0.064070806 0.329955101 0.034250788 -0.263067216 0.019390075 0.963974357
3988.388483 0.789739788 -0.057134811 0.326639801 0.036218684 -0.256659538 0.020650353 0.965602219
3988.425346 0.785109282 -0.050454468 0.330119014 0.039999858 -0.253167778 0.022225091 0.966339529
3988.462209 0.780938148 -0.043693513 0.330675930 0.043280132 -0.249708280 0.026786046 0.966982484
3988.499073 0.775525928 -0.036828533 0.336831063 0.047893472 -0.250077575 0.030344773 0.966564298
