3983.964881 0.000000000 0.000000000 0.000000000 0.000000000 0.000000000 0.000000000 1.000000000
3984.001745 -0.001673899 -0.005630859 -0.001865308 0.008615413 0.001959061 -0.004691093 0.999949992
3984.038608 -0.003345769 -0.014373965 -0.002485028 0.013777209 0.004090388 -0.008093999 0.999863982
3984.075471 -0.003354942 -0.023344215 -0.003002532 0.014634388 0.005571573 -0.009922004 0.999828160
3984.112335 -0.004793026 -0.030028680 -0.003094126 0.018280176 0.008223254 -0.012651840 0.999719024
3984.149198 -0.006008231 -0.036972657 -0.003492692 0.023543350 0.010479849 -0.014578753 0.999561548
3984.186061 -0.007216379 -0.043630075 -0.003381299 0.028531428 0.012208846 -0.013728383 0.999424040
3984.222925 -0.007905110 -0.048585147 -0.003255145 0.033080474 0.012674928 -0.012277991 0.999296904
3984.259788 -0.007649029 -0.053860970 -0.001073482 0.036220200 0.011330372 -0.010544172 0.999223948
3984.296651 -0.006372503 -0.057733294 0.000741034 0.039986618 0.007957010 -0.009863570 0.999119818
3984.333515 -0.005016933 -0.061690491 0.002571832 0.043177236 0.003588054 -0.011961045 0.998989344
3984.370378 -0.003024596 -0.065643162 0.005482890 0.045699991 -0.000800936 -0.014565383 0.998848736
3984.407242 0.001824290 -0.069932438 0.008190991 0.046568386 -0.006493150 -0.014389795 0.998790324
3984.444105 0.006546059 -0.072925001 0.010430187 0.047451168 -0.011379940 -0.016052878 0.998679698
3984.480968 0.011582803 -0.075987957 0.012356920 0.047483314 -0.015402443 -0.018228743 0.998586893
3984.517832 0.018665982 -0.078879334 0.014051449 0.049031235 -0.020495169 -0.018642753 0.998412907
3984.554695 0.026094016 -0.080889538 0.015821345 0.052421492 -0.025100315 -0.019459587 0.998119891
3984.591558 0.034165520 -0.083402090 0.015936891 0.055351272 -0.029283093 -0.018971432 0.997857094
3984.628422 0.046482146 -0.086663239 0.015338134 0.057126716 -0.035422888 -0.018201211 0.997572303
3984.665285 0.056078605 -0.089466155 0.015229635 0.058646750 -0.038576785 -0.017087471 0.997386754
3984.702148 0.068236694 -0.093082957 0.013760569 0.058827989 -0.043515924 -0.016977230 0.997174680
3984.739012 0.081210054 -0.096113019 0.013069081 0.058769062 -0.049261395 -0.018267741 0.996888041
3984.775875 0.094383761 -0.098863058 0.012247296 0.058719523 -0.054538909 -0.018467436 0.996612489
3984.812738 0.106756672 -0.101182453 0.010854627 0.060067177 -0.058779027 -0.018410521 0.996292114
3984.849602 0.120063782 -0.104215637 0.008351149 0.060872991 -0.063546695 -0.019731063 0.995925188
3984.886465 0.133493021 -0.106344707 0.006941450 0.063160323 -0.068752259 -0.020423371 0.995422900
3984.923328 0.146202222 -0.108317710 0.005591946 0.063816927 -0.072924279 -0.019760892 0.995097458
3984.960192 0.158825547 -0.111457162 0.003485588 0.060347058 -0.076506488 -0.020149114 0.995037198
3984.997055 0.170850232 -0.113775015 0.002527976 0.054714929 -0.080154501 -0.022205163 0.995031893
3985.033918 0.181853846 -0.116707876 0.000864247 0.050192796 -0.083542235 -0.024343371 0.994941592
3985.070781 0.192400336 -0.118280925 0.001515074 0.048095368 -0.087690204 -0.025823964 0.994650900
3985.107645 0.201737180 -0.119926773 0.002717810 0.045480382 -0.090874240 -0.027310312 0.994448364
3985.144508 0.212095916 -0.123513177 0.003628615 0.040981144 -0.092993274 -0.030010708 0.994370222
3985.181372 0.220597476 -0.127155438 0.005940443 0.035895232 -0.092187770 -0.031456072 0.994597137
3985.218235 0.228096709 -0.130613104 0.008659165 0.031937290 -0.089702629 -0.030448843 0.994990587
3985.255099 0.233783916 -0.133721516 0.013386114 0.029022777 -0.086733460 -0.028529134 0.995399952
3985.291962 0.239520967 -0.137972102 0.015942406 0.026181731 -0.084805012 -0.026752843 0.995694160
3985.328825 0.243327647 -0.142707139 0.020433735 0.024834398 -0.083628982 -0.025386579 0.995863914
3985.365688 0.248920634 -0.147220746 0.026545882 0.024407268 -0.085649379 -0.022979790 0.995761216
3985.402552 0.252314001 -0.151018038 0.031820368 0.023703139 -0.086638950 -0.020976495 0.995736837
3985.439415 0.255214870 -0.155910313 0.037077181 0.021024022 -0.088196844 -0.019747026 0.995685399
3985.476278 0.258833259 -0.160423368 0.043434069 0.016764149 -0.090477705 -0.018285673 0.995589435
3985.513142 0.261171341 -0.163494498 0.049517047 0.012754782 -0.091855437 -0.015863817 0.995564282
3985.550005 0.262508750 -0.166142538 0.055451900 0.009554609 -0.093124352 -0.013133719 0.995522022
3985.586869 0.264265507 -0.168312386 0.062350467 0.007907787 -0.095015362 -0.010428891 0.995389760
3985.623732 0.266763121 -0.171583712 0.068012029 0.007107224 -0.097176738 -0.007194418 0.995215774
3985.660595 0.268260717 -0.173962846 0.074207723 0.008258883 -0.097775102 -0.003972676 0.995166361
3985.697459 0.271820456 -0.176738277 0.079937592 0.009264472 -0.099270575 -0.000975931 0.995016873
3985.734322 0.274616569 -0.179619908 0.085601121 0.010736586 -0.099907398 0.000075407 0.994938791
3985.771185 0.277921468 -0.182385430 0.089708984 0.011348679 -0.100182422 0.000329624 0.994904280
3985.808049 0.281397581 -0.184244558 0.093715519 0.011888830 -0.099994041 0.001719167 0.994915485
3985.844912 0.284672499 -0.186153188 0.097365871 0.012945578 -0.099555582 0.003356832 0.994942129
3985.881775 0.288494438 -0.187768668 0.099844396 0.013885386 -0.099968798 0.005446672 0.994878769
3985.918638 0.293218672 -0.189492106 0.101623781 0.015389564 -0.101177305 0.007459436 0.994721413
3985.955502 0.297925025 -0.189777657 0.103351258 0.016230673 -0.102170728 0.009143424 0.994592428
3985.992365 0.303321928 -0.190261811 0.104729414 0.015198807 -0.104120187 0.010178846 0.994396508
3986.029229 0.309851944 -0.190346569 0.106111385 0.014705978 -0.107074611 0.010150702 0.994090378
3986.066092 0.316829771 -0.189866975 0.106811300 0.014347737 -0.109414391 0.010427214 0.993837953
3986.102955 0.325941175 -0.187664554 0.107681312 0.017708005 -0.111904718 0.010245793 0.993508339
3986.139819 0.334212273 -0.187254831 0.107788220 0.020724779 -0.111828730 0.011817903 0.993441105
3986.176682 0.344567984 -0.186148778 0.108070515 0.023333799 -0.111658819 0.013006608 0.993387461
3986.213545 0.356797457 -0.185923144 0.108436450 0.024997391 -0.112596273 0.015481908 0.993205667
3986.250409 0.368486673 -0.183834881 0.110563979 0.027005360 -0.114757352 0.017822761 0.992866457
3986.287272 0.380154341 -0.184044778 0.110027328 0.026405690 -0.117916532 0.018480958 0.992500305
3986.324135 0.391853988 -0.181930423 0.111731470 0.028111592 -0.122648358 0.018574273 0.991878092
3986.360999 0.403979152 -0.183238953 0.113237493 0.028016638 -0.128534243 0.018565865 0.991135359
3986.397862 0.416821122 -0.180011928 0.116734065 0.030046696 -0.135125026 0.018281789 0.990204155
3986.434726 0.430949688 -0.179790780 0.118908271 0.029318532 -0.142435193 0.017081829 0.989222348
3986.471589 0.444691360 -0.182561576 0.121102281 0.026300788 -0.149233297 0.016320527 0.988317430
3986.508452 0.458622366 -0.184050366 0.123746082 0.024717052 -0.155504569 0.016259197 0.987392068
3986.545316 0.471931458 -0.184815541 0.127625406 0.024582867 -0.160976276 0.016308114 0.986517310
3986.582179 0.486174285 -0.185623214 0.131387025 0.025020931 -0.166434333 0.016399568 0.985598624
3986.619042 0.500639379 -0.189220980 0.135148048 0.023761556 -0.171851411 0.015809663 0.984709382
3986.655905 0.516083777 -0.189816236 0.138865352 0.024834054 -0.177827477 0.015699543 0.983622968
3986.692769 0.527443886 -0.192933455 0.142218843 0.025537504 -0.181101143 0.014295211 0.983028948
3986.729632 0.541643322 -0.196372539 0.148697525 0.026693353 -0.186869726 0.012809250 0.981938422
3986.766495 0.553351283 -0.199415311 0.153080374 0.026536830 -0.190351933 0.012293977 0.981280208
3986.803359 0.560569465 -0.200404137 0.159049913 0.028570632 -0.191495359 0.011616292 0.981008828
3986.840222 0.574594438 -0.205717325 0.164699063 0.026055306 -0.197047561 0.011161451 0.979984045
3986.877086 0.583766818 -0.207549229 0.170785666 0.025192523 -0.200072870 0.010705723 0.979398549
3986.913949 0.593196392 -0.210298851 0.177674621 0.023661785 -0.204288721 0.010378243 0.978569627
3986.950812 0.603876412 -0.211949289 0.185310155 0.023154670 -0.209562898 0.009947426 0.977470338
3986.987676 0.612542331 -0.211433381 0.193041310 0.023577707 -0.212747097 0.010316048 0.976768315
3987.024539 0.622262836 -0.209571868 0.201721042 0.024469826 -0.215939015 0.011545439 0.976031899
3987.061402 0.630703568 -0.210078135 0.208872616 0.024175625 -0.217253685 0.012607276 0.975734293
3987.098266 0.640345573 -0.209490389 0.216663167 0.024518948 -0.218719244 0.014612589 0.975370288
3987.135129 0.648304999 -0.208868951 0.224445850 0.025321366 -0.218248740 0.016268419 0.975428939
3987.171992 0.659076691 -0.208921790 0.233204007 0.025348835 -0.219489455 0.019119062 0.975098073
3987.208856 0.665730774 -0.213176772 0.238345355 0.021185555 -0.216822475 0.020405525 0.975767791
3987.245719 0.677546024 -0.210430413 0.246630549 0.020038299 -0.219186068 0.021091742 0.975249231
3987.282583 0.683702588 -0.206809297 0.253241837 0.018942252 -0.218171939 0.020973692 0.975501060
3987.319446 0.691883504 -0.201909348 0.261643291 0.019534796 -0.220181823 0.021364732 0.975029171
3987.356309 0.698171973 -0.201185822 0.264212698 0.016136484 -0.219568819 0.021077901 0.975235820
3987.393173 0.704964042 -0.196548030 0.270707101 0.016851058 -0.221093997 0.020513710 0.974891126
3987.430036 0.712771714 -0.192672312 0.277184248 0.016906332 -0.223189026 0.021186082 0.974398255
3987.466899 0.718591630 -0.188633233 0.280537128 0.016862242 -0.223235667 0.023234567 0.974341631
3987.503762 0.723223627 -0.183367729 0.283695549 0.017751668 -0.223034680 0.025110152 0.974325359
3987.540626 0.729383945 -0.179690167 0.286243260 0.017345594 -0.225776777 0.026904451 0.973653018
3987.577489 0.734805644 -0.175670862 0.288435817 0.018429684 -0.229702771 0.027004169 0.972711563
3987.614352 0.741130531 -0.172711015 0.290504307 0.019780567 -0.235544547 0.026379554 0.971304059
3987.651216 0.747272074 -0.170245171 0.291988462 0.020380592 -0.241130307 0.025966920 0.969931185
3987.688079 0.753104746 -0.166927367 0.293523908 0.021710772 -0.245860234 0.024768895 0.968745530
3987.724943 0.759362161 -0.164091289 0.294074923 0.021113474 -0.248945579 0.024047235 0.967988670
3987.761806 0.765763462 -0.160592154 0.293558508 0.022814438 -0.250782847 0.021955809 0.967525423
3987.798669 0.772164106 -0.156859770 0.295587480 0.027256498 -0.252366036 0.019053228 0.967060208
3987.835533 0.779655516 -0.153414771 0.297829092 0.029547507 -0.254147708 0.016645281 0.966570675
3987.872396 0.785227895 -0.148772478 0.299652666 0.030980486 -0.255194753 0.014705146 0.966281295
3987.909259 0.789706588 -0.145624354 0.300294816 0.031295165 -0.257626832 0.010966900 0.965675294
3987.946123 0.793572962 -0.141381562 0.301411390 0.030281736 -0.262060553 0.006981143 0.964550972
3987.982986 0.796646118 -0.135821581 0.303091228 0.027922001 -0.266764343 0.003559944 0.963350654
3988.019849 0.797900736 -0.130350783 0.305000126 0.025095075 -0.270193607 0.002964514 0.962474346
3988.056713 0.798514068 -0.122184597 0.305117726 0.024599377 -0.270907700 0.003259348 0.962285459
3988.093576 0.799415171 -0.115528412 0.305839151 0.025873706 -0.270762086 0.003556107 0.962291956
3988.130440 0.800004661 -0.107969388 0.306590736 0.029455271 -0.269162595 0.006152312 0.962624550
3988.167303 0.799300432 -0.100467503 0.307331860 0.032302722 -0.265828729 0.009473979 0.963432372
3988.204166 0.799716711 -0.092660300 0.307562768 0.033639707 -0.263155252 0.012304577 0.964088321
3988.241030 0.798670709 -0.084569559 0.311729729 0.035561051 -0.261691660 0.013708048 0.964398801
3988.277893 0.797878385 -0.078306578 0.314037055 0.035847656 -0.260219425 0.015077004 0.964766026
3988.314756 0.796303272 -0.073036857 0.316331059 0.033500832 -0.257947624 0.015882926 0.965447247
3988.351619 0.793472469 -0.066067763 0.319526702 0.032828279 -0.254959047 0.018498247 0.966217399
3988.388483 0.790202141 -0.059779268 0.321921110 0.034096885 -0.251330137 0.020108284 0.967091620
3988.425346 0.785904586 -0.052728962 0.327138215 0.037813947 -0.249083087 0.023281978 0.967463553
3988.462209 0.780722320 -0.045510963 0.327251673 0.042870924 -0.244049013 0.024751598 0.968498588
3988.499073 0.776836812 -0.039281640 0.328499079 0.046223614 -0.243422955 0.029480290 0.968369544
