3983.964881 0.0000000 0.0000000 0.0000000 0.0000000 0.0000000 0.0000000 1.0000000
3984.075471 -0.0033549 -0.0233442 -0.0030025 0.0146344 0.0055716 -0.0099220 0.9998282
3984.112335 -0.0050709 -0.0297924 -0.0030566 0.0184443 0.0084332 -0.0129968 0.9997098
3984.186061 -0.0072922 -0.0434851 -0.0032244 0.0287141 0.0122847 -0.0135071 0.9994209
3984.296651 -0.0063982 -0.0576579 0.0013765 0.0401473 0.0080017 -0.0098662 0.9991130
3984.407242 0.0016675 -0.0699185 0.0084312 0.0466141 -0.0063717 -0.0143579 0.9987894
3984.480968 0.0122720 -0.0762722 0.0127478 0.0473244 -0.0160067 -0.0177646 0.9985933
3984.591558 0.0351523 -0.0848882 0.0155872 0.0541131 -0.0301894 -0.0193059 0.9978916
3984.739012 0.0821851 -0.0972819 0.0130176 0.0579376 -0.0498174 -0.0181043 0.9969121
3984.849602 0.1212544 -0.1060739 0.0084751 0.0596181 -0.0644038 -0.0201781 0.9959371
3984.960192 0.1606945 -0.1139123 0.0029626 0.0587945 -0.0772191 -0.0205638 0.9950666
3985.107645 0.2048766 -0.1236047 0.0024726 0.0431011 -0.0925011 -0.0280367 0.9943841
3985.218235 0.2296721 -0.1321245 0.0093918 0.0310863 -0.0903523 -0.0304953 0.9949573
3985.328825 0.2473118 -0.1454947 0.0216710 0.0230696 -0.0862836 -0.0251791 0.9956852
3985.476278 0.2613208 -0.1637579 0.0437922 0.0145802 -0.0915742 -0.0184378 0.9955208
3985.660595 0.2718561 -0.1780465 0.0749126 0.0054455 -0.0997910 -0.0039315 0.9949858
3985.844912 0.2876250 -0.1903384 0.0978091 0.0099700 -0.1011769 0.0031338 0.9948136
3985.992365 0.3076288 -0.1942264 0.1051775 0.0124530 -0.1066995 0.0097939 0.9941651
3986.176682 0.3485509 -0.1917772 0.1088725 0.0193332 -0.1137976 0.0124808 0.9932374
3986.360999 0.4088799 -0.1848965 0.1152020 0.0267490 -0.1314455 0.0182301 0.9907948
3986.582179 0.4939921 -0.1902793 0.1345635 0.0218254 -0.1714445 0.0161955 0.9848188
3986.803359 0.5748709 -0.2050683 0.1674578 0.0253491 -0.2015117 0.0115667 0.9790897
3986.987676 0.6219009 -0.2119862 0.2032043 0.0235099 -0.2203887 0.0100036 0.9750775
3987.208856 0.6748381 -0.2123234 0.2503237 0.0221962 -0.2252734 0.0196219 0.9738451
3987.430036 0.7182711 -0.1924927 0.2893389 0.0177098 -0.2300286 0.0209474 0.9727972
3987.651216 0.7519580 -0.1704046 0.3054358 0.0211515 -0.2480543 0.0257085 0.9681739
3987.909259 0.7933307 -0.1463973 0.3148935 0.0323402 -0.2645477 0.0101082 0.9637772
3988.130440 0.8019015 -0.1084688 0.3222985 0.0321400 -0.2753314 0.0039865 0.9608037
3988.314756 0.7992589 -0.0734129 0.3329316 0.0365828 -0.2650672 0.0142497 0.9634303
3988.351619 0.7971647 -0.0680452 0.3353163 0.0347595 -0.2624033 0.0161420 0.9641969
