ply
format ascii 1.0
comment author: Gordon Liu
element vertex 2668
property double x
property double y
property double z
property uchar red
property uchar green
property uchar blue
end_header
0.0330623 -0.033089 0.474349 255 0 0
0.112787 0.0452616 0.458096 255 0 0
0.0379496 -0.0357221 0.500169 255 0 0
-0.0317648 -0.0282099 0.485528 255 0 0
0.106358 -0.0111208 0.454555 255 0 0
0.10468 -0.0114286 0.452583 255 0 0
-0.0477245 -0.0018673 0.45101 255 0 0
0.107527 -0.0108122 0.448629 255 0 0
0.00349196 -9.78042e-05 0.392394 255 0 0
0.000110811 -0.00750182 0.30154 255 0 0
0.109996 -0.0211614 0.468313 255 0 0
0.116496 -0.0156135 0.473697 255 0 0
0.107741 -0.0210306 0.456939 255 0 0
0.0954431 -0.0229713 0.429878 255 0 0
0.110842 -0.0366459 0.504512 255 0 0
0.108142 -0.0380605 0.489168 255 0 0
-0.000428723 0.00376086 0.421201 255 0 0
0.0414274 0.0135833 0.420394 255 0 0
0.00571601 0.030998 0.534458 255 0 0
0.049076 -0.00712254 0.461114 255 0 0
0.00331759 -0.000642773 0.386522 255 0 0
0.159566 0.0232795 0.577123 255 0 0
0.0133708 -0.00797983 0.395807 255 0 0
0.103504 -0.021945 0.576894 255 0 0
-0.0141121 -0.0131193 0.424849 255 0 0
0.0892722 -0.0276938 0.486609 255 0 0
0.112979 -0.0165116 0.459246 255 0 0
0.101391 -0.0197734 0.461041 255 0 0
0.0654332 -0.0191229 0.507029 255 0 0
0.127761 0.028958 0.448387 255 0 0
0.107692 -0.0112405 0.448877 255 0 0
0.0391646 -0.0112159 0.739128 255 0 0
0.197452 -0.0975581 0.550659 255 0 0
-0.0704961 0.0154787 0.534273 255 0 0
-0.0152144 -0.0103456 0.445266 255 0 0
-0.0207583 -0.00799518 0.4599 255 0 0
0.115913 -0.0127907 0.464817 255 0 0
0.110918 -0.0147259 0.444491 255 0 0
-0.028348 -0.00955566 0.473394 255 0 0
0.0869885 -0.0267478 0.470861 255 0 0
0.0631262 -0.0201755 0.476254 255 0 0
0.105449 -0.0385096 0.480556 255 0 0
0.141226 0.0851767 0.487248 255 0 0
0.135936 0.0818388 0.469163 255 0 0
0.138181 0.0827326 0.475922 255 0 0
0.00787291 -0.0199779 0.502006 255 0 0
0.135164 0.0436078 0.532773 255 0 0
0.151836 0.0153022 0.526182 255 0 0
-0.015582 -0.0235376 0.509235 255 0 0
0.108933 -0.0371053 0.492415 255 0 0
0.162947 -0.107601 0.738936 255 0 0
0.182693 -0.121993 0.616061 255 0 0
0.0665155 -0.16821 0.75694 255 0 0
0.052218 -0.00278804 0.425016 255 0 0
0.117152 0.00424254 0.46365 255 0 0
-0.0161892 0.115376 0.780865 255 0 0
-0.100966 0.12248 0.753161 255 0 0
0.145206 -0.13757 0.677078 255 0 0
0.0521715 -0.148148 0.722384 255 0 0
0.0539907 -0.157333 0.735016 255 0 0
0.0700394 -0.121029 0.712844 255 0 0
0.0569133 -0.160066 0.698599 255 0 0
0.175465 -0.112581 0.571667 255 0 0
0.134033 0.0461222 0.529344 255 0 0
0.114136 0.0402505 0.420273 255 0 0
0.0659807 -0.0807666 0.681397 255 0 0
0.081274 -0.132929 0.725099 255 0 0
0.147717 -0.123639 0.734392 255 0 0
0.0441195 0.00338389 0.43072 255 0 0
0.175326 -0.122458 0.603111 255 0 0
-0.172854 -0.112435 0.715933 255 0 0
0.0450216 -0.00398369 0.43281 255 0 0
0.0303798 -0.165465 0.736215 255 0 0
0.177829 -0.110957 0.579194 255 0 0
0.192194 -0.127858 0.647985 255 0 0
0.134522 0.0463343 0.530409 255 0 0
0.101419 0.091407 0.560968 255 0 0
0.194121 -0.135522 0.619149 255 0 0
0.169464 -0.107598 0.559618 255 0 0
0.054579 -0.151393 0.741963 255 0 0
0.0404282 -0.155321 0.703706 255 0 0
0.149282 -0.125797 0.741191 255 0 0
0.0404326 0.01403 0.411377 255 0 0
0.104539 -0.0368597 0.471749 255 0 0
0.134149 -0.0564313 0.55795 255 0 0
0.0788383 -0.194192 0.894072 255 0 0
-0.107829 0.134866 0.814876 255 0 0
-0.064246 0.121857 0.75662 255 0 0
-0.125942 0.00720919 0.791822 255 0 0
0.135331 0.0447414 0.531502 255 0 0
0.187814 -0.129888 0.610883 255 0 0
-0.102035 0.122632 0.762373 255 0 0
0.0439602 -0.0774503 0.680619 255 0 0
0.0815439 0.120763 0.567707 255 0 0
0.12382 0.0478321 0.457455 255 0 0
0.155655 -0.0995294 0.515348 255 0 0
0.061915 -0.0800549 0.658328 255 0 0
0.0533432 -0.15193 0.742514 255 0 0
0.0520736 -0.159803 0.753652 255 0 0
0.0879694 -0.000418954 0.483566 255 0 0
-0.0162983 0.107741 0.741606 255 0 0
-0.164553 -0.130345 0.731442 255 0 0
-0.00332817 0.0701364 0.634007 255 0 0
-0.093937 0.119612 0.726018 255 0 0
0.145418 -0.13875 0.680939 255 0 0
0.081413 -0.132436 0.723261 255 0 0
0.0793454 -0.204715 0.942049 255 0 0
-0.0794552 0.157436 0.798163 255 0 0
-0.127574 0.0101183 0.73153 255 0 0
-0.188012 0.0702539 0.874634 255 0 0
0.107024 -0.113661 0.722095 255 0 0
0.100943 -0.119231 0.718996 255 0 0
0.039905 -0.0737699 0.640857 255 0 0
0.341622 -0.132699 0.996322 255 0 0
0.103181 0.0932869 0.573111 255 0 0
0.0961331 0.0997505 0.551936 255 0 0
0.00291271 -0.128959 0.70278 255 0 0
-0.176274 -0.108157 0.715791 255 0 0
0.144224 -0.137701 0.673595 255 0 0
0.0216036 -0.0766388 0.680336 255 0 0
0.104318 0.0985298 0.636515 255 0 0
0.128034 -0.0678257 0.584899 255 0 0
-0.173589 -0.114781 0.717719 255 0 0
0.0758148 0.112668 0.532277 255 0 0
-0.0766951 0.0605891 0.621523 255 0 0
-0.142245 0.0170976 0.816878 255 0 0
-0.129572 0.00568657 0.808971 255 0 0
-0.0969117 0.113982 0.725906 255 0 0
0.0926708 -0.0248887 0.49919 255 0 0
0.0721675 -0.121936 0.715329 255 0 0
0.0816292 -0.13249 0.731337 255 0 0
0.0320345 0.107284 0.57041 255 0 0
0.0218974 -0.0766341 0.676026 255 0 0
-0.20673 -0.0599339 1.13605 255 0 0
-0.0768051 0.149772 0.769761 255 0 0
-0.0730232 0.0181484 0.741042 255 0 0
0.084896 0.12533 0.589266 255 0 0
-0.0645232 0.00935957 0.514977 255 0 0
-0.169608 -0.130652 0.727739 255 0 0
-0.0878431 0.119764 0.729271 255 0 0
-0.100022 0.117505 0.751152 255 0 0
0.0939549 -0.024956 0.499991 255 0 0
0.109189 -0.119086 0.754608 255 0 0
0.0724739 -0.122572 0.712679 255 0 0
-0.192648 -0.0853516 0.7231 255 0 0
-0.0708722 -0.0749832 0.736009 255 0 0
-0.0996111 0.117917 0.758633 255 0 0
0.00183322 -0.00219263 0.338992 255 0 0
-0.00404592 0.0649145 0.616929 255 0 0
0.0902463 -0.0246181 0.486979 255 0 0
0.0380753 0.0176472 0.390615 255 0 0
0.0452807 0.000590006 0.43373 255 0 0
0.0744398 0.104834 0.514499 255 0 0
0.130516 0.0771321 0.451042 255 0 0
0.119808 0.0428945 0.445359 255 0 0
0.0773018 0.277573 1.35942 255 0 0
0.101687 -0.115227 0.711862 255 0 0
0.112827 -0.00232004 0.441156 255 0 0
0.0440346 -0.00068483 0.419149 255 0 0
-0.10954 0.132874 0.830141 255 0 0
0.107853 -0.0245945 0.496742 255 0 0
0.127192 -0.0949963 0.652228 255 0 0
0.146847 -0.102721 0.649253 255 0 0
0.143331 0.0850487 0.493542 255 0 0
0.107526 0.0356788 0.399297 255 0 0
-0.0586081 0.00579316 0.461938 255 0 0
0.19869 -0.0206072 0.514527 255 0 0
0.232071 -0.119343 0.541363 255 0 0
0.237997 -0.123474 0.528253 255 0 0
0.120263 0.0450661 0.443661 255 0 0
0.0614557 0.0106028 0.580566 255 0 0
-0.048811 -0.000429155 0.452585 255 0 0
0.0176488 -0.019623 0.456126 255 0 0
-0.00882442 -0.00112772 0.506849 255 0 0
-0.00782211 -0.00596943 0.433814 255 0 0
-0.0157869 -0.0109435 0.434533 255 0 0
0.101872 -0.0219342 0.471621 255 0 0
0.110233 -0.0377845 0.498342 255 0 0
-0.000612062 -0.0184751 0.483057 255 0 0
-0.00195893 -0.0192304 0.483139 255 0 0
0.00105404 -0.0194252 0.487974 255 0 0
0.106056 -0.016856 0.479966 255 0 0
-0.0203015 -0.0166061 0.498715 255 0 0
0.282973 -0.145216 0.525943 255 0 0
0.170264 -0.0426858 0.521605 255 0 0
0.0366387 -0.0305902 0.498485 255 0 0
0.107084 -0.02295 0.478087 255 0 0
-0.0222134 -0.0107433 0.455312 255 0 0
0.000123204 -0.0169118 0.479023 255 0 0
-0.00265092 -0.0254035 0.483744 255 0 0
-0.0526923 -0.00177855 0.416071 255 0 0
-0.0476765 -0.00120129 0.444336 255 0 0
-0.000437446 -0.0188587 0.490904 255 0 0
0.306365 -0.155259 0.544072 255 0 0
0.1737 -0.0475248 0.497526 255 0 0
0.175091 -0.0415102 0.516803 255 0 0
0.171819 -0.0397088 0.530375 255 0 0
0.174022 -0.0432246 0.519163 255 0 0
0.173561 -0.0443114 0.519513 255 0 0
-0.0260051 -0.0298877 0.486689 255 0 0
0.159755 0.0170476 0.551951 255 0 0
0.130901 0.0101156 0.478244 255 0 0
0.117769 0.00569209 0.438974 255 0 0
0.0387007 -0.0416583 0.395153 255 0 0
0.000638861 0.00231171 0.42028 255 0 0
-0.0301131 -0.00708746 0.380665 255 0 0
-0.0309796 -0.00208907 0.444171 255 0 0
-0.0536597 0.0165852 0.594342 255 0 0
0.115122 -0.0140435 0.448206 255 0 0
0.00351772 0.0205684 0.547807 255 0 0
0.112035 -0.0186924 0.463647 255 0 0
0.107607 -0.0146303 0.481563 255 0 0
0.234674 -0.117939 0.511397 255 0 0
0.0595033 -0.0344606 0.489542 255 0 0
0.0174975 -0.0273007 0.504788 255 0 0
0.0190153 -0.0296639 0.500948 255 0 0
0.0250062 -0.0304209 0.492634 255 0 0
0.0249113 -0.0294101 0.507624 255 0 0
0.0392325 -0.0351787 0.506348 255 0 0
0.0419157 -0.0400316 0.490432 255 0 0
0.0446317 0.00387963 0.436428 255 0 0
0.0446655 -0.00498848 0.429799 255 0 0
0.0522776 -0.00453598 0.431117 255 0 0
0.0508205 -0.00148 0.426917 255 0 0
0.0478479 -0.00735741 0.451692 255 0 0
0.0200109 -0.0248588 0.513231 255 0 0
0.0156163 -0.0224648 0.543984 255 0 0
0.246646 -0.0851115 0.494614 255 0 0
0.244643 -0.0854452 0.496188 255 0 0
-0.0599973 0.00653453 0.45532 255 0 0
-0.0508207 0.000793359 0.452339 255 0 0
-0.0102071 -0.0140817 0.479556 255 0 0
-0.00665603 -0.0166367 0.479679 255 0 0
-0.0149192 -0.0195918 0.486899 255 0 0
-0.00367366 -0.0244286 0.428461 255 0 0
0.0418321 -0.0382215 0.504104 255 0 0
0.126151 -0.0211312 0.525913 255 0 0
0.0542676 -0.0360952 0.51634 255 0 0
0.0611751 -0.0461459 0.555042 255 0 0
-0.0374939 -0.025915 0.509131 255 0 0
-0.0374369 -0.026154 0.514595 255 0 0
-0.0391316 -0.0254664 0.511217 255 0 0
0.616947 -0.118262 0.644517 255 0 0
0.612757 -0.117268 0.64831 255 0 0
0.610312 -0.120972 0.653733 255 0 0
0.608168 -0.118689 0.656498 255 0 0
0.607521 -0.126601 0.654658 255 0 0
0.604114 -0.128256 0.65907 255 0 0
0.608074 -0.131649 0.648933 255 0 0
0.493764 -0.0923792 0.609089 255 0 0
0.495286 -0.093323 0.608618 255 0 0
0.492841 -0.0930091 0.614795 255 0 0
0.640073 -0.103729 0.643118 255 0 0
0.63236 -0.10529 0.64975 255 0 0
0.617384 -0.115312 0.644488 255 0 0
0.617165 -0.117764 0.643604 255 0 0
0.632761 -0.100003 0.642804 255 0 0
0.635443 -0.101255 0.650262 255 0 0
0.634401 -0.101187 0.651804 255 0 0
0.680422 -0.081051 0.662934 255 0 0
0.68087 -0.080932 0.664106 255 0 0
0.617747 -0.0879053 0.641725 255 0 0
0.531444 -0.075358 0.582395 255 0 0
0.661962 -0.0726543 0.638461 255 0 0
0.639638 -0.0898365 0.618406 255 0 0
0.661812 -0.0732105 0.63839 255 0 0
0.659439 -0.0724319 0.644307 255 0 0
0.545882 -0.0571157 0.566551 255 0 0
0.658761 -0.0812614 0.621637 255 0 0
0.653656 -0.0787881 0.632518 255 0 0
0.240811 -0.11984 0.530693 255 0 0
0.195171 -0.132158 0.578649 255 0 0
0.131708 0.00561682 0.479255 255 0 0
0.142068 0.0446938 0.550673 255 0 0
0.161118 0.0187086 0.57653 255 0 0
0.152581 0.012951 0.518996 255 0 0
-0.0169365 -0.0125836 0.458767 255 0 0
0.0492722 -0.0342885 0.525596 255 0 0
0.139018 -0.232803 0.601643 255 0 0
0.141936 -0.232383 0.597843 255 0 0
0.406317 -0.0724383 0.654678 255 0 0
0.407665 -0.0748498 0.64885 255 0 0
0.403017 -0.069074 0.680874 255 0 0
0.0612819 -0.282936 0.564512 255 0 0
0.371102 -0.0545761 0.665247 255 0 0
0.371717 -0.0577789 0.664536 255 0 0
0.117834 -0.0285849 0.556548 255 0 0
-0.0283673 -0.00978964 0.470773 255 0 0
-0.0178102 -0.00312723 0.557793 255 0 0
-0.00825485 -0.0169343 0.470857 255 0 0
-0.0130879 -0.0175809 0.481141 255 0 0
0.302231 -0.155215 0.541994 255 0 0
0.024147 -0.0281906 0.506072 255 0 0
0.0310481 -0.0342172 0.500653 255 0 0
0.0292975 -0.0330555 0.507966 255 0 0
0.101353 -0.0164032 0.465482 255 0 0
0.234793 -0.117459 0.51306 255 0 0
0.234077 -0.117488 0.513999 255 0 0
0.23375 -0.117839 0.515768 255 0 0
0.282066 -0.144257 0.523185 255 0 0
0.0193262 -0.036727 0.456923 255 0 0
0.00791608 -0.0220258 0.525686 255 0 0
0.100103 -0.0160702 0.469438 255 0 0
0.253594 -0.127658 0.506446 255 0 0
0.683955 -0.016532 0.577836 255 0 0
0.685092 -0.0177955 0.578832 255 0 0
0.684657 -0.0173706 0.578622 255 0 0
0.684913 -0.0176893 0.57897 255 0 0
0.605165 -0.0711807 0.540747 255 0 0
0.652827 -0.0594404 0.576385 255 0 0
0.652744 -0.0594426 0.576337 255 0 0
0.663346 -0.0648449 0.629657 255 0 0
0.668968 -0.0660642 0.632756 255 0 0
0.673797 -0.0673043 0.635402 255 0 0
0.67696 -0.0663621 0.637519 255 0 0
0.664381 -0.0653281 0.630667 255 0 0
0.67323 -0.068226 0.635692 255 0 0
0.551537 -0.0540506 0.56783 255 0 0
0.672986 -0.0685444 0.635525 255 0 0
0.551419 -0.0548759 0.567922 255 0 0
0.670335 -0.0667181 0.634402 255 0 0
0.668338 -0.0667682 0.63349 255 0 0
0.668612 -0.066761 0.633647 255 0 0
0.670522 -0.0678334 0.635104 255 0 0
0.66671 -0.0679282 0.633615 255 0 0
0.669847 -0.0683025 0.635602 255 0 0
0.670032 -0.068294 0.635708 255 0 0
0.676524 -0.0684401 0.639399 255 0 0
0.551348 -0.0556682 0.569655 255 0 0
0.666529 -0.0688461 0.634125 255 0 0
0.669543 -0.068436 0.635879 255 0 0
0.550894 -0.0563312 0.569571 255 0 0
0.676225 -0.0686356 0.639673 255 0 0
0.652703 -0.0595071 0.57677 255 0 0
0.651194 -0.0638127 0.5813 255 0 0
0.649432 -0.0632033 0.580583 255 0 0
0.650634 -0.0636544 0.581458 255 0 0
0.650191 -0.0638236 0.581421 255 0 0
0.650322 -0.0634814 0.581526 255 0 0
0.650356 -0.0639395 0.581966 255 0 0
0.64988 -0.0634823 0.581735 255 0 0
0.649732 -0.0634861 0.581652 255 0 0
0.646519 -0.071239 0.589989 255 0 0
0.664958 -0.00260105 0.609523 255 0 0
0.673321 -0.0666964 0.623173 255 0 0
0.6716 -0.0658781 0.635339 255 0 0
0.675205 -0.0669568 0.630672 255 0 0
0.666351 -0.0660406 0.6366 255 0 0
0.668318 -0.0681786 0.629128 255 0 0
0.667637 -0.0672322 0.640274 255 0 0
0.666986 -0.0686009 0.632892 255 0 0
0.671434 -0.0728827 0.617717 255 0 0
0.68727 -0.0270653 0.618186 255 0 0
0.556854 -0.0565166 0.555258 255 0 0
0.542702 -0.0534728 0.570312 255 0 0
0.544047 -0.0545102 0.567762 255 0 0
0.541836 -0.0534395 0.570019 255 0 0
0.630982 -0.0850151 0.611927 255 0 0
0.503088 -0.0252664 0.550016 255 0 0
0.614392 -0.136645 0.666206 255 0 0
0.604206 -0.138629 0.667202 255 0 0
0.614865 -0.136927 0.665103 255 0 0
0.605286 -0.139735 0.662738 255 0 0
0.490321 -0.0985495 0.619472 255 0 0
0.653705 -0.0861841 0.641666 255 0 0
0.653553 -0.0863216 0.641322 255 0 0
0.648192 -0.0837205 0.653311 255 0 0
0.651055 -0.0875587 0.648163 255 0 0
0.144233 -0.0585426 0.534301 255 0 0
0.261232 -0.13616 0.481049 255 0 0
0.179817 -0.0871592 0.508421 255 0 0
0.432331 -0.0885497 0.646353 255 0 0
0.436003 -0.0916471 0.630837 255 0 0
0.0799043 -0.0406182 0.501074 255 0 0
0.171732 -0.0503168 0.520003 255 0 0
0.170507 -0.0424967 0.51616 255 0 0
-0.00990382 -0.0219471 0.531366 255 0 0
0.0228475 -0.0282851 0.510935 255 0 0
0.171095 -0.0503854 0.518172 255 0 0
0.220983 -0.104406 0.527447 255 0 0
0.222877 -0.107161 0.513417 255 0 0
0.114182 -0.0116118 0.460856 255 0 0
-0.026503 -0.00481644 0.528408 255 0 0
0.125625 -0.00464975 0.497801 255 0 0
-0.0342519 -0.00115866 0.545261 255 0 0
0.234353 -0.119412 0.513789 255 0 0
0.234089 -0.120115 0.509556 255 0 0
0.229124 -0.128571 0.532345 255 0 0
0.459703 -0.131383 0.694303 255 0 0
0.572169 -0.156341 0.717477 255 0 0
0.636877 -0.0965729 0.642693 255 0 0
0.636524 -0.10034 0.651051 255 0 0
0.636794 -0.101437 0.646775 255 0 0
0.58454 -0.156216 0.687137 255 0 0
0.597614 -0.15746 0.698312 255 0 0
0.592512 -0.155918 0.713511 255 0 0
0.580168 -0.155741 0.699847 255 0 0
0.581647 -0.157121 0.694339 255 0 0
0.599022 -0.158644 0.698757 255 0 0
0.532388 -0.142819 0.66366 255 0 0
0.111169 -0.0243435 0.470765 255 0 0
0.103432 -0.020022 0.479343 255 0 0
0.239 -0.144864 0.616984 255 0 0
0.232805 -0.11937 0.517674 255 0 0
0.140214 -0.232754 0.599613 255 0 0
0.173242 -0.0505173 0.552311 255 0 0
0.654985 -0.0802882 0.630994 255 0 0
0.652317 -0.0789453 0.640133 255 0 0
0.656362 -0.0920169 0.645229 255 0 0
0.656982 -0.0928594 0.641756 255 0 0
0.651633 -0.0881379 0.646571 255 0 0
0.643405 -0.0936504 0.641776 255 0 0
0.194227 -0.00682283 0.57166 255 0 0
0.189094 0.0107657 0.648027 255 0 0
0.597318 -0.158439 0.706424 255 0 0
0.579432 -0.156193 0.700099 255 0 0
0.579467 -0.157799 0.698073 255 0 0
0.586537 -0.15843 0.699691 255 0 0
0.302759 -0.101518 0.447396 255 0 0
0.474876 -0.135212 0.662148 255 0 0
0.689146 -0.0602167 0.63439 255 0 0
0.688488 -0.060343 0.634696 255 0 0
0.688468 -0.0598038 0.634963 255 0 0
0.622694 -0.0626014 0.59727 255 0 0
0.622577 -0.0629488 0.597634 255 0 0
0.691801 -0.057032 0.637569 255 0 0
0.669172 -0.0592234 0.624697 255 0 0
0.623115 -0.0634438 0.598358 255 0 0
0.669898 -0.059718 0.62576 255 0 0
0.680039 -0.0578445 0.631708 255 0 0
0.679787 -0.0579504 0.631786 255 0 0
0.679399 -0.0588389 0.632179 255 0 0
0.684469 -0.0617702 0.635971 255 0 0
0.678451 -0.0596891 0.632949 255 0 0
0.667306 -0.0613113 0.626914 255 0 0
0.685038 -0.0634355 0.638229 255 0 0
0.684405 -0.0635339 0.638321 255 0 0
0.684389 -0.0635215 0.639005 255 0 0
0.683777 -0.0640589 0.638609 255 0 0
0.683636 -0.0639688 0.638537 255 0 0
0.665672 -0.0639153 0.628756 255 0 0
0.66832 -0.0652417 0.631765 255 0 0
0.675871 -0.0694192 0.63594 255 0 0
0.487227 -0.0136864 0.564732 255 0 0
0.511437 -0.0213648 0.54553 255 0 0
0.669028 -0.0729207 0.641303 255 0 0
0.662604 -0.0728386 0.638082 255 0 0
0.660938 -0.0723497 0.637098 255 0 0
0.506216 -0.0237261 0.546634 255 0 0
0.506217 -0.0237493 0.546633 255 0 0
0.506301 -0.0238722 0.546911 255 0 0
0.625416 -0.078016 0.616354 255 0 0
0.581076 -0.1362 0.665366 255 0 0
0.654234 -0.0623025 0.66014 255 0 0
0.648868 -0.0646224 0.674425 255 0 0
0.553188 -0.156648 0.707392 255 0 0
0.540721 -0.156634 0.71654 255 0 0
0.506211 -0.14719 0.694342 255 0 0
0.506087 -0.1479 0.690748 255 0 0
0.458317 -0.0859799 0.610156 255 0 0
0.474352 -0.106584 0.623052 255 0 0
0.634299 -0.0948082 0.641124 255 0 0
0.665359 -0.00401019 0.610087 255 0 0
0.673116 -0.0505846 0.614085 255 0 0
0.671821 -0.0532323 0.616576 255 0 0
0.671465 -0.0536641 0.616566 255 0 0
0.671489 -0.0535421 0.61659 255 0 0
0.666733 -0.030587 0.615897 255 0 0
0.672097 -0.0536956 0.618308 255 0 0
0.674745 -0.0504265 0.620796 255 0 0
0.616272 -0.0667738 0.587269 255 0 0
0.616078 -0.0668069 0.587617 255 0 0
0.672967 -0.0540208 0.622007 255 0 0
0.673004 -0.0546719 0.623125 255 0 0
0.615205 -0.0693358 0.588976 255 0 0
0.615336 -0.0693992 0.589506 255 0 0
0.690553 -0.0580976 0.635148 255 0 0
0.672346 -0.0573448 0.624824 255 0 0
0.690812 -0.0581817 0.635289 255 0 0
0.635776 -0.10144 0.652254 255 0 0
0.621276 -0.121827 0.629416 255 0 0
0.618742 -0.119506 0.640168 255 0 0
0.591369 -0.139693 0.634604 255 0 0
0.538434 -0.137113 0.672729 255 0 0
0.522824 -0.132684 0.651855 255 0 0
0.507765 -0.130519 0.643962 255 0 0
0.497803 -0.127877 0.661501 255 0 0
0.506061 -0.13171 0.685977 255 0 0
0.626622 -0.0947843 0.628733 255 0 0
0.654783 -0.0941014 0.632926 255 0 0
0.684684 -0.0168161 0.577765 255 0 0
0.665977 -0.0691891 0.634242 255 0 0
0.550647 -0.0571121 0.569823 255 0 0
0.66587 -0.0697791 0.634592 255 0 0
0.665929 -0.0694092 0.634657 255 0 0
0.550996 -0.0566631 0.57075 255 0 0
0.611002 -0.0873841 0.603013 255 0 0
0.685747 -0.029952 0.617988 255 0 0
0.692641 -0.0384553 0.607934 255 0 0
0.689659 -0.0370463 0.61594 255 0 0
0.689538 -0.0371351 0.616695 255 0 0
0.643002 -0.0782305 0.59845 255 0 0
0.575299 -0.0265814 0.531249 255 0 0
0.55688 -0.0209292 0.549201 255 0 0
0.575822 -0.027263 0.530692 255 0 0
0.685722 -0.0163323 0.577247 255 0 0
0.651609 -0.0883226 0.646412 255 0 0
0.65145 -0.0924565 0.647642 255 0 0
0.669409 -0.0625204 0.630544 255 0 0
0.617471 -0.0767749 0.5894 255 0 0
0.612895 -0.0759376 0.596854 255 0 0
0.680156 -0.0681814 0.618272 255 0 0
0.674433 -0.0663438 0.635692 255 0 0
0.652148 -0.0827843 0.537619 255 0 0
0.670903 -0.0661537 0.622712 255 0 0
0.668235 -0.066649 0.62948 255 0 0
0.674998 -0.068539 0.638931 255 0 0
0.665693 -0.0682566 0.635371 255 0 0
0.625647 -0.0743862 0.611354 255 0 0
0.540481 -0.0556828 0.571144 255 0 0
0.208784 -0.132511 0.588019 255 0 0
0.178157 0.0737931 0.472275 255 0 0
0.163823 -0.026219 0.499367 255 0 0
0.155373 -0.09739 0.613983 255 0 0
0.0294366 -0.0350261 0.498693 255 0 0
0.260309 -0.0847764 0.758025 255 0 0
0.0953322 -0.0168062 0.463835 255 0 0
0.0974446 -0.0736961 0.626895 255 0 0
-0.0908361 0.0554486 0.673707 255 0 0
0.155684 0.0814877 0.480806 255 0 0
0.113508 -0.177157 0.767756 255 0 0
0.235338 0.0655977 0.489984 255 0 0
0.163363 -0.101435 0.645782 255 0 0
-0.0225138 0.105309 0.738599 255 0 0
0.156032 -0.098839 0.701602 255 0 0
0.154598 -0.0923692 0.595115 255 0 0
-0.10648 -0.0136081 0.823316 255 0 0
0.206419 -0.131627 0.5803 255 0 0
0.185891 0.0735498 0.5696 255 0 0
0.190494 0.0237207 0.473357 255 0 0
0.135112 0.0411369 0.513619 255 0 0
0.149933 0.0111743 0.505416 255 0 0
0.0601881 -0.0216121 0.452233 255 0 0
0.057347 -0.0346173 0.527872 255 0 0
0.0886355 -0.0186007 0.578315 255 0 0
0.211196 0.0569043 0.518758 255 0 0
0.102036 -0.0481339 0.513482 255 0 0
0.0634852 -0.0839158 0.644483 255 0 0
0.165881 0.0591017 0.495767 255 0 0
0.184061 0.0722448 0.564615 255 0 0
0.0910949 -0.0568525 0.568534 255 0 0
0.138861 -0.046393 0.575125 255 0 0
0.115151 0.00452043 0.429724 255 0 0
0.151541 0.0119686 0.511649 255 0 0
0.096357 -0.0160863 0.470065 255 0 0
0.185013 0.0684636 0.572381 255 0 0
0.0903081 -0.0521985 0.512425 255 0 0
0.108149 -0.0586993 0.589551 255 0 0
-0.117643 0.0908731 0.761183 255 0 0
0.161249 -0.093916 0.621879 255 0 0
0.0917715 0.0963422 0.534541 255 0 0
0.0966847 -0.0712468 0.628474 255 0 0
0.159458 0.0656399 0.489592 255 0 0
0.0988732 -0.015562 0.484136 255 0 0
0.0596276 -0.0221855 0.454381 255 0 0
0.155215 -0.0965718 0.621141 255 0 0
0.117873 0.00488981 0.441556 255 0 0
0.0955341 -0.0718505 0.628642 255 0 0
-0.0373946 -0.026973 0.510024 255 0 0
-0.164098 -0.134136 0.727729 255 0 0
0.0849076 -0.0330736 0.502881 255 0 0
0.0619795 -0.021621 0.474629 255 0 0
-0.109492 0.0820405 0.727771 255 0 0
0.143879 -0.090386 0.584677 255 0 0
0.0145628 -0.0177437 0.45532 255 0 0
0.0813536 -0.0316557 0.47998 255 0 0
0.0727718 -0.0688911 0.626604 255 0 0
0.159031 0.00139779 0.509985 255 0 0
0.10175 -0.00345739 0.553697 255 0 0
0.146946 -0.0671142 0.67571 255 0 0
0.0781942 -0.0390812 0.588555 255 0 0
0.103124 -0.0128712 0.500131 255 0 0
-0.00345254 0.0804465 0.69962 255 0 0
0.128318 0.0504626 0.781132 255 0 0
-0.00540987 0.010005 0.40078 255 0 0
0.204005 0.0613259 0.572356 255 0 0
0.0206625 -0.077396 0.662051 255 0 0
-0.0347184 -0.00224279 0.436984 255 0 0
-0.102082 -0.0203639 0.840096 255 0 0
0.347851 -0.0604383 0.704142 255 0 0
0.0528746 -0.0334433 0.493108 255 0 0
0.121999 -0.0956286 0.690666 255 0 0
0.101312 -0.0954868 0.716428 255 0 0
0.0333192 -0.0775869 0.635503 255 0 0
0.223268 0.0608011 0.618351 255 0 0
0.124899 -0.0667489 0.566358 255 0 0
0.0786834 -0.0409028 0.512611 255 0 0
0.0475843 -0.0344245 0.497199 255 0 0
0.0427771 0.147962 0.74425 255 0 0
0.107227 -0.0503044 0.534398 255 0 0
0.0232802 -0.0774583 0.674452 255 0 0
0.119381 -0.0964895 0.689539 255 0 0
0.17871 -0.0840904 0.531258 255 0 0
-0.0225525 -0.022451 0.512456 255 0 0
0.158077 0.00272342 0.508546 255 0 0
0.105923 -0.0514172 0.521325 255 0 0
0.198472 -0.13417 0.64445 255 0 0
-0.0472488 0.000199577 0.450766 255 0 0
-0.126988 0.126105 0.737542 255 0 0
0.137696 -0.0632887 0.564086 255 0 0
0.121627 -0.200891 0.69424 255 0 0
0.186266 -0.204508 0.786557 255 0 0
0.150723 0.112566 0.837992 255 0 0
0.00759183 -0.177988 0.696422 255 0 0
0.211973 -0.218085 0.810842 255 0 0
0.0958536 0.0749419 0.627007 255 0 0
0.0418212 -0.176 0.701527 255 0 0
0.139118 -0.17301 0.839275 255 0 0
-0.175282 -0.108564 0.715551 255 0 0
0.301809 -0.220764 0.821527 255 0 0
0.307014 -0.224737 0.819396 255 0 0
-0.0574096 0.00442265 0.457524 255 0 0
0.146415 -0.138372 0.674582 255 0 0
0.179557 -0.110061 0.585478 255 0 0
0.199333 -0.224044 0.769798 255 0 0
-0.107233 -0.191219 0.86468 255 0 0
0.082916 -0.151657 0.624331 255 0 0
0.18239 -0.0838424 0.532124 255 0 0
0.000985137 -0.0332401 0.525695 255 0 0
-0.0579415 0.0050343 0.44816 255 0 0
0.00891447 -0.184365 0.693381 255 0 0
0.213232 -0.223911 0.788803 255 0 0
-0.0902982 0.0787933 0.662443 255 0 0
0.0923527 -0.190542 0.704513 255 0 0
-0.058438 0.00528915 0.456653 255 0 0
-0.0909168 0.104582 0.675243 255 0 0
0.0977929 -0.0725118 0.633068 255 0 0
0.0075714 -0.178544 0.695061 255 0 0
0.145557 0.00886149 0.47446 255 0 0
0.111115 -0.064782 0.584188 255 0 0
0.0411943 -0.173277 0.691059 255 0 0
0.309843 -0.217491 0.831622 255 0 0
-0.121614 0.119593 0.712838 255 0 0
-0.0639792 0.12203 0.76129 255 0 0
-0.0912381 0.0807179 0.675402 255 0 0
0.138143 -0.152368 0.675707 255 0 0
0.016587 -0.17647 0.691185 255 0 0
0.310092 -0.216556 0.839898 255 0 0
0.241889 -0.0623205 0.968246 255 0 0
0.135951 -0.151278 0.665398 255 0 0
0.121074 0.0792264 0.622775 255 0 0
0.191139 -0.177329 0.67443 255 0 0
0.207744 -0.189779 0.734933 255 0 0
0.150983 -0.0945206 0.563905 255 0 0
0.161101 -0.172129 0.791065 255 0 0
0.0964084 -0.0715617 0.630719 255 0 0
-0.0664416 0.0583594 0.607733 255 0 0
0.153871 -0.191983 0.921429 255 0 0
0.041953 -0.177713 0.719911 255 0 0
0.221558 -0.153262 0.586215 255 0 0
0.00833182 -0.182291 0.713416 255 0 0
0.215934 -0.151874 0.572496 255 0 0
0.30239 -0.209342 0.822107 255 0 0
0.0602891 -0.189983 0.808927 255 0 0
0.0795948 -0.131846 0.722996 255 0 0
0.157472 -0.105449 0.535249 255 0 0
0.0851817 0.0911197 0.49342 255 0 0
0.141719 -0.136558 0.667438 255 0 0
0.0421748 0.0186654 0.40611 255 0 0
-0.0556317 0.00268629 0.444599 255 0 0
0.0811679 -0.0557477 0.553335 255 0 0
0.108899 -0.059031 0.603345 255 0 0
0.0413597 -0.173297 0.700381 255 0 0
0.194868 -0.145977 0.558328 255 0 0
0.0766587 -0.0401806 0.508624 255 0 0
0.125922 0.00188436 0.459322 255 0 0
0.351518 -0.268929 0.958898 255 0 0
0.314228 -0.230203 0.81844 255 0 0
0.322878 -0.2298 0.817379 255 0 0
0.098371 -0.0919837 0.700352 255 0 0
0.0930019 -0.0901395 0.709225 255 0 0
-0.105617 -0.0459291 0.695549 255 0 0
0.18886 -0.17842 0.670662 255 0 0
0.0493072 -0.192006 0.670073 255 0 0
0.275506 -0.137927 0.561212 255 0 0
0.0416894 -0.175442 0.700922 255 0 0
0.0776648 -0.0468393 0.537071 255 0 0
0.301057 -0.056715 0.751173 255 0 0
0.149075 0.00843422 0.499516 255 0 0
0.00880905 -0.184627 0.691203 255 0 0
0.0543774 -0.0345207 0.526453 255 0 0
0.136121 -0.0557805 0.555786 255 0 0
0.152208 -0.0967468 0.634554 255 0 0
0.228366 -0.0672577 0.680063 255 0 0
0.209246 -0.210599 0.792399 255 0 0
0.0645792 -0.0233139 0.478914 255 0 0
0.192533 -0.17643 0.664071 255 0 0
0.217226 -0.150841 0.59317 255 0 0
0.298952 -0.0742363 0.833505 255 0 0
0.310945 -0.218482 0.819142 255 0 0
0.0868888 -0.18378 0.667541 255 0 0
0.136897 -0.0522453 0.550084 255 0 0
0.0631411 -0.0827907 0.648028 255 0 0
0.166118 0.0017352 0.535804 255 0 0
0.0861002 -0.0574914 0.551139 255 0 0
-0.00352319 -0.197212 1.10346 255 0 0
0.163256 -0.17109 0.795638 255 0 0
0.0389691 -0.168348 0.686759 255 0 0
0.213247 -0.223051 0.786125 255 0 0
0.207375 -0.215359 0.789417 255 0 0
0.097484 -0.0503055 0.539421 255 0 0
0.303099 -0.25241 0.82107 255 0 0
0.080852 -0.0424961 0.533499 255 0 0
0.189046 0.0718703 0.586131 255 0 0
0.0057572 -0.104498 0.700326 255 0 0
0.123699 0.00671527 0.487472 255 0 0
0.305038 -0.214628 0.821439 255 0 0
0.0208077 -0.0763017 0.681705 255 0 0
0.192579 -0.109326 0.535691 255 0 0
-0.00758237 -0.0258168 0.502649 255 0 0
0.046676 -0.160231 0.740582 255 0 0
0.162429 -0.0988407 0.692927 255 0 0
0.0967608 -0.232415 0.749547 255 0 0
-0.0391578 -0.202082 0.615323 255 0 0
-0.0482953 -0.214164 0.663243 255 0 0
0.0653751 -0.192691 0.603091 255 0 0
0.0825137 -0.20887 0.634005 255 0 0
0.0886666 -0.225363 0.688381 255 0 0
0.108046 -0.11229 0.680454 255 0 0
0.158305 -0.105496 0.609407 255 0 0
0.0943703 -0.230634 0.722973 255 0 0
0.220262 -0.112276 0.596018 255 0 0
0.353017 -0.0654951 0.834395 255 0 0
0.135682 -0.171824 0.818842 255 0 0
0.123089 -0.198953 0.697944 255 0 0
0.172627 -0.121772 0.593748 255 0 0
0.339892 -0.260875 0.840813 255 0 0
-0.0241065 -0.0849528 0.75932 255 0 0
0.17189 -0.104936 0.671813 255 0 0
0.0794196 -0.205012 0.611689 255 0 0
0.191589 -0.134106 0.613081 255 0 0
0.0985699 -0.239125 0.755121 255 0 0
0.0319292 -0.0550851 0.632773 255 0 0
0.15738 0.0138338 0.528355 255 0 0
0.0202464 -0.0197764 0.465217 255 0 0
0.303506 -0.287866 0.825403 255 0 0
0.231569 -0.137385 0.539661 255 0 0
-0.0386239 -0.0251234 0.510093 255 0 0
0.376979 -0.307986 1.00895 255 0 0
0.197757 -0.0943673 0.532152 255 0 0
0.189794 -0.0981314 0.519814 255 0 0
0.0857486 -0.0576169 0.551515 255 0 0
0.0908503 -0.179948 0.659693 255 0 0
0.313424 -0.270963 0.806858 255 0 0
0.0197095 -0.0197202 0.462189 255 0 0
-0.0386247 -0.0253206 0.510586 255 0 0
0.0583887 -0.0362669 0.532234 255 0 0
0.372497 -0.253026 0.856178 255 0 0
0.201683 -0.287475 0.806728 255 0 0
0.286009 -0.15133 0.551004 255 0 0
0.28442 -0.150425 0.543822 255 0 0
0.255205 -0.332982 0.812424 255 0 0
0.197705 -0.0976258 0.556291 255 0 0
0.425933 -0.373869 0.919382 255 0 0
0.219239 -0.31495 0.80411 255 0 0
0.179603 -0.298248 0.801244 255 0 0
0.255032 -0.125565 0.515087 255 0 0
0.201522 -0.28521 0.802628 255 0 0
0.301899 -0.312378 0.831919 255 0 0
0.0646791 -0.0473572 0.529769 255 0 0
0.191554 -0.135188 0.609816 255 0 0
0.0585326 -0.0409766 0.481197 255 0 0
-0.115746 -0.241943 0.606734 255 0 0
0.135264 -0.085176 0.696813 255 0 0
-0.17007 -0.256231 0.631657 255 0 0
0.155698 -0.287161 0.771995 255 0 0
0.0832557 -0.0491901 0.548577 255 0 0
-0.0097484 -0.0314314 0.523487 255 0 0
-0.0819622 -0.0117592 0.809286 255 0 0
0.0575409 -0.153146 0.733503 255 0 0
0.11697 -0.0670151 0.610419 255 0 0
0.0748757 -0.0794851 0.68844 255 0 0
0.0869517 -0.18414 0.668925 255 0 0
0.0925615 -0.193623 0.681811 255 0 0
0.100276 -0.101144 0.771842 255 0 0
0.130448 -0.261072 0.791199 255 0 0
0.196514 -0.14561 0.626522 255 0 0
0.195347 -0.298905 0.799571 255 0 0
0.177945 -0.00947014 0.449652 255 0 0
-0.0371303 0.00564198 0.479144 255 0 0
-0.104894 -0.229045 0.620733 255 0 0
0.0512158 -0.194197 0.67935 255 0 0
0.0410803 -0.192358 0.669411 255 0 0
0.0575305 -0.167065 0.726313 255 0 0
0.154809 -0.273433 0.716236 255 0 0
0.0793038 -0.0706609 0.63662 255 0 0
0.116363 -0.0667881 0.604222 255 0 0
-0.0392459 -0.20008 0.606422 255 0 0
0.061197 -0.0402433 0.500387 255 0 0
0.123805 -0.0800734 0.637727 255 0 0
0.326385 -0.304611 0.828648 255 0 0
0.0154611 -0.176087 0.699654 255 0 0
0.0818865 -0.0787647 0.684736 255 0 0
0.0112233 -0.191844 0.676871 255 0 0
0.223344 -0.334262 0.805192 255 0 0
0.065623 -0.0588354 0.569472 255 0 0
0.00913945 -0.0256911 0.490169 255 0 0
0.149395 -0.294265 0.791552 255 0 0
0.0888409 -0.0485935 0.541882 255 0 0
0.0787779 -0.0432872 0.518652 255 0 0
0.227612 -0.291779 0.81668 255 0 0
0.196027 -0.2994 0.799556 255 0 0
0.0614447 -0.0844988 0.641038 255 0 0
-0.0579374 -0.0370024 0.789332 255 0 0
0.30203 -0.3128 0.832335 255 0 0
0.267308 -0.277895 0.830253 255 0 0
0.0227422 -0.310164 0.792531 255 0 0
-0.0155432 -0.0133554 0.4553 255 0 0
0.367559 -0.244404 0.847863 255 0 0
0.197364 -0.138962 0.593783 255 0 0
0.198967 -0.18315 0.730056 255 0 0
0.171939 -0.240243 0.771565 255 0 0
0.174215 -0.112424 0.58821 255 0 0
-0.0362497 -0.229022 0.625975 255 0 0
0.371399 -0.359509 0.916162 255 0 0
-0.104706 -0.218462 0.656946 255 0 0
0.183569 -0.318381 0.80698 255 0 0
-0.174363 -0.173027 0.710847 255 0 0
-0.0145146 -0.0114245 0.472332 255 0 0
0.0331191 -0.218176 0.604237 255 0 0
0.0106052 -0.191966 0.678089 255 0 0
-0.0807991 -0.187476 0.664759 255 0 0
0.426528 -0.374702 0.920544 255 0 0
0.0148308 -0.177196 0.704278 255 0 0
0.059112 -0.164223 0.714875 255 0 0
0.17566 -0.1106 0.598592 255 0 0
0.0941694 -0.0520353 0.543799 255 0 0
0.0853808 -0.0539163 0.559376 255 0 0
0.265944 -0.136634 0.535042 255 0 0
0.0245724 -0.203714 0.650603 255 0 0
0.19128 -0.179407 0.679596 255 0 0
0.117819 -0.068016 0.610781 255 0 0
0.126979 -0.0690766 0.571581 255 0 0
0.121256 0.0790096 0.703609 255 0 0
0.193586 -0.17648 0.667063 255 0 0
-0.0861213 0.0635515 0.621811 255 0 0
0.139538 -0.152399 0.678268 255 0 0
0.198699 -0.146686 0.626103 255 0 0
0.0839204 -0.0542879 0.557252 255 0 0
0.0810178 -0.131432 0.722017 255 0 0
0.41196 -0.0570253 0.869291 255 0 0
0.211743 -0.128621 0.566938 255 0 0
0.112842 -0.0800968 0.668937 255 0 0
0.38388 -0.104295 0.802247 255 0 0
-0.0686447 0.0617347 0.627161 255 0 0
0.236274 -0.105095 0.503551 255 0 0
0.139918 0.0630409 0.512786 255 0 0
-0.146985 0.0216974 0.862844 255 0 0
0.14619 -0.0992943 0.653696 255 0 0
0.106217 -0.0969824 0.739759 255 0 0
0.064216 -0.0329888 0.485567 255 0 0
0.19042 -0.0979435 0.520352 255 0 0
0.164998 -0.109216 0.632784 255 0 0
-0.00730584 -0.00400237 0.499855 255 0 0
0.0777659 -0.04801 0.534635 255 0 0
0.135919 -0.174082 0.827432 255 0 0
0.212876 -0.129519 0.56926 255 0 0
0.224473 -0.115508 0.606045 255 0 0
0.136782 -0.0941305 0.689438 255 0 0
0.174417 -0.0165007 0.447093 255 0 0
-0.190039 -0.0547628 1.04634 255 0 0
0.136759 0.0101493 0.495834 255 0 0
-0.0258443 -0.0103774 0.469409 255 0 0
0.227511 -0.288086 0.814079 255 0 0
0.146183 0.00639712 0.487284 255 0 0
0.208253 -0.249967 0.777119 255 0 0
0.0608239 -0.0348796 0.494714 255 0 0
0.0754384 -0.0413986 0.513783 255 0 0
0.00721577 -0.177891 0.694895 255 0 0
0.0725325 -0.0367188 0.519103 255 0 0
0.0807335 -0.041631 0.560398 255 0 0
0.143972 -0.0929551 0.587548 255 0 0
0.0543554 -0.0618933 0.551882 255 0 0
0.0620976 -0.0797248 0.666184 255 0 0
0.05719 -0.033155 0.491957 255 0 0
0.220468 -0.15516 0.606211 255 0 0
0.2537 -0.0824125 0.748484 255 0 0
0.0741041 -0.0700122 0.630581 255 0 0
0.122881 -0.0665687 0.562326 255 0 0
-0.00661967 0.00741412 0.372492 255 0 0
-0.0737661 0.0237681 0.605501 255 0 0
0.204148 -0.110959 0.550552 255 0 0
0.055949 -0.0329442 0.491294 255 0 0
0.183313 -0.204288 0.767883 255 0 0
-0.0355379 -0.0275501 0.511201 255 0 0
-0.00475503 0.00949788 0.415859 255 0 0
0.14215 -0.137366 0.669991 255 0 0
0.195038 -0.129032 0.564204 255 0 0
-0.00894777 -0.0267849 0.486022 255 0 0
0.203403 -0.00621307 0.510769 255 0 0
0.105069 0.0984098 0.63619 255 0 0
0.0896009 -0.0586526 0.57332 255 0 0
0.160369 -0.0983579 0.60715 255 0 0
0.0639535 -0.0318084 0.478839 255 0 0
0.246969 0.0632812 0.521145 255 0 0
0.0850137 -0.054031 0.559912 255 0 0
0.022259 -0.0469134 0.502953 255 0 0
0.21139 -0.109585 0.572512 255 0 0
0.203862 -0.147337 0.572954 255 0 0
0.137795 -0.0458734 0.569185 255 0 0
0.179099 0.0205479 0.473054 255 0 0
0.157265 -0.114799 0.71612 255 0 0
-0.00798243 0.0244244 0.526185 255 0 0
0.0936647 -0.0220625 0.51726 255 0 0
0.0829455 -0.0358048 0.493495 255 0 0
0.077237 -0.0418533 0.511323 255 0 0
0.222821 -0.152328 0.591677 255 0 0
0.205887 -0.146549 0.564849 255 0 0
0.0152874 -0.174863 0.677506 255 0 0
0.0771136 -0.0469353 0.528173 255 0 0
0.159842 -0.0988035 0.651581 255 0 0
0.190192 -0.177979 0.673176 255 0 0
0.225981 0.0606246 0.471836 255 0 0
0.0832499 -0.0202041 0.550003 255 0 0
0.193574 -0.0375685 0.54964 255 0 0
0.242066 -0.130718 0.562059 255 0 0
-0.106279 -0.0474668 0.699127 255 0 0
0.092731 -0.058773 0.577947 255 0 0
0.0912529 -0.0565053 0.603283 255 0 0
0.176626 -0.0843407 0.525397 255 0 0
0.0582265 -0.0337615 0.490357 255 0 0
0.0552189 -0.0351457 0.52208 255 0 0
0.103045 -0.0492471 0.51698 255 0 0
-0.00754095 0.0176366 0.45868 255 0 0
-0.0572703 0.00439525 0.448248 255 0 0
-0.0658441 -0.0752622 0.704145 255 0 0
0.0742775 -0.0419112 0.551582 255 0 0
0.0804364 0.043276 0.631162 255 0 0
0.234145 -0.119272 0.508657 255 0 0
-0.0401011 -0.0249267 0.531132 255 0 0
0.0596601 -0.0344925 0.490483 255 0 0
0.110942 -0.0791402 0.657999 255 0 0
0.392818 -0.0885428 0.667456 255 0 0
0.131507 -0.194731 0.736228 255 0 0
0.112589 -0.073313 0.655662 255 0 0
0.242875 -0.132281 0.539105 255 0 0
0.283751 -0.175652 0.877548 255 0 0
0.421771 -0.0880682 0.780943 255 0 0
0.208661 -0.252996 0.654413 255 0 0
0.00971131 -0.179106 0.715612 255 0 0
0.000900157 -0.182286 0.716462 255 0 0
0.0875679 -0.0864201 0.691893 255 0 0
0.280683 -0.14128 0.520472 255 0 0
0.103054 -0.0635877 0.693117 255 0 0
0.0990776 -0.076023 0.612565 255 0 0
0.0696656 -0.0699625 0.633137 255 0 0
0.545718 -0.245678 0.934863 255 0 0
0.39664 -0.274441 0.877024 255 0 0
0.134408 -0.269427 0.788518 255 0 0
0.622331 -0.145479 0.761019 255 0 0
0.243007 -0.287519 0.849251 255 0 0
0.343655 -0.317325 0.870866 255 0 0
0.364573 -0.30626 0.866416 255 0 0
0.360133 -0.277784 0.844858 255 0 0
0.141318 -0.278418 0.796039 255 0 0
0.316876 -0.295696 0.821619 255 0 0
0.226113 -0.330907 0.807727 255 0 0
0.352158 -0.322436 0.879297 255 0 0
0.434508 -0.192059 0.839591 255 0 0
0.0964806 -0.225904 0.750061 255 0 0
0.327396 -0.318762 0.844187 255 0 0
0.307968 -0.32315 0.838862 255 0 0
0.558698 -0.267628 0.933382 255 0 0
0.552133 -0.240973 0.917685 255 0 0
0.217335 -0.373299 0.788758 255 0 0
0.557411 -0.268717 0.935731 255 0 0
0.340422 -0.350312 0.898837 255 0 0
0.164741 -0.375991 0.773781 255 0 0
0.219356 -0.353594 0.808263 255 0 0
0.176507 -0.364617 0.823057 255 0 0
0.129868 -0.168599 0.661697 255 0 0
0.59348 -0.35378 0.941975 255 0 0
0.369087 -0.280645 0.855425 255 0 0
0.554774 -0.193935 0.737237 255 0 0
0.530115 -0.338611 0.992249 255 0 0
0.296266 -0.0867123 0.818355 255 0 0
0.470816 -0.276934 0.909198 255 0 0
0.179526 -0.382715 0.791589 255 0 0
0.116086 -0.0673639 0.615649 255 0 0
0.374604 -0.255228 0.848266 255 0 0
-0.10098 -0.0168084 0.812248 255 0 0
0.427979 -0.340787 0.933147 255 0 0
0.178245 -0.297985 0.800424 255 0 0
0.344243 -0.295208 0.845604 255 0 0
0.0709267 -0.0428724 0.529611 255 0 0
0.308002 -0.264741 0.81822 255 0 0
0.213376 -0.226356 0.809014 255 0 0
0.175675 -0.273811 0.785302 255 0 0
-0.0399817 -0.318686 0.838612 255 0 0
-0.159452 -0.251433 0.615749 255 0 0
-0.0961908 -0.177642 0.699094 255 0 0
-0.00209028 -0.343947 0.785715 255 0 0
0.22864 -0.302876 0.810913 255 0 0
0.42989 -0.369823 0.918316 255 0 0
0.308559 -0.265104 0.816429 255 0 0
0.196199 -0.276102 0.802781 255 0 0
0.141661 -0.299522 0.786433 255 0 0
0.327331 -0.325339 0.852607 255 0 0
-0.0241245 -0.0860456 0.771391 255 0 0
0.415622 -0.307302 0.906921 255 0 0
0.387948 -0.267496 0.840752 255 0 0
-0.126782 -0.181305 0.654791 255 0 0
0.43015 -0.340984 0.935588 255 0 0
0.430393 -0.374508 0.940798 255 0 0
0.25432 -0.331791 0.805045 255 0 0
0.0165599 -0.0163624 0.478268 255 0 0
0.304177 -0.214802 0.821662 255 0 0
0.304032 -0.213331 0.820663 255 0 0
0.186591 -0.317632 0.806228 255 0 0
0.235721 -0.251678 0.763486 255 0 0
0.033835 -0.0560838 0.631915 255 0 0
-0.074248 -0.200661 0.63321 255 0 0
-0.0658842 -0.202161 0.645737 255 0 0
0.330694 -0.241958 0.841486 255 0 0
0.033635 -0.0782301 0.647256 255 0 0
0.342722 -0.263051 0.845458 255 0 0
-0.00754304 0.00174051 0.535447 255 0 0
-0.0984216 -0.126683 0.681774 255 0 0
0.326094 -0.240191 0.815853 255 0 0
0.388959 -0.27303 0.859719 255 0 0
0.382047 -0.340575 0.910771 255 0 0
0.389664 -0.258575 0.84235 255 0 0
0.566227 -0.308089 0.961802 255 0 0
0.152347 -0.287549 0.795592 255 0 0
0.23015 -0.336014 0.845638 255 0 0
0.458536 -0.25811 0.850804 255 0 0
0.17651 -0.38186 0.792186 255 0 0
0.2322 -0.363279 0.799832 255 0 0
0.574811 -0.249844 0.921899 255 0 0
0.525693 -0.303418 0.927681 255 0 0
0.367525 -0.242771 0.843897 255 0 0
0.339884 -0.397828 0.962849 255 0 0
0.114372 -0.0395757 0.501685 255 0 0
0.115718 -0.311608 0.79645 255 0 0
-0.0982913 -0.224653 0.636234 255 0 0
0.177574 -0.107438 0.567693 255 0 0
-0.0611559 -0.0370704 0.738764 255 0 0
0.121959 -0.0639818 0.558058 255 0 0
-0.112882 -0.239908 0.603239 255 0 0
0.158756 -0.148877 0.802741 255 0 0
0.201815 -0.252134 0.803168 255 0 0
0.0513249 -0.163825 0.640467 255 0 0
0.1715 -0.242193 0.775115 255 0 0
0.138163 -0.28577 0.793102 255 0 0
0.132991 -0.234619 0.755819 255 0 0
0.157412 -0.273656 0.770764 255 0 0
0.0789842 -0.305459 0.789222 255 0 0
0.18041 -0.351567 0.798142 255 0 0
0.271782 0.0169759 0.834235 255 0 0
0.421949 -0.116015 0.724742 255 0 0
-0.157342 -0.105131 0.72917 255 0 0
0.100482 -0.122892 0.736964 255 0 0
0.064249 -0.0477257 0.531012 255 0 0
0.119423 -0.0804416 0.657955 255 0 0
0.0476829 -0.187744 0.642673 255 0 0
0.173369 -0.0457491 0.55392 255 0 0
-0.130047 -0.184521 0.672338 255 0 0
0.00470007 -0.038492 0.655197 255 0 0
0.152567 -0.307108 0.785082 255 0 0
-0.192151 -0.083359 0.718719 255 0 0
0.238873 -0.24902 0.763601 255 0 0
-0.0477289 -0.137241 0.864731 255 0 0
-0.128446 -0.241364 0.649287 255 0 0
0.0796056 -0.041605 0.552242 255 0 0
0.135227 -0.148919 0.685301 255 0 0
0.0636922 -0.0475876 0.535275 255 0 0
0.0635076 -0.0475331 0.537003 255 0 0
-0.104508 -0.226685 0.599009 255 0 0
0.176763 -0.11048 0.58557 255 0 0
0.122465 -0.0779143 0.637771 255 0 0
0.0598793 -0.0784572 0.57653 255 0 0
0.0800431 -0.0247517 0.520436 255 0 0
0.240229 -0.249205 0.771479 255 0 0
0.402625 -0.0527909 0.847233 255 0 0
0.341771 -0.262334 0.843763 255 0 0
0.129277 0.052061 0.788303 255 0 0
0.308708 -0.0511736 0.827909 255 0 0
-0.122058 -0.0664082 0.726715 255 0 0
0.141487 -0.0178922 0.542544 255 0 0
-0.0644104 0.122036 0.758869 255 0 0
0.128932 -0.0680598 0.584405 255 0 0
0.170853 -0.109176 0.570955 255 0 0
0.00829599 -0.0135691 0.459081 255 0 0
0.1273 -0.175177 0.696785 255 0 0
0.113774 -0.00794097 0.440483 255 0 0
0.1599 -0.0976201 0.60939 255 0 0
0.0424591 -0.193288 0.675279 255 0 0
0.0674757 -0.0429609 0.497674 255 0 0
0.105757 -0.0738435 0.639891 255 0 0
0.15349 -0.000910356 0.493663 255 0 0
0.0668649 -0.197147 0.621443 255 0 0
0.0765902 -0.0680013 0.620427 255 0 0
0.187031 -0.20541 0.784338 255 0 0
0.150218 -0.0989789 0.594904 255 0 0
0.0746161 -0.0403355 0.52911 255 0 0
0.0501699 -0.191905 0.670135 255 0 0
0.239467 -0.252988 0.775924 255 0 0
-0.0378767 -0.0260445 0.511517 255 0 0
0.0727421 -0.0391937 0.522545 255 0 0
0.179447 -0.0877643 0.499013 255 0 0
0.06718 -0.0847952 0.661479 255 0 0
0.0522642 -0.191249 0.666044 255 0 0
0.10246 -0.0540543 0.583558 255 0 0
0.0805765 -0.0478323 0.554288 255 0 0
-0.183795 -0.132467 0.750117 255 0 0
-0.128253 -0.00532814 0.855187 255 0 0
0.0963869 -0.0153186 0.475919 255 0 0
0.2165 -0.129457 0.579183 255 0 0
0.1881 -0.207262 0.786487 255 0 0
0.00916143 -0.179226 0.696296 255 0 0
0.201517 -0.24503 0.804185 255 0 0
0.184029 -0.00914497 0.465189 255 0 0
0.0209869 -0.204352 0.640973 255 0 0
0.170979 -0.237518 0.770909 255 0 0
-0.0255273 -0.0280293 0.501073 255 0 0
-0.124707 0.123921 0.741391 255 0 0
0.236898 -0.28251 0.806759 255 0 0
0.240642 -0.250676 0.773485 255 0 0
0.234018 -0.119772 0.509456 255 0 0
-0.0398132 -0.024523 0.525254 255 0 0
0.130459 0.0531865 0.797008 255 0 0
0.162644 -0.100126 0.682146 255 0 0
0.165078 -0.02798 0.509367 255 0 0
0.177703 -0.0373201 0.507134 255 0 0
0.195613 0.0255872 0.487121 255 0 0
0.0700513 -0.202699 0.64583 255 0 0
0.0780912 -0.0421837 0.515577 255 0 0
-0.0044676 -0.186507 0.688026 255 0 0
-0.138394 0.019031 0.807282 255 0 0
0.0211952 -0.204665 0.640865 255 0 0
0.223624 -0.154752 0.612887 255 0 0
0.18385 -0.0951811 0.503209 255 0 0
0.0157587 -0.0161707 0.469529 255 0 0
0.0550524 -0.19079 0.666648 255 0 0
-0.168023 -0.127209 0.731855 255 0 0
0.090638 -0.0561691 0.567062 255 0 0
0.0830559 -0.0475584 0.534697 255 0 0
0.0839295 -0.0350654 0.503227 255 0 0
0.0660898 -0.043444 0.489832 255 0 0
0.106549 0.00717934 0.58168 255 0 0
0.225919 -0.117664 0.491348 255 0 0
0.0223875 -0.0260315 0.505205 255 0 0
0.210524 -0.148519 0.585845 255 0 0
-3.43101e-05 -0.356388 0.69955 255 0 0
0.336599 -0.348091 0.905093 255 0 0
0.186568 -0.393224 0.807638 255 0 0
0.459865 -0.378268 0.936482 255 0 0
0.525733 -0.302173 0.927647 255 0 0
0.567312 -0.266663 0.928644 255 0 0
0.245801 -0.382729 0.869555 255 0 0
0.398425 -0.363761 0.907827 255 0 0
0.562715 -0.310126 0.961302 255 0 0
0.521214 -0.307705 0.929725 255 0 0
0.209138 -0.366149 0.814883 255 0 0
0.267831 -0.364593 0.855498 255 0 0
0.397761 -0.364035 0.903697 255 0 0
0.53372 -0.334811 0.947323 255 0 0
0.144863 -0.282867 0.779648 255 0 0
0.372774 -0.0623126 0.893269 255 0 0
-0.0206697 -0.157687 0.994547 255 0 0
0.125699 -0.0679791 0.568421 255 0 0
0.155147 -0.105391 0.704763 255 0 0
0.0510308 -0.15989 0.748113 255 0 0
0.140065 -0.285163 0.789019 255 0 0
0.0995615 -0.0788428 0.672682 255 0 0
0.137145 -0.185418 0.758884 255 0 0
-0.0551217 -0.0363332 0.736276 255 0 0
0.00320516 -0.105607 0.720231 255 0 0
-0.0525617 -0.136525 0.94936 255 0 0
0.0511041 -0.193902 0.677165 255 0 0
-0.117001 -0.234311 0.637901 255 0 0
-0.0877405 -0.215551 0.625251 255 0 0
0.254621 -0.167894 0.696159 255 0 0
0.226413 -0.03523 0.515162 255 0 0
0.345795 -0.0643176 0.810712 255 0 0
0.297639 -0.262675 0.819814 255 0 0
0.372434 -0.245223 0.856257 255 0 0
0.383559 -0.294961 0.85332 255 0 0
0.12413 -0.234642 0.682827 255 0 0
0.337362 -0.253429 0.839085 255 0 0
0.099203 -0.0740787 0.638524 255 0 0
0.203656 -0.130519 0.574996 255 0 0
-0.0480838 -0.133195 0.868834 255 0 0
-0.0663028 0.0594628 0.608389 255 0 0
-0.106701 -0.0135863 0.819314 255 0 0
0.42041 -0.198344 0.844226 255 0 0
0.375043 -0.359125 0.910255 255 0 0
0.268673 -0.363377 0.845538 255 0 0
0.323417 -0.299999 0.827825 255 0 0
0.419729 -0.194635 0.839884 255 0 0
0.481338 -0.278806 0.897596 255 0 0
0.208094 -0.312449 0.786201 255 0 0
0.424703 -0.309244 0.906375 255 0 0
0.303653 -0.211543 0.820752 255 0 0
0.292329 -0.246593 0.823464 255 0 0
0.425247 -0.37553 0.916102 255 0 0
0.213005 -0.129984 0.57249 255 0 0
-0.168462 -0.130499 0.724128 255 0 0
-0.172571 0.0623177 0.796977 255 0 0
0.0852363 -0.0714796 0.680613 255 0 0
-0.0967096 -0.176372 0.698366 255 0 0
0.175699 -0.316445 0.806595 255 0 0
0.0773587 -0.0411946 0.529282 255 0 0
-0.0781172 -0.0285297 0.83019 255 0 0
0.0871292 -0.173429 0.673763 255 0 0
0.095739 -0.0926707 0.703771 255 0 0
-0.116827 -0.242951 0.610417 255 0 0
0.151882 -0.0872973 0.585857 255 0 0
-0.0416161 -0.231993 0.639834 255 0 0
0.112423 -0.0127282 0.442996 255 0 0
0.113925 -0.000840898 0.443277 255 0 0
0.144171 -0.27527 0.772169 255 0 0
0.122767 -0.0947599 0.692218 255 0 0
0.0391702 -0.168933 0.69918 255 0 0
0.0732575 -0.0424693 0.538465 255 0 0
0.152376 -0.287675 0.790684 255 0 0
0.150408 -0.293597 0.792117 255 0 0
0.160637 -0.308195 0.785806 255 0 0
0.153962 -0.306882 0.78331 255 0 0
-0.00269273 -0.0129846 0.480968 255 0 0
0.000812026 -0.0269698 0.506393 255 0 0
0.111347 -0.11102 0.714492 255 0 0
0.116384 -0.117778 0.72945 255 0 0
0.139536 -0.0606213 0.558711 255 0 0
0.632117 -0.174204 0.865342 255 0 0
0.310974 -0.322782 0.838755 255 0 0
0.552762 -0.155892 0.704829 255 0 0
0.358673 -0.313724 0.867832 255 0 0
0.432455 -0.193093 0.842079 255 0 0
0.269144 -0.28072 0.837408 255 0 0
0.609726 -0.137151 0.675929 255 0 0
0.170608 -0.356441 0.90779 255 0 0
0.302808 -0.292376 0.824139 255 0 0
0.449059 -0.261395 0.87018 255 0 0
0.607244 -0.253959 0.975618 255 0 0
0.547136 -0.327153 0.910719 255 0 0
0.560469 -0.311158 0.945588 255 0 0
0.346953 -0.295621 0.843806 255 0 0
0.165689 -0.106735 0.643193 255 0 0
0.169816 -0.0464546 0.541607 255 0 0
-0.00468482 -0.186341 0.690165 255 0 0
0.0184677 -0.0270656 0.521979 255 0 0
0.0249456 -0.204256 0.649728 255 0 0
0.195368 -0.145019 0.621581 255 0 0
0.0215654 -0.0412801 0.602206 255 0 0
0.308909 -0.247091 0.83546 255 0 0
0.157792 -0.100453 0.620598 255 0 0
0.160761 -0.106244 0.61912 255 0 0
0.0528547 -0.158708 0.750881 255 0 0
0.214128 -0.102544 0.540282 255 0 0
0.0790609 -0.0691201 0.628162 255 0 0
0.0712975 -0.0469379 0.495461 255 0 0
-0.0850938 -0.215228 0.634297 255 0 0
-0.0047287 -0.186637 0.690334 255 0 0
0.301702 -0.234603 0.823854 255 0 0
0.0844301 -0.0461723 0.54634 255 0 0
-0.102649 -0.0686402 0.768831 255 0 0
0.041055 -0.195117 0.68083 255 0 0
0.0213817 -0.204578 0.641359 255 0 0
0.1806 -0.124629 0.624165 255 0 0
0.0433965 -0.0598786 0.615281 255 0 0
-0.0870656 -0.216057 0.633641 255 0 0
0.0414616 -0.0590607 0.615622 255 0 0
0.0168638 -0.0186676 0.458561 255 0 0
0.194329 -0.132805 0.624529 255 0 0
0.1752 -0.109849 0.581134 255 0 0
0.311724 -0.268896 0.809788 255 0 0
0.0636832 -0.19573 0.601818 255 0 0
0.195114 -0.14286 0.606376 255 0 0
-0.12789 -0.185401 0.673483 255 0 0
0.188475 -0.175332 0.671545 255 0 0
0.0507297 -0.0347822 0.525599 255 0 0
0.301286 -0.241237 0.835052 255 0 0
0.00426397 -0.115805 0.632836 255 0 0
0.13281 -0.0465816 0.548842 255 0 0
-0.0413138 -0.20739 0.640732 255 0 0
0.117818 -0.158852 0.69361 255 0 0
0.020943 -0.204848 0.639637 255 0 0
0.195902 -0.172522 0.713786 255 0 0
0.394064 -0.260575 0.851532 255 0 0
0.113822 -0.115741 0.708964 255 0 0
0.0831069 -0.213927 0.644673 255 0 0
0.0855512 -0.173968 0.673819 255 0 0
0.0829694 -0.0541448 0.600262 255 0 0
-0.0845089 -0.214068 0.628655 255 0 0
0.0396197 -0.171248 0.713407 255 0 0
0.176844 -0.110386 0.579845 255 0 0
0.101301 -0.0478428 0.515447 255 0 0
-0.13242 -0.185031 0.677769 255 0 0
0.0531286 -0.190709 0.66464 255 0 0
-0.119275 -0.23576 0.648158 255 0 0
0.0619731 -0.040542 0.501464 255 0 0
0.0735588 -0.0627908 0.616493 255 0 0
0.00592717 -0.0395977 0.607498 255 0 0
0.134916 -0.257242 0.657454 255 0 0
0.0617893 -0.186026 0.856455 255 0 0
0.0735371 -0.0563371 0.550183 255 0 0
0.0214207 -0.204427 0.642128 255 0 0
-0.113058 -0.235111 0.61524 255 0 0
0.0392568 -0.189482 0.649078 255 0 0
0.0684143 -0.0593738 0.589039 255 0 0
0.0516714 -0.16702 0.693985 255 0 0
-0.0531328 -0.0385485 0.707607 255 0 0
-0.07974 -0.201444 0.565611 255 0 0
0.158062 -0.0964764 0.618335 255 0 0
-0.0472547 -0.124958 0.885461 255 0 0
0.190451 -0.316721 0.805144 255 0 0
-0.0216623 -0.156588 0.995908 255 0 0
0.124639 -0.0814918 0.644638 255 0 0
0.0760659 -0.0715747 0.594943 255 0 0
0.149433 -0.289335 0.808686 255 0 0
-0.0275485 -0.0822465 0.745514 255 0 0
0.236232 -0.28475 0.807832 255 0 0
0.0570134 -0.0232244 0.53936 255 0 0
0.305441 -0.293315 0.823617 255 0 0
0.0797411 -0.0417404 0.510198 255 0 0
-0.12568 -0.239253 0.639302 255 0 0
0.0977777 -0.0775836 0.656063 255 0 0
0.22292 -0.130624 0.528253 255 0 0
0.0519094 -0.200048 0.601965 255 0 0
0.422452 -0.226324 0.850008 255 0 0
0.713045 -0.222325 0.901461 255 0 0
0.190657 -0.347646 0.885026 255 0 0
0.480415 -0.247944 0.966297 255 0 0
0.352589 -0.250082 0.845179 255 0 0
0.643398 -0.226939 0.900618 255 0 0
0.191175 -0.360671 0.825496 255 0 0
0.496397 -0.146446 0.705633 255 0 0
0.580924 -0.157657 0.697561 255 0 0
0.327991 -0.285617 0.803047 255 0 0
0.619202 -0.288797 0.953951 255 0 0
0.512529 -0.094364 0.594965 255 0 0
0.615094 -0.147158 0.777506 255 0 0
0.59933 -0.139406 0.674439 255 0 0
0.2983 -0.295956 0.828281 255 0 0
0.622058 -0.288698 0.942314 255 0 0
0.501623 -0.139276 0.673261 255 0 0
0.345241 -0.247074 0.858751 255 0 0
0.480889 -0.286996 0.915839 255 0 0
0.137073 -0.307767 0.846153 255 0 0
0.309549 -0.244316 0.815076 255 0 0
0.560069 -0.132466 0.679418 255 0 0
0.68369 -0.205892 0.840087 255 0 0
0.14255 -0.277347 0.794129 255 0 0
0.569755 -0.161697 0.712064 255 0 0
0.481847 -0.27793 0.901731 255 0 0
0.486691 -0.312948 0.89333 255 0 0
0.374626 -0.283187 0.857182 255 0 0
0.283851 -0.265172 0.817941 255 0 0
0.489863 -0.245597 0.946116 255 0 0
0.305625 -0.257507 0.822574 255 0 0
0.540304 -0.2756 0.927613 255 0 0
0.620476 -0.287003 0.948066 255 0 0
0.0807293 -0.305698 0.788701 255 0 0
0.243035 -0.281786 0.808433 255 0 0
0.194679 -0.298489 0.800301 255 0 0
-0.172275 -0.195031 0.586063 255 0 0
0.220469 -0.336927 0.80658 255 0 0
0.284596 -0.150139 0.543982 255 0 0
-0.142407 -0.183444 0.672006 255 0 0
0.0587077 -0.205139 0.647408 255 0 0
0.293858 -0.272609 0.820955 255 0 0
-0.0814582 -0.206075 0.662845 255 0 0
0.000141675 -0.0265467 0.509932 255 0 0
-0.0224567 -0.0844843 0.738075 255 0 0
0.13253 -0.0580771 0.555014 255 0 0
0.046746 -0.0611921 0.613623 255 0 0
0.201529 -0.24662 0.801628 255 0 0
-0.0806666 -0.202196 0.65233 255 0 0
-0.0763131 0.00984203 0.967115 255 0 0
0.303994 -0.227687 0.82789 255 0 0
-0.00246487 -0.116332 0.695988 255 0 0
0.0221126 -0.045574 0.527924 255 0 0
0.101953 -0.0740043 0.626504 255 0 0
0.155853 -0.289287 0.778875 255 0 0
0.134524 -0.295917 0.806546 255 0 0
0.22732 -0.140008 0.548791 255 0 0
0.378192 -0.359219 0.910966 255 0 0
-0.0511727 -0.130474 0.948968 255 0 0
0.312542 -0.363083 0.903963 255 0 0
0.377561 -0.359317 0.911972 255 0 0
-0.113475 -0.215576 0.657338 255 0 0
0.146978 -0.291935 0.78762 255 0 0
0.214022 -0.22581 0.79667 255 0 0
0.218646 -0.340986 0.816534 255 0 0
0.28824 -0.151488 0.558391 255 0 0
-0.0728308 -0.22396 0.661818 255 0 0
0.194951 -0.097198 0.509585 255 0 0
0.309598 -0.356313 0.896947 255 0 0
0.351073 -0.365781 0.949434 255 0 0
-0.091328 -0.177444 0.687417 255 0 0
0.0221818 -0.204224 0.641422 255 0 0
0.199551 -0.101439 0.555708 255 0 0
-0.11642 -0.181692 0.646265 255 0 0
0.176831 -0.279604 0.810505 255 0 0
-0.0829786 -0.200762 0.66698 255 0 0
0.418852 -0.230041 0.853453 255 0 0
-0.0982031 -0.224729 0.641866 255 0 0
0.339443 -0.397816 0.964532 255 0 0
0.164283 -0.106852 0.669162 255 0 0
0.050337 -0.152921 0.772245 255 0 0
0.0807196 -0.0720558 0.630816 255 0 0
-0.0787961 -0.18735 0.660208 255 0 0
0.180066 -0.106386 0.572076 255 0 0
0.125363 -0.0957233 0.725912 255 0 0
0.0794855 -0.0687344 0.61963 255 0 0
0.0863566 -0.0539561 0.546098 255 0 0
-0.0984629 -0.0228109 0.818205 255 0 0
0.219346 -0.249824 0.777141 255 0 0
-0.105497 -0.045834 0.695639 255 0 0
0.222829 -0.334984 0.805822 255 0 0
0.182206 -0.125574 0.629418 255 0 0
-0.114916 -0.241442 0.604811 255 0 0
0.126733 -0.0806489 0.650901 255 0 0
0.152085 -0.308591 0.790745 255 0 0
0.131317 -0.180091 0.716709 255 0 0
0.0516138 -0.151591 0.744155 255 0 0
-0.14303 -0.183267 0.674393 255 0 0
0.277133 -0.0595152 0.677667 255 0 0
0.0833927 -0.273445 0.669154 255 0 0
0.199344 -0.278751 0.80807 255 0 0
0.338482 -0.258621 0.841309 255 0 0
0.0674938 -0.0582875 0.591305 255 0 0
-0.146477 -0.183932 0.678458 255 0 0
-0.00436823 -0.187122 0.685168 255 0 0
-0.159054 -0.250904 0.615549 255 0 0
0.0622049 -0.039345 0.525465 255 0 0
-0.127199 -0.239338 0.646349 255 0 0
-0.139158 -0.242615 0.62048 255 0 0
0.190166 -0.178079 0.679643 255 0 0
0.311911 -0.269888 0.819493 255 0 0
-0.161582 -0.252846 0.633755 255 0 0
-0.073312 -0.20166 0.664928 255 0 0
0.304706 -0.214063 0.820818 255 0 0
-0.106233 -0.0139831 0.821706 255 0 0
0.304723 -0.253613 0.825051 255 0 0
0.302102 -0.248142 0.821889 255 0 0
0.024719 -0.335307 0.867386 255 0 0
0.0872634 -0.0532268 0.569166 255 0 0
0.32482 -0.312214 0.832081 255 0 0
0.0152575 -0.316964 0.791519 255 0 0
0.0814494 -0.0722244 0.627988 255 0 0
0.000873045 -0.0345106 0.642894 255 0 0
0.0982591 -0.0735376 0.630726 255 0 0
0.44215 -0.372294 0.922238 255 0 0
0.278996 0.0154876 0.814216 255 0 0
0.195164 -0.273955 0.801077 255 0 0
0.172242 -0.271258 0.786544 255 0 0
0.202145 -0.249881 0.803932 255 0 0
0.250839 -0.126723 0.516292 255 0 0
0.283478 -0.143456 0.554525 255 0 0
-0.0550641 -0.133898 0.898978 255 0 0
0.101102 -0.0798783 0.640899 255 0 0
0.407926 -0.0746558 0.684759 255 0 0
0.244283 -0.131262 0.532346 255 0 0
0.227261 -0.2537 0.774542 255 0 0
0.234405 -0.13236 0.565722 255 0 0
-0.0364788 -0.245933 0.533533 255 0 0
0.177777 -0.275619 0.784519 255 0 0
-0.170934 -0.194286 0.582305 255 0 0
0.336337 -0.251619 0.836288 255 0 0
0.164903 -0.316045 0.801848 255 0 0
-0.163633 -0.133895 0.729229 255 0 0
-0.0750501 -0.202779 0.665811 255 0 0
0.215717 -0.312337 0.810169 255 0 0
-0.0359126 -0.245594 0.532702 255 0 0
0.225975 -0.350124 0.802288 255 0 0
0.0591308 -0.0800463 0.670035 255 0 0
0.139334 -0.368682 0.803527 255 0 0
0.307359 -0.223629 0.816564 255 0 0
0.243315 -0.282855 0.810346 255 0 0
0.459315 -0.379767 0.940912 255 0 0
0.206515 -0.212323 0.781309 255 0 0
0.0177223 -0.347138 0.888184 255 0 0
0.186364 -0.264335 0.780672 255 0 0
0.430084 -0.343735 0.925038 255 0 0
0.197978 -0.217751 0.78914 255 0 0
0.395424 -0.281525 0.841365 255 0 0
0.441028 -0.261658 0.86853 255 0 0
0.455284 -0.397325 0.924407 255 0 0
-0.0730553 -0.201588 0.6628 255 0 0
-1.19167 -1.21432 3.28586 255 0 0
-0.0733505 -0.202105 0.663143 255 0 0
0.629189 -0.0938385 0.652271 255 0 0
0.627989 -0.134577 0.684967 255 0 0
0.221529 -0.161021 1.04131 255 0 0
0.175934 -0.238103 0.767272 255 0 0
0.31839 -0.256494 0.806288 255 0 0
0.202484 -0.234408 0.782821 255 0 0
0.663909 -0.073187 0.634277 255 0 0
0.623594 -0.139137 0.68709 255 0 0
0.665811 -0.127483 0.755139 255 0 0
0.682272 -0.0816087 0.658531 255 0 0
0.312095 -0.248643 0.811319 255 0 0
0.369519 -0.239393 0.838592 255 0 0
-0.124932 -0.238378 0.632272 255 0 0
0.115631 -0.311102 0.797595 255 0 0
0.155301 -0.292935 0.787424 255 0 0
-0.0958208 -0.213254 0.649686 255 0 0
0.176993 -0.241755 0.773804 255 0 0
0.281299 0.01941 0.811227 255 0 0
0.245882 -0.33267 0.797338 255 0 0
0.211803 -0.355506 0.788217 255 0 0
-0.0311909 0.0105445 0.553543 255 0 0
0.460132 -0.380043 0.94129 255 0 0
-0.0030737 -0.0185576 0.47935 255 0 0
0.273391 -0.14436 0.502603 255 0 0
0.290767 -0.162658 0.678212 255 0 0
0.281601 -0.264404 0.823707 255 0 0
0.381248 -0.339598 0.909362 255 0 0
0.227085 -0.34954 0.801919 255 0 0
0.255961 -0.374765 0.861953 255 0 0
0.114916 -0.079287 0.662698 255 0 0
0.129997 -0.238195 0.762066 255 0 0
0.440785 -0.374933 0.923851 255 0 0
0.302304 -0.247958 0.819033 255 0 0
0.452153 -0.259148 0.860831 255 0 0
0.0508202 -0.0639575 0.617581 255 0 0
0.319762 -0.341977 0.885308 255 0 0
0.48239 -0.353553 0.8883 255 0 0
0.382203 -0.069852 0.593625 255 0 0
0.481287 -0.286164 0.908758 255 0 0
0.319128 -0.344201 0.88525 255 0 0
0.16211 -0.307904 0.782746 255 0 0
0.128839 -0.0659987 0.567548 255 0 0
-0.153612 -0.124349 0.68261 255 0 0
0.222997 -0.251254 0.782217 255 0 0
0.0115211 -0.35556 0.782536 255 0 0
0.180259 -0.107246 0.571219 255 0 0
0.213947 -0.371463 0.786319 255 0 0
0.296374 -0.324724 0.80127 255 0 0
0.221806 -0.250737 0.783821 255 0 0
0.279445 -0.140771 0.586331 255 0 0
0.188826 -0.317247 0.805329 255 0 0
0.136378 -0.294887 0.800987 255 0 0
-0.0758074 -0.0307738 0.819101 255 0 0
-0.115233 -0.241643 0.606023 255 0 0
0.319396 -0.347491 0.884706 255 0 0
0.164187 -0.301966 0.821129 255 0 0
-0.119126 -0.0329211 0.957631 255 0 0
0.323558 -0.331527 0.844092 255 0 0
0.216616 -0.311968 0.804349 255 0 0
0.239001 -0.281978 0.810033 255 0 0
0.174485 -0.298336 0.80687 255 0 0
-0.0394629 -0.200457 0.603255 255 0 0
0.201002 -0.296754 0.802024 255 0 0
0.192549 -0.296287 0.799729 255 0 0
0.169998 -0.299582 0.814431 255 0 0
0.196599 -0.305155 0.830726 255 0 0
0.239581 -0.280689 0.808537 255 0 0
-0.13771 0.0133311 0.800467 255 0 0
0.324515 -0.312298 0.832324 255 0 0
0.0302503 -0.0351623 0.511159 255 0 0
0.112285 -0.274717 0.801221 255 0 0
0.113337 -0.29817 0.793172 255 0 0
0.0216189 -0.316063 0.807802 255 0 0
0.238746 -0.364082 0.779229 255 0 0
0.397173 -0.171089 0.830941 255 0 0
0.541119 -0.156513 0.71507 255 0 0
0.563725 -0.269269 0.96161 255 0 0
0.0361687 -0.347672 0.674738 255 0 0
0.259011 -0.248028 0.73933 255 0 0
0.578778 -0.361115 0.931741 255 0 0
0.544597 -0.247165 0.922539 255 0 0
0.307314 -0.249507 0.815311 255 0 0
0.177247 -0.374604 0.789543 255 0 0
0.594831 -0.355821 0.951348 255 0 0
0.47967 -0.279279 0.899401 255 0 0
0.544347 -0.246678 0.933617 255 0 0
0.529108 -0.298433 0.926954 255 0 0
0.0583567 -0.034347 0.538057 255 0 0
-0.0664155 -0.206127 0.671368 255 0 0
-0.0868113 -0.177857 0.683179 255 0 0
0.1931 -0.13765 0.579942 255 0 0
0.337447 -0.344144 0.895865 255 0 0
0.191547 -0.178148 0.675327 255 0 0
0.148807 -0.295061 0.780152 255 0 0
0.326514 -0.321161 0.847317 255 0 0
0.409657 -0.36525 0.919118 255 0 0
0.0723663 -0.0441365 0.517192 255 0 0
0.185606 -0.203912 0.775483 255 0 0
-0.0708395 -0.223853 0.661164 255 0 0
-0.0770159 -0.187259 0.655657 255 0 0
-0.0902242 -0.205734 0.687767 255 0 0
0.246329 -0.365531 0.82963 255 0 0
0.348358 -0.250796 0.853329 255 0 0
0.1971 -0.146551 0.628307 255 0 0
0.171523 -0.0939561 0.510112 255 0 0
0.207683 -0.150983 0.550095 255 0 0
0.0864826 -0.136939 0.699284 255 0 0
0.163207 -0.107235 0.474302 255 0 0
0.200912 -0.304922 0.811767 255 0 0
0.170292 -0.0803439 0.556926 255 0 0
0.119766 -0.0574801 0.585583 255 0 0
0.361602 -0.244676 0.852564 255 0 0
0.110519 -0.0662137 0.553827 255 0 0
0.257329 -0.299348 0.8754 255 0 0
0.36916 -0.254993 0.859592 255 0 0
0.232096 -0.346464 0.805653 255 0 0
0.459494 -0.234688 0.89868 255 0 0
0.13656 -0.231879 0.622829 255 0 0
0.165768 -0.346338 0.784329 255 0 0
0.276121 -0.358706 0.861384 255 0 0
0.137387 -0.149794 0.674647 255 0 0
0.234554 -0.362471 0.798642 255 0 0
0.349795 -0.0541957 0.725655 255 0 0
0.395052 -0.280039 0.826162 255 0 0
0.460557 -0.149804 0.892994 255 0 0
0.464939 -0.274063 0.879658 255 0 0
0.0866345 -0.0741906 0.647062 255 0 0
0.483604 -0.241654 0.934689 255 0 0
0.424603 -0.363729 0.913506 255 0 0
0.349194 -0.0610541 0.703516 255 0 0
0.324199 -0.013759 0.636538 255 0 0
-0.0962488 -0.0197833 0.79283 255 0 0
0.36966 -0.26118 0.819022 255 0 0
0.425298 -0.21768 0.847929 255 0 0
0.141001 -0.228771 0.601474 255 0 0
0.0546808 -0.346453 0.814099 255 0 0
-0.164026 -0.133197 0.730063 255 0 0
0.220999 -0.208456 0.773127 255 0 0
0.289405 -0.342105 0.849266 255 0 0
0.0615876 -0.0837612 0.647068 255 0 0
0.347887 -0.316567 0.866341 255 0 0
0.182339 -0.297993 0.796405 255 0 0
0.398567 -0.174602 0.829454 255 0 0
0.168729 -0.296171 0.804661 255 0 0
0.297451 -0.342484 0.856811 255 0 0
0.326542 -0.307971 0.832632 255 0 0
0.345329 -0.296672 0.846355 255 0 0
0.245574 -0.283061 0.809049 255 0 0
0.381243 -0.338067 0.90437 255 0 0
0.528746 -0.297368 0.926298 255 0 0
0.124587 -0.0628392 0.587862 255 0 0
0.123505 -0.0616459 0.586253 255 0 0
0.0669481 -0.0409743 0.508348 255 0 0
0.12412 -0.0226751 0.525673 255 0 0
0.419979 -0.228859 0.855281 255 0 0
0.258994 -0.294291 0.840241 255 0 0
0.0723073 -0.122668 0.709151 255 0 0
0.0391533 -0.168729 0.700332 255 0 0
0.150325 -0.272552 0.794676 255 0 0
0.15245 -0.262312 0.712158 255 0 0
0.200347 -0.27802 0.802699 255 0 0
0.117175 -0.0676771 0.610098 255 0 0
0.316656 -0.273796 0.813079 255 0 0
0.0996094 -0.15892 0.682629 255 0 0
0.360264 -0.305693 0.865214 255 0 0
0.0664837 -0.0574001 0.585027 255 0 0
0.253144 -0.129759 0.524737 255 0 0
0.0311139 -0.031971 0.507713 255 0 0
-0.081651 -0.200467 0.668563 255 0 0
0.411731 -0.209939 0.845526 255 0 0
0.072494 -0.0580664 0.566868 255 0 0
0.0789749 -0.0710036 0.634877 255 0 0
0.141866 -0.136819 0.681177 255 0 0
0.425974 -0.372922 0.91859 255 0 0
0.201442 -0.287615 0.806784 255 0 0
0.238877 -0.14512 0.553863 255 0 0
-0.0944827 -0.17504 0.689147 255 0 0
0.269976 -0.032171 0.774102 255 0 0
0.211268 -0.103633 0.542934 255 0 0
0.195031 -0.0919653 0.586982 255 0 0
0.430406 -0.341572 0.934037 255 0 0
0.0798371 -0.306675 0.792226 255 0 0
0.132385 -0.25988 0.782474 255 0 0
-0.0431455 -0.19398 0.667839 255 0 0
0.2337 -0.330515 0.852824 255 0 0
0.315419 -0.299792 0.825115 255 0 0
0.627332 -0.175705 0.882492 255 0 0
0.454526 -0.278196 0.930817 255 0 0
0.215492 -0.350902 0.825837 255 0 0
0.627452 -0.177903 0.861781 255 0 0
0.397824 -0.274248 0.881219 255 0 0
0.618875 -0.292559 0.960024 255 0 0
0.455629 -0.197269 0.784844 255 0 0
0.374938 -0.28174 0.857142 255 0 0
0.477307 -0.277662 0.898387 255 0 0
0.467516 -0.279371 0.880296 255 0 0
0.609545 -0.303693 1.03436 255 0 0
0.356093 -0.313232 0.867992 255 0 0
0.571147 -0.251837 0.934298 255 0 0
0.244474 -0.199172 0.752074 255 0 0
-0.0743008 -0.202471 0.662214 255 0 0
0.306184 -0.226479 0.819127 255 0 0
-1.21105 -1.16568 3.15484 255 0 0
0.319101 -0.346223 0.889156 255 0 0
-0.126827 -0.185695 0.680053 255 0 0
-0.0358166 -0.245774 0.535273 255 0 0
0.164143 -0.286919 0.777942 255 0 0
0.0390561 -0.194147 0.681764 255 0 0
-0.0359107 -0.31266 0.816323 255 0 0
0.225864 -0.127355 0.534387 255 0 0
0.398933 -0.361608 0.905019 255 0 0
0.179086 -0.251168 0.779605 255 0 0
0.138974 -0.278202 0.798362 255 0 0
0.118034 -0.0278509 0.547079 255 0 0
0.0988904 -0.277946 0.671393 255 0 0
0.306684 -0.325553 0.838252 255 0 0
0.0713652 -0.0434049 0.525089 255 0 0
0.301804 -0.155928 0.540169 255 0 0
0.347097 -0.260759 0.840425 255 0 0
0.307994 -0.269736 0.821538 255 0 0
0.198853 -0.0998817 0.561272 255 0 0
0.0798854 -0.309515 0.799789 255 0 0
0.148781 -0.293254 0.811802 255 0 0
0.0699488 -0.0589607 0.588916 255 0 0
-0.14236 -0.131493 0.676062 255 0 0
-0.0941477 -0.202665 0.676113 255 0 0
0.133225 -0.23489 0.755412 255 0 0
0.446917 -0.257171 0.855695 255 0 0
0.342707 -0.24613 0.817532 255 0 0
0.394369 -0.280118 0.828852 255 0 0
0.0943096 -0.0503906 0.527561 255 0 0
0.142117 -0.290292 0.806975 255 0 0
0.341688 -0.166616 0.512098 255 0 0
0.258026 -0.326312 0.791998 255 0 0
0.412377 -0.204375 0.844954 255 0 0
0.177041 -0.274046 0.785353 255 0 0
0.0760304 -0.0698979 0.630207 255 0 0
0.141961 -0.2879 0.793703 255 0 0
0.279706 -0.269512 0.821033 255 0 0
0.220334 -0.252038 0.803614 255 0 0
0.228529 -0.281524 0.803374 255 0 0
0.294187 -0.271487 0.826301 255 0 0
0.134932 -0.243111 0.756177 255 0 0
0.320813 -0.298262 0.827326 255 0 0
0.480822 -0.338493 0.901849 255 0 0
0.272003 0.0127156 0.818555 255 0 0
0.497178 -0.351541 0.964939 255 0 0
0.13832 -0.158516 0.675311 255 0 0
0.374826 -0.252387 0.850542 255 0 0
0.0686641 -0.133982 0.76081 255 0 0
0.445674 -0.311037 0.925562 255 0 0
0.448274 -0.363343 0.922761 255 0 0
0.468928 -0.277634 0.902696 255 0 0
0.369209 -0.0605099 0.642547 255 0 0
0.356069 -0.266915 0.908617 255 0 0
0.0255644 -0.33568 0.870007 255 0 0
0.113273 -0.112225 0.709175 255 0 0
0.123849 -0.15697 0.673953 255 0 0
0.280555 -0.267321 0.822285 255 0 0
0.0519607 -0.187082 0.578775 255 0 0
0.238091 -0.134668 0.540734 255 0 0
0.235692 -0.144676 0.539584 255 0 0
0.0988754 -0.179594 0.667475 255 0 0
0.0772564 -0.0689937 0.628823 255 0 0
0.0415912 -0.329947 0.796265 255 0 0
0.0944015 -0.125275 0.719209 255 0 0
0.0400259 -0.313735 0.79327 255 0 0
0.344196 -0.245973 0.827168 255 0 0
0.303811 -0.122954 0.473301 255 0 0
0.0791473 -0.136234 0.728914 255 0 0
0.289317 -0.151257 0.598494 255 0 0
0.244169 -0.133144 0.520207 255 0 0
0.15343 -0.0911016 0.584116 255 0 0
0.305724 -0.155758 0.556958 255 0 0
0.302319 -0.25005 0.825364 255 0 0
0.036729 -0.317521 0.804433 255 0 0
0.171103 -0.238502 0.772053 255 0 0
0.0879013 -0.0550683 0.609825 255 0 0
0.198961 -0.0990992 0.554051 255 0 0
0.176371 -0.298134 0.803069 255 0 0
0.397186 -0.170056 0.829122 255 0 0
0.0958477 -0.395609 0.737014 255 0 0
0.101847 -0.402239 0.765394 255 0 0
0.248494 -0.388485 0.795447 255 0 0
0.151974 -0.263512 0.775025 255 0 0
0.28989 -0.341755 0.850811 255 0 0
0.449014 -0.375006 0.930642 255 0 0
0.356518 -0.250878 0.838852 255 0 0
0.202746 -0.314254 0.801273 255 0 0
0.102137 -0.0604219 0.583303 255 0 0
0.0487085 -0.191844 0.673586 255 0 0
0.326211 -0.319006 0.846063 255 0 0
0.399208 -0.342392 0.919138 255 0 0
-0.0358765 -0.245717 0.532402 255 0 0
0.0730796 -0.0700236 0.631388 255 0 0
0.252158 -0.129396 0.524873 255 0 0
0.0460684 -0.0608121 0.619079 255 0 0
0.131104 -0.296384 0.80519 255 0 0
0.247677 -0.337017 0.813157 255 0 0
-0.0873542 -0.177024 0.685201 255 0 0
-1.34024 -1.24312 3.38567 255 0 0
-0.171062 -0.194611 0.58265 255 0 0
-0.0561718 -0.0264591 0.776429 255 0 0
-0.104527 -0.218541 0.661703 255 0 0
-0.0999804 -0.21593 0.647071 255 0 0
-0.0919489 0.0552853 0.686761 255 0 0
0.0785723 -0.305958 0.79176 255 0 0
0.054548 -0.206967 0.636718 255 0 0
0.196188 -0.137699 0.599906 255 0 0
0.419842 -0.369296 0.917171 255 0 0
-0.123606 -0.185273 0.67332 255 0 0
-0.0020337 -0.218744 0.603573 255 0 0
-0.0953165 -0.177338 0.696653 255 0 0
0.0508338 -0.226496 0.55996 255 0 0
-0.0914208 -0.17737 0.689064 255 0 0
0.0904322 -0.0494526 0.536282 255 0 0
0.147146 -0.286712 0.805171 255 0 0
0.0511042 -0.225087 0.55607 255 0 0
0.172817 -0.218642 0.814126 255 0 0
0.314096 -0.315408 0.832737 255 0 0
0.131974 -0.190103 0.741217 255 0 0
0.399472 -0.36076 0.905331 255 0 0
0.505674 -0.300517 0.915179 255 0 0
0.453456 -0.260449 0.872679 255 0 0
0.418673 -0.350152 0.955219 255 0 0
0.277633 -0.348863 0.84848 255 0 0
0.302254 -0.325463 0.855931 255 0 0
0.22336 -0.351723 0.803295 255 0 0
0.178775 -0.372081 0.772969 255 0 0
0.176617 -0.381299 0.793122 255 0 0
0.492495 -0.347066 0.86742 255 0 0
0.267112 -0.364683 0.857026 255 0 0
0.0654349 -0.217685 0.768837 255 0 0
0.21917 -0.336563 0.807503 255 0 0
0.432031 -0.373928 0.924791 255 0 0
0.308118 -0.223171 0.817125 255 0 0
0.439646 -0.375877 0.926409 255 0 0
0.197762 -0.219126 0.78977 255 0 0
0.27075 -0.279932 0.834748 255 0 0
0.49756 -0.143354 0.70042 255 0 0
0.309645 -0.328842 0.852481 255 0 0
0.476571 -0.248822 0.972611 255 0 0
0.623208 -0.294306 0.965518 255 0 0
0.197882 -0.349973 0.864455 255 0 0
0.313946 -0.291052 0.822065 255 0 0
0.683352 -0.204809 0.878924 255 0 0
0.365235 -0.245537 0.829535 255 0 0
0.48543 -0.286131 0.905599 255 0 0
0.258266 -0.271178 0.880203 255 0 0
0.520684 -0.133193 0.655101 255 0 0
0.313832 -0.289825 0.821359 255 0 0
0.658329 -0.13095 0.76383 255 0 0
0.238703 -0.289236 0.854383 255 0 0
0.322256 -0.320439 0.850122 255 0 0
0.381599 -0.283983 0.851088 255 0 0
0.474826 -0.274591 0.896084 255 0 0
0.471421 -0.0306647 0.771032 255 0 0
0.219087 -0.250729 0.792317 255 0 0
0.0603667 -0.081879 0.671399 255 0 0
-0.0413635 -0.194086 0.664418 255 0 0
0.07464 -0.0684421 0.639079 255 0 0
-0.0438991 -0.145402 0.909222 255 0 0
0.0506902 -0.226662 0.559455 255 0 0
0.0867856 -0.0757496 0.649734 255 0 0
0.304504 -0.156314 0.541658 255 0 0
0.0507851 -0.226389 0.559454 255 0 0
0.196739 -0.207094 0.644948 255 0 0
0.211232 -0.209607 0.779328 255 0 0
0.146146 -0.141186 0.662919 255 0 0
0.339428 -0.253847 0.795492 255 0 0
0.191012 -0.292607 0.797604 255 0 0
0.0812347 -0.18449 0.673173 255 0 0
0.232102 -0.346238 0.801794 255 0 0
0.0107059 -0.188013 0.687282 255 0 0
0.345751 -0.235077 0.778876 255 0 0
0.0220769 -0.347045 0.894576 255 0 0
0.0919157 -0.182522 0.659231 255 0 0
0.464436 -0.270451 0.873784 255 0 0
0.497085 -0.165003 0.899873 255 0 0
0.0542824 -0.206656 0.636047 255 0 0
0.0706134 -0.0830414 0.70426 255 0 0
0.491992 -0.210218 0.874361 255 0 0
0.259307 -0.295574 0.847477 255 0 0
0.0948145 -0.100317 0.698642 255 0 0
0.332385 -0.163181 0.555971 255 0 0
0.488045 -0.283803 0.893901 255 0 0
0.184938 -0.0946446 0.549103 255 0 0
0.419203 -0.230815 0.853653 255 0 0
0.182971 -0.0928599 0.557708 255 0 0
0.18124 -0.294516 0.782098 255 0 0
0.220873 -0.251857 0.798291 255 0 0
0.194966 -0.131341 0.58383 255 0 0
0.0891835 -0.126486 0.732837 255 0 0
0.254043 -0.338004 0.832343 255 0 0
0.259854 -0.295234 0.843881 255 0 0
0.39573 -0.266812 0.866169 255 0 0
0.395381 -0.271936 0.817178 255 0 0
0.136746 -0.156778 0.684246 255 0 0
0.174352 -0.285432 0.834611 255 0 0
0.324338 -0.323983 0.839801 255 0 0
0.160423 -0.133972 0.702044 255 0 0
0.138032 -0.277893 0.801097 255 0 0
0.0601402 -0.0348342 0.567882 255 0 0
0.356315 -0.313376 0.867342 255 0 0
0.395474 -0.0587793 0.628576 255 0 0
0.126261 -0.0751548 0.572399 255 0 0
0.143059 -0.137377 0.685172 255 0 0
0.350278 -0.25772 0.836614 255 0 0
0.0907417 -0.0851061 0.686512 255 0 0
0.0815341 -0.0882228 0.691943 255 0 0
0.244092 -0.13249 0.528896 255 0 0
0.28751 -0.151475 0.578029 255 0 0
-0.0738366 -0.145325 0.671131 255 0 0
0.367031 -0.241182 0.842885 255 0 0
0.344892 -0.294186 0.842895 255 0 0
0.134749 -0.227795 0.630334 255 0 0
0.0599404 -0.0380516 0.525252 255 0 0
0.0886774 -0.185299 0.650266 255 0 0
0.0815795 -0.203153 0.689625 255 0 0
0.112839 -0.188916 0.808446 255 0 0
0.158038 -0.287546 0.790326 255 0 0
0.160671 -0.0968215 0.552051 255 0 0
0.175353 -0.10474 0.602406 255 0 0
0.381271 -0.0710932 0.605955 255 0 0
0.133251 -0.250439 0.741349 255 0 0
0.175482 -0.105678 0.59067 255 0 0
0.278368 -0.140918 0.553813 255 0 0
-0.0262121 -0.0307947 0.596989 255 0 0
0.277968 -0.270328 0.832782 255 0 0
0.14508 -0.278185 0.794648 255 0 0
0.0946307 -0.157625 0.693929 255 0 0
0.329083 -0.244231 0.849262 255 0 0
0.15056 -0.296239 0.836565 255 0 0
0.139626 -0.137502 0.69797 255 0 0
0.276838 -0.269953 0.828355 255 0 0
0.259921 -0.282206 0.767229 255 0 0
0.182424 -0.0948711 0.538042 255 0 0
0.183127 -0.0954581 0.533799 255 0 0
0.084957 -0.082251 0.637698 255 0 0
0.139804 -0.158984 0.753385 255 0 0
0.144173 -0.137575 0.679525 255 0 0
0.210004 -0.141297 0.624513 255 0 0
0.0901161 -0.205719 0.845083 255 0 0
0.383591 -0.270198 0.848946 255 0 0
0.138644 -0.265471 0.790663 255 0 0
0.1553 -0.282725 0.772263 255 0 0
0.271625 0.0211785 0.851473 255 0 0
0.393385 -0.264418 0.834731 255 0 0
0.0204733 -0.311436 0.797884 255 0 0
0.163876 -0.10092 0.586008 255 0 0
0.42452 -0.310128 0.906205 255 0 0
0.416844 -0.342745 0.93009 255 0 0
0.411891 -0.204047 0.843886 255 0 0
0.0585613 -0.283492 0.568068 255 0 0
0.407471 -0.0659425 0.633451 255 0 0
0.250623 -0.127275 0.515024 255 0 0
0.357715 -0.316171 0.876799 255 0 0
0.128465 -0.248005 0.784657 255 0 0
0.327324 -0.325675 0.857998 255 0 0
0.245131 -0.131093 0.529558 255 0 0
0.216361 -0.137532 0.628212 255 0 0
0.0363697 -0.319947 0.808446 255 0 0
0.455438 -0.265384 0.921961 255 0 0
0.0838161 -0.174698 0.673651 255 0 0
0.21844 -0.204219 0.758138 255 0 0
0.0422787 -0.161465 0.74943 255 0 0
0.0108699 -0.185324 0.688395 255 0 0
0.359911 -0.306658 0.86715 255 0 0
0.198853 -0.0998356 0.554191 255 0 0
0.419764 -0.233052 0.859565 255 0 0
0.102349 -0.0470584 0.506514 255 0 0
0.0465102 -0.193634 0.687639 255 0 0
0.121677 -0.0597551 0.585879 255 0 0
0.0072014 -0.181167 0.69999 255 0 0
0.167472 -0.375405 0.773814 255 0 0
0.39487 -0.281835 0.83752 255 0 0
0.345359 -0.295666 0.844969 255 0 0
0.492099 -0.355116 0.872368 255 0 0
0.233941 -0.363473 0.79989 255 0 0
0.376506 -0.266803 0.845939 255 0 0
0.160586 -0.380332 0.790855 255 0 0
0.372973 -0.245962 0.854045 255 0 0
0.528898 -0.298484 0.926425 255 0 0
0.553993 -0.283198 0.937676 255 0 0
0.17615 -0.36046 0.771478 255 0 0
0.175721 -0.369419 0.776386 255 0 0
0.0558177 -0.207026 0.635841 255 0 0
0.176513 -0.36578 0.820053 255 0 0
0.299627 -0.313098 0.838889 255 0 0
0.543692 -0.329033 0.945289 255 0 0
0.453241 -0.374693 0.976389 255 0 0
0.169708 -0.370089 0.830657 255 0 0
0.430991 -0.195573 0.841772 255 0 0
0.0532194 -0.20674 0.640208 255 0 0
0.217109 -0.338507 0.808557 255 0 0
0.509335 -0.30188 0.91341 255 0 0
0.152529 -0.0906703 0.591574 255 0 0
0.0538221 -0.0332903 0.57309 255 0 0
0.138143 -0.223153 0.610459 255 0 0
0.304893 -0.155839 0.549627 255 0 0
-0.0233746 -0.192583 0.637292 255 0 0
-0.0116503 -0.0361757 0.556627 255 0 0
0.10641 -0.0454297 0.493433 255 0 0
0.168068 -0.309876 0.781138 255 0 0
0.245337 -0.132038 0.524127 255 0 0
0.44915 -0.312728 0.937204 255 0 0
0.0728106 -0.0430885 0.530235 255 0 0
0.452751 -0.260001 0.873019 255 0 0
0.182081 -0.086554 0.501273 255 0 0
0.281519 -0.3516 0.859039 255 0 0
0.181582 -0.0861959 0.504505 255 0 0
0.117334 -0.028515 0.552388 255 0 0
0.215507 -0.29642 0.801971 255 0 0
0.242935 -0.336307 0.814702 255 0 0
0.230324 -0.355607 0.800232 255 0 0
0.245556 -0.382934 0.868446 255 0 0
0.166027 -0.316946 0.804978 255 0 0
0.245288 -0.382941 0.868072 255 0 0
0.172154 -0.361296 0.778055 255 0 0
0.196676 -0.375304 0.832599 255 0 0
0.238946 -0.249586 0.77532 255 0 0
-0.0375653 -0.319037 0.834679 255 0 0
0.423799 -0.22205 0.852672 255 0 0
0.511097 -0.299626 0.935149 255 0 0
0.148477 -0.267742 0.803723 255 0 0
0.198552 -0.360141 0.807853 255 0 0
0.42085 -0.229688 0.85248 255 0 0
0.396823 -0.170995 0.832558 255 0 0
0.293337 -0.340524 0.912575 255 0 0
0.0348978 -0.315103 0.801417 255 0 0
0.531566 -0.159616 0.701105 255 0 0
0.341017 -0.260183 0.842138 255 0 0
0.37 -0.361633 0.92268 255 0 0
0.232961 -0.345032 0.809101 255 0 0
0.427758 -0.214086 0.846714 255 0 0
0.335707 -0.358168 0.923321 255 0 0
0.345603 -0.294405 0.843034 255 0 0
-15.5092 -1.09976 14.8845 255 0 0
-10.9344 -0.82591 10.7488 255 0 0
0.536345 -0.116354 0.608832 255 0 0
-0.277369 -0.482524 1.51379 255 0 0
0.269605 -0.272627 0.836301 255 0 0
0.546001 -0.217946 0.920773 255 0 0
0.254455 -0.144349 1.07256 255 0 0
0.633088 -0.106336 0.647253 255 0 0
-3.25283 -0.507238 4.45345 255 0 0
0.185757 -0.22046 0.857095 255 0 0
0.133007 -0.0367868 0.964168 255 0 0
0.37869 -0.116962 1.38504 255 0 0
-0.0894433 -0.34024 1.39498 255 0 0
-0.143709 -0.0723765 1.07957 255 0 0
-0.93072 0.0623609 2.95484 255 0 0
0.29864 -0.301107 1.42632 255 0 0
0.326948 -0.228247 0.81407 255 0 0
0.547566 -0.19558 0.75344 255 0 0
0.656863 -0.181053 0.888533 255 0 0
0.301924 -0.269642 0.804161 255 0 0
0.326405 -0.238385 0.834745 255 0 0
0.379238 -0.274054 0.792465 255 0 0
0.294525 -0.271734 0.821404 255 0 0
0.133171 -0.269118 0.787997 255 0 0
0.36289 -0.319643 0.877665 255 0 0
0.505463 -0.299943 0.911934 255 0 0
0.3761 -0.323795 0.897688 255 0 0
0.172021 -0.360228 0.777562 255 0 0
0.161177 -0.366013 0.796536 255 0 0
0.195923 -0.129794 0.574139 255 0 0
0.0829057 -0.0865956 0.750316 255 0 0
0.0232628 -0.3399 0.878807 255 0 0
0.0503962 -0.26861 0.937368 255 0 0
0.327678 -0.310599 0.834252 255 0 0
0.147011 -0.286486 0.792567 255 0 0
0.30596 -0.0928232 0.421308 255 0 0
0.195327 -0.146202 0.633487 255 0 0
0.0531359 -0.206878 0.641753 255 0 0
0.235818 -0.145355 0.582771 255 0 0
0.305559 -0.213411 0.917659 255 0 0
0.304894 -0.0940116 0.421456 255 0 0
0.0629649 -0.154038 0.712363 255 0 0
0.376417 -0.054088 0.659927 255 0 0
0.228115 -0.141041 0.599966 255 0 0
0.223614 -0.33389 0.805477 255 0 0
0.294288 -0.272566 0.822323 255 0 0
0.221141 -0.266763 0.839132 255 0 0
0.326973 -0.276849 0.821263 255 0 0
0.276807 0.0282676 0.83097 255 0 0
0.039606 -0.312386 0.793056 255 0 0
0.357927 -0.247796 0.839505 255 0 0
0.370989 -0.259518 0.831229 255 0 0
-0.0714304 -0.0713423 0.724304 255 0 0
0.171648 -0.227676 0.825342 255 0 0
0.0606631 -0.283569 0.564485 255 0 0
0.0852142 -0.186466 0.656663 255 0 0
0.242873 -0.287585 0.811832 255 0 0
0.000126096 -0.340814 0.783185 255 0 0
0.223302 -0.265495 0.816523 255 0 0
0.21699 -0.250538 0.814812 255 0 0
0.302744 -0.155608 0.556307 255 0 0
0.0682945 -0.0425221 0.506395 255 0 0
0.310736 -0.327009 0.852208 255 0 0
0.0548507 -0.206753 0.635772 255 0 0
0.141708 -0.159713 0.879446 255 0 0
0.342621 -0.262972 0.851879 255 0 0
0.342998 -0.245586 0.819015 255 0 0
0.196645 -0.136615 0.569032 255 0 0
0.450539 -0.365543 0.929747 255 0 0
0.126339 -0.238522 0.772478 255 0 0
0.0276641 -0.203635 0.632075 255 0 0
0.397394 -0.0582775 0.633825 255 0 0
0.384887 -0.277491 0.848823 255 0 0
0.172346 -0.103519 0.583576 255 0 0
0.130526 -0.180698 0.704301 255 0 0
0.0639614 -0.0383743 0.541945 255 0 0
0.258313 -0.294193 0.844451 255 0 0
0.360951 -0.306477 0.865317 255 0 0
0.181706 -0.0865055 0.50252 255 0 0
0.206422 -0.103577 0.540006 255 0 0
0.343156 -0.244409 0.822746 255 0 0
0.121391 -0.0767531 0.65245 255 0 0
0.312337 -0.325714 0.852258 255 0 0
0.349866 -0.254559 0.825416 255 0 0
0.370338 -0.066742 0.654066 255 0 0
0.326103 -0.278157 0.826889 255 0 0
0.316114 -0.281178 0.772368 255 0 0
0.379408 -0.0542832 0.661033 255 0 0
0.0905454 -0.0842813 0.687136 255 0 0
0.152977 -0.0910878 0.589278 255 0 0
0.305453 0.0102935 0.771819 255 0 0
0.427777 -0.0749375 0.659463 255 0 0
0.11482 -0.11945 0.709187 255 0 0
0.336884 -0.252135 0.8249 255 0 0
0.0783595 -0.13782 0.732358 255 0 0
0.236548 -0.24397 0.795511 255 0 0
0.366441 -0.299281 0.865691 255 0 0
0.4432 -0.0275702 0.732831 255 0 0
0.674144 -0.160854 0.813383 255 0 0
0.429683 -0.213504 0.843843 255 0 0
0.325159 -0.271902 0.804686 255 0 0
0.523855 -0.132042 0.647259 255 0 0
0.628525 -0.179435 0.840409 255 0 0
0.391117 -0.277282 0.89208 255 0 0
0.53089 -0.136766 0.654932 255 0 0
0.604553 -0.150379 0.696262 255 0 0
0.60858 -0.123254 0.64967 255 0 0
0.598068 -0.15818 0.705936 255 0 0
0.63645 -0.0960774 0.64411 255 0 0
0.523433 -0.303784 0.936948 255 0 0
0.48973 -0.318734 0.882848 255 0 0
0.611466 -0.19044 0.902674 255 0 0
0.180677 -0.37977 0.786947 255 0 0
0.479618 -0.314961 0.846884 255 0 0
0.315554 -0.282084 0.817965 255 0 0
0.181227 -0.297913 0.798531 255 0 0
0.382006 -0.282343 0.866197 255 0 0
0.318997 -0.288762 0.820116 255 0 0
0.326378 -0.30328 0.830878 255 0 0
0.0799111 -0.191952 0.651953 255 0 0
0.434396 -0.192225 0.838959 255 0 0
0.528527 -0.295542 0.924678 255 0 0
0.531826 -0.313134 0.932549 255 0 0
0.448524 -0.312868 0.928552 255 0 0
0.244804 -0.148035 1.07572 255 0 0
0.0965625 -0.225542 0.749979 255 0 0
0.229565 -0.332467 0.794336 255 0 0
0.480457 -0.272878 0.868148 255 0 0
0.558865 -0.269631 0.94662 255 0 0
0.542268 -0.328547 0.94807 255 0 0
0.476156 -0.274644 0.893482 255 0 0
0.490896 -0.340088 0.874971 255 0 0
0.363807 -0.319776 0.877553 255 0 0
0.417971 -0.234787 0.850483 255 0 0
0.10384 -0.246281 0.773931 255 0 0
0.202621 -0.255219 0.799894 255 0 0
0.368552 -0.255783 0.858306 255 0 0
0.322407 -0.338082 0.890488 255 0 0
0.236272 -0.137493 0.545633 255 0 0
0.509361 -0.177818 0.875674 255 0 0
0.485504 -0.241963 0.941252 255 0 0
0.495588 -0.29533 0.90272 255 0 0
0.438885 -0.377222 0.924974 255 0 0
0.322965 -0.306539 0.837552 255 0 0
0.611868 -0.191458 0.901222 255 0 0
0.529831 -0.159492 0.712244 255 0 0
0.508504 -0.111038 0.613024 255 0 0
0.15693 -0.286228 0.788159 255 0 0
0.216637 -0.337242 0.808793 255 0 0
0.15013 -0.287322 0.79414 255 0 0
0.27285 -0.272232 0.823717 255 0 0
0.329018 -0.270817 0.563943 255 0 0
0.367224 -0.360321 0.923426 255 0 0
0.59842 -0.138826 0.628381 255 0 0
0.323914 -0.316567 0.823761 255 0 0
0.147192 -0.288775 0.80156 255 0 0
0.576847 -0.158653 0.70669 255 0 0
0.492682 -0.345569 0.942995 255 0 0
0.445421 -0.259461 0.863477 255 0 0
0.368885 -0.246608 0.853916 255 0 0
0.164216 -0.359625 0.824596 255 0 0
0.304737 -0.214879 0.820562 255 0 0
0.365333 -0.336759 0.889989 255 0 0
0.334268 -0.246028 0.819553 255 0 0
0.578922 -0.157552 0.700921 255 0 0
0.548504 -0.19493 0.75125 255 0 0
0.645979 -0.136891 0.769383 255 0 0
0.596351 -0.158938 0.703365 255 0 0
0.36445 -0.304641 0.859901 255 0 0
0.590618 -0.157709 0.692551 255 0 0
0.24255 -0.249976 0.760849 255 0 0
0.642866 -0.0940884 0.642292 255 0 0
0.6354 -0.0952602 0.640887 255 0 0
0.442294 -0.0272271 0.733643 255 0 0
0.60324 -0.142042 0.730768 255 0 0
0.479748 -0.0327412 0.762409 255 0 0
0.489577 -0.264359 0.901213 255 0 0
0.674813 -0.161187 0.80982 255 0 0
0.637347 -0.175659 0.826572 255 0 0
0.354606 -0.25162 0.821644 255 0 0
0.294929 -0.293315 0.83371 255 0 0
0.0889728 -0.32583 0.835185 255 0 0
0.430717 -0.212973 0.842226 255 0 0
0.627796 -0.138127 0.680006 255 0 0
0.238066 -0.254584 0.790102 255 0 0
0.31453 -0.295091 0.824304 255 0 0
0.348913 -0.261003 0.835714 255 0 0
0.400576 -0.232684 0.856779 255 0 0
0.229749 -0.355841 0.800044 255 0 0
0.444272 -0.380041 0.925555 255 0 0
0.348192 -0.0611995 0.703074 255 0 0
0.212911 -0.297262 0.807605 255 0 0
0.201987 -0.216598 0.772481 255 0 0
0.357139 -0.314686 0.870279 255 0 0
0.255675 -0.374412 0.862918 255 0 0
0.183101 -0.366035 0.835014 255 0 0
0.201799 -0.251364 0.803779 255 0 0
0.409106 -0.210934 0.845487 255 0 0
0.419355 -0.233362 0.850723 255 0 0
0.12755 -0.147767 0.708446 255 0 0
0.106019 -0.314296 0.807836 255 0 0
0.197639 -0.275882 0.801493 255 0 0
0.412444 -0.205064 0.844977 255 0 0
0.342883 -0.262641 0.843699 255 0 0
0.00699384 -0.0434218 0.532607 255 0 0
0.0819321 -0.0492221 0.615075 255 0 0
0.123762 -0.157737 0.671921 255 0 0
0.287459 -0.174069 0.89919 255 0 0
0.0425901 -0.296659 0.874229 255 0 0
0.0141034 -0.317551 0.794547 255 0 0
0.0777332 -0.185258 0.680462 255 0 0
0.101969 -0.0808764 0.63701 255 0 0
0.318504 -0.287272 0.812485 255 0 0
0.301083 -0.249839 0.82338 255 0 0
0.115423 -0.0665998 0.611442 255 0 0
0.0752739 -0.08606 0.638322 255 0 0
0.078008 -0.119211 0.780212 255 0 0
0.0337466 -0.333372 0.821177 255 0 0
0.0418292 -0.0771964 0.69139 255 0 0
0.240763 -0.135157 0.549047 255 0 0
0.28502 -0.149611 0.53813 255 0 0
0.338759 -0.256556 0.854666 255 0 0
0.0654627 -0.154277 0.726889 255 0 0
0.0317811 -0.336411 0.823829 255 0 0
0.0536685 -0.175471 0.723569 255 0 0
0.0955979 -0.0921923 0.702716 255 0 0
0.180065 -0.0942774 0.547883 255 0 0
0.227488 -0.295057 0.814439 255 0 0
0.0538349 -0.0822093 0.660814 255 0 0
0.266257 -0.276528 0.825883 255 0 0
0.0874593 -0.0512163 0.564004 255 0 0
0.0911789 -0.0842081 0.686609 255 0 0
0.454695 -0.307307 0.906889 255 0 0
0.355276 -0.321089 0.874361 255 0 0
0.180468 -0.352692 0.804263 255 0 0
0.373657 -0.326035 0.906788 255 0 0
0.300899 -0.312501 0.83104 255 0 0
0.352554 -0.252393 0.847825 255 0 0
0.359553 -0.278721 0.847758 255 0 0
0.420481 -0.360542 0.911272 255 0 0
0.652842 -0.130077 0.767684 255 0 0
0.232373 -0.252154 0.776321 255 0 0
0.404685 -0.340176 0.91172 255 0 0
0.307884 -0.322125 0.838633 255 0 0
0.218015 -0.35916 0.765721 255 0 0
0.104429 -0.252451 0.771842 255 0 0
0.237112 -0.343219 0.804357 255 0 0
0.336803 -0.354722 0.917373 255 0 0
0.420803 -0.200717 0.84185 255 0 0
0.398402 -0.342872 0.915163 255 0 0
0.269405 -0.363572 0.854872 255 0 0
0.378348 -0.359779 0.911057 255 0 0
0.476604 -0.276132 0.921882 255 0 0
0.180848 -0.252008 0.778624 255 0 0
0.435984 -0.338254 0.930991 255 0 0
0.279527 -0.350062 0.852998 255 0 0
0.470719 -0.334614 0.864148 255 0 0
0.151912 -0.297939 0.828759 255 0 0
0.180766 -0.0910863 0.528515 255 0 0
0.216711 -0.266469 0.843844 255 0 0
0.062664 -0.17686 0.649433 255 0 0
0.361217 -0.313354 0.86659 255 0 0
0.436562 -0.258682 0.862764 255 0 0
0.519288 -0.302067 0.930466 255 0 0
0.365982 -0.060113 0.666949 255 0 0
0.190034 -0.367621 0.810141 255 0 0
0.367452 -0.240306 0.842024 255 0 0
0.316249 -0.320318 0.843066 255 0 0
0.117607 -0.114865 0.690904 255 0 0
0.197361 -0.0971575 0.554973 255 0 0
0.49193 -0.351121 0.868674 255 0 0
0.136193 -0.243233 0.753204 255 0 0
0.340245 -0.259293 0.824359 255 0 0
0.305756 -0.326697 0.844401 255 0 0
0.198484 -0.372284 0.817552 255 0 0
0.302493 -0.154387 0.54685 255 0 0
0.159676 -0.265315 0.785676 255 0 0
0.488294 -0.285688 0.894877 255 0 0
0.302263 -0.305545 0.861018 255 0 0
0.332768 -0.231104 0.836637 255 0 0
0.250247 -0.12618 0.517948 255 0 0
0.00410279 -0.331016 0.793605 255 0 0
0.00597854 -0.32983 0.788242 255 0 0
0.132852 -0.226807 0.750972 255 0 0
0.486023 -0.162461 0.93028 255 0 0
0.433706 -0.192357 0.839722 255 0 0
0.302865 -0.154892 0.567536 255 0 0
0.406673 -0.0720749 0.657603 255 0 0
0.148651 -0.293203 0.795234 255 0 0
0.142519 -0.260486 0.760718 255 0 0
0.317289 -0.324005 0.856062 255 0 0
0.153022 -0.285898 0.793636 255 0 0
0.503256 -0.12764 0.653676 255 0 0
0.422073 -0.225646 0.858932 255 0 0
0.30567 -0.216223 0.819318 255 0 0
0.397831 -0.363709 0.904502 255 0 0
0.481799 -0.0322927 0.76284 255 0 0
0.664782 -0.101155 0.651092 255 0 0
0.459965 -0.10282 0.621 255 0 0
0.312474 -0.253433 0.798205 255 0 0
0.464296 -0.101868 0.615379 255 0 0
0.522218 -0.30403 0.912519 255 0 0
-0.0696443 -0.196168 0.935246 255 0 0
0.480023 -0.028389 0.760263 255 0 0
0.368132 -0.278501 0.846653 255 0 0
0.367646 -0.254885 0.823103 255 0 0
0.257461 -0.307039 0.850767 255 0 0
0.395391 -0.286674 0.872678 255 0 0
0.667411 -0.0983058 0.649948 255 0 0
0.581995 -0.158783 0.704092 255 0 0
0.284105 -0.2575 0.829565 255 0 0
0.298114 -0.149309 0.824209 255 0 0
0.0326768 -0.297132 0.811506 255 0 0
0.162845 -0.380978 0.790301 255 0 0
0.163954 -0.381134 0.787606 255 0 0
0.310604 -0.333347 0.866581 255 0 0
0.393902 -0.369047 0.913601 255 0 0
0.343063 -0.294213 0.846612 255 0 0
0.298911 -0.148275 0.823684 255 0 0
0.449808 -0.313032 0.938044 255 0 0
0.21941 -0.264805 0.804895 255 0 0
0.0917039 -0.187422 0.648 255 0 0
0.207728 -0.207872 0.762382 255 0 0
-0.0600133 -0.371669 1.07406 255 0 0
0.127984 -0.266018 0.786907 255 0 0
0.237286 -0.255068 0.788716 255 0 0
0.418589 -0.234649 0.853239 255 0 0
0.313758 -0.226427 0.815217 255 0 0
0.367106 -0.240169 0.841911 255 0 0
0.424299 -0.30939 0.904785 255 0 0
0.141859 -0.270485 0.766534 255 0 0
0.320198 -0.341738 0.885637 255 0 0
0.280131 -0.269935 0.844572 255 0 0
0.420371 -0.19989 0.843677 255 0 0
0.427323 -0.213826 0.848134 255 0 0
0.369247 -0.259816 0.842601 255 0 0
0.327167 -0.316929 0.833126 255 0 0
0.199856 -0.281172 0.803174 255 0 0
0.482591 -0.284633 0.901919 255 0 0
0.230474 -0.354884 0.798525 255 0 0
0.243518 -0.280369 0.804376 255 0 0
0.300308 -0.262823 0.79479 255 0 0
0.615879 -0.166279 0.736529 255 0 0
0.528741 -0.16006 0.704178 255 0 0
0.268959 -0.0926306 0.742556 255 0 0
0.492923 -0.345274 0.943088 255 0 0
0.497837 -0.289012 0.910469 255 0 0
0.425237 -0.221654 0.850804 255 0 0
0.346925 -0.260787 0.837593 255 0 0
0.558893 -0.312709 0.963641 255 0 0
0.436431 -0.24213 0.86472 255 0 0
0.22507 -0.351081 0.801202 255 0 0
0.299058 -0.313353 0.833943 255 0 0
0.299541 -0.313238 0.833717 255 0 0
0.0617202 -0.0511944 0.593635 255 0 0
0.348324 -0.0573655 0.698645 255 0 0
0.275491 -0.270471 0.862163 255 0 0
0.490608 -0.336348 0.87692 255 0 0
0.384362 -0.280313 0.844016 255 0 0
0.1985 -0.2743 0.793353 255 0 0
0.344388 -0.293146 0.843594 255 0 0
0.410205 -0.204812 0.846222 255 0 0
0.081384 -0.235786 0.788884 255 0 0
0.406223 -0.211905 0.849983 255 0 0
0.30193 -0.312717 0.833143 255 0 0
0.0758235 -0.195063 0.64977 255 0 0
0.121768 -0.157689 0.676816 255 0 0
0.436705 -0.235054 0.859323 255 0 0
0.202008 -0.368311 0.820947 255 0 0
0.387804 -0.320498 0.895463 255 0 0
-0.0392824 -0.370313 0.745502 255 0 0
0.367505 -0.271261 0.853376 255 0 0
0.0420204 -0.311909 0.790095 255 0 0
0.397855 -0.274048 0.877253 255 0 0
0.117115 -0.397409 0.778806 255 0 0
0.448228 -0.380259 0.933784 255 0 0
0.36503 -0.320837 0.880595 255 0 0
0.424511 -0.222796 0.852442 255 0 0
0.365926 -0.320669 0.876933 255 0 0
0.400397 -0.273214 0.873727 255 0 0
0.332017 -0.319478 0.82745 255 0 0
0.522307 -0.307699 0.937394 255 0 0
0.565995 -0.267957 0.937773 255 0 0
0.254297 -0.376317 0.857116 255 0 0
0.394609 -0.343463 0.914971 255 0 0
0.235772 -0.343863 0.804415 255 0 0
0.151723 -0.384792 0.779422 255 0 0
0.304537 -0.290155 0.823637 255 0 0
0.491289 -0.348823 0.960917 255 0 0
0.332265 -0.119702 0.733837 255 0 0
0.314232 -0.297421 0.824995 255 0 0
0.487917 -0.279385 0.898692 255 0 0
0.370099 -0.285242 0.868701 255 0 0
0.626384 -0.292894 0.955819 255 0 0
0.458276 -0.307272 0.904626 255 0 0
0.565306 -0.267985 0.935324 255 0 0
0.417104 -0.232569 0.856905 255 0 0
0.38991 -0.287898 0.876888 255 0 0
0.0789113 -0.183377 0.844238 255 0 0
0.683331 -0.205566 0.886602 255 0 0
0.67266 -0.161477 0.81765 255 0 0
0.597593 -0.158904 0.702048 255 0 0
0.398887 -0.34293 0.919779 255 0 0
0.493471 -0.101418 0.615345 255 0 0
0.234401 -0.366327 0.796859 255 0 0
0.351056 -0.381746 0.915187 255 0 0
0.483365 -0.27149 0.858512 255 0 0
0.215116 -0.33862 0.810446 255 0 0
0.216626 -0.34661 0.845915 255 0 0
0.427967 -0.214962 0.84628 255 0 0
0.201598 -0.35117 0.86505 255 0 0
0.233518 -0.243778 0.797795 255 0 0
0.122557 -0.395127 0.770191 255 0 0
0.437201 -0.200665 0.393717 255 0 0
0.297783 -0.148117 0.824249 255 0 0
0.411009 -0.20998 0.844945 255 0 0
0.306625 -0.323116 0.839462 255 0 0
0.175145 -0.376618 0.778723 255 0 0
0.442666 -0.299088 0.896614 255 0 0
0.347731 -0.315862 0.864872 255 0 0
0.402555 -0.317724 0.907762 255 0 0
0.312009 -0.32367 0.841731 255 0 0
0.21948 -0.315454 0.805309 255 0 0
0.0770333 -0.307087 0.794188 255 0 0
0.180124 -0.352983 0.805567 255 0 0
0.184249 -0.365122 0.829278 255 0 0
0.419923 -0.227212 0.854559 255 0 0
0.173659 -0.356797 0.826067 255 0 0
0.554838 -0.284407 0.943429 255 0 0
0.314616 -0.272849 0.813 255 0 0
0.39712 -0.365608 0.907754 255 0 0
0.504006 -0.168645 0.91337 255 0 0
0.0656592 -0.218938 0.774059 255 0 0
0.397383 -0.174787 0.834759 255 0 0
0.0679086 -0.220049 0.769971 255 0 0
0.339378 -0.356517 0.918249 255 0 0
0.529638 -0.303757 0.921174 255 0 0
0.532399 -0.335018 0.932848 255 0 0
0.241287 -0.248534 0.765042 255 0 0
0.101848 -0.176662 0.670599 255 0 0
0.0280675 -0.319308 0.813234 255 0 0
0.29546 -0.344109 0.850353 255 0 0
0.287618 -0.348309 0.85735 255 0 0
0.422459 -0.295357 0.838851 255 0 0
0.169977 -0.373698 0.772022 255 0 0
0.033189 -0.29669 0.810721 255 0 0
0.0934646 -0.0775601 0.63275 255 0 0
0.303363 -0.155231 0.551362 255 0 0
0.444501 -0.378787 0.925584 255 0 0
0.360034 -0.305683 0.865216 255 0 0
0.328128 -0.277859 0.822264 255 0 0
0.43883 -0.392325 0.92199 255 0 0
0.553339 -0.282334 0.936839 255 0 0
0.375532 -0.355714 0.897216 255 0 0
-0.0528489 -0.36125 0.965446 255 0 0
0.229835 -0.291455 0.808961 255 0 0
0.17721 -0.369511 0.777988 255 0 0
0.33686 -0.246011 0.826913 255 0 0
0.172674 -0.240801 0.772651 255 0 0
0.172147 -0.368503 0.822569 255 0 0
0.465494 -0.279332 0.922464 255 0 0
0.465718 -0.280942 0.888655 255 0 0
0.558129 -0.36606 1.01784 255 0 0
0.0244267 -0.347859 0.883842 255 0 0
0.363313 -0.362082 0.927161 255 0 0
0.186522 -0.2074 0.789352 255 0 0
0.153729 -0.15719 0.810306 255 0 0
0.173895 -0.376975 0.780776 255 0 0
0.167872 -0.374788 0.774296 255 0 0
0.336592 -0.193119 0.905027 255 0 0
0.534995 -0.331972 0.941798 255 0 0
0.382683 -0.280583 0.863902 255 0 0
0.236372 -0.362597 0.794163 255 0 0
0.449944 -0.39368 0.935217 255 0 0
-0.0870629 -0.390393 0.826557 255 0 0
0.593193 -0.356012 0.954451 255 0 0
0.33977 -0.19336 0.889553 255 0 0
0.437948 -0.39327 0.925001 255 0 0
0.170351 -0.156906 0.796504 255 0 0
0.20646 -0.374956 0.808147 255 0 0
0.528376 -0.323529 0.92081 255 0 0
0.209635 -0.364712 0.732918 255 0 0
0.338409 -0.395985 0.963703 255 0 0
0.616648 -0.25163 0.980689 255 0 0
0.252155 -0.334258 0.802806 255 0 0
0.36343 -0.365041 0.934013 255 0 0
0.594977 -0.187055 0.920454 255 0 0
0.491829 -0.339285 0.87232 255 0 0
0.345657 -0.318313 0.874347 255 0 0
0.404195 -0.31768 0.910158 255 0 0
0.529064 -0.322529 0.913041 255 0 0
0.311563 -0.327595 0.852893 255 0 0
0.53497 -0.137212 0.682623 255 0 0
0.342374 -0.360789 0.919325 255 0 0
0.536564 -0.137645 0.665621 255 0 0
0.547681 -0.233193 0.953567 255 0 0
0.514004 -0.312267 0.926932 255 0 0
0.235562 -0.302777 0.821228 255 0 0
0.363149 -0.260369 0.858373 255 0 0
0.5452 -0.242711 0.937761 255 0 0
0.281913 -0.265851 0.819552 255 0 0
0.249288 -0.147598 0.880099 255 0 0
0.140192 -0.26786 0.781585 255 0 0
0.153327 -0.277123 0.786354 255 0 0
0.371857 -0.247278 0.853818 255 0 0
0.20786 -0.349374 0.849112 255 0 0
0.31164 -0.27326 0.81685 255 0 0
0.462902 -0.28185 0.922776 255 0 0
0.463872 -0.282664 0.900064 255 0 0
0.319697 -0.316784 0.828681 255 0 0
0.51307 -0.146035 0.693731 255 0 0
0.468414 -0.280768 0.886573 255 0 0
0.625525 -0.0909734 0.627256 255 0 0
0.625692 -0.0910127 0.626421 255 0 0
0.620293 -0.115248 0.63615 255 0 0
0.46813 -0.107124 0.614416 255 0 0
0.625596 -0.136779 0.691036 255 0 0
0.472631 -0.106261 0.615787 255 0 0
0.628554 -0.133196 0.69221 255 0 0
0.625545 -0.136771 0.691051 255 0 0
0.49307 -0.104295 0.618173 255 0 0
0.525701 -0.132176 0.646129 255 0 0
0.611096 -0.148299 0.682706 255 0 0
0.649314 -0.0933508 0.652902 255 0 0
0.649016 -0.0933616 0.651712 255 0 0
0.538412 -0.056019 0.565937 255 0 0
0.463937 -0.0725495 0.590431 255 0 0
0.503407 -0.102415 0.606226 255 0 0
0.60559 -0.149737 0.696076 255 0 0
0.461099 -0.0722334 0.592527 255 0 0
0.442659 -0.260599 0.87286 255 0 0
0.36736 -0.279918 0.858877 255 0 0
0.471811 -0.104342 0.611386 255 0 0
0.463808 -0.102386 0.615915 255 0 0
0.231352 -0.248991 0.784619 255 0 0
0.399804 -0.273237 0.873402 255 0 0
0.550797 -0.24008 0.930977 255 0 0
0.574368 -0.175866 0.469892 255 0 0
0.552819 -0.262017 0.922934 255 0 0
0.452665 -0.265775 0.889409 255 0 0
0.3906 -0.255496 0.846137 255 0 0
0.426845 -0.219198 0.848604 255 0 0
0.424284 -0.224407 0.846954 255 0 0
0.341956 -0.234037 0.817514 255 0 0
0.561522 -0.11336 0.600926 255 0 0
0.380761 -0.273317 0.791034 255 0 0
0.29475 -0.298443 0.81238 255 0 0
0.247802 -0.284394 0.792423 255 0 0
0.682853 -0.205834 0.889891 255 0 0
0.34814 -0.261198 0.83683 255 0 0
0.610278 -0.13755 0.673885 255 0 0
0.245389 -0.382857 0.868335 255 0 0
0.622538 -0.246603 0.929963 255 0 0
0.610704 -0.252351 0.956259 255 0 0
0.186326 -0.370377 0.794731 255 0 0
0.581179 -0.158928 0.703905 255 0 0
0.569413 -0.136046 0.655378 255 0 0
0.639628 -0.172121 0.840957 255 0 0
0.482546 -0.240048 0.946898 255 0 0
0.565465 -0.308964 0.967479 255 0 0
0.241251 -0.341782 0.798495 255 0 0
0.559402 -0.265226 0.934425 255 0 0
0.274963 -0.277206 0.830291 255 0 0
0.27515 -0.323171 0.791181 255 0 0
0.630461 -0.0993224 0.649001 255 0 0
0.476011 -0.26216 0.976382 255 0 0
0.238452 -0.283777 0.814021 255 0 0
0.495921 -0.095276 0.611437 255 0 0
0.491658 -0.284477 0.900363 255 0 0
0.237216 -0.343759 0.801945 255 0 0
0.308808 -0.322855 0.836963 255 0 0
0.229517 -0.346552 0.809884 255 0 0
0.432797 -0.193514 0.840055 255 0 0
0.604006 -0.187434 0.871584 255 0 0
0.554982 -0.193642 0.738485 255 0 0
0.608843 -0.25489 0.961963 255 0 0
0.419215 -0.230159 0.854942 255 0 0
0.511536 -0.144276 0.698795 255 0 0
0.528335 -0.311127 0.928532 255 0 0
0.219151 -0.336716 0.80784 255 0 0
0.570647 -0.251535 0.958255 255 0 0
0.280466 -0.262302 0.830368 255 0 0
0.304216 -0.325681 0.841436 255 0 0
0.61248 -0.136127 0.667216 255 0 0
0.54287 -0.0525992 0.564512 255 0 0
0.527171 -0.126031 0.627822 255 0 0
0.531965 -0.125923 0.624134 255 0 0
0.629682 0.00166593 0.702282 255 0 0
0.62016 -0.116557 0.642923 255 0 0
0.491653 -0.0896719 0.609165 255 0 0
0.500743 -0.10446 0.611249 255 0 0
0.262482 -0.260602 0.779991 255 0 0
0.594553 -0.160743 0.71072 255 0 0
0.235776 -0.266825 0.802482 255 0 0
0.664305 -0.0991064 0.656651 255 0 0
0.280453 -0.226306 0.845565 255 0 0
0.469551 -0.251865 0.939449 255 0 0
0.396843 -0.238136 0.858372 255 0 0
0.586741 -0.203569 0.905565 255 0 0
0.324073 -0.220052 0.799929 255 0 0
0.495044 -0.0941337 0.609852 255 0 0
0.497276 -0.0939773 0.606878 255 0 0
0.56228 -0.214033 0.909262 255 0 0
0.464395 -0.10091 0.611001 255 0 0
0.468221 -0.101435 0.607354 255 0 0
0.47615 -0.104315 0.609427 255 0 0
0.323025 -0.245532 0.79986 255 0 0
0.47561 -0.0308257 0.757652 255 0 0
0.549467 -0.264042 0.931148 255 0 0
0.678582 -0.208963 0.909837 255 0 0
0.504515 -0.104641 0.60889 255 0 0
0.454799 -0.26175 0.877541 255 0 0
0.54839 -0.255177 0.933083 255 0 0
0.637739 -0.0956796 0.637042 255 0 0
0.682146 -0.0810589 0.661233 255 0 0
0.49828 -0.0895897 0.603137 255 0 0
0.271963 -0.253682 0.767934 255 0 0
0.621919 -0.116346 0.639544 255 0 0
0.681776 -0.0799874 0.670002 255 0 0
0.534918 -0.0521185 0.573454 255 0 0
0.269208 -0.281707 0.837719 255 0 0
0.387699 -0.28901 0.883609 255 0 0
0.352445 -0.249813 0.895677 255 0 0
0.43753 -0.219334 0.577948 255 0 0
0.136023 -0.359361 0.966761 255 0 0
0.369026 -0.281067 0.857122 255 0 0
0.305096 0.00883303 0.770387 255 0 0
0.462075 -0.265089 0.870578 255 0 0
0.521391 -0.136304 0.666522 255 0 0
0.518073 -0.136334 0.668594 255 0 0
0.268961 -0.272463 0.827073 255 0 0
0.409305 -0.021891 0.789903 255 0 0
0.350505 -0.25334 0.86642 255 0 0
0.462269 -0.0303155 0.750701 255 0 0
0.0225537 -0.235298 1.09944 255 0 0
0.443203 -0.191225 0.809753 255 0 0
0.635633 -0.106609 0.64346 255 0 0
0.61368 -0.122298 0.643292 255 0 0
