# Format: timestamp angular_velocity[rad/sec](x y z) linear_acceleration[m/s^2](x y z)
11873.004884720 -0.529994 -0.560904 0.140825 -0.747246 -5.74086 -4.36612
11873.009636641 -0.460847 -0.563168 0.113779 -0.943638 -5.68099 -4.43318
11873.014388800 -0.407021 -0.566233 0.0940613 -1.22146 -5.49657 -4.53377
11873.019140720 -0.364521 -0.568897 0.087 -1.39869 -5.2906 -4.54335
11873.023892641 -0.325884 -0.562103 0.0787397 -1.51126 -5.2882 -4.60802
11873.028644562 -0.29524 -0.563168 0.0744763 -1.5855 -5.17324 -4.61041
11873.033396482 -0.278054 -0.558639 0.0791394 -1.59508 -5.00559 -4.77327
11873.038148165 -0.271392 -0.551977 0.0822037 -1.66214 -4.9026 -4.86668
11873.043260336 -0.269793 -0.548513 0.0848683 -1.73399 -5.04152 -4.95769
11873.047616482 -0.275389 -0.54425 0.0941945 -1.83938 -5.13013 -5.07744
11873.052404404 -0.285914 -0.534923 0.106985 -1.94476 -5.30257 -5.16845
11873.057156086 -0.302701 -0.526263 0.119109 -1.99984 -5.47022 -5.18522
11873.061908007 -0.314026 -0.516671 0.128968 -2.12199 -5.68817 -5.13253
11873.066624165 -0.32615 -0.503747 0.146288 -2.24653 -5.88696 -5.12055
11873.071411848 -0.337475 -0.489092 0.168005 -2.3567 -6.06898 -5.1469
11873.076163769 -0.349599 -0.474703 0.184259 -2.53154 -6.19592 -5.15648
11873.080915928 -0.365187 -0.453119 0.206242 -2.63931 -6.27974 -5.07505
11873.085628986 -0.379709 -0.428205 0.229691 -2.77343 -6.4929 -5.10618
11873.090419531 -0.38717 -0.406489 0.255404 -2.90516 -6.6845 -5.02715
11873.095171452 -0.393832 -0.377311 0.279652 -3.06323 -6.88568 -4.98643
11873.099923611 -0.393165 -0.351198 0.302701 -3.10155 -7.25691 -4.88823
11873.104637146 -0.387969 -0.323086 0.326417 -3.05125 -7.44133 -4.75651
11873.109427452 -0.371715 -0.297505 0.339074 -3.06083 -7.65448 -4.70142
11873.114539385 -0.349199 -0.276455 0.357726 -3.05125 -7.94907 -4.56491
11873.118931293 -0.316424 -0.256337 0.363721 -3.01533 -8.1766 -4.51222
11873.123682976 -0.29111 -0.237685 0.368651 -2.98898 -8.39454 -4.49306
11873.128435135 -0.27006 -0.222629 0.37358 -3.00575 -8.55022 -4.50503
11873.133187056 -0.249809 -0.206908 0.367319 -2.96743 -8.68195 -4.50024
11873.137939215 -0.23915 -0.198115 0.36079 -2.92911 -8.88792 -4.44516
11873.142690897 -0.227426 -0.188655 0.35213 -2.86205 -8.90229 -4.50982
11873.147442818 -0.228358 -0.179862 0.337342 -2.79978 -8.91666 -4.53377
11873.152194738 -0.232489 -0.174933 0.32202 -2.72074 -8.81846 -4.59125
11873.156946898 -0.237551 -0.174133 0.29564 -2.63452 -8.71069 -4.60802
11873.161698580 -0.24821 -0.1744 0.268727 -2.55788 -8.57656 -4.70142
11873.166450739 -0.258735 -0.176665 0.239949 -2.56507 -8.4161 -4.81638
11873.171202660 -0.270193 -0.181461 0.206908 -2.50519 -8.2221 -4.92656
11873.175954342 -0.283116 -0.185591 0.179729 -2.50998 -8.17899 -5.02236
11873.180706263 -0.297639 -0.185191 0.151884 -2.46208 -8.0329 -5.17564
11873.185818434 -0.306432 -0.183726 0.116844 -2.56267 -8.03769 -5.25467
11873.190210342 -0.315492 -0.179596 0.0883323 -2.61297 -7.95386 -5.35287
11873.194926023 -0.324018 -0.17773 0.0654165 -2.76625 -7.93709 -5.46304
11873.199714184 -0.326816 -0.168271 0.0442328 -2.85486 -7.94667 -5.45585
11873.204466105 -0.321354 -0.158545 0.0255804 -2.95785 -7.99697 -5.51573
11873.209217787 -0.303101 -0.145089 0.0142557 -2.9315 -8.00416 -5.4822
11873.213933945 -0.276188 -0.134164 0.00413017 -2.98898 -8.00176 -5.47022
11873.218721867 -0.244213 -0.12124 -0.00106585 -2.96503 -8.06403 -5.40316
11873.223474026 -0.197582 -0.110449 -0.00492956 -2.96503 -8.07361 -5.43669
11873.228225708 -0.151217 -0.09566 -0.0115911 -3.06083 -8.05685 -5.44148
11873.232938766 -0.105652 -0.0839357 -0.0146554 -3.13269 -8.00655 -5.50615
11873.237729549 -0.0704793 -0.0682144 -0.0111914 -3.29794 -7.99218 -5.65943
11873.242481709 -0.0484962 -0.0486294 -0.010925 -3.36021 -8.04966 -5.81511
11873.247233391 -0.0369051 -0.0294441 -0.00586217 -3.48236 -8.06403 -5.9612
11873.251946926 -0.035173 -0.012657 -0.00226493 -3.51828 -8.14786 -6.13604
11873.257097483 -0.0462312 0.00626187 0.00306432 -3.56379 -8.2245 -6.25819
11873.261489153 -0.065683 0.0229158 0.00786064 -3.57337 -8.32509 -6.35399
11873.266241074 -0.0917963 0.0385038 0.0162542 -3.62366 -8.50232 -6.45458
11873.270993233 -0.123106 0.0542251 0.0243813 -3.58774 -8.63405 -6.62462
11873.276105404 -0.159744 0.0728775 0.0293109 -3.6045 -8.86157 -6.70845
11873.280497074 -0.198781 0.0884655 0.0298438 -3.61648 -9.04599 -6.84976
11873.285248995 -0.233155 0.107917 0.0350398 -3.61408 -9.30944 -6.82102
11873.290000916 -0.264997 0.124038 0.0331746 -3.59013 -9.58966 -6.77312
11873.294752598 -0.280319 0.13976 0.0311761 -3.58774 -9.87706 -6.71324
11873.299504757 -0.287513 0.16041 0.0302435 -3.6045 -10.083 -6.57672
11873.304256678 -0.287646 0.174533 0.0207841 -3.53265 -10.2842 -6.48332
11873.309008837 -0.283783 0.193585 0.0139893 -3.43446 -10.6315 -6.33483
11873.313760519 -0.276322 0.211704 0.00226493 -3.34345 -10.8087 -6.30369
11873.318512440 -0.275522 0.225427 -0.0118576 -3.39374 -11.0195 -6.32285
11873.323264360 -0.276455 0.243014 -0.0231822 -3.40811 -10.9931 -6.30848
11873.328016520 -0.285515 0.261666 -0.037438 -3.48236 -10.8758 -6.32285
11873.332768202 -0.298838 0.278587 -0.0502282 -3.59492 -10.586 -6.35638
11873.337520361 -0.310162 0.292975 -0.0527596 -3.62366 -10.107 -6.35638
11873.342236280 -0.322153 0.302835 -0.0596876 -3.51828 -9.57529 -6.38512
11873.347383976 -0.338541 0.311894 -0.0610199 -3.43685 -9.25196 -6.35638
11873.351775885 -0.358792 0.314426 -0.0624855 -3.44404 -8.7059 -6.43781
11873.356528044 -0.377044 0.316957 -0.0595544 -3.42009 -8.1263 -6.45458
11873.361244202 -0.394098 0.315891 -0.0482297 -3.48236 -7.56587 -6.49769
11873.366031885 -0.415015 0.316557 -0.0362389 -3.6069 -7.0222 -6.56714
11873.370783806 -0.436865 0.319622 -0.0146554 -3.63324 -6.46895 -6.64378
11873.375535727 -0.464977 0.318556 0.0131899 -3.71947 -6.12646 -6.62702
11873.380248785 -0.490158 0.327882 0.0439663 -3.86077 -5.85822 -6.5887
11873.385039568 -0.51334 0.334277 0.0795391 -3.93262 -5.63788 -6.52403
11873.389791489 -0.529461 0.343737 0.115112 -3.89191 -5.54447 -6.41626
11873.394543648 -0.539054 0.355994 0.152949 -3.92065 -5.55405 -6.3013
11873.399256706 -0.530127 0.366652 0.190654 -3.87514 -5.6762 -6.14083
11873.404047251 -0.51747 0.381974 0.223162 -3.75779 -5.74326 -5.99234
11873.408799171 -0.497752 0.391034 0.255538 -3.67156 -5.83906 -5.90851
11873.413551331 -0.467109 0.410086 0.280052 -3.59253 -5.90372 -5.81511
11873.418663263 -0.443127 0.421144 0.305766 -3.54223 -5.85822 -5.78637
11873.423055172 -0.415681 0.435266 0.332279 -3.55181 -5.71691 -5.85103
11873.427807093 -0.39623 0.450721 0.357193 -3.62606 -5.56124 -5.94683
11873.432558775 -0.385971 0.463245 0.385571 -3.66677 -5.46543 -6.03066
11873.437310696 -0.37811 0.478966 0.40942 -3.7027 -5.35766 -6.03066
11873.442062855 -0.377311 0.48736 0.434334 -3.63803 -5.37921 -6.09772
11873.446814775 -0.384505 0.494554 0.458315 -3.52786 -5.61632 -6.06419
11873.451566696 -0.388502 0.489092 0.478034 -3.51828 -5.80313 -6.00671
11873.456318617 -0.397429 0.489225 0.494554 -3.48475 -5.89414 -5.94683
11873.461070538 -0.408087 0.481897 0.514939 -3.44404 -5.99713 -5.9636
11873.465822220 -0.418746 0.474436 0.525464 -3.29555 -6.17197 -5.77439
11873.470574379 -0.434334 0.45725 0.532392 -3.2213 -6.23903 -5.68578
11873.475326300 -0.44406 0.442328 0.537988 -3.11353 -6.21268 -5.59716
11873.480078459 -0.462579 0.42141 0.535723 -2.93869 -6.18394 -5.52052
11873.484830141 -0.47457 0.403424 0.523998 -2.7878 -6.21987 -5.40316
11873.489906073 -0.488159 0.385704 0.509343 -2.692 -6.10251 -5.42232
11873.494333982 -0.51294 0.369983 0.493888 -2.68961 -6.02826 -5.3864
11873.499086142 -0.538387 0.357593 0.47377 -2.69679 -6.01868 -5.53729
11873.503837824 -0.569963 0.344003 0.455784 -2.76385 -5.9636 -5.56842
11873.508553743 -0.606069 0.331879 0.440462 -2.82612 -5.98994 -5.64746
11873.513341904 -0.63125 0.327349 0.423409 -2.84528 -5.97557 -5.66183
11873.518093586 -0.656697 0.323219 0.411018 -2.9315 -5.95881 -5.52292
11873.522845507 -0.667622 0.315225 0.40076 -2.94108 -6.02587 -5.50615
11873.527597666 -0.673617 0.317357 0.385838 -2.93629 -6.18155 -5.42232
11873.532349586 -0.666023 0.318156 0.381841 -2.91234 -6.24382 -5.36724
11873.537101507 -0.658562 0.316557 0.37025 -2.88121 -6.29651 -5.29778
11873.541853428 -0.637378 0.318822 0.367985 -2.85007 -6.35638 -5.22114
11873.546566725 -0.611798 0.327749 0.359724 -2.80936 -6.49529 -5.18761
11873.551357031 -0.580355 0.332678 0.354528 -2.80696 -6.47134 -5.1948
11873.556109190 -0.544916 0.342271 0.346002 -2.73272 -6.37554 -5.24749
11873.561221361 -0.50881 0.349466 0.339606 -2.71116 -6.28214 -5.20677
11873.565574646 -0.470573 0.356926 0.332678 -2.66805 -6.21508 -5.17085
11873.570364952 -0.436199 0.365986 0.319489 -2.66805 -6.06179 -5.19719
11873.575116873 -0.404357 0.380109 0.311628 -2.70398 -5.92528 -5.2906
11873.580229044 -0.377311 0.393165 0.307897 -2.76385 -5.73847 -5.34808
11873.584620953 -0.364654 0.405023 0.307364 -2.8381 -5.50136 -5.55645
11873.589372635 -0.350798 0.414083 0.310828 -2.89079 -5.3361 -5.71931
11873.594124794 -0.350265 0.423009 0.31749 -2.86444 -5.14211 -5.78876
11873.598876715 -0.350931 0.435 0.322286 -2.89079 -4.89781 -5.88217
11873.603628397 -0.348533 0.438997 0.33028 -2.85007 -4.78525 -5.90612
11873.608380318 -0.346668 0.442194 0.342005 -2.84528 -4.70861 -5.97318
11873.613132477 -0.340939 0.441528 0.349332 -2.80696 -4.68226 -6.0091
11873.617884398 -0.338541 0.443127 0.360657 -2.77104 -4.72777 -6.0115
11873.622636318 -0.333744 0.443793 0.368384 -2.74948 -4.81399 -5.97078
11873.627388239 -0.324818 0.443793 0.378643 -2.65368 -4.93853 -5.94204
11873.632140160 -0.320288 0.443793 0.382773 -2.55309 -5.0511 -5.8175
11873.636891842 -0.303501 0.443793 0.385971 -2.49561 -5.099 -5.65943
11873.641644001 -0.288712 0.440729 0.387037 -2.46687 -5.12774 -5.55166
11873.646395922 -0.273923 0.438597 0.384106 -2.39262 -5.26904 -5.49657
11873.651507854 -0.261266 0.442727 0.38264 -2.43573 -5.41274 -5.48699
11873.655863762 -0.251674 0.440063 0.380109 -2.42855 -5.51094 -5.60674
11873.660651684 -0.254738 0.446724 0.376378 -2.52914 -5.55405 -5.73607
11873.665403605 -0.256204 0.448989 0.375579 -2.60818 -5.55645 -5.88217
11873.670155764 -0.262332 0.450988 0.376911 -2.70877 -5.56842 -5.99952
11873.674871683 -0.270326 0.452187 0.382107 -2.76146 -5.51333 -6.04742
11873.679659605 -0.271259 0.44819 0.385038 -2.84289 -5.42232 -6.057
11873.684411287 -0.270593 0.444992 0.392766 -2.83331 -5.46064 -6.08095
11873.689163208 -0.266862 0.440729 0.395564 -2.77583 -5.51813 -6.16718
11873.693876505 -0.261533 0.437265 0.397962 -2.68242 -5.51094 -6.19352
11873.698667288 -0.246078 0.427406 0.398495 -2.60339 -5.49178 -6.12646
11873.703419209 -0.228625 0.415149 0.397296 -2.54351 -5.46783 -6.057
11873.708171129 -0.204776 0.402492 0.391833 -2.46687 -5.34808 -6.03305
11873.712884426 -0.184792 0.3909 0.38757 -2.46927 -5.26186 -6.10011
11873.717674971 -0.174666 0.377044 0.384106 -2.58183 -5.12055 -6.35638
11873.722786903 -0.170802 0.369983 0.385838 -2.692 -4.91458 -6.60307
11873.727178812 -0.183326 0.363588 0.390368 -2.84289 -4.75172 -6.95274
11873.731930733 -0.204776 0.358792 0.397828 -2.96743 -4.67268 -7.22338
11873.736682892 -0.234087 0.352263 0.411018 -3.21172 -4.62478 -7.46767
11873.741434336 -0.266596 0.345868 0.432335 -3.365 -4.56251 -7.68083
11873.746186495 -0.29524 0.336675 0.456983 -3.5087 -4.69903 -7.84608
11873.750938416 -0.317224 0.325484 0.479233 -3.56858 -4.83554 -7.96104
11873.755690575 -0.333345 0.310828 0.50881 -3.59253 -4.97206 -8.05206
11873.760442257 -0.328948 0.289112 0.538654 -3.65719 -5.12534 -7.99697
11873.765194416 -0.323219 0.268061 0.571562 -3.73623 -5.32413 -8.00416
11873.769946098 -0.303234 0.241282 0.601539 -3.75539 -5.52771 -8.06403
11873.774698019 -0.285648 0.214369 0.630051 -3.76976 -5.76242 -8.09996
11873.779449940 -0.279519 0.190387 0.656164 -3.71707 -5.91091 -8.23887
11873.784202099 -0.274856 0.165207 0.675216 -3.69791 -6.04742 -8.22689
11873.788954020 -0.276455 0.140692 0.68321 -3.59732 -6.1552 -8.34904
11873.794065714 -0.283116 0.116977 0.681345 -3.54463 -6.25579 -8.47358
11873.798457623 -0.288446 0.0952603 0.669221 -3.44404 -6.33243 -8.43765
11873.803173780 -0.303234 0.0742098 0.64857 -3.26202 -6.31806 -8.70111
11873.807961702 -0.318423 0.0515605 0.617394 -3.15664 -6.28932 -8.78733
11873.812713623 -0.331346 0.0325084 0.574626 -3.06563 -6.36117 -8.89271
11873.817465544 -0.339207 0.0154548 0.525864 -2.98419 -6.3013 -9.00527
11873.822181463 -0.337075 -0.0085268 0.480698 -2.84528 -6.02826 -9.07952
11873.826969147 -0.326816 -0.0337075 0.426606 -2.75188 -5.63788 -9.02443
11873.831721306 -0.3051 -0.0590214 0.378377 -2.53633 -5.32173 -9.06275
11873.836473227 -0.280851 -0.0948606 0.334011 -2.44771 -4.9529 -9.14418
11873.841186523 -0.266063 -0.123772 0.29151 -2.33514 -4.62239 -9.26633
11873.845977068 -0.266862 -0.155881 0.262599 -2.3567 -4.45234 -9.49386
11873.850729227 -0.286447 -0.184525 0.246078 -2.54591 -4.40444 -9.67109
11873.855480909 -0.325617 -0.206109 0.243147 -2.77104 -4.36133 -9.97526
11873.860194206 -0.390368 -0.22636 0.253806 -2.90516 -4.28229 -10.2028
11873.865345001 -0.464044 -0.233821 0.271392 -3.05604 -4.1338 -10.4495
11873.869736910 -0.541851 -0.239283 0.298305 -3.16382 -3.9446 -10.586
11873.874488831 -0.619259 -0.236619 0.331479 -3.27639 -3.65959 -10.6507
11873.879240751 -0.67908 -0.223962 0.371449 -3.47278 -3.32429 -10.5572
11873.884352684 -0.718649 -0.20944 0.419412 -3.66438 -2.9339 -10.4327
11873.888744593 -0.73064 -0.181328 0.474703 -3.84401 -2.62973 -10.301
11873.893496513 -0.715319 -0.153349 0.53972 -4.00447 -2.41657 -10.2483
11873.898248434 -0.684009 -0.118576 0.611132 -4.19368 -2.16031 -10.1525
11873.903000355 -0.640709 -0.0786064 0.672685 -4.11704 -2.03337 -10.0519
11873.907752514 -0.598208 -0.042634 0.740766 -4.14099 -1.77471 -10.0088
11873.912503958 -0.565833 -0.0117243 0.793659 -3.8488 -1.67412 -9.93454
11873.917256117 -0.537855 0.0179862 0.831896 -3.59732 -1.75794 -9.74533
11873.922008038 -0.523466 0.0462312 0.856544 -3.30034 -1.90404 -9.5226
11873.926760197 -0.516005 0.0727443 0.866802 -3.10395 -2.18905 -9.24478
11873.931511879 -0.527995 0.0862006 0.865204 -2.94587 -2.43094 -9.23041
11873.936264038 -0.551577 0.102721 0.854145 -2.86444 -2.65129 -9.01725
11873.941015720 -0.581288 0.114046 0.837492 -2.75427 -2.86444 -8.9909
11873.945767641 -0.625254 0.124838 0.81311 -2.66805 -2.92671 -8.98372
11873.950483799 -0.670686 0.129501 0.776338 -2.38544 -2.94827 -8.92145
11873.955631733 -0.717717 0.13523 0.727709 -2.23695 -2.90276 -8.78972
11873.960023642 -0.760351 0.136029 0.673484 -2.09564 -2.94827 -8.72985
11873.964775562 -0.803651 0.137361 0.611398 -1.94955 -3.05844 -8.67955
11873.969491482 -0.853746 0.136296 0.545449 -1.94236 -3.13029 -8.66518
11873.974279404 -0.906639 0.140825 0.48736 -2.23455 -3.10395 -8.70111
11873.979031324 -0.965527 0.149219 0.444193 -2.50998 -3.28836 -8.74422
11873.983783245 -1.02402 0.153083 0.398761 -2.19623 -3.70749 -8.59333
11873.988496542 -1.07344 0.16081 0.347467 -1.92081 -4.12422 -8.50232
11873.993323088 -1.1274 0.169603 0.298438 -1.84896 -4.57688 -8.31072
11873.998038769 -1.15871 0.179462 0.249675 -1.86333 -4.96488 -8.10475
11874.002790928 -1.1787 0.185991 0.200247 -1.83698 -5.05589 -8.02571
11874.007504463 -1.18123 0.205709 0.148686 -1.79866 -4.99122 -8.01613
11874.012295008 -1.17323 0.218366 0.108717 -1.81063 -4.73735 -7.96344
11874.017046690 -1.15445 0.242614 0.0750092 -1.80345 -4.51461 -8.03529
11874.021798849 -1.12314 0.276855 0.0450322 -1.75555 -4.29906 -8.14067
11874.026910782 -1.07704 0.312427 0.0198515 -1.90404 -4.15057 -8.27
11874.031302452 -1.01509 0.351997 0.0118576 -2.15073 -3.75539 -8.3179
11874.036054373 -0.954469 0.394631 0.0185191 -2.36388 -3.21172 -8.48795
11874.040806532 -0.881858 0.441395 0.0353063 -2.5028 -2.62973 -8.77056
11874.045558453 -0.811112 0.489225 0.0556907 -2.53633 -2.05253 -9.08431
11874.050310373 -0.738767 0.536123 0.0880659 -2.72793 -1.54958 -9.21843
11874.055062056 -0.679346 0.586084 0.132032 -2.78301 -1.35079 -9.41482
11874.059814215 -0.625521 0.635513 0.17813 -2.88121 -1.24541 -9.77407
11874.064566135 -0.587949 0.679346 0.220631 -2.87881 -1.1999 -10.0495
11874.069318056 -0.562103 0.727975 0.266329 -2.92671 -1.152 -10.2986
11874.074069977 -0.553709 0.768611 0.312694 -2.88839 -1.06818 -10.392
11874.078822136 -0.546781 0.807248 0.365453 -2.88839 -1.04183 -10.4591
11874.083573580 -0.53972 0.842288 0.394498 -2.68961 -0.931663 -10.5788
11874.088325739 -0.547447 0.871199 0.42674 -2.81175 -0.718506 -10.6578
11874.093077660 -0.553975 0.889185 0.45192 -2.62734 -0.711321 -10.7129
11874.098153591 -0.559704 0.907038 0.471505 -2.53633 -0.814307 -10.6914
11874.102581501 -0.562103 0.919695 0.488159 -2.44052 -1.09692 -10.7872
11874.107333660 -0.553975 0.923825 0.493888 -2.46448 -1.21667 -10.6578
11874.112085342 -0.535856 0.928755 0.50841 -2.46687 -1.36037 -10.574
11874.116801262 -0.509743 0.93062 0.525464 -2.46208 -1.64538 -10.4543
11874.121589184 -0.469107 0.92236 0.537855 -2.47166 -2.00942 -10.4135
11874.126341343 -0.42594 0.915432 0.54385 -2.5028 -2.28964 -10.2531
11874.131093264 -0.376245 0.909836 0.551977 -2.47885 -2.57704 -10.1669
11874.135845184 -0.324152 0.899977 0.55624 -2.47645 -2.89797 -10.0184
11874.140596867 -0.265796 0.889052 0.556507 -2.39023 -3.4153 -9.92496
11874.145349026 -0.211971 0.874796 0.548913 -2.36867 -3.68833 -9.85311
11874.150100946 -0.160277 0.855744 0.536522 -2.28245 -3.76258 -9.93694
11874.154814243 -0.109649 0.838158 0.520135 -2.28006 -3.59971 -9.86748
11874.159604788 -0.0643507 0.816574 0.501616 -2.14115 -3.49673 -9.96807
11874.164356947 -0.0242481 0.792593 0.479632 -2.04535 -3.27878 -10.0064
11874.169468641 0.0125237 0.768478 0.448856 -2.03337 -2.89318 -10.1309
11874.173821926 0.0434334 0.742498 0.418879 -1.93518 -2.56028 -10.0591
11874.178612471 0.0634181 0.716784 0.388902 -1.81063 -2.37107 -10.3656
11874.183364630 0.0702129 0.684276 0.357193 -1.86093 -2.15791 -10.4926
11874.188476563 0.0732772 0.658029 0.322153 -1.74357 -1.99745 -10.7465
11874.192868471 0.0707458 0.623389 0.290711 -1.78429 -1.8274 -10.7967
11874.197620153 0.0614196 0.588482 0.263798 -1.76513 -1.81303 -10.9788
11874.202372074 0.0638178 0.556907 0.238217 -1.76513 -2.03577 -11.0027
11874.207123995 0.065683 0.51827 0.211838 -1.65496 -2.30401 -11.0099
11874.211876154 0.0772741 0.483363 0.193718 -1.62861 -2.33035 -11.0027
11874.216628075 0.0967259 0.444459 0.175732 -1.62861 -2.36388 -11.0482
11874.221379995 0.130567 0.407954 0.160144 -1.61664 -2.4549 -10.9524
11874.226131678 0.16907 0.368518 0.155747 -1.68609 -2.59141 -10.9955
11874.230883837 0.20944 0.334277 0.158279 -1.79626 -2.65368 -10.9237
11874.235635757 0.248476 0.301236 0.171735 -1.88488 -2.58423 -10.9764
11874.240387678 0.288979 0.273657 0.190387 -2.00224 -2.54112 -11.0386
11874.245139599 0.327349 0.24741 0.212637 -2.05014 -2.51717 -11.077
11874.249891758 0.353596 0.225427 0.23955 -2.09325 -2.3064 -11.1488
11874.254643202 0.375712 0.201579 0.262732 -2.0693 -2.14354 -11.168
11874.259755373 0.391433 0.184392 0.289378 -2.1148 -2.00942 -11.1033
11874.264111519 0.400227 0.16494 0.314692 -2.13396 -1.95434 -11.1321
11874.268899441 0.404224 0.144289 0.331479 -2.08606 -1.96871 -11.1943
11874.273651123 0.402225 0.128435 0.349332 -1.97589 -1.89686 -11.2087
11874.278403282 0.407954 0.10472 0.360923 -1.88249 -1.70286 -11.2231
11874.283119202 0.40942 0.0767412 0.362256 -1.72681 -1.50647 -11.1991
11874.287906885 0.421144 0.0458315 0.361723 -1.57832 -1.36995 -11.0674
11874.292658806 0.436732 0.0167871 0.353596 -1.42264 -1.24541 -11.0698
11874.297410965 0.452187 -0.024781 0.345602 -1.33882 -1.22146 -10.9883
11874.302124262 0.466043 -0.0620858 0.334144 -1.18793 -1.28373 -10.9117
11874.306914806 0.481231 -0.100323 0.318956 -1.13524 -1.37714 -10.7584
11874.311666489 0.490291 -0.140026 0.305233 -1.12805 -1.62622 -10.78
11874.316418648 0.503747 -0.175066 0.299637 -1.21427 -1.88009 -10.6602
11874.321132183 0.507478 -0.200247 0.295907 -1.27894 -2.22018 -10.5956
11874.325922489 0.524265 -0.229691 0.298172 -1.31247 -2.33754 -10.4734
11874.331034422 0.54385 -0.247144 0.305899 -1.37714 -2.36867 -10.4135
11874.335426569 0.564634 -0.263931 0.319222 -1.31966 -2.41657 -10.3225
11874.340178013 0.585951 -0.280718 0.335609 -1.28373 -2.37107 -10.3177
11874.344930172 0.608334 -0.280052 0.348266 -1.13284 -2.38304 -10.3153
11874.349682093 0.620458 -0.294441 0.362389 -1.08973 -2.28006 -10.3776
11874.354434252 0.635113 -0.29604 0.377178 -1.0562 -2.21539 -10.4207
11874.359185934 0.646305 -0.298704 0.389168 -0.943638 -2.30401 -10.4423
11874.363938093 0.649236 -0.297639 0.413816 -0.981958 -2.44052 -10.4399
11874.368689775 0.652433 -0.291643 0.432602 -1.0107 -2.46927 -10.6075
11874.373441935 0.651368 -0.282583 0.460447 -1.02028 -2.44292 -10.6099
11874.378193617 0.650168 -0.277121 0.493089 -1.11608 -2.46927 -10.6483
11874.382945776 0.6523 -0.26513 0.531459 -1.14003 -2.59381 -10.6171
11874.387697697 0.652167 -0.257669 0.566366 -1.11129 -2.62255 -10.6554
11874.392449617 0.646438 -0.244346 0.607268 -1.07536 -2.64171 -10.5908
11874.397201300 0.646571 -0.236219 0.644573 -1.06578 -2.68242 -10.4974
11874.402313471 0.637245 -0.223429 0.674417 -0.986748 -2.60578 -10.5285
11874.406705379 0.618726 -0.210106 0.701729 -1.04662 -2.68721 -10.4854
11874.411421299 0.602338 -0.195717 0.719582 -1.02267 -2.6441 -10.1908
11874.416209221 0.57809 -0.179596 0.74343 -0.910107 -2.62255 -10.107
11874.420961380 0.553842 -0.163208 0.755688 -0.874182 -2.73272 -10.0064
11874.425712824 0.529328 -0.148153 0.76528 -0.838257 -2.88839 -9.64714
11874.430428982 0.504813 -0.123639 0.77927 -0.895737 -2.96503 -9.75491
11874.435216904 0.4783 -0.107251 0.790328 -0.998723 -3.01054 -9.54894
11874.439969063 0.455784 -0.0774074 0.799121 -0.972378 -3.23567 -9.3765
11874.444720745 0.428871 -0.0487626 0.806582 -0.996328 -3.52068 -9.24717
11874.449433804 0.399827 -0.0174533 0.81804 -1.07536 -3.87993 -9.17771
11874.454224586 0.367985 0.00866003 0.829631 -1.08973 -4.27271 -9.06754
11874.458976746 0.342005 0.0431669 0.836159 -1.16158 -4.65113 -8.98851
11874.463728428 0.313893 0.0754089 0.851614 -1.34121 -5.00559 -8.94061
11874.468441963 0.294441 0.10925 0.867335 -1.56155 -5.52052 -8.76098
11874.473592520 0.27872 0.139093 0.885455 -1.6334 -6.00431 -8.68913
11874.477984428 0.267395 0.16947 0.901576 -1.65975 -6.51206 -8.58615
11874.482736111 0.251674 0.200113 0.916231 -1.71962 -6.98148 -8.42568
11874.487488270 0.236885 0.23462 0.927689 -1.7316 -7.32397 -8.30593
11874.492600441 0.209173 0.260201 0.931286 -1.91362 -7.54431 -8.27719
11874.496992111 0.194251 0.29191 0.93475 -1.85854 -7.89159 -7.93949
11874.501744032 0.166139 0.316158 0.93102 -1.82021 -7.8389 -7.79579
11874.506496191 0.143357 0.340273 0.927956 -1.88249 -7.69759 -7.79339
11874.511247635 0.120974 0.36079 0.9137 -1.82979 -7.62095 -7.73352
11874.515999794 0.103387 0.383306 0.897312 -1.71244 -7.52755 -7.69759
11874.520751715 0.0863338 0.399028 0.873864 -1.72441 -7.45091 -7.68322
11874.525503874 0.0700796 0.415948 0.844153 -1.74118 -7.31678 -7.78621
11874.530255556 0.0538254 0.433801 0.814842 -1.64777 -7.21859 -7.5994
11874.535007715 0.0398361 0.45192 0.784865 -1.66693 -7.08447 -7.65448
11874.539759398 0.0293109 0.465643 0.75742 -1.71004 -6.81383 -7.66646
11874.544511557 0.028245 0.480698 0.718649 -1.69328 -6.60546 -7.71915
11874.549263239 0.0343737 0.494954 0.683609 -1.53042 -6.38752 -7.597
11874.554015398 0.0390368 0.501882 0.646838 -1.47773 -6.23663 -7.5491
11874.558731318 0.0476968 0.514273 0.609133 -1.46096 -6.02108 -7.67364
11874.563879013 0.0540919 0.525997 0.574493 -1.47294 -5.74086 -7.8389
11874.568270922 0.05649 0.541452 0.541185 -1.51844 -5.51094 -7.92991
11874.573023081 0.0484962 0.551178 0.510409 -1.58311 -5.06547 -8.09517
11874.577739239 0.0379709 0.566632 0.482564 -1.69807 -4.73495 -8.33467
11874.582526922 0.0171868 0.581554 0.459115 -1.6837 -4.426 -8.54064
11874.587278843 -0.00572894 0.595943 0.438464 -1.7316 -4.232 -8.71548
11874.592031002 -0.0343737 0.613263 0.415015 -1.72681 -4.19607 -8.84002
11874.596743822 -0.062219 0.626853 0.405023 -1.67412 -4.16254 -8.87355
11874.601534605 -0.0822037 0.644306 0.392366 -1.74118 -4.25116 -8.943
11874.606286526 -0.096193 0.664824 0.390101 -1.83219 -4.40205 -8.95977
11874.611038685 -0.0955268 0.682677 0.390501 -1.9232 -4.53377 -8.81367
11874.615751982 -0.0900643 0.697732 0.395031 -1.93997 -4.64634 -8.75859
11874.620542526 -0.0655498 0.714786 0.406355 -2.00463 -4.73256 -8.62207
11874.625294209 -0.0382374 0.733838 0.414083 -1.93997 -4.80201 -8.60291
11874.630046368 -0.00506279 0.750492 0.422609 -1.96871 -4.90021 -8.59573
11874.635158300 0.0318423 0.765014 0.432069 -1.825 -4.97685 -8.59812
11874.639550209 0.0611531 0.780469 0.435 -1.80584 -5.00559 -8.69632
11874.644302130 0.0893982 0.79579 0.437265 -1.69567 -4.94093 -8.78733
11874.649054050 0.113779 0.806982 0.434067 -1.5879 -4.90021 -8.74422
11874.653805733 0.138694 0.811245 0.424475 -1.51126 -4.81878 -8.73703
11874.658557892 0.163475 0.813643 0.412617 -1.38911 -4.8068 -8.71548
11874.663309813 0.184525 0.811911 0.39583 -1.23344 -4.89063 -8.7059
11874.668061733 0.201446 0.807781 0.377577 -1.08255 -4.96488 -8.69392
11874.672813654 0.214502 0.799254 0.357726 -1.0083 -4.91698 -8.69871
11874.677565813 0.239683 0.795923 0.334011 -0.910107 -4.84033 -8.71787
11874.682317257 0.257802 0.783133 0.31336 -0.795146 -4.74693 -8.57177
11874.687069416 0.276188 0.775672 0.292842 -0.771196 -4.59365 -8.65081
11874.691821337 0.292975 0.771009 0.276188 -0.773591 -4.51222 -8.62447
11874.696573496 0.316291 0.764081 0.265663 -0.742456 -4.38289 -8.54782
11874.701325178 0.342538 0.762349 0.255804 -0.773591 -4.33738 -8.54543
11874.706401110 0.367452 0.76155 0.252873 -0.843047 -4.28948 -8.54543
11874.710829020 0.39583 0.763815 0.257802 -0.929268 -4.29906 -8.5095
11874.715581179 0.435933 0.767145 0.270193 -0.936453 -4.38528 -8.54303
11874.720332861 0.474836 0.774473 0.285648 -0.972378 -4.33259 -8.49753
11874.725048780 0.513207 0.781401 0.302968 -0.941243 -4.33738 -8.57896
11874.729836941 0.553709 0.789928 0.326017 -1.00112 -4.25834 -8.48555
11874.734588861 0.595011 0.789528 0.35253 -1.03465 -4.26074 -8.6077
11874.739340544 0.629518 0.794724 0.38264 -1.05141 -4.21044 -8.64842
11874.744092703 0.654832 0.791527 0.410619 -1.05381 -4.26074 -8.62926
11874.748844624 0.680678 0.79579 0.440729 -1.06099 -4.29188 -8.62686
11874.753596544 0.697199 0.790328 0.469773 -1.04662 -4.30625 -8.62686
11874.758348465 0.708524 0.790994 0.500683 -1.13763 -4.39486 -8.52866
11874.763061762 0.716118 0.791527 0.534524 -1.24062 -4.51222 -8.4616
11874.767852068 0.720914 0.786597 0.5649 -1.3484 -4.54575 -8.46639
11874.772604227 0.72238 0.784066 0.598475 -1.41306 -4.711 -8.38257
11874.777716398 0.722646 0.782734 0.634047 -1.54958 -4.78046 -8.28916
11874.782069683 0.717051 0.774873 0.663625 -1.4921 -4.8547 -8.17181
11874.786859989 0.720781 0.775939 0.688672 -1.50407 -4.87386 -8.06164
11874.791612148 0.722913 0.770077 0.716384 -1.45138 -4.90021 -7.97542
11874.796724081 0.729841 0.762083 0.73477 -1.40348 -4.99841 -7.8365
11874.801115990 0.743297 0.753956 0.758485 -1.34361 -5.14929 -7.78142
11874.805867672 0.765147 0.74756 0.773541 -1.30289 -5.27383 -7.56347
11874.810619831 0.78753 0.740766 0.787263 -1.29571 -5.34329 -7.5491
11874.815371752 0.807914 0.733438 0.801786 -1.28373 -5.35766 -7.5036
11874.820123672 0.830697 0.723712 0.812044 -1.27415 -5.3864 -7.4533
11874.824875355 0.857077 0.720381 0.829897 -1.28373 -5.34329 -7.33834
11874.829627514 0.882524 0.711588 0.83949 -1.33163 -5.25228 -7.30241
11874.834379435 0.907438 0.704127 0.84362 -1.39869 -5.21396 -7.23296
11874.839131355 0.935949 0.69147 0.852547 -1.3963 -5.26665 -7.1659
11874.843883276 0.960864 0.687473 0.856277 -1.34121 -5.28102 -7.09165
11874.848635435 0.976985 0.679213 0.859208 -1.32445 -5.16127 -7.16829
11874.853386879 0.987243 0.673217 0.858942 -1.43222 -5.1445 -7.23296
11874.858139038 0.988842 0.670553 0.859208 -1.46815 -5.05828 -7.28325
11874.862890959 0.982714 0.661626 0.866536 -1.52323 -4.97925 -7.39103
11874.868003130 0.968724 0.656031 0.871332 -1.54239 -4.9026 -7.51557
11874.872358799 0.951271 0.657096 0.877994 -1.61185 -4.92416 -7.65448
11874.877146959 0.925957 0.653499 0.888519 -1.61664 -5.0008 -7.6449
11874.881898642 0.904907 0.649769 0.90051 -1.73878 -5.13732 -7.63772
11874.886650801 0.880392 0.652034 0.917564 -1.81303 -5.25467 -7.61137
11874.891366720 0.864271 0.654032 0.936083 -1.85614 -5.38161 -7.55389
11874.896154642 0.849216 0.657496 0.962729 -1.88009 -5.47501 -7.61377
11874.900906563 0.829631 0.663358 0.987776 -1.95673 -5.50375 -7.64251
11874.905658484 0.818573 0.668155 1.01349 -2.0214 -5.50375 -7.65927
11874.910371542 0.806582 0.673084 1.03854 -2.019 -5.36005 -7.62335
11874.915162325 0.802851 0.678014 1.06412 -1.99984 -5.25467 -7.64251
11874.919914246 0.795391 0.680812 1.08117 -1.93757 -5.11097 -7.67364
11874.924666166 0.790061 0.685075 1.09609 -1.88967 -4.84991 -7.69999
11874.929379702 0.787263 0.686141 1.11008 -1.86572 -4.6631 -7.65927
11874.934170246 0.790328 0.688139 1.11634 -1.83938 -4.50024 -7.67125
11874.939281940 0.789129 0.685075 1.12287 -1.82261 -4.42121 -7.68083
11874.943673849 0.785531 0.682544 1.12847 -1.75794 -4.36373 -7.69999
11874.948425770 0.785398 0.681211 1.12687 -1.73399 -4.29667 -7.73352
11874.953177929 0.783933 0.675482 1.12447 -1.72441 -4.14099 -7.69759
11874.957929611 0.777671 0.672818 1.11634 -1.67412 -3.97813 -7.68562
11874.962681770 0.769277 0.664957 1.11208 -1.6358 -3.87275 -7.67604
11874.967433453 0.755021 0.663358 1.09676 -1.54718 -3.73623 -7.75986
11874.972185612 0.729708 0.651101 1.08464 -1.55437 -3.54942 -7.8365
11874.976937294 0.699997 0.643507 1.06838 -1.44659 -3.37937 -7.90835
11874.981689453 0.665757 0.63538 1.05692 -1.45617 -3.17101 -7.92991
11874.986441374 0.623522 0.621524 1.046 -1.47054 -3.06323 -7.95386
11874.991193056 0.573427 0.617394 1.03814 -1.50407 -2.8836 -8.06164
11874.995944977 0.516937 0.609666 1.03161 -1.54239 -2.89318 -8.21971
11875.000697136 0.454585 0.605136 1.02868 -1.55197 -2.99377 -8.1742
11875.005449057 0.388636 0.60034 1.02815 -1.61185 -3.04407 -8.31311
11875.010560989 0.320954 0.598874 1.03401 -1.67172 -3.16861 -8.21013
11875.014988899 0.259801 0.597542 1.03867 -1.70765 -3.30752 -8.13588
11875.019668818 0.202112 0.598208 1.04866 -1.73399 -3.6045 -8.00416
11875.024456739 0.153882 0.60407 1.06212 -1.87051 -3.93502 -7.96104
11875.029208660 0.110049 0.608734 1.08091 -1.92081 -4.34217 -7.87722
11875.033960581 0.0692802 0.619659 1.09663 -1.98787 -4.73735 -7.75028
11875.038676500 0.0349066 0.634847 1.11035 -2.10043 -5.18282 -7.76944
11875.043464422 0.00479632 0.646971 1.127 -2.12917 -5.49657 -7.72154
11875.048216343 -0.0202511 0.659495 1.14179 -2.25611 -5.64027 -7.85806
11875.052968264 -0.0417014 0.673617 1.15192 -2.15312 -5.772 -7.71436
11875.057681561 -0.057023 0.68241 1.15112 -2.019 -5.87498 -7.67604
11875.062472105 -0.0660827 0.688806 1.14592 -1.88728 -6.06898 -7.62095
11875.067224264 -0.0642175 0.68774 1.1282 -1.70286 -6.37554 -7.597
11875.071976185 -0.0542251 0.685208 1.10395 -1.55676 -6.60307 -7.53234
11875.076689243 -0.0452986 0.669354 1.06758 -1.45138 -6.85694 -7.54671
11875.081840038 -0.0381041 0.65723 1.02322 -1.31247 -7.13476 -7.61377
11875.086231947 -0.0313093 0.638577 0.972988 -1.25739 -7.34073 -7.66167
11875.090983868 -0.0319755 0.617127 0.912101 -1.13045 -7.47007 -7.75268
11875.095735788 -0.0386371 0.592346 0.844553 -0.962798 -7.38864 -7.87961
11875.100847721 -0.0538254 0.565567 0.769544 -0.878972 -7.31918 -8.13109
11875.105239630 -0.0846018 0.536922 0.685208 -0.63468 -7.14195 -8.41131
11875.109991550 -0.118176 0.511874 0.595277 -0.522114 -7.04854 -8.58854
11875.114743471 -0.164807 0.475502 0.500683 -0.419128 -6.91921 -8.87355
11875.119495392 -0.219432 0.450188 0.411152 -0.364043 -6.75875 -9.19208
11875.124247551 -0.276322 0.428072 0.323352 -0.507744 -6.59588 -9.38608
11875.128999233 -0.335743 0.406089 0.244746 -0.526904 -6.45697 -9.65911
11875.133751154 -0.385704 0.393165 0.176265 -0.61552 -6.41626 -9.83635
11875.138503075 -0.424608 0.379176 0.125371 -0.732876 -6.32525 -9.88185
11875.143255234 -0.441395 0.368651 0.0859342 -0.823887 -6.19113 -9.86509
11875.148006916 -0.429937 0.361856 0.058755 -0.936453 -6.03545 -9.92736
11875.152759075 -0.395564 0.362389 0.0510276 -1.13524 -5.95641 -9.82677
11875.157510996 -0.334144 0.362789 0.0676815 -1.43462 -5.90372 -9.8579
11875.162262678 -0.262865 0.371582 0.10432 -1.59508 -5.75763 -10.0279
11875.166978836 -0.183859 0.376112 0.146821 -1.72202 -5.61393 -10.1046
11875.172126770 -0.104054 0.386104 0.199047 -1.74836 -5.53729 -10.2387
11875.176518679 -0.0377044 0.391567 0.243147 -1.4921 -5.32892 -10.3537
11875.181270599 0.0165207 0.397429 0.279652 -1.27894 -5.15169 -10.3968
11875.185986519 0.0538254 0.401825 0.3047 -1.10889 -5.02954 -10.3752
11875.190774441 0.080072 0.400227 0.318822 -0.893342 -4.93374 -10.3656
11875.195526361 0.0963262 0.394498 0.320821 -0.893342 -4.97685 -10.2674
11875.200278282 0.101123 0.38677 0.322686 -0.809517 -4.96967 -10.2076
11875.204991579 0.0960597 0.377844 0.325884 -0.759221 -4.9074 -10.2052
11875.209782362 0.0933951 0.366786 0.324551 -0.761616 -4.89781 -10.1669
11875.214534044 0.0911302 0.357593 0.330014 -0.843047 -4.85231 -10.1046
11875.219285965 0.085268 0.355461 0.336942 -0.943638 -4.85231 -10.0711
11875.223999500 0.0909969 0.346401 0.358658 -1.02507 -4.92895 -10.004
11875.228790045 0.102855 0.347867 0.379309 -1.04183 -5.01517 -9.89383
11875.233541727 0.120441 0.352263 0.410352 -1.07297 -5.1469 -9.74054
11875.238293886 0.150818 0.349332 0.441928 -1.16398 -5.28102 -9.54894
11875.243405819 0.180262 0.35666 0.478433 -1.11847 -5.41035 -9.44835
11875.247797489 0.214636 0.36159 0.514672 -1.19032 -5.57082 -9.31184
11875.252549410 0.248743 0.372115 0.547447 -1.27894 -5.71691 -9.14418
11875.257301569 0.277387 0.38717 0.589415 -1.33163 -5.76481 -9.09389
11875.262053490 0.294841 0.398761 0.627386 -1.45378 -5.75284 -8.98851
11875.266805410 0.313227 0.410485 0.668288 -1.50407 -5.77439 -8.91187
11875.271557331 0.325884 0.419678 0.703727 -1.54239 -5.69536 -8.85199
11875.276309252 0.334144 0.433002 0.740233 -1.52802 -5.62111 -8.75619
11875.281061172 0.344802 0.439663 0.769011 -1.52323 -5.578 -8.6101
11875.285813093 0.35173 0.440063 0.799654 -1.54479 -5.49657 -8.4137
11875.290565014 0.355861 0.441262 0.822037 -1.54958 -5.50615 -8.27958
11875.295317173 0.361856 0.44366 0.843087 -1.51605 -5.34329 -8.15265
11875.300068855 0.361856 0.43993 0.858675 -1.55916 -5.25946 -8.14546
11875.304820776 0.359724 0.437665 0.872265 -1.46815 -5.25707 -8.13828
11875.309572697 0.351464 0.436865 0.877461 -1.41785 -5.13253 -8.22929
11875.314648628 0.345069 0.431802 0.880126 -1.44899 -5.0008 -8.21013
11875.319076538 0.338008 0.429404 0.880925 -1.45617 -4.8092 -8.15504
11875.323828697 0.338541 0.429138 0.887054 -1.56874 -4.60323 -8.17181
11875.328580618 0.341205 0.433801 0.889319 -1.61903 -4.47629 -8.08319
11875.333296299 0.34427 0.440596 0.892783 -1.60466 -4.3302 -8.11912
11875.338084221 0.357992 0.446458 0.891051 -1.63101 -4.28708 -8.05206
11875.342836380 0.377577 0.455251 0.893449 -1.60945 -4.34457 -7.92991
11875.347588301 0.405822 0.467908 0.893982 -1.59508 -4.24637 -7.81974
11875.352340221 0.437931 0.476968 0.897845 -1.66454 -4.11704 -7.77184
11875.357092142 0.473504 0.48736 0.90051 -1.64059 -4.0404 -7.75028
11875.361844063 0.506812 0.501749 0.903708 -1.71483 -3.90149 -7.73831
11875.366595984 0.537721 0.51334 0.909303 -1.77231 -3.81527 -7.73591
11875.371309280 0.570363 0.525331 0.915698 -1.75076 -3.71228 -7.64969
11875.376099825 0.601672 0.53559 0.92196 -1.70286 -3.69312 -7.58742
11875.380851984 0.628319 0.543317 0.923292 -1.64059 -3.68115 -7.55629
11875.385963678 0.649769 0.551178 0.923426 -1.54479 -3.66677 -7.58503
11875.390316963 0.668421 0.557173 0.922626 -1.4921 -3.70749 -7.63532
11875.395107508 0.678813 0.566233 0.917031 -1.41785 -3.64761 -7.68801
11875.399859667 0.689205 0.569564 0.915432 -1.46815 -3.53984 -7.72154
11875.404971600 0.692802 0.573694 0.916498 -1.57113 -3.50631 -7.75268
11875.409363508 0.691204 0.585152 0.912234 -1.62382 -3.53984 -7.80537
11875.414115429 0.69187 0.595943 0.914366 -1.6334 -3.5566 -7.89638
11875.418867111 0.688273 0.605669 0.915965 -1.70046 -3.68115 -7.88919
11875.423619032 0.685741 0.620858 0.921694 -1.78189 -3.87514 -7.82213
11875.428371191 0.685208 0.636179 0.92649 -1.93278 -4.05477 -7.75747
11875.433123112 0.689072 0.656164 0.944609 -1.98547 -4.13859 -7.7431
11875.437875032 0.696799 0.668821 0.958732 -2.0669 -4.19847 -7.6928
11875.442626953 0.701729 0.687473 0.982181 -2.19144 -4.26792 -7.67843
11875.447378874 0.711988 0.707325 1.00696 -2.28006 -4.32301 -7.6473
11875.452130795 0.718383 0.724378 1.03214 -2.30401 -4.44755 -7.58982
11875.456882715 0.727043 0.741032 1.05826 -2.37825 -4.48108 -7.54192
11875.461634636 0.731972 0.753689 1.0849 -2.38304 -4.39965 -7.51078
11875.466386795 0.732239 0.770077 1.11102 -2.43573 -4.35654 -7.46767
11875.471138477 0.7389 0.777937 1.13833 -2.44052 -4.29188 -7.45809
11875.476250410 0.736369 0.788329 1.16044 -2.46687 -4.22481 -7.39343
11875.480606556 0.735703 0.797389 1.18363 -2.5028 -4.04519 -7.34792
11875.485394478 0.728109 0.806848 1.20001 -2.48843 -3.97334 -7.33355
11875.490146160 0.717983 0.812444 1.21067 -2.47645 -3.96376 -7.33355
11875.494898319 0.702262 0.820571 1.21867 -2.40699 -3.99968 -7.4557
11875.499614239 0.682677 0.829631 1.22293 -2.41897 -4.05956 -7.53952
11875.504401922 0.658029 0.837492 1.222 -2.38304 -4.07393 -7.60179
11875.509153843 0.640443 0.844953 1.22173 -2.43334 -3.86796 -7.73112
11875.513906002 0.622057 0.853213 1.22573 -2.45729 -3.59971 -7.8844
11875.518619299 0.601939 0.863205 1.22599 -2.55788 -3.39614 -7.9826
11875.523409843 0.590881 0.878926 1.22986 -2.6465 -3.09437 -8.13349
11875.528161764 0.579156 0.891583 1.23159 -2.68482 -2.85007 -8.39454
11875.532913685 0.575026 0.907971 1.23052 -2.71835 -2.66805 -8.48555
11875.537627220 0.575825 0.92196 1.23159 -2.80936 -2.56986 -8.58375
11875.542417526 0.591014 0.933418 1.23292 -2.83091 -2.45729 -8.64842
11875.547529697 0.615262 0.938747 1.22826 -2.8381 -2.43573 -8.65081
11875.551921606 0.646438 0.943677 1.21973 -2.73751 -2.48843 -8.63405
11875.556673288 0.688806 0.946741 1.20401 -2.70158 -2.62494 -8.58135
11875.561425209 0.734904 0.942345 1.18256 -2.59141 -2.78301 -8.54303
11875.566177130 0.783266 0.934217 1.16098 -2.56507 -3.09197 -8.57656
11875.570929289 0.827366 0.927556 1.13979 -2.56028 -3.35303 -8.57656
11875.575680971 0.860674 0.917031 1.10968 -2.59381 -3.64282 -8.62926
11875.580433130 0.884256 0.904107 1.08384 -2.70637 -3.90149 -8.67716
11875.585185051 0.899044 0.892649 1.06252 -2.8836 -4.1817 -8.78972
11875.589936733 0.89598 0.881191 1.04014 -3.02012 -4.4739 -8.8975
11875.594688654 0.873198 0.873464 1.02628 -3.20214 -4.86907 -8.92145
11875.599440813 0.842021 0.858409 1.01269 -3.35782 -5.25946 -8.97893
11875.604192734 0.793659 0.846818 1.0055 -3.58055 -5.84864 -8.8975
11875.608944654 0.738234 0.832695 0.997769 -3.73144 -6.54559 -8.81128
11875.613696575 0.68321 0.815642 0.993772 -3.82006 -7.17308 -8.7035
11875.618808508 0.621524 0.801519 0.988576 -3.79132 -7.73112 -8.55501
11875.623200417 0.564234 0.780069 0.978051 -3.85359 -8.13588 -8.40652
11875.627916336 0.509476 0.761949 0.97059 -3.86317 -8.27 -8.35383
11875.632704258 0.459648 0.742231 0.956067 -3.72186 -8.47358 -8.25563
11875.637456417 0.410885 0.714786 0.939813 -3.69312 -8.40891 -8.28916
11875.642208099 0.370383 0.689338 0.921294 -3.70031 -8.29156 -8.19097
11875.646924019 0.324685 0.66549 0.906772 -3.68354 -8.11672 -8.23647
11875.651711941 0.280985 0.642041 0.882257 -3.67396 -7.92033 -8.35862
11875.656464100 0.241149 0.616994 0.855078 -3.62366 -7.73112 -8.44005
11875.661215782 0.210905 0.59168 0.826034 -3.5566 -7.57305 -8.44244
11875.665929079 0.183326 0.568897 0.798455 -3.57097 -7.46528 -8.464
11875.670719862 0.167605 0.545449 0.763415 -3.53026 -7.47486 -8.43526
11875.675471783 0.164274 0.516804 0.729308 -3.56858 -7.56347 -8.41849
11875.680223465 0.173201 0.492156 0.695467 -3.53026 -7.6928 -8.32269
11875.684937000 0.190387 0.471239 0.663358 -3.57576 -7.87482 -8.19576
11875.690087795 0.213836 0.450055 0.634714 -3.64522 -8.10954 -8.06882
11875.694479465 0.251141 0.422609 0.604337 -3.64761 -8.26761 -8.01134
11875.699231386 0.294574 0.39956 0.568897 -3.63324 -8.42568 -7.97542
11875.703983307 0.33894 0.374913 0.532658 -3.56139 -8.71308 -7.81974
11875.709095478 0.392366 0.349732 0.497086 -3.51349 -8.89031 -7.70717
11875.713487148 0.444459 0.32242 0.45685 -3.48236 -9.11784 -7.57784
11875.718239069 0.494288 0.299237 0.411685 -3.42248 -9.29507 -7.49162
11875.722991228 0.542651 0.276855 0.363188 -3.37219 -9.44356 -7.33355
11875.727742910 0.577824 0.25607 0.31376 -3.26441 -9.6184 -7.17069
11875.732494831 0.602072 0.238351 0.265397 -3.25004 -9.70462 -7.02699
11875.737246752 0.614862 0.226093 0.217167 -3.29076 -9.73815 -6.89047
11875.741998911 0.615795 0.209306 0.172135 -3.31471 -9.85551 -6.78988
11875.746750593 0.611132 0.193185 0.126969 -3.27399 -9.90101 -6.65336
11875.751502752 0.595677 0.185724 0.0856677 -3.32908 -9.98723 -6.56475
11875.756254673 0.57356 0.176265 0.0519602 -3.35542 -9.98244 -6.44979
11875.761006594 0.539453 0.171602 0.0217167 -3.3195 -10.0184 -6.445
11875.765758276 0.503348 0.165074 -0.000799387 -3.25004 -9.95849 -6.42823
11875.770510435 0.46551 0.165473 -0.0181194 -3.29076 -9.94891 -6.38752
11875.775226593 0.423942 0.166139 -0.021317 -3.31231 -9.74294 -6.38273
11875.780374050 0.384372 0.172268 -0.021317 -3.46559 -9.43398 -6.41386
11875.784766197 0.354395 0.181727 -0.0146554 -3.47278 -9.07712 -6.42105
11875.789518118 0.330147 0.191853 0.00346401 -3.52307 -8.85439 -6.31327
11875.794234276 0.316824 0.20864 0.0285115 -3.54702 -8.46639 -6.23184
11875.799021959 0.309763 0.228758 0.053026 -3.48475 -8.03529 -6.15999
11875.803773880 0.314292 0.249675 0.0826034 -3.48236 -7.63053 -6.07856
11875.808526039 0.334544 0.27459 0.113779 -3.46799 -7.28325 -5.8654
11875.813277721 0.363988 0.297772 0.14389 -3.42488 -6.98388 -5.69775
11875.818029642 0.403957 0.327616 0.173467 -3.39374 -6.72282 -5.61632
11875.822781563 0.448989 0.353729 0.200913 -3.3195 -6.44979 -5.55166
11875.827533722 0.503881 0.38677 0.228758 -3.29315 -6.28214 -5.44388
11875.832247019 0.554508 0.412351 0.250874 -3.18538 -6.17197 -5.42711
11875.837037563 0.599407 0.443793 0.270326 -3.20693 -5.98515 -5.56124
11875.841789246 0.641375 0.471106 0.288979 -3.21412 -5.88456 -5.50615
11875.846541405 0.683476 0.497352 0.300303 -3.06802 -5.63069 -5.4319
11875.851653337 0.717583 0.522 0.306432 -3.06802 -5.31934 -5.4798
11875.856045246 0.751424 0.543051 0.305899 -2.85726 -5.22114 -5.44148
11875.860797167 0.780335 0.564101 0.299504 -2.66087 -5.19719 -5.3385
11875.865549088 0.805649 0.572628 0.289378 -2.50998 -5.30018 -5.21875
11875.870300770 0.824168 0.582887 0.26593 -2.42376 -5.35766 -5.16845
11875.875052929 0.842688 0.590747 0.245678 -2.31359 -5.38879 -4.96488
11875.879804850 0.857876 0.593945 0.218233 -2.20342 -5.55884 -4.95051
11875.884556770 0.866003 0.596077 0.191587 -2.14115 -5.63309 -4.81399
11875.889308691 0.871466 0.597142 0.159211 -2.05014 -5.57321 -4.79962
11875.894060850 0.873597 0.60447 0.128568 -2.10762 -5.6283 -4.68705
11875.898812294 0.867735 0.600873 0.10392 -2.16031 -5.71691 -4.65352
11875.903564453 0.864804 0.603404 0.0739433 -2.09564 -5.8175 -4.54335
11875.908316374 0.858809 0.607268 0.0506279 -2.12199 -5.98276 -4.46432
11875.913068533 0.850948 0.61393 0.0291776 -2.13875 -6.11209 -4.34936
11875.917820215 0.840289 0.61766 0.00786064 -2.17947 -6.34201 -4.24158
11875.922896147 0.837225 0.626986 -0.0117243 -2.13396 -6.50727 -4.22242
11875.927324057 0.834827 0.63085 -0.0311761 -2.11959 -6.66534 -4.09548
11875.932076216 0.83989 0.63991 -0.0446325 -2.02858 -6.74677 -4.00447
11875.936827898 0.841622 0.64324 -0.0592879 -1.94715 -6.76354 -3.9422
11875.941544056 0.851747 0.654965 -0.076075 -1.85135 -6.7803 -4.01405
11875.946331978 0.855478 0.658562 -0.0885988 -1.78429 -6.7324 -4.01405
11875.951083899 0.865337 0.664025 -0.0936616 -1.85854 -6.60307 -4.05716
11875.955835581 0.869067 0.668954 -0.0987243 -1.89686 -6.43542 -4.17452
11875.960587740 0.872398 0.681078 -0.0980582 -2.00703 -6.30609 -4.18889
11875.965339661 0.873198 0.685475 -0.0925957 -2.01421 -6.18394 -4.30385
11875.970091581 0.867335 0.688006 -0.0912634 -1.99026 -6.06658 -4.29427
11875.974843502 0.85641 0.693602 -0.0838025 -1.9735 -5.99952 -4.29906
11875.979557037 0.845619 0.693469 -0.0759418 -1.90644 -6.03545 -4.33978
11875.984347105 0.825634 0.691337 -0.0732772 -1.88967 -6.16239 -4.40444
11875.989099264 0.80858 0.695067 -0.0680812 -1.85614 -6.26058 -4.48108
11875.994211435 0.786198 0.689338 -0.0636845 -1.94715 -6.30609 -4.49545
11875.998564720 0.766746 0.689605 -0.0540919 -2.01182 -6.32046 -4.55054
11876.003355026 0.741832 0.684409 -0.0414349 -2.11241 -6.31806 -4.56491
11876.008107185 0.72238 0.68321 -0.0330413 -2.12438 -6.28932 -4.5218
11876.013219118 0.702129 0.679479 -0.0189188 -2.14115 -6.28453 -4.45953
11876.017611027 0.690138 0.673351 -0.00732772 -2.0693 -6.08335 -4.46432
11876.022362709 0.680145 0.66589 0.00359724 -1.94476 -5.96599 -4.43558
11876.027078867 0.669887 0.661493 0.00905972 -1.8753 -5.84624 -4.38528
11876.031866789 0.662026 0.655764 0.010392 -1.70765 -5.81032 -4.39007
11876.036582470 0.657896 0.647504 0.0133231 -1.66933 -5.87259 -4.35175
11876.041370392 0.65643 0.637911 0.0113247 -1.54479 -5.87259 -4.25595
11876.046086550 0.654299 0.626853 0.00479632 -1.50407 -5.93007 -4.22721
11876.050838709 0.655364 0.617793 0.00373047 -1.38672 -6.01629 -4.20326
11876.055590391 0.652433 0.606335 0.00106585 -1.3963 -6.04982 -4.12901
11876.060342312 0.659894 0.59581 0.000399694 -1.42983 -6.16957 -4.10027
11876.065094233 0.660827 0.579423 0.00186524 -1.45138 -6.24621 -4.08351
11876.069846153 0.658029 0.5661 0.00293109 -1.4442 -6.38752 -4.15536
11876.074598074 0.654965 0.551178 0.00466309 -1.46575 -6.60067 -4.12662
11876.079350233 0.647104 0.537055 0.0135896 -1.37474 -6.87131 -4.15536
11876.084461927 0.627919 0.520534 0.0186524 -1.32684 -7.12758 -4.1817
11876.088817835 0.614329 0.504413 0.0227825 -1.26697 -7.38624 -4.14578
11876.093605757 0.589948 0.489625 0.0302435 -1.33163 -7.62814 -4.13141
11876.098357916 0.562769 0.469773 0.0354395 -1.32924 -7.87243 -4.1817
11876.103109837 0.531326 0.455917 0.0466309 -1.3484 -8.04727 -4.19607
11876.107825518 0.494554 0.442861 0.0554242 -1.27655 -8.15504 -4.17931
11876.112613678 0.462579 0.429538 0.0638178 -1.23104 -8.23168 -4.16733
11876.117365599 0.426207 0.416348 0.0750092 -1.23344 -8.21971 -4.14578
11876.122117281 0.401959 0.40409 0.085268 -1.19511 -8.19097 -4.07153
11876.126830578 0.372781 0.395031 0.097925 -1.18793 -8.06164 -4.06435
11876.131621361 0.353995 0.383972 0.10845 -1.23583 -7.87961 -4.07872
11876.136373520 0.339873 0.375712 0.125504 -1.30289 -7.63532 -4.01405
11876.141125202 0.326417 0.365187 0.144822 -1.32205 -7.61137 -4.06674
11876.145838499 0.318289 0.351997 0.160011 -1.32445 -7.66646 -4.11943
11876.150629044 0.310562 0.34387 0.17853 -1.27655 -7.65688 -4.11943
11876.155740976 0.299104 0.334144 0.19545 -1.33882 -7.76705 -4.16254
11876.160132885 0.287513 0.320821 0.213436 -1.34361 -7.89638 -4.23439
11876.164885044 0.261 0.307498 0.22556 -1.33882 -8.07122 -4.39247
11876.169636965 0.222896 0.292975 0.24368 -1.36516 -8.1742 -4.52898
11876.174388647 0.167605 0.28285 0.262599 -1.31726 -8.41849 -4.77327
11876.179140568 0.101789 0.268061 0.280985 -1.36037 -8.56698 -5.01996
11876.183892727 0.0211838 0.259268 0.300037 -1.33882 -8.75619 -5.16127
11876.188644648 -0.0707458 0.24328 0.321087 -1.34121 -8.8951 -5.37921
11876.193396568 -0.162809 0.237418 0.336409 -1.43701 -8.93582 -5.51094
11876.198148489 -0.259801 0.232888 0.361323 -1.48012 -8.96216 -5.6283
11876.202900410 -0.353196 0.22596 0.388103 -1.61903 -8.86157 -5.74326
11876.207652092 -0.438997 0.223828 0.417147 -1.64777 -8.95498 -5.83666
11876.212404251 -0.510009 0.227559 0.440462 -1.6334 -9.137 -5.89414
11876.217156172 -0.569963 0.223828 0.468974 -1.66933 -9.45314 -5.83187
11876.221908331 -0.597542 0.224495 0.492689 -1.6837 -9.71899 -5.76481
11876.227019787 -0.600606 0.223695 0.519202 -1.74836 -9.96807 -5.66183
11876.231411934 -0.585418 0.221164 0.540119 -1.81303 -10.186 -5.77918
11876.236128092 -0.558505 0.217034 0.553576 -1.74118 -10.277 -6.00431
11876.240916014 -0.53559 0.217167 0.553309 -1.49689 -10.3345 -6.34441
11876.245667696 -0.511874 0.212504 0.537322 -1.12805 -10.3537 -6.47134
11876.250419855 -0.484695 0.196383 0.509343 -0.809517 -10.3297 -6.50008
11876.255135775 -0.453519 0.178397 0.45725 -0.342488 -10.1237 -6.62223
11876.259923458 -0.417547 0.153349 0.391567 0.0167651 -9.83156 -6.55038
11876.264675379 -0.373847 0.120574 0.308963 0.409548 -9.40524 -6.59828
11876.269427538 -0.335743 0.087 0.223162 0.692161 -8.93342 -6.56235
11876.274140835 -0.298971 0.0506279 0.125104 0.917292 -8.47118 -6.66055
11876.278931379 -0.27006 0.0157213 0.0223828 1.01788 -8.1766 -6.67252
11876.283683300 -0.250075 -0.0187856 -0.0782067 1.10171 -7.94428 -6.65097
11876.288435221 -0.240749 -0.0496953 -0.173467 1.01788 -7.73831 -6.6366
11876.293148518 -0.229824 -0.0784732 -0.262865 0.890947 -7.597 -6.67971
11876.298299074 -0.22556 -0.105253 -0.338807 0.752036 -7.56108 -6.69408
11876.302690983 -0.227559 -0.12244 -0.407688 0.728086 -7.65209 -6.61983
11876.307443142 -0.223296 -0.132299 -0.464311 0.613125 -7.92991 -6.60307
11876.312194824 -0.210505 -0.142158 -0.509077 0.426313 -8.18618 -6.55277
11876.317306757 -0.197982 -0.146954 -0.539054 0.167651 -8.37538 -6.46176
11876.321698666 -0.178796 -0.145222 -0.557306 -0.107776 -8.53824 -6.41626
11876.326450825 -0.154015 -0.136828 -0.561303 -0.380808 -8.74182 -6.42823
11876.331202507 -0.120308 -0.124172 -0.548779 -0.627495 -8.86876 -6.47613
11876.335954666 -0.0932619 -0.105386 -0.526263 -0.876577 -8.8975 -6.5408
11876.340706587 -0.0718116 -0.0811378 -0.496953 -1.07297 -8.86636 -6.84976
11876.345458269 -0.0554242 -0.051827 -0.455651 -1.14482 -8.8017 -7.02459
11876.350210190 -0.0459648 -0.0229158 -0.417813 -1.27894 -8.6077 -7.24014
11876.354962349 -0.0515605 0.00972588 -0.375046 -1.26936 -8.34904 -7.44372
11876.359714270 -0.0680812 0.0413017 -0.33028 -1.26218 -8.09996 -7.57066
11876.364466190 -0.0896646 0.0782067 -0.293242 -1.25499 -7.88919 -7.64251
11876.369218111 -0.112181 0.113247 -0.252473 -1.23583 -7.77184 -7.76465
11876.373970032 -0.135629 0.15175 -0.210106 -1.2023 -7.65209 -7.7886
11876.378721714 -0.150418 0.18759 -0.167472 -1.22146 -7.55389 -7.81734
11876.383437872 -0.151084 0.223429 -0.122972 -1.25499 -7.42217 -7.78142
11876.388585806 -0.142557 0.254472 -0.0815375 -1.20948 -7.29044 -7.791
11876.392977953 -0.120308 0.284582 -0.0362389 -1.11608 -7.16829 -7.81255
11876.397729635 -0.0967259 0.316291 0.0042634 -1.11129 -6.98867 -7.8844
11876.402445555 -0.0754089 0.349865 0.0452986 -1.11368 -6.79467 -7.86285
11876.407233477 -0.05649 0.380642 0.0826034 -1.0562 -6.71084 -7.9323
11876.411985636 -0.033441 0.405956 0.116311 -1.02986 -6.69647 -7.81495
11876.416737318 -0.00333078 0.430337 0.148953 -0.977168 -6.76833 -7.70478
11876.421489477 0.0301103 0.450322 0.177864 -0.890947 -6.83299 -7.63053
11876.426241398 0.0590214 0.468574 0.203311 -0.823887 -6.82102 -7.56108
11876.430993080 0.0893982 0.48776 0.228625 -0.821492 -6.85934 -7.54671
11876.435745001 0.109116 0.499617 0.24781 -0.833467 -6.91682 -7.44612
11876.440458536 0.128302 0.512008 0.270193 -0.814307 -6.82581 -7.41259
11876.445249081 0.14802 0.517603 0.286847 -0.778381 -6.71563 -7.23296
11876.450001001 0.166672 0.523066 0.298172 -0.737666 -6.66773 -7.13476
11876.454752922 0.174266 0.53026 0.309096 -0.58678 -6.61265 -7.11321
11876.459864855 0.184658 0.534923 0.317757 -0.481399 -6.53361 -7.10363
11876.464256525 0.195983 0.532658 0.31709 -0.340093 -6.49769 -7.01741
11876.469008684 0.205176 0.529861 0.312028 -0.280217 -6.42105 -6.95753
11876.473760605 0.221963 0.532126 0.303634 -0.177231 -6.48092 -6.86892
11876.478512764 0.235553 0.527596 0.297772 -0.143701 -6.4426 -6.80665
11876.483264446 0.257403 0.527196 0.289245 -0.112566 -6.46176 -6.85455
11876.488016367 0.271392 0.528795 0.274989 -0.134121 -6.4426 -6.90724
11876.492768288 0.285914 0.529861 0.266729 -0.234712 -6.42823 -6.92879
11876.497520447 0.302568 0.531193 0.263398 -0.280217 -6.46416 -6.98627
11876.502272129 0.321354 0.539054 0.263665 -0.471819 -6.50248 -7.00064
11876.507024288 0.35253 0.543317 0.268594 -0.555645 -6.52403 -7.00064
11876.511776209 0.382107 0.547447 0.272991 -0.670605 -6.48332 -7.00543
11876.516527891 0.41728 0.554508 0.286447 -0.740061 -6.42344 -6.99346
11876.521279812 0.444726 0.564501 0.303101 -0.790356 -6.42344 -7.05094
11876.526031971 0.46924 0.572894 0.32162 -0.855022 -6.37075 -7.12997
11876.531107903 0.484562 0.582487 0.342804 -0.902922 -6.32285 -7.1156
11876.535535812 0.500283 0.590881 0.362123 -0.996328 -6.24382 -6.95514
11876.540287733 0.512807 0.597675 0.388369 -1.10889 -6.19592 -6.924
11876.545039654 0.518136 0.603671 0.409153 -1.14242 -6.29411 -6.82102
11876.549755573 0.522666 0.612464 0.429804 -1.20469 -6.37554 -6.80904
11876.554543495 0.523066 0.61806 0.449655 -1.2023 -6.36836 -6.7803
11876.559295416 0.506812 0.622456 0.465776 -1.14242 -6.28932 -6.76833
11876.564047575 0.495753 0.628052 0.479766 -1.1041 -6.2989 -6.67252
11876.568763256 0.48696 0.636979 0.485761 -1.04662 -6.31327 -6.60786
11876.573551178 0.474836 0.638577 0.491224 -1.06578 -6.29411 -6.57672
11876.578303099 0.463378 0.643773 0.496286 -0.991538 -6.40428 -6.60067
11876.583055258 0.460447 0.649236 0.497752 -1.00351 -6.61025 -6.4905
11876.587768316 0.454585 0.652167 0.498418 -1.05141 -6.80665 -6.43302
11876.592559099 0.45685 0.660427 0.501482 -1.1544 -6.88329 -6.36836
11876.597311020 0.455118 0.670286 0.504413 -1.21188 -6.89526 -6.35399
11876.602422714 0.45725 0.67415 0.512407 -1.31247 -6.83539 -6.3492
11876.606776237 0.450188 0.687207 0.5216 -1.36995 -6.67252 -6.37554
11876.611566782 0.450055 0.696533 0.536389 -1.48252 -6.4905 -6.33243
11876.616318703 0.441795 0.704926 0.552643 -1.59269 -6.35638 -6.32046
11876.621430397 0.435666 0.714253 0.570496 -1.59508 -6.37794 -6.21987
11876.625822544 0.429138 0.724511 0.586351 -1.65735 -6.3947 -6.2031
11876.630574465 0.424874 0.733438 0.605802 -1.57592 -6.43542 -6.14562
11876.635326147 0.423675 0.740499 0.620458 -1.58311 -6.49769 -6.09532
11876.640078306 0.419678 0.748093 0.636979 -1.4921 -6.55038 -6.05461
11876.644830227 0.419945 0.757686 0.647237 -1.38911 -6.58391 -5.95641
11876.649582386 0.418613 0.759418 0.652833 -1.31487 -6.55756 -5.92767
11876.654334068 0.421144 0.758352 0.655897 -1.24302 -6.57193 -5.84385
11876.659085989 0.421277 0.760617 0.654165 -1.152 -6.60546 -5.78637
11876.663837910 0.419012 0.762882 0.652833 -1.08734 -6.61983 -5.77918
11876.668590069 0.410752 0.760084 0.640842 -1.02986 -6.70366 -5.80792
11876.673341751 0.396496 0.762482 0.628585 -0.974773 -6.91921 -5.82948
11876.678093910 0.38224 0.764348 0.618992 -0.993933 -7.08447 -5.90612
11876.682845831 0.360124 0.765946 0.605403 -0.955613 -7.20901 -5.89893
11876.687597513 0.332279 0.763282 0.589681 -0.979563 -7.38864 -5.90851
11876.692709446 0.310828 0.763681 0.576358 -0.984353 -7.68322 -5.82469
11876.697065592 0.286047 0.767012 0.564634 -1.02267 -7.8389 -5.81271
11876.701853514 0.257802 0.764214 0.555974 -1.02746 -7.95865 -5.82469
11876.706605434 0.224495 0.766746 0.547314 -0.965193 -8.06643 -5.82469
11876.711357355 0.192519 0.762216 0.540786 -0.929268 -8.19336 -5.78637
11876.716073275 0.157879 0.763149 0.536789 -0.936453 -8.35383 -5.7241
11876.720860958 0.125371 0.766746 0.537455 -0.955613 -8.40652 -5.65464
11876.725613117 0.0920628 0.765946 0.539853 -1.0107 -8.5095 -5.53968
11876.730365038 0.058755 0.768744 0.54758 -1.06818 -8.61489 -5.46064
11876.735078096 0.0245145 0.772208 0.559438 -1.17116 -8.71308 -5.35047
11876.739868879 -0.0114579 0.773274 0.574093 -1.17595 -8.74661 -5.3385
11876.744620800 -0.0406355 0.781268 0.590881 -1.22625 -8.78972 -5.2427
11876.749372721 -0.0667489 0.789795 0.607801 -1.17595 -8.89271 -5.08702
11876.754086256 -0.0822037 0.791127 0.62592 -1.08734 -9.00288 -4.96967
11876.758876562 -0.0987243 0.801652 0.638711 -0.974773 -9.09628 -4.88584
11876.763988495 -0.10432 0.80898 0.650835 -0.883762 -9.04599 -4.80441
11876.768380404 -0.100323 0.819372 0.661893 -0.864602 -9.01964 -4.67268
11876.773132324 -0.0866003 0.824701 0.668021 -0.850232 -8.943 -4.6152
11876.777884245 -0.0680812 0.834294 0.675616 -0.814307 -8.91187 -4.51222
11876.782636404 -0.0510276 0.841089 0.679746 -0.804727 -8.88073 -4.46671
11876.787388325 -0.0337075 0.85268 0.684409 -0.744851 -8.91666 -4.46192
11876.792140245 -0.00945942 0.856144 0.677614 -0.622705 -8.92384 -4.50982
11876.796891928 0.00719449 0.865337 0.671219 -0.502954 -8.90468 -4.36133
11876.801644087 0.0183859 0.868401 0.655764 -0.390388 -8.90708 -4.35175
11876.806395769 0.0286447 0.867868 0.638444 -0.287402 -9.07233 -4.36852
11876.811147928 0.032242 0.867069 0.618326 -0.203577 -9.22083 -4.38289
11876.815899849 0.0287779 0.860807 0.598342 -0.184417 -9.26873 -4.38528
11876.820652008 0.0085268 0.85681 0.577691 -0.234712 -9.3789 -4.50024
11876.825403452 -0.0203844 0.847351 0.555974 -0.354463 -9.55373 -4.63197
11876.830155611 -0.0672818 0.842021 0.537721 -0.387993 -9.69743 -4.79962
11876.835267544 -0.12124 0.838557 0.529328 -0.536484 -9.78365 -4.96009
11876.839659691 -0.183859 0.829631 0.5216 -0.632285 -9.69264 -5.0487
11876.844375372 -0.250874 0.825767 0.521334 -0.831072 -9.60403 -5.13013
11876.849163532 -0.319489 0.822969 0.522933 -0.943638 -9.53218 -5.15648
11876.853915215 -0.380375 0.819239 0.537855 -1.07776 -9.31902 -5.12295
11876.858667135 -0.427806 0.814443 0.555441 -1.22385 -9.16334 -4.97206
11876.863383293 -0.459914 0.814709 0.575159 -1.28613 -9.137 -4.86189
11876.868171215 -0.471905 0.816041 0.598075 -1.27655 -9.05078 -4.69184
11876.872923136 -0.460714 0.811778 0.616861 -1.24062 -9.00527 -4.54096
11876.877675056 -0.427006 0.814043 0.633648 -1.08494 -9.05078 -4.37331
11876.882388115 -0.391034 0.806582 0.649236 -1.04183 -8.93103 -4.40205
11876.887178898 -0.337608 0.805783 0.658429 -1.03225 -8.81846 -4.46192
11876.891930819 -0.294841 0.799787 0.666156 -1.00351 -8.67716 -4.53138
11876.896682739 -0.258868 0.795923 0.66589 -0.977168 -8.61249 -4.67508
11876.901396275 -0.232222 0.794724 0.664158 -1.02507 -8.43765 -4.72537
11876.906546593 -0.206642 0.783933 0.658828 -0.905317 -8.33706 -4.72537
11876.910938263 -0.187057 0.771409 0.641508 -0.780776 -8.21492 -4.78525
11876.915690422 -0.168138 0.75702 0.627253 -0.711321 -8.15025 -4.84033
11876.920442343 -0.152683 0.738368 0.602605 -0.66342 -8.19815 -4.77567
11876.925554514 -0.136962 0.720781 0.576225 -0.61073 -8.28198 -4.90021
11876.929946184 -0.126703 0.700796 0.54798 -0.589175 -8.33227 -4.86189
11876.934698343 -0.118842 0.680812 0.519735 -0.62031 -8.29635 -4.92416
11876.939450026 -0.107917 0.658828 0.494021 -0.766406 -8.32988 -4.89063
11876.944201946 -0.0944609 0.635247 0.473104 -0.857417 -8.31311 -4.88105
11876.948953867 -0.0855345 0.613397 0.453119 -0.972378 -8.22689 -4.85231
11876.953706026 -0.0699464 0.593945 0.432735 -1.09452 -8.10954 -4.82836
11876.958457947 -0.0562236 0.57849 0.417547 -1.16398 -8.01853 -4.81399
11876.963209867 -0.046098 0.556907 0.407155 -1.23104 -7.9826 -4.85231
11876.967961550 -0.0338407 0.545182 0.398095 -1.25499 -7.87482 -4.87147
11876.972713709 -0.0235819 0.532392 0.384372 -1.29092 -7.77184 -4.86189
11876.977465630 -0.0105253 0.518669 0.36985 -1.27655 -7.62814 -4.9026
11876.982217550 0.00293109 0.506812 0.357992 -1.29331 -7.55389 -4.98643
11876.986969471 0.0145222 0.492689 0.344403 -1.25499 -7.60898 -4.99362
11876.991685390 0.0349066 0.476701 0.329214 -1.27415 -7.65448 -5.03673
11876.996833086 0.0542251 0.469773 0.316691 -1.30768 -7.63772 -5.05349
11877.001225233 0.0827366 0.451254 0.305233 -1.26218 -7.60179 -5.04631
11877.005977154 0.113779 0.437132 0.293109 -1.2502 -7.65209 -5.01757
11877.010693312 0.144956 0.41768 0.285381 -1.30289 -7.64011 -5.06547
11877.015480995 0.172934 0.405023 0.279919 -1.33882 -7.52994 -5.08223
11877.020233154 0.199714 0.390368 0.277121 -1.38193 -7.45809 -5.12295
11877.024984837 0.223828 0.375979 0.277254 -1.41546 -7.43414 -5.11816
11877.029697895 0.243147 0.359858 0.275522 -1.41785 -7.44851 -5.20677
11877.034488678 0.257802 0.348799 0.280052 -1.45378 -7.46288 -5.20677
11877.039240837 0.262066 0.337741 0.285115 -1.41785 -7.44851 -5.27144
11877.043992758 0.266596 0.329747 0.285648 -1.4442 -7.45809 -5.32173
11877.048706055 0.263132 0.318289 0.284582 -1.35558 -7.51557 -5.44148
11877.053496361 0.260067 0.306565 0.27832 -1.32445 -7.48683 -5.48459
11877.058248520 0.259801 0.296706 0.27792 -1.23344 -7.49881 -5.54687
11877.063036680 0.258469 0.28245 0.275256 -1.26218 -7.5515 -5.4822
11877.068112373 0.262066 0.270193 0.272991 -1.3005 -7.56826 -5.54447
11877.072504282 0.269527 0.258735 0.269793 -1.24781 -7.65209 -5.45106
11877.077256441 0.28245 0.240482 0.268061 -1.28613 -7.71436 -5.44867
