11873.252219439 rgb/11873.252219.png
11873.289083004 rgb/11873.289083.png
11873.325946569 rgb/11873.325946.png
11873.362809896 rgb/11873.362809.png
11873.399673223 rgb/11873.399673.png
11873.436536789 rgb/11873.436536.png
11873.473400354 rgb/11873.473400.png
11873.510263920 rgb/11873.510263.png
11873.547127485 rgb/11873.547127.png
11873.583991051 rgb/11873.583991.png
11873.620854139 rgb/11873.620854.png
11873.657717705 rgb/11873.657717.png
11873.694581270 rgb/11873.694581.png
11873.731444836 rgb/11873.731444.png
11873.768308401 rgb/11873.768308.png
11873.805171967 rgb/11873.805171.png
11873.842035294 rgb/11873.842035.png
11873.878898621 rgb/11873.878898.png
11873.915762186 rgb/11873.915762.png
11873.952625751 rgb/11873.952625.png
11873.989489317 rgb/11873.989489.png
11874.026352644 rgb/11874.026352.png
11874.063216209 rgb/11874.063216.png
11874.100079536 rgb/11874.100079.png
11874.136943102 rgb/11874.136943.png
11874.173806667 rgb/11874.173806.png
11874.210670233 rgb/11874.210670.png
11874.247533560 rgb/11874.247533.png
11874.284397125 rgb/11874.284397.png
11874.321260691 rgb/11874.321260.png
11874.358124018 rgb/11874.358124.png
11874.394987583 rgb/11874.394987.png
11874.431850910 rgb/11874.431850.png
11874.468714476 rgb/11874.468714.png
11874.505578041 rgb/11874.505578.png
11874.542441607 rgb/11874.542441.png
11874.579304934 rgb/11874.579304.png
11874.616168499 rgb/11874.616168.png
11874.653031826 rgb/11874.653031.png
11874.689895391 rgb/11874.689895.png
11874.726758957 rgb/11874.726758.png
11874.763622522 rgb/11874.763622.png
11874.800486088 rgb/11874.800486.png
11874.837349415 rgb/11874.837349.png
11874.874212742 rgb/11874.874212.png
11874.911076307 rgb/11874.911076.png
11874.947939873 rgb/11874.947939.png
11874.984803438 rgb/11874.984803.png
11875.021667004 rgb/11875.021667.png
11875.058530331 rgb/11875.058530.png
11875.095393658 rgb/11875.095393.png
11875.132257223 rgb/11875.132257.png
11875.169120789 rgb/11875.169120.png
11875.205984354 rgb/11875.205984.png
11875.242847919 rgb/11875.242847.png
11875.279711246 rgb/11875.279711.png
11875.316574574 rgb/11875.316574.png
11875.353438139 rgb/11875.353438.png
11875.390301704 rgb/11875.390301.png
11875.427165270 rgb/11875.427165.png
11875.464028835 rgb/11875.464028.png
11875.500892162 rgb/11875.500892.png
11875.537755728 rgb/11875.537755.png
11875.574619055 rgb/11875.574619.png
11875.611482620 rgb/11875.611482.png
11875.648346186 rgb/11875.648346.png
11875.685209513 rgb/11875.685209.png
11875.722073078 rgb/11875.722073.png
11875.758936644 rgb/11875.758936.png
11875.795799971 rgb/11875.795799.png
11875.832663536 rgb/11875.832663.png
11875.869527102 rgb/11875.869527.png
11875.906390429 rgb/11875.906390.png
11875.943253994 rgb/11875.943253.png
11875.980117559 rgb/11875.980117.png
11876.016981125 rgb/11876.016981.png
11876.053844452 rgb/11876.053844.png
11876.090708017 rgb/11876.090708.png
11876.127571344 rgb/11876.127571.png
11876.164434910 rgb/11876.164434.png
11876.201298475 rgb/11876.201298.png
11876.238162041 rgb/11876.238162.png
11876.275025606 rgb/11876.275025.png
11876.311888695 rgb/11876.311888.png
11876.348752260 rgb/11876.348752.png
11876.385615826 rgb/11876.385615.png
11876.422479391 rgb/11876.422479.png
11876.459342957 rgb/11876.459342.png
11876.496206522 rgb/11876.496206.png
11876.533069611 rgb/11876.533069.png
11876.569933176 rgb/11876.569933.png
11876.606796741 rgb/11876.606796.png
11876.643660307 rgb/11876.643660.png
11876.680523872 rgb/11876.680523.png
11876.717387199 rgb/11876.717387.png
11876.754250765 rgb/11876.754250.png
11876.791114092 rgb/11876.791114.png
11876.827977657 rgb/11876.827977.png
