# Format: timestamp angular_velocity[rad/sec](x y z) linear_acceleration[m/s^2](x y z)
4042.624020338 -0.287513 0.355861 0.191054 0.102986 9.97286 -2.19863
4042.628772497 -0.292043 0.367585 0.188123 0.0814307 10.0303 -2.07888
4042.633524179 -0.294708 0.377977 0.181727 0.107776 9.93215 -2.2609
4042.638276339 -0.288712 0.383972 0.177198 0.196392 9.91059 -2.18186
4042.643027782 -0.291243 0.395297 0.168538 0.170046 9.89622 -2.19863
4042.647779942 -0.284848 0.401159 0.16907 0.220342 9.88185 -2.25371
4042.652531862 -0.28325 0.409819 0.166273 0.182021 9.84593 -2.21539
4042.657283783 -0.279919 0.414616 0.161077 0.294587 9.78844 -2.28724
4042.662395477 -0.286447 0.419412 0.160677 0.359253 9.7621 -2.32077
4042.666787863 -0.286314 0.421277 0.158279 0.414338 9.73815 -2.3064
4042.671539307 -0.287779 0.424342 0.151217 0.431104 9.65672 -2.30161
4042.676291466 -0.292709 0.425541 0.152017 0.416733 9.63995 -2.32317
4042.681043386 -0.292709 0.425008 0.146821 0.464634 9.63516 -2.25611
4042.685795307 -0.29564 0.419412 0.133764 0.507744 9.64953 -2.34472
4042.690547228 -0.295374 0.416081 0.128835 0.541274 9.57529 -2.33514
4042.695299387 -0.296972 0.410752 0.120441 0.574805 9.57289 -2.24892
4042.700050831 -0.299104 0.404224 0.10925 0.593965 9.5202 -2.20821
4042.704766989 -0.300703 0.400227 0.0951271 0.56762 9.49146 -2.16031
4042.709554911 -0.293242 0.394498 0.0873997 0.560435 9.48188 -2.2106
4042.714306831 -0.290711 0.391034 0.0824701 0.637075 9.49386 -2.23216
4042.719058752 -0.279919 0.383173 0.0796723 0.63468 9.47949 -2.2585
4042.723774433 -0.270992 0.376645 0.0740766 0.622705 9.54894 -2.28724
4042.728562355 -0.260201 0.369317 0.0660827 0.632285 9.67109 -2.21779
4042.733674526 -0.252207 0.363855 0.0624855 0.598755 9.64474 -2.16031
4042.738066196 -0.240749 0.358392 0.0596876 0.608335 9.68785 -2.17947
4042.742779493 -0.239949 0.35213 0.0588882 0.62989 9.62558 -2.17707
4042.747570276 -0.23542 0.340939 0.0575559 0.673 9.60403 -2.18905
4042.752322197 -0.232089 0.328282 0.0655498 0.728086 9.4268 -2.22018
4042.757073879 -0.228625 0.316025 0.0706126 0.787961 9.34297 -2.24653
4042.761787415 -0.227959 0.304167 0.0802052 0.835862 9.41003 -2.23216
4042.766577721 -0.228758 0.292709 0.0885988 0.807122 9.46033 -2.17228
4042.771329880 -0.231423 0.277787 0.093928 0.764011 9.55373 -2.19144
4042.776081800 -0.232489 0.270193 0.0976585 0.735271 9.65911 -2.12199
4042.780833721 -0.238084 0.262865 0.0995237 0.684976 9.76689 -2.0669
4042.785585403 -0.245812 0.254605 0.101655 0.64426 9.82198 -2.03577
4042.790337563 -0.251674 0.251274 0.0975253 0.574805 9.85072 -1.98308
4042.795089245 -0.259268 0.249142 0.0951271 0.524509 9.78126 -2.07169
4042.799841404 -0.263665 0.247544 0.0935283 0.512534 9.83395 -2.03577
4042.804952860 -0.27006 0.244479 0.0893982 0.445474 9.76928 -2.02619
4042.809345245 -0.278853 0.243413 0.0828698 0.390388 9.83395 -1.98308
4042.814096928 -0.280452 0.246877 0.0774074 0.268242 9.82677 -1.88967
4042.818848848 -0.28658 0.247677 0.0750092 0.304167 9.91778 -1.78668
4042.823600769 -0.285781 0.249942 0.0712787 0.229922 9.97526 -1.80824
4042.828352928 -0.282184 0.249276 0.0626187 0.215552 10.0519 -1.76034
4042.833104610 -0.280718 0.249009 0.0583553 0.167651 10.0184 -1.76513
4042.837856770 -0.27872 0.246345 0.0572894 0.234712 10.004 -1.83219
4042.842608452 -0.272991 0.246877 0.0538254 0.220342 9.97047 -1.82979
4042.847360373 -0.272458 0.238884 0.0572894 0.251477 9.9561 -1.89446
4042.852076530 -0.271925 0.233821 0.0583553 0.263452 9.92975 -1.95913
4042.856864452 -0.271259 0.230224 0.0607534 0.237107 9.82677 -1.99266
4042.861616135 -0.277787 0.219698 0.0679479 0.296982 9.79323 -2.00463
4042.866368294 -0.282983 0.214369 0.0736769 0.282612 9.7597 -2.02379
4042.871084213 -0.288979 0.203977 0.0758086 0.244292 9.84593 -1.98308
4042.875871897 -0.303101 0.198381 0.0814043 0.191602 9.88664 -1.95434
4042.880623817 -0.312161 0.192253 0.0823369 0.170046 9.94412 -1.82021
4042.885375738 -0.324951 0.184658 0.0824701 0.117356 9.91538 -1.78429
4042.890089035 -0.33934 0.178263 0.0895314 0.119751 9.89143 -1.83698
4042.895239592 -0.340539 0.170536 0.0893982 0.184417 9.83635 -1.80345
4042.899631262 -0.342671 0.164141 0.0929954 0.174836 9.77647 -1.8274
4042.904383421 -0.342538 0.157213 0.0995237 0.129331 9.83156 -1.825
4042.909096718 -0.344669 0.150685 0.0999234 0.131726 9.78365 -1.825
4042.913887262 -0.33441 0.143357 0.102988 0.0790356 9.77407 -1.69328
4042.918639183 -0.331879 0.142957 0.106052 0.112566 9.68067 -1.72681
4042.923391342 -0.323485 0.136562 0.110982 0.177231 9.66869 -1.76273
4042.928142786 -0.311495 0.1299 0.115378 0.162861 9.64714 -1.76513
4042.932894945 -0.30017 0.126836 0.123639 0.141306 9.60642 -1.74357
4042.937646866 -0.283516 0.122573 0.133631 0.172441 9.55373 -1.71723
4042.942398787 -0.2606 0.121907 0.135763 0.196392 9.5681 -1.70765
4042.947150707 -0.245678 0.117243 0.144689 0.213157 9.65193 -1.65017
4042.951902866 -0.229691 0.114046 0.154948 0.208367 9.63516 -1.67172
4042.956654310 -0.214103 0.11298 0.153749 0.172441 9.69504 -1.6334
4042.961406469 -0.201312 0.107784 0.159478 0.110171 9.69983 -1.6334
4042.966518164 -0.195583 0.107251 0.161609 0.0862207 9.63756 -1.61185
4042.970910311 -0.186923 0.102455 0.174133 0.220342 9.51302 -1.69088
4042.975662231 -0.181594 0.0971256 0.182127 0.404758 9.3765 -1.79387
4042.980414152 -0.17813 0.0897979 0.199714 0.404758 9.22801 -1.85375
4042.985165834 -0.175998 0.0799387 0.217833 0.450264 9.23759 -1.76752
4042.989917994 -0.176132 0.0742098 0.233821 0.457449 9.30705 -1.72441
4042.994669676 -0.181194 0.0678147 0.248609 0.423918 9.39566 -1.7795
4042.999385834 -0.183326 0.0592879 0.261933 0.447869 9.41243 -1.76752
4043.004173756 -0.185191 0.055291 0.27379 0.299377 9.53936 -1.68609
4043.008925676 -0.186124 0.0551577 0.285515 0.356858 9.59924 -1.6358
4043.013677359 -0.182793 0.0514273 0.291643 0.265847 9.68067 -1.61424
4043.018393517 -0.182926 0.0551577 0.302302 0.275427 9.73336 -1.55676
4043.023181200 -0.177064 0.054758 0.305899 0.229922 9.75491 -1.51365
4043.027933359 -0.168404 0.0550245 0.311894 0.153281 9.82677 -1.4897
4043.032685041 -0.154282 0.0592879 0.31376 0.114961 9.91299 -1.47294
4043.037398100 -0.13896 0.0658162 0.318822 0.0981958 9.94891 -1.53521
4043.042188883 -0.121773 0.0710123 0.324818 0.0646655 9.91299 -1.51605
4043.046940804 -0.0992573 0.077807 0.328815 0.129331 9.93694 -1.54
4043.051692724 -0.0819372 0.0851348 0.333478 0.110171 9.91059 -1.5376
4043.056792021 -0.0619525 0.0931286 0.33934 0.110171 9.93933 -1.50886
4043.061196566 -0.0434334 0.0983247 0.3476 0.136516 9.92017 -1.52802
4043.065948725 -0.0289112 0.105119 0.350531 0.184417 9.96089 -1.58071
4043.070700407 -0.0222496 0.113113 0.357726 0.196392 9.90101 -1.55437
4043.075452328 -0.0243813 0.124038 0.357992 0.131726 9.90101 -1.56634
4043.080204248 -0.0257136 0.131632 0.35293 0.0574805 9.89862 -1.52323
4043.084992170 -0.0387703 0.142691 0.346534 -0.0335303 9.9561 -1.56634
4043.089708090 -0.051827 0.151351 0.341205 -0 9.90341 -1.62143
4043.094460249 -0.0688806 0.160144 0.333211 0.0670605 9.77168 -1.65735
4043.099211931 -0.0862006 0.163874 0.331879 0.107776 9.69264 -1.71004
4043.103963852 -0.102322 0.170936 0.327482 0.201182 9.61121 -1.76752
4043.109075785 -0.116444 0.174666 0.329348 0.225132 9.53697 -1.80584
4043.113467693 -0.127236 0.176931 0.332678 0.251477 9.59924 -1.81542
4043.118219614 -0.131499 0.179196 0.333478 0.241897 9.75252 -1.78189
4043.122971773 -0.134963 0.189588 0.336276 0.191602 9.81479 -1.67891
4043.127723217 -0.125371 0.191587 0.336942 0.124541 9.92017 -1.66933
4043.132475376 -0.115778 0.194384 0.33974 0.0958008 9.94652 -1.73639
4043.137227297 -0.109116 0.197315 0.34307 0.198787 9.89143 -1.75555
4043.141979218 -0.0965926 0.200779 0.347334 0.184417 9.82437 -1.80345
4043.146731138 -0.088732 0.202778 0.354129 0.299377 9.77647 -1.7795
4043.151483297 -0.0850015 0.201712 0.360524 0.239502 9.74294 -1.86093
4043.156234741 -0.0826034 0.199314 0.370649 0.294587 9.73575 -1.85375
4043.160986900 -0.0787397 0.19585 0.380109 0.265847 9.75252 -1.84656
4043.165703058 -0.0714119 0.193185 0.384639 0.311353 9.80281 -1.90404
4043.170490742 -0.0734104 0.190654 0.396629 0.368833 9.73336 -1.96631
4043.175242662 -0.0798055 0.186124 0.409153 0.443079 9.67827 -1.92799
4043.179994822 -0.0804717 0.179462 0.417813 0.469424 9.70462 -1.92081
4043.184746265 -0.0881991 0.176265 0.425807 0.414338 9.75491 -1.92799
4043.189498425 -0.0940613 0.173067 0.425674 0.387993 9.77168 -1.88967
4043.194250107 -0.0983247 0.172135 0.427006 0.428708 9.86269 -1.85614
4043.199362278 -0.100856 0.170802 0.425008 0.304167 9.93694 -1.825
4043.203715563 -0.0965926 0.170936 0.41768 0.244292 10.0447 -1.71962
4043.208506107 -0.0943277 0.172668 0.408753 0.191602 10.1285 -1.72441
4043.213257790 -0.0924625 0.175066 0.399827 0.205972 10.1333 -1.65017
4043.218009949 -0.0900643 0.177997 0.389568 0.148491 10.0735 -1.57113
4043.222723007 -0.0819372 0.18226 0.37851 0.196392 10.0854 -1.54479
4043.227513790 -0.0802052 0.18226 0.372248 0.182021 10.1693 -1.5879
4043.232265711 -0.0774074 0.177597 0.359458 0.184417 10.2387 -1.5855
4043.237017632 -0.0715452 0.178663 0.351064 0.282612 10.2507 -1.62143
4043.241769314 -0.0828698 0.176665 0.347201 0.364043 10.1573 -1.57832
4043.246521473 -0.0972588 0.172002 0.339074 0.340093 10.0351 -1.67651
4043.251273155 -0.118176 0.168538 0.334677 0.354463 10.0495 -1.69807
4043.256025314 -0.140159 0.167738 0.323619 0.359253 10.0495 -1.66214
4043.260777235 -0.158812 0.163208 0.32242 0.364043 9.98963 -1.75794
4043.265529156 -0.175865 0.161609 0.311894 0.361648 9.93694 -1.71483
4043.270640850 -0.199047 0.160011 0.306165 0.395178 9.91059 -1.65735
4043.275032759 -0.221564 0.161476 0.301236 0.433499 9.9082 -1.64059
4043.279784679 -0.23502 0.163608 0.295773 0.445474 9.94652 -1.57353
4043.284536839 -0.245412 0.167338 0.29564 0.462239 9.97765 -1.5855
4043.289288521 -0.250874 0.172668 0.288979 0.462239 10.1788 -1.47054
4043.294040680 -0.252606 0.175199 0.289378 0.457449 10.2124 -1.49928
4043.298792362 -0.246211 0.180928 0.287113 0.455054 10.3153 -1.42504
4043.303544283 -0.237951 0.181328 0.285781 0.479004 10.3848 -1.52084
4043.308296204 -0.224628 0.188123 0.282717 0.519719 10.4638 -1.49689
4043.313012123 -0.214369 0.187723 0.279253 0.536484 10.4327 -1.46336
4043.317800045 -0.203444 0.188922 0.281784 0.550854 10.38 -1.52323
4043.322552204 -0.200513 0.189988 0.287247 0.55804 10.2746 -1.52563
4043.327303886 -0.191054 0.189721 0.287247 0.574805 10.2195 -1.66933
4043.332019806 -0.182793 0.190387 0.289911 0.622705 10.186 -1.6813
4043.336807728 -0.177331 0.187057 0.296706 0.673 10.1645 -1.64538
4043.341919661 -0.17027 0.185458 0.299237 0.735271 10.2243 -1.67172
4043.346311569 -0.157479 0.185858 0.303767 0.723296 10.2004 -1.65975
4043.351024628 -0.151484 0.180662 0.309496 0.759221 10.2243 -1.61664
4043.355815172 -0.135629 0.181328 0.314426 0.713716 10.2531 -1.5376
4043.360567331 -0.123639 0.179862 0.32162 0.771196 10.1908 -1.48012
4043.365319252 -0.109649 0.179995 0.324418 0.766406 10.1788 -1.42983
4043.370032549 -0.0900643 0.182926 0.325884 0.735271 10.1309 -1.47773
4043.374823093 -0.073144 0.179596 0.327482 0.737666 10.1237 -1.42025
4043.379575253 -0.0472971 0.178263 0.329747 0.773591 10.1214 -1.4442
4043.384326696 -0.0262466 0.175332 0.333611 0.843047 10.0303 -1.37474
4043.389078856 -0.00786064 0.171735 0.337075 0.886157 10.0735 -1.31487
4043.393830776 0.0105253 0.167605 0.341472 0.912502 10.095 -1.33882
4043.398582697 0.0263798 0.160544 0.344536 0.962798 10.0136 -1.346
4043.403334618 0.035173 0.156147 0.354262 1.03225 10.0208 -1.28613
4043.408086777 0.0335743 0.15175 0.364787 1.12087 10.0663 -1.21427
4043.413198233 0.029977 0.146688 0.372248 1.152 10.0423 -1.24062
4043.417590380 0.0165207 0.140426 0.379043 1.19272 10.1573 -1.09692
4043.422342300 -0.00373047 0.138028 0.388369 1.14721 10.3632 -1.0586
4043.427094221 -0.023049 0.1303 0.398361 1.14721 10.4088 -0.950823
4043.431846142 -0.0492956 0.126436 0.401825 1.18074 10.4591 -0.902922
4043.436597824 -0.0712787 0.123372 0.408354 1.22865 10.5261 -0.809517
4043.441349745 -0.0971256 0.12204 0.414882 1.31247 10.507 -0.802332
4043.446101904 -0.106585 0.122573 0.423942 1.27176 10.4782 -0.752036
4043.450853586 -0.113779 0.120708 0.429138 1.2526 10.4926 -0.814307
4043.455605745 -0.114446 0.119775 0.433135 1.27655 10.5213 -0.819097
4043.460321665 -0.107384 0.120441 0.436732 1.31966 10.5501 -0.778381
4043.465109348 -0.0972588 0.124571 0.43953 1.41306 10.6004 -0.809517
4043.469861269 -0.0815375 0.126836 0.443793 1.43941 10.6507 -0.754431
4043.474613428 -0.0663492 0.12617 0.441662 1.41785 10.6363 -0.764011
4043.479329348 -0.0496953 0.124704 0.441528 1.45857 10.562 -0.881367
4043.484117270 -0.0345069 0.131366 0.43873 1.50168 10.4806 -0.866997
4043.488869190 -0.0229158 0.1303 0.434734 1.53521 10.3752 -0.929268
4043.493620872 -0.0194518 0.128968 0.429271 1.61424 10.3058 -0.998723
4043.498334169 -0.0166539 0.127502 0.424874 1.66693 10.2195 -1.02507
4043.503484726 -0.0131899 0.118975 0.423675 1.73399 10.2148 -1.07536
4043.507876635 -0.0187856 0.111115 0.424208 1.90165 10.186 -0.946033
4043.512628794 -0.023049 0.102455 0.426074 1.99266 10.186 -0.989143
4043.517341614 -0.0286447 0.0911302 0.426873 2.0669 10.1669 -0.979563
4043.522132397 -0.0367718 0.0848683 0.432735 2.04535 10.1142 -0.979563
4043.526884317 -0.0448989 0.0807381 0.432735 2.02858 10.1333 -0.874182
4043.531636238 -0.0524931 0.0776738 0.433268 2.04535 10.1501 -0.778381
4043.536388159 -0.058755 0.0736769 0.431669 2.05972 10.107 -0.749641
4043.541140318 -0.0626187 0.0764747 0.425008 2.00942 10.0423 -0.694556
4043.545892000 -0.0626187 0.0784732 0.42141 1.97589 10.0088 -0.711321
4043.550643921 -0.0642175 0.0844686 0.410485 1.97829 10.0279 -0.63468
4043.555395842 -0.0630184 0.093928 0.39623 1.93757 10.0998 -0.550854
4043.560147762 -0.0624855 0.0985911 0.379309 1.94236 10.0184 -0.512534
4043.564899683 -0.0627519 0.110049 0.367319 1.96392 9.87946 -0.459844
4043.569651842 -0.0612864 0.121107 0.351997 1.95434 9.84832 -0.450264
4043.574763298 -0.0666156 0.131366 0.339473 1.96152 9.79323 -0.481399
4043.579155445 -0.0635513 0.140292 0.325617 2.0214 9.69983 -0.62031
4043.583907127 -0.0578224 0.150018 0.314026 2.0669 9.51541 -0.63468
4043.588659286 -0.0618193 0.159211 0.307897 2.13157 9.32142 -0.603545
4043.593447208 -0.0590214 0.162675 0.300836 2.27048 9.20406 -0.704136
4043.598163128 -0.0514273 0.164274 0.30057 2.29682 9.14179 -0.720901
4043.602915049 -0.0463645 0.166273 0.297772 2.39502 9.11065 -0.701741
4043.607630968 -0.0386371 0.163874 0.301769 2.42615 9.09149 -0.61552
4043.612418652 -0.0337075 0.164141 0.303767 2.42376 9.1346 -0.526904
4043.617170811 -0.0326417 0.164407 0.304167 2.44771 9.18729 -0.445474
4043.621922731 -0.0349066 0.161476 0.302568 2.42136 9.20406 -0.292192
4043.626638412 -0.0386371 0.164674 0.299237 2.37107 9.31663 -0.220342
4043.631426573 -0.0389035 0.165606 0.29191 2.34951 9.31423 -0.155676
4043.636178494 -0.0397029 0.172801 0.290977 2.29682 9.41003 -0.167651
4043.640930176 -0.0350398 0.177997 0.277121 2.27766 9.46512 -0.0934058
4043.645643473 -0.0261133 0.186257 0.268061 2.26808 9.42201 -0.129331
4043.650434256 -0.010392 0.192253 0.259401 2.20821 9.43398 -0.217947
4043.655186176 0.00333078 0.202378 0.243147 2.213 9.40524 -0.301772
4043.659938097 0.0119908 0.210372 0.233954 2.23455 9.25675 -0.395178
4043.664998293 0.0185191 0.218632 0.226093 2.22258 9.16334 -0.459844
4043.669441700 0.0147887 0.22636 0.219165 2.22976 9.137 -0.455054
4043.674193859 0.0131899 0.231556 0.212504 2.15312 9.22083 -0.474214
4043.678945541 0.000133231 0.234887 0.207708 2.20102 9.30465 -0.495769
4043.683697701 -0.00972588 0.238484 0.203977 2.14833 9.46033 -0.457449
4043.688449621 -0.0193185 0.241681 0.201046 2.10283 9.49625 -0.505349
4043.693201303 -0.0295773 0.242214 0.195051 2.07888 9.50823 -0.514929
4043.697953224 -0.040902 0.239816 0.193185 2.04056 9.49386 -0.593965
4043.702705383 -0.0467642 0.23915 0.186657 1.95194 9.48907 -0.58199
4043.707457066 -0.0494288 0.237018 0.17773 1.90165 9.59924 -0.603545
4043.712209225 -0.0463645 0.234221 0.166273 1.73399 9.80521 -0.637075
4043.717320919 -0.0389035 0.231556 0.151884 1.65017 10.0256 -0.65384
4043.721712828 -0.0258469 0.229957 0.13483 1.60227 10.1333 -0.617915
4043.726464748 -0.0210505 0.228225 0.119375 1.5879 10.2219 -0.632285
4043.731216908 -0.00759418 0.225427 0.106985 1.52802 10.2411 -0.716111
4043.735968590 -0.00173201 0.220764 0.0888652 1.46575 10.3273 -0.749641
4043.740720749 0.0102588 0.221031 0.0763415 1.47773 10.3824 -0.742456
4043.745472431 0.00626187 0.219432 0.0692802 1.44899 10.3417 -0.747246
4043.750224352 0.00266462 0.217833 0.0608867 1.46575 10.2555 -0.780776
4043.754976273 -0.00972588 0.216101 0.0560904 1.46575 10.2052 -0.797542
4043.759728193 -0.0271792 0.213703 0.0566233 1.36995 10.2339 -0.752036
4043.764480114 -0.0397029 0.211038 0.053559 1.32924 10.1309 -0.869392
4043.769232273 -0.0526263 0.211438 0.0516937 1.32684 10.1094 -0.902922
4043.773947954 -0.0632848 0.203444 0.054758 1.33403 10.0543 -1.02507
4043.778735876 -0.0716784 0.193052 0.0540919 1.37235 9.96328 -1.03944
4043.783487797 -0.074343 0.186524 0.0607534 1.34121 9.81719 -1.14721
4043.788239717 -0.0728775 0.176265 0.0628851 1.41546 9.77886 -1.25499
4043.792991638 -0.0668821 0.162809 0.0658162 1.46575 9.73815 -1.32924
4043.797743797 -0.0566233 0.145355 0.0680812 1.46815 9.78844 -1.34361
4043.802459478 -0.0544916 0.130433 0.0692802 1.45138 9.88185 -1.33163
4043.807571411 -0.0464977 0.11751 0.0699464 1.4418 9.99442 -1.34121
4043.811922312 -0.0355727 0.104054 0.070879 1.42504 10.1477 -1.30529
4043.816715240 -0.024781 0.0936616 0.0642175 1.34361 10.1908 -1.34361
4043.821467400 -0.00999234 0.0824701 0.0568897 1.31008 10.2291 -1.31247
4043.826218843 0.00133231 0.0747427 0.0487626 1.24541 10.2004 -1.346
4043.830932379 0.0166539 0.0670153 0.0383706 1.22865 10.1764 -1.42983
4043.835722923 0.0253139 0.0588882 0.0270459 1.22865 10.2148 -1.40827
4043.840474844 0.0342404 0.0536922 0.0151884 1.25978 10.2627 -1.40827
4043.845226765 0.0415681 0.053559 0.00399694 1.24062 10.2076 -1.4921
4043.849978924 0.0468974 0.0487626 -0.000932619 1.22146 10.3489 -1.46096
4043.854730368 0.0543583 0.0475636 -0.0170536 1.14003 10.4279 -1.45378
4043.859482527 0.0592879 0.0442328 -0.0237152 1.13524 10.4399 -1.51605
4043.864234447 0.0655498 0.0421011 -0.0363721 1.04423 10.4159 -1.54958
4043.868986368 0.0728775 0.0410352 -0.0504946 1.09213 10.38 -1.57353
4043.873738289 0.0754089 0.0365054 -0.0631516 1.02746 10.2722 -1.55437
4043.878850222 0.0763415 0.0369051 -0.0755421 1.0586 10.1645 -1.54479
4043.883241892 0.074343 0.0383706 -0.080072 1.11368 10.0735 -1.57353
4043.887994051 0.0672818 0.0353063 -0.0885988 1.2023 10.0782 -1.49689
4043.892745972 0.0582221 0.0366386 -0.0912634 1.19511 10.0495 -1.50407
4043.897497892 0.0406355 0.0278453 -0.0972588 1.32445 10.0088 -1.5855
4043.902249813 0.0134564 0.0237152 -0.0941945 1.34121 9.79802 -1.56155
4043.907001734 -0.00532925 0.0239816 -0.0949939 1.32924 9.72138 -1.61664
4043.911753416 -0.0281118 0.0205176 -0.0995237 1.31966 9.66151 -1.64059
4043.916505575 -0.0531593 0.0201179 -0.0972588 1.26697 9.6184 -1.69088
4043.921221256 -0.0670153 0.0183859 -0.10472 1.22865 9.51541 -1.71483
4043.926009417 -0.0811378 0.0186524 -0.110049 1.16877 9.47949 -1.72202
4043.930761337 -0.0871332 0.0166539 -0.120574 1.13045 9.42201 -1.7795
4043.935513258 -0.0897979 0.016121 -0.128168 1.12805 9.40764 -1.75076
4043.940228939 -0.0848683 0.0157213 -0.135363 1.09452 9.49625 -1.72681
4043.945017099 -0.0824701 0.017853 -0.146288 1.07776 9.64953 -1.69567
4043.950128794 -0.0652833 0.0198515 -0.154415 1.03465 9.83395 -1.67412
4043.954520941 -0.0514273 0.0181194 -0.170003 1.0107 10.1118 -1.64059
4043.959234238 -0.031709 0.0249142 -0.177464 0.991538 10.2267 -1.57113
4043.964024782 -0.0166539 0.0227825 -0.19092 1.00112 10.2243 -1.62622
4043.968776464 0.00306432 0.0267795 -0.202112 0.984353 10.1908 -1.64298
4043.973528624 0.0191853 0.0355727 -0.215035 0.914897 10.2076 -1.51126
4043.978241682 0.0303767 0.0369051 -0.226227 0.871787 10.2172 -1.51605
4043.983032465 0.0377044 0.0438331 -0.236752 0.831072 10.2627 -1.47773
4043.987784147 0.0373047 0.0490291 -0.249409 0.859812 10.1621 -1.44899
4043.992536306 0.0349066 0.0528928 -0.26473 0.821492 10.1285 -1.3963
4043.997287989 0.0303767 0.0592879 -0.273124 0.802332 10.0639 -1.3963
4044.002039909 0.0174533 0.063951 -0.281784 0.821492 9.89862 -1.31966
4044.006791830 0.00799387 0.067415 -0.293109 0.816702 9.83156 -1.36277
4044.011543989 -0.000266462 0.0702129 -0.299904 0.811912 9.82677 -1.33403
4044.016295671 -0.00892649 0.0756753 -0.306032 0.761616 9.87946 -1.3484
4044.021407604 -0.0163874 0.0776738 -0.316158 0.778381 9.88185 -1.3005
4044.025799513 -0.0183859 0.0771409 -0.320288 0.826282 9.8076 -1.34121
4044.030551434 -0.0189188 0.0795391 -0.321753 0.845442 9.75012 -1.36756
4044.035303354 -0.021317 0.077807 -0.324951 0.888552 9.62558 -1.40348
4044.040055513 -0.0239816 0.0754089 -0.319089 0.919688 9.60163 -1.35798
4044.044807196 -0.0277121 0.0742098 -0.31336 0.902922 9.58966 -1.36995
4044.049559355 -0.026513 0.0750092 -0.306432 0.866997 9.59924 -1.29092
4044.054310799 -0.0271792 0.073144 -0.301369 0.902922 9.53218 -1.31726
4044.059062958 -0.0275789 0.0747427 -0.287113 0.974773 9.48428 -1.33882
4044.063814878 -0.0286447 0.0711455 -0.275256 1.0586 9.46512 -1.29571
4044.068530560 -0.0249142 0.0676815 -0.263398 1.06818 9.45793 -1.25499
4044.073318720 -0.0215835 0.0651501 -0.251674 1.10889 9.47709 -1.26457
4044.078070879 -0.014389 0.0619525 -0.237418 1.08015 9.45075 -1.28852
4044.082822323 -0.0111914 0.0590214 -0.229424 1.07776 9.51781 -1.3005
4044.087538481 0.0063951 0.057023 -0.22596 1.03225 9.58247 -1.30289
4044.092326403 0.0214502 0.0539587 -0.221164 1.06578 9.64235 -1.33642
4044.097078323 0.0406355 0.0523599 -0.227292 0.967588 9.65193 -1.23583
4044.101830244 0.0619525 0.0531593 -0.227692 0.950823 9.68306 -1.20709
4044.106582403 0.0744763 0.0523599 -0.236752 0.955613 9.74533 -1.17116
4044.111693859 0.0923292 0.0498285 -0.246078 0.934058 9.81 -1.10171
4044.116086006 0.106851 0.0556907 -0.253672 0.895737 9.93215 -1.11129
4044.120837927 0.118176 0.054758 -0.265796 0.979563 9.94412 -1.0562
4044.125545979 0.12617 0.0555574 -0.272858 0.989143 9.92975 -1.03944
4044.130341768 0.130034 0.0580888 -0.284848 1.06099 9.91538 -0.991538
4044.135093689 0.134164 0.0630184 -0.293508 1.03704 9.92975 -0.996328
4044.139845371 0.13523 0.0651501 -0.307231 1.02986 9.96807 -1.00591
4044.144597530 0.135496 0.0711455 -0.316557 1.00351 9.98005 -0.907712
4044.149349213 0.13523 0.0703461 -0.332812 1.05141 10.0064 -0.905317
4044.154101372 0.134963 0.0790061 -0.346801 1.10171 9.98723 -0.888552
4044.158853292 0.135096 0.0871332 -0.358126 1.11129 9.90341 -0.912502
4044.163605213 0.131366 0.0909969 -0.374646 1.14721 9.85551 -0.871787
4044.168356895 0.119375 0.0992573 -0.385172 1.16398 9.75491 -0.852627
4044.173109055 0.105253 0.105386 -0.402092 1.18793 9.74294 -0.857417
4044.177860737 0.0959265 0.115245 -0.415548 1.23104 9.81 -0.912502
4044.182972908 0.0862006 0.123106 -0.433002 1.22625 9.77886 -0.922083
4044.187364817 0.0771409 0.131632 -0.446724 1.26218 9.70462 -0.914897
4044.192116737 0.0658162 0.139626 -0.458982 1.27176 9.64953 -1.02507
4044.196868420 0.0616861 0.15255 -0.47377 1.33163 9.57289 -0.902922
4044.201620579 0.0572894 0.162142 -0.485228 1.35798 9.6184 -0.938848
4044.206372261 0.0555574 0.16947 -0.492289 1.42025 9.60882 -0.953218
4044.211124420 0.0566233 0.178263 -0.497885 1.41785 9.64235 -0.929268
4044.215839863 0.0550245 0.190787 -0.505746 1.39869 9.74294 -0.811912
4044.220628262 0.0519602 0.205576 -0.506145 1.41306 9.71899 -0.936453
4044.225379944 0.0510276 0.211305 -0.513207 1.40109 9.67348 -0.902922
4044.230131865 0.053026 0.220631 -0.515605 1.39151 9.53218 -0.934058
4044.234847784 0.0511608 0.229824 -0.516005 1.41785 9.49865 -0.905317
4044.239635944 0.0436998 0.235553 -0.522799 1.39869 9.43398 -0.919688
4044.244387627 0.0434334 0.242614 -0.5216 1.36037 9.35974 -0.955613
4044.249139786 0.0386371 0.241815 -0.524798 1.37235 9.39806 -0.874182
4044.253891468 0.0361057 0.249009 -0.523998 1.3963 9.40045 -0.893342
4044.258643389 0.0350398 0.248343 -0.520268 1.44899 9.44356 -0.924478
4044.263395309 0.0395697 0.250608 -0.520002 1.42264 9.51541 -0.881367
4044.268147469 0.0494288 0.250874 -0.520268 1.41306 9.58487 -0.888552
4044.273207426 0.0667489 0.249675 -0.516138 1.35558 9.61121 -0.950823
4044.277651310 0.0794058 0.252074 -0.513606 1.36756 9.64235 -0.934058
4044.282402992 0.088732 0.253539 -0.515472 1.37953 9.63516 -0.917292
4044.287154913 0.0959265 0.253672 -0.514672 1.36995 9.54655 -0.974773
4044.291906834 0.104453 0.256204 -0.51334 1.40588 9.53697 -0.962798
4044.296658754 0.106452 0.259002 -0.510409 1.36756 9.49865 -0.946033
4044.301410675 0.106985 0.258868 -0.50921 1.36995 9.46272 -0.895737
4044.306162834 0.108717 0.259534 -0.507345 1.35319 9.50583 -0.902922
4044.310914278 0.106185 0.263132 -0.506279 1.35079 9.49146 -0.831072
4044.315666437 0.0989908 0.265397 -0.501216 1.32445 9.56331 -0.881367
4044.320418358 0.0889985 0.269527 -0.500949 1.28852 9.616 -0.725691
4044.325530291 0.0772741 0.270992 -0.496686 1.27415 9.63277 -0.797542
4044.329922199 0.0707458 0.275522 -0.492689 1.31966 9.6663 -0.778381
4044.334674358 0.0606202 0.278587 -0.492289 1.25739 9.68785 -0.855022
4044.339425802 0.0504946 0.284582 -0.490957 1.18553 9.59445 -0.874182
4044.344177961 0.0487626 0.292176 -0.494155 1.09692 9.56092 -0.960403
4044.348929882 0.0470306 0.296173 -0.496553 1.03225 9.52739 -0.943638
4044.353681803 0.0520934 0.301236 -0.502282 1.0107 9.57768 -1.01788
4044.358433723 0.0574227 0.306299 -0.505479 1.01309 9.56092 -1.0083
4044.363185644 0.0671485 0.309763 -0.506279 1.04183 9.54176 -1.03704
4044.367937326 0.0791394 0.312028 -0.507478 0.986748 9.57289 -1.04423
4044.372689486 0.0851348 0.315492 -0.505613 1.06818 9.65432 -1.03225
4044.377441168 0.0997902 0.322686 -0.503881 1.04902 9.74054 -1.0107
4044.382157087 0.108051 0.325351 -0.501216 1.02267 9.75731 -0.981958
4044.386945248 0.117243 0.330413 -0.501482 0.943638 9.86748 -0.946033
4044.391696930 0.124971 0.338541 -0.499884 0.986748 9.91538 -0.950823
4044.396448851 0.130034 0.342538 -0.492289 1.00351 9.92736 -0.876577
4044.401165009 0.128968 0.351198 -0.486827 1.02267 9.86748 -0.936453
4044.405916691 0.123772 0.352263 -0.481631 1.07776 9.84114 -0.902922
4044.410668612 0.118842 0.360391 -0.472038 1.09692 9.81479 -0.924478
4044.415780783 0.099657 0.368384 -0.463778 1.07057 9.72857 -0.950823
4044.420133591 0.081804 0.368118 -0.456317 1.07297 9.72857 -0.950823
4044.424924374 0.0574227 0.373181 -0.447524 1.08015 9.70222 -0.991538
4044.429676533 0.033974 0.375446 -0.433534 1.02746 9.77647 -0.960403
4044.434428215 0.00226493 0.37438 -0.424475 1.04902 9.75252 -1.04183
4044.439141512 -0.0210505 0.374247 -0.419412 0.991538 9.75012 -1.00591
4044.443932056 -0.0456983 0.37851 -0.412884 0.936453 9.70941 -1.09931
4044.448683977 -0.0712787 0.378377 -0.40942 0.785566 9.62798 -1.11608
4044.453435898 -0.0839357 0.379975 -0.40862 0.773591 9.71899 -1.18314
4044.458187819 -0.0955268 0.382374 -0.40449 0.708926 9.77886 -1.22385
4044.462939739 -0.101789 0.384372 -0.398761 0.735271 9.84114 -1.18314
4044.467691660 -0.0984579 0.390767 -0.398095 0.66821 9.81958 -1.17595
4044.472443342 -0.0972588 0.390767 -0.390234 0.694556 9.82916 -1.09931
4044.477195501 -0.0963262 0.396629 -0.384106 0.677791 9.85072 -1.08015
4044.481947422 -0.0964594 0.401825 -0.372115 0.66821 9.83874 -1.07536
4044.487059116 -0.0908637 0.403957 -0.361989 0.646655 9.85311 -0.972378
4044.491451263 -0.0905972 0.405822 -0.3484 0.646655 9.90341 -1.01788
4044.496203184 -0.0915299 0.409953 -0.338008 0.651445 9.96807 -0.850232
4044.500954866 -0.0951271 0.415548 -0.325217 0.593965 10.0064 -0.859812
4044.505707026 -0.097392 0.420478 -0.314825 0.55804 10.0351 -0.764011
4044.510458946 -0.105652 0.42594 -0.301769 0.56762 9.94173 -0.785566
4044.515210867 -0.115911 0.429671 -0.290977 0.56283 9.89383 -0.809517
4044.519962788 -0.117776 0.431136 -0.277521 0.59636 9.74294 -0.931663
4044.524714708 -0.120308 0.432602 -0.267662 0.58199 9.65193 -0.828677
4044.529430628 -0.119642 0.436998 -0.256204 0.467029 9.60403 -1.00112
4044.534218550 -0.115378 0.434734 -0.251141 0.462239 9.62319 -1.0107
4044.538970232 -0.106319 0.438597 -0.24368 0.402363 9.64474 -1.02267
4044.543722391 -0.0995237 0.434201 -0.235953 0.395178 9.59924 -1.01549
4044.548438311 -0.0919296 0.437665 -0.231956 0.387993 9.60642 -1.00112
4044.553225994 -0.0836692 0.435133 -0.220631 0.349673 9.60642 -1.03704
4044.558338165 -0.077807 0.437798 -0.209839 0.270637 9.64953 -1.0107
4044.562730074 -0.0747427 0.437931 -0.206642 0.201182 9.76449 -0.960403
4044.567443132 -0.0706126 0.440596 -0.19958 0.158071 9.85311 -0.972378
4044.572233915 -0.0695467 0.444326 -0.196649 0.205972 9.84353 -0.893342
4044.576985836 -0.076608 0.448856 -0.191853 0.201182 9.90101 -0.780776
4044.581737518 -0.0855345 0.45232 -0.186657 0.148491 9.85311 -0.723296
4044.586451054 -0.0981914 0.461247 -0.180528 0.148491 9.84114 -0.701741
4044.591241598 -0.106851 0.465243 -0.172668 0.162861 9.82916 -0.682581
4044.595993280 -0.114712 0.472571 -0.169337 0.0981958 9.82916 -0.63947
4044.600745440 -0.121507 0.476835 -0.161876 0.208367 9.85072 -0.584385
4044.605497122 -0.12657 0.48656 -0.159211 0.162861 9.80042 -0.692161
4044.610249043 -0.126436 0.494288 -0.15628 0.227527 9.80042 -0.725691
4044.615000963 -0.120441 0.498818 -0.151884 0.311353 9.69743 -0.756826
4044.619752884 -0.10472 0.496686 -0.148819 0.323328 9.66869 -0.917292
4044.624504805 -0.0880659 0.500417 -0.146554 0.316143 9.64953 -0.969983
4044.629616737 -0.0618193 0.502681 -0.147221 0.352068 9.63037 -1.02267
4044.634008646 -0.0277121 0.500949 -0.146821 0.318538 9.68306 -1.01309
4044.638760567 0.00532925 0.503348 -0.151484 0.371228 9.7597 -1.06339
4044.643512487 0.03917 0.500017 -0.150418 0.352068 9.70462 -1.0586
4044.648264408 0.0683476 0.497219 -0.157746 0.380808 9.7118 -1.02507
4044.653016329 0.0937948 0.496819 -0.164008 0.349673 9.67827 -0.955613
4044.657768488 0.115112 0.49562 -0.170802 0.376018 9.66869 -1.0083
4044.662520170 0.132432 0.495753 -0.182127 0.354463 9.63516 -1.02267
4044.667272091 0.146021 0.494554 -0.189588 0.340093 9.63037 -0.924478
4044.672024012 0.148953 0.494821 -0.204243 0.347278 9.59205 -0.845442
4044.676739931 0.143623 0.492556 -0.216234 0.368833 9.64714 -0.833467
4044.681527853 0.132965 0.491623 -0.232355 0.407153 9.55373 -0.878972
4044.686279774 0.126303 0.486427 -0.247277 0.225132 9.49386 -0.936453
4044.691031694 0.111248 0.487093 -0.267129 0.301772 9.45554 -0.893342
4044.695747614 0.09566 0.481498 -0.28245 0.296982 9.45554 -0.998723
4044.700535297 0.0772741 0.472971 -0.298038 0.253872 9.45075 -0.936453
4044.705287457 0.067415 0.463378 -0.312827 0.277822 9.41722 -0.950823
4044.710039377 0.0555574 0.448057 -0.327616 0.347278 9.28549 -0.986748
4044.714752436 0.0430337 0.434201 -0.333078 0.364043 9.23759 -0.960403
4044.719903231 0.0314426 0.419945 -0.331213 0.342488 9.17053 -0.946033
4044.724295139 0.0267795 0.402358 -0.337208 0.402363 9.24717 -0.979563
4044.729046822 0.0297106 0.383839 -0.341338 0.361648 9.27352 -1.04183
4044.733760357 0.0402358 0.366386 -0.342937 0.270637 9.40764 -1.04662
4044.738550901 0.057023 0.344536 -0.349865 0.217947 9.46751 -1.14482
4044.743302822 0.0784732 0.325484 -0.357593 0.160466 9.49386 -1.18793
4044.748054743 0.101922 0.307098 -0.359991 0.0981958 9.55613 -1.23823
4044.752806664 0.120441 0.285648 -0.364121 0.0742456 9.50344 -1.18553
4044.757558346 0.138161 0.263798 -0.369317 0.0910107 9.45793 -1.25499
4044.762310505 0.146688 0.238617 -0.371715 0.110171 9.46512 -1.22865
4044.767062187 0.147887 0.210905 -0.372248 0.198787 9.37411 -1.28373
4044.771814346 0.146421 0.179995 -0.368384 0.241897 9.27112 -1.27894
4044.776566029 0.137761 0.150685 -0.356394 0.282612 9.25675 -1.31726
4044.781317949 0.124305 0.120175 -0.346534 0.359253 9.23999 -1.32445
4044.786069870 0.106851 0.0888652 -0.33481 0.404758 9.19208 -1.25978
4044.791182041 0.0850015 0.0568897 -0.316957 0.383203 9.09868 -1.26218
4044.795573711 0.0618193 0.0257136 -0.3051 0.301772 9.12742 -1.23823
4044.800325871 0.0407688 -0.00333078 -0.291643 0.263452 9.27352 -1.08973
4044.805077553 0.0231822 -0.0295773 -0.278187 0.225132 9.31663 -1.11368
4044.809829473 0.00905972 -0.0539587 -0.259401 0.249082 9.41003 -1.19032
4044.814581394 0.00799387 -0.0780735 -0.238884 0.246687 9.41003 -1.11847
4044.819333553 0.00679479 -0.101655 -0.220631 0.251477 9.52499 -1.07057
4044.824085236 0.00932619 -0.122173 -0.201046 0.234712 9.64235 -1.06339
4044.828837395 0.0153216 -0.142158 -0.182527 0.158071 9.75491 -0.967588
4044.833589077 0.0237152 -0.155481 -0.16494 0.225132 9.9058 -0.934058
4044.838340998 0.0279786 -0.168138 -0.150285 0.148491 9.93933 -0.924478
4044.843057156 0.0399694 -0.180928 -0.140026 0.0934058 9.97047 -0.893342
4044.847844839 0.0456983 -0.186657 -0.128568 0.107776 10.0495 -0.857417
4044.852596760 0.0534257 -0.194518 -0.123239 0.0742456 9.96807 -0.850232
4044.857348919 0.0591547 -0.195983 -0.116044 0.0622705 9.90341 -0.783171
4044.862100363 0.0603538 -0.196783 -0.115645 0.0574805 9.8579 -0.766406
4044.866852522 0.0594211 -0.196516 -0.110449 0.0718506 9.86269 -0.787961
4044.871604443 0.0576891 -0.187057 -0.114312 0.0359253 9.86748 -0.740061
4044.876356363 0.0574227 -0.181994 -0.113247 0.00958008 9.86988 -0.62989
4044.881417036 0.0476968 -0.170536 -0.112847 0.0407153 9.91538 -0.62989
4044.885860443 0.0389035 -0.160943 -0.11711 0.00958008 9.91538 -0.469424
4044.890611887 0.0290444 -0.144956 -0.12124 0.0215552 10.0208 -0.574805
4044.895364046 0.0197182 -0.128035 -0.130567 -0.0598755 10.0687 -0.498164
4044.900115967 0.0142557 -0.109516 -0.138161 -0.107776 10.1285 -0.526904
4044.904867887 0.00799387 -0.0867335 -0.151484 -0.117356 10.1884 -0.58678
4044.909619808 0.00253139 -0.0670153 -0.168538 -0.155676 10.2603 -0.603545
4044.914371967 -0.00386371 -0.0430337 -0.181061 -0.201182 10.2363 -0.63947
4044.919123411 -0.0141225 -0.0217167 -0.194784 -0.143701 10.1046 -0.61073
4044.923875570 -0.0245145 0.000399694 -0.211571 -0.160466 10.0519 -0.656235
4044.928627253 -0.032242 0.0193185 -0.218899 -0.138911 9.95131 -0.778381
4044.933739424 -0.0452986 0.0353063 -0.223162 -0.00479004 9.86269 -0.828677
4044.938131332 -0.0551577 0.0462312 -0.221297 0.0958008 9.75252 -0.972378
4044.942883253 -0.0636845 0.0548913 -0.207974 0.205972 9.53697 -0.931663
4044.947634935 -0.0682144 0.0672818 -0.190521 0.239502 9.47709 -0.962798
4044.952387094 -0.0755421 0.0711455 -0.174799 0.289797 9.43877 -1.0586
4044.957138777 -0.0763415 0.0740766 -0.151884 0.299377 9.42201 -1.10889
4044.961890936 -0.0762083 0.0812711 -0.132432 0.316143 9.48428 -1.04423
4044.966642857 -0.0698132 0.0880659 -0.107651 0.222737 9.59924 -1.12566
4044.971394777 -0.0583553 0.0935283 -0.0871332 0.150886 9.6663 -1.11129
4044.976146460 -0.0440995 0.102855 -0.0684809 0.0431104 9.83156 -1.23104
4044.980898619 -0.0321087 0.111381 -0.0582221 0.0335303 9.88425 -1.12087
4044.985650301 -0.0231822 0.120708 -0.044366 0.0455054 9.84114 -1.17835
4044.990366459 -0.0158545 0.125904 -0.0277121 0.134121 9.73096 -1.26218
4044.995154381 -0.0122573 0.133631 -0.0110582 0.273032 9.64714 -1.32205
4044.999906301 -0.0127902 0.137095 0.00293109 0.275427 9.72617 -1.30768
4045.004657984 -0.0162542 0.14389 0.0147887 0.222737 9.80281 -1.36516
4045.009373903 -0.0210505 0.149485 0.0278453 0.153281 9.8124 -1.39869
4045.014161825 -0.0287779 0.161609 0.031709 0.0718506 9.89622 -1.27176
4045.018877983 -0.0369051 0.172934 0.0286447 0.0886157 9.94891 -1.23344
4045.023989677 -0.0438331 0.17893 0.0290444 -0.0143701 10.0495 -1.17356
4045.028340101 -0.0496953 0.193452 0.0231822 -0.124541 10.1764 -1.26936
4045.033133745 -0.0423675 0.196649 0.0170536 -0.112566 10.3345 -1.29331
4045.037885427 -0.0330413 0.203044 0.0101256 -0.177231 10.368 -1.24541
4045.042637587 -0.0225161 0.211838 -0.00226493 -0.208367 10.4638 -1.25739
4045.047351122 -0.0115911 0.215435 -0.00932619 -0.201182 10.5189 -1.23583
4045.052141190 0.00319755 0.214769 -0.019585 -0.287402 10.4758 -1.31726
4045.056893110 0.0222496 0.213303 -0.0310429 -0.316143 10.483 -1.30529
4045.061645269 0.0450322 0.210639 -0.0492956 -0.301772 10.4303 -1.27176
4045.066396952 0.0595544 0.205576 -0.0598208 -0.246687 10.392 -1.30289
4045.071149111 0.0811378 0.199181 -0.0692802 -0.148491 10.2387 -1.36995
4045.075900793 0.0941945 0.181861 -0.0716784 0.0766406 10.1549 -1.36277
4045.080652714 0.10432 0.170936 -0.0750092 0.155676 10.0256 -1.31726
4045.085404634 0.106185 0.15668 -0.0771409 0.189207 9.90341 -1.35798
4045.090156555 0.102188 0.142025 -0.0850015 0.0910107 10.0232 -1.29092
4045.095268726 0.0984579 0.131233 -0.0913966 0.0215552 10.1094 -1.28373
4045.099660635 0.0838025 0.11791 -0.101522 -0.0143701 10.1118 -1.21427
4045.104412317 0.0650168 0.100057 -0.116444 -0.0119751 10.0112 -1.13763
4045.109164238 0.0446325 0.0875329 -0.128701 0.102986 9.88664 -1.1999
4045.113916159 0.0207841 0.0684809 -0.131233 0.225132 9.77886 -1.23104
4045.118668079 -0.00159877 0.0504946 -0.130167 0.368833 9.60403 -1.35558
4045.123420000 -0.0198515 0.0330413 -0.123106 0.378413 9.47949 -1.32684
4045.128172159 -0.0379709 0.012657 -0.119375 0.416733 9.51062 -1.28852
4045.132923841 -0.0527596 -0.00373047 -0.112714 0.313748 9.616 -1.22146
4045.137639761 -0.0646172 -0.0217167 -0.104587 0.282612 9.70701 -1.2981
4045.142427683 -0.0767412 -0.0393032 -0.0975253 0.182021 9.74294 -1.34361
4045.147179604 -0.0827366 -0.0580888 -0.0897979 0.222737 9.68067 -1.37235
4045.151931524 -0.0836692 -0.0734104 -0.0847351 0.237107 9.73575 -1.33882
4045.156647205 -0.0888652 -0.0976585 -0.0752757 0.208367 9.86748 -1.43701
4045.161435366 -0.0876662 -0.116044 -0.0671485 0.244292 10.0711 -1.46815
4045.166547298 -0.096193 -0.137361 -0.0562236 0.320933 10.186 -1.51365
4045.170938969 -0.108583 -0.161077 -0.0430337 0.462239 10.0998 -1.61903
4045.175652266 -0.123639 -0.183326 -0.0335743 0.467029 10.1333 -1.61664
4045.180443048 -0.143357 -0.201579 -0.0219832 0.402363 10.2531 -1.70286
4045.185194969 -0.163608 -0.222629 -0.0186524 0.337698 10.3704 -1.65975
4045.189946890 -0.192519 -0.240083 -0.0159877 0.280217 10.3561 -1.72202
4045.194660187 -0.220231 -0.256737 -0.0209173 0.256267 10.4399 -1.63819
4045.199450493 -0.250208 -0.274989 -0.0226493 0.158071 10.4758 -1.64777
4045.204202652 -0.275123 -0.28698 -0.028245 0.158071 10.5668 -1.67172
4045.208954573 -0.29644 -0.304833 -0.0289112 0.100591 10.5525 -1.74357
4045.213706493 -0.306965 -0.319089 -0.0274456 0.126936 10.6243 -1.85375
4045.218458414 -0.31296 -0.333078 -0.0307764 0.122146 10.7225 -1.88009
4045.223210335 -0.313626 -0.349998 -0.0309096 0.0838257 10.8614 -1.91602
4045.227962017 -0.304966 -0.366519 -0.0263798 -0.0479004 10.9883 -1.94955
4045.232714176 -0.298305 -0.385305 -0.028245 -0.0862207 11.1488 -1.96392
4045.237826109 -0.287513 -0.403691 -0.0289112 -0.165256 11.1273 -1.90165
4045.242218018 -0.280718 -0.427539 -0.0253139 -0.134121 11.0099 -1.94236
4045.246969938 -0.27872 -0.447391 -0.0190521 -0.0718506 10.8327 -1.94955
4045.251721621 -0.276988 -0.468574 -0.0063951 0.0263452 10.6243 -1.89207
4045.256473541 -0.28285 -0.489358 0.00333078 0.00239502 10.5525 -1.89207
4045.261225700 -0.295907 -0.512274 0.0145222 -0.0502954 10.4662 -1.77231
4045.265977383 -0.308564 -0.527729 0.0263798 -0.0694556 10.4519 -1.60706
4045.270729542 -0.32242 -0.544916 0.0410352 -0.150886 10.4303 -1.53042
4045.275481462 -0.336276 -0.560371 0.0514273 -0.162861 10.4183 -1.46336
4045.280233145 -0.336675 -0.573694 0.0635513 -0.177231 10.4064 -1.4442
4045.284949303 -0.334943 -0.585685 0.0763415 -0.210762 10.483 -1.41785
4045.289737225 -0.320954 -0.59581 0.0889985 -0.249082 10.6028 -1.37953
4045.294488907 -0.311095 -0.603671 0.0989908 -0.330513 10.665 -1.33882
4045.299241066 -0.288579 -0.609133 0.107651 -0.380808 10.8135 -1.23823
4045.303956985 -0.270193 -0.614596 0.113913 -0.447869 10.8446 -1.26457
4045.308744669 -0.247144 -0.616061 0.120441 -0.476609 10.8399 -1.34361
4045.313496590 -0.219565 -0.620724 0.122972 -0.524509 10.8518 -1.23344
4045.318248510 -0.200113 -0.620058 0.123505 -0.467029 10.8782 -1.10889
4045.322961807 -0.185724 -0.616594 0.123239 -0.514929 10.8662 -1.08255
4045.328112364 -0.175732 -0.613263 0.118709 -0.538879 10.8638 -0.912502
4045.332504272 -0.169337 -0.599674 0.114312 -0.651445 10.9668 -0.876577
4045.337256193 -0.167072 -0.589415 0.102588 -0.708926 11.0027 -0.677791
4045.341969728 -0.163608 -0.575426 0.0885988 -0.704136 10.9309 -0.656235
4045.346760035 -0.162409 -0.552776 0.0752757 -0.723296 10.7417 -0.752036
4045.351511955 -0.157613 -0.53479 0.0599541 -0.735271 10.6746 -0.716111
4045.356264114 -0.146288 -0.513473 0.0451654 -0.747246 10.6626 -0.713716
4045.361015797 -0.137228 -0.489225 0.0307764 -0.740061 10.6914 -0.66821
4045.365767717 -0.128168 -0.465643 0.00945942 -0.764011 10.6171 -0.723296
4045.370519638 -0.121507 -0.44406 -0.00186524 -0.737666 10.4734 -0.651445
4045.375271559 -0.117643 -0.421144 -0.0190521 -0.742456 10.4375 -0.752036
4045.380023479 -0.112714 -0.398228 -0.0277121 -0.826282 10.3992 -0.670605
4045.384775639 -0.097392 -0.377577 -0.0422343 -0.826282 10.3465 -0.787961
4045.389527321 -0.0881991 -0.359325 -0.0607534 -0.883762 10.2651 -0.795146
4045.394279242 -0.07834 -0.342404 -0.0655498 -0.835862 10.2579 -0.778381
4045.399391174 -0.0715452 -0.323619 -0.0715452 -0.809517 10.1956 -0.787961
4045.403783083 -0.0627519 -0.309496 -0.0811378 -0.737666 10.1525 -0.766406
4045.408535004 -0.058755 -0.29564 -0.0832695 -0.759221 10.1118 -0.730481
4045.413286924 -0.0575559 -0.280585 -0.0834028 -0.756826 10.2076 -0.622705
4045.418038845 -0.0498285 -0.264864 -0.0858009 -0.787961 10.2435 -0.526904
4045.422790766 -0.0510276 -0.251141 -0.0864671 -0.787961 10.2962 -0.524509
4045.427542448 -0.0498285 -0.238617 -0.0851348 -0.859812 10.3082 -0.5772
4045.432258606 -0.0430337 -0.224228 -0.0851348 -0.847837 10.2627 -0.469424
4045.437046528 -0.0402358 -0.209573 -0.0828698 -0.814307 10.2435 -0.452659
4045.441798449 -0.0386371 -0.198914 -0.0764747 -0.811912 10.2148 -0.500559
4045.446550369 -0.0309096 -0.185724 -0.0779403 -0.764011 10.21 -0.514929
4045.451266289 -0.0289112 -0.175066 -0.0719449 -0.814307 10.186 -0.517324
4045.456053972 -0.0281118 -0.16907 -0.0683476 -0.766406 10.174 -0.500559
4045.460806131 -0.0263798 -0.162009 -0.0611531 -0.696951 10.1693 -0.490979
4045.465558052 -0.0331746 -0.155214 -0.0536922 -0.632285 10.1453 -0.409548
4045.470309973 -0.0346401 -0.154015 -0.0410352 -0.541274 10.1166 -0.404758
4045.475061893 -0.0407688 -0.153083 -0.026513 -0.507744 10.0351 -0.428708
4045.479813576 -0.037438 -0.153216 -0.00932619 -0.522114 10.0351 -0.452659
4045.484565496 -0.0325084 -0.153083 0.00399694 -0.546064 10.1309 -0.543669
4045.489626169 -0.029977 -0.154415 0.0151884 -0.66342 10.1693 -0.536484
4045.494069338 -0.0193185 -0.158145 0.0241149 -0.708926 10.1669 -0.445474
4045.498821497 -0.00812711 -0.159877 0.0330413 -0.761616 10.083 -0.387993
4045.503573418 -0.00359724 -0.163075 0.0398361 -0.730481 10.0591 -0.395178
4045.508325100 -0.00146554 -0.167472 0.0472971 -0.656235 9.96568 -0.359253
4045.513077021 0.00159877 -0.173467 0.054758 -0.646655 9.84353 -0.392783
4045.517829180 -0.000932619 -0.179462 0.0644839 -0.61552 9.75252 -0.335303
4045.522580862 -0.00399694 -0.186923 0.0663492 -0.646655 9.72378 -0.275427
4045.527333021 -0.0127902 -0.18719 0.0710123 -0.675396 9.7118 -0.263452
4045.532084942 -0.0193185 -0.191587 0.0710123 -0.704136 9.71899 -0.124541
4045.536836624 -0.0286447 -0.198248 0.0712787 -0.66342 9.67588 -0.129331
4045.541948795 -0.0313093 -0.200513 0.0688806 -0.740061 9.64474 -0.170046
4045.546340704 -0.035173 -0.203711 0.0671485 -0.716111 9.64235 -0.0742456
4045.551092386 -0.0405023 -0.206508 0.0619525 -0.706531 9.59684 -0.143701
4045.555844545 -0.0515605 -0.215968 0.0608867 -0.656235 9.49625 -0.0455054
4045.560596228 -0.0644839 -0.220098 0.0635513 -0.704136 9.48907 -0.0838257
4045.565348148 -0.0826034 -0.224228 0.0635513 -0.692161 9.43398 0.00479004
4045.570100069 -0.105386 -0.229025 0.0586217 -0.680186 9.34058 0.0718506
4045.574851990 -0.134297 -0.232755 0.0603538 -0.730481 9.31663 0.191602
4045.579603910 -0.168005 -0.238217 0.055291 -0.756826 9.2831 0.229922
4045.584356070 -0.193718 -0.237018 0.0519602 -0.730481 9.29028 0.282612
4045.589107752 -0.220231 -0.236485 0.0435666 -0.823887 9.2807 0.292192
4045.593859673 -0.244613 -0.233554 0.0315758 -0.802332 9.33579 0.462239
4045.598575830 -0.267395 -0.22223 0.00879326 -1.19511 9.62319 0.56283
4045.603363514 -0.296972 -0.213037 -0.0215835 -1.26218 9.84832 0.859812
4045.608115435 -0.319355 -0.197315 -0.0488959 -1.40348 9.88425 0.795146
4045.612831354 -0.326949 -0.182926 -0.0803384 -1.35079 9.87467 0.809517
4045.617583275 -0.337342 -0.168937 -0.103121 -1.17116 9.96568 0.910107
4045.622335196 -0.331879 -0.154815 -0.12577 -1.21188 9.89862 0.65384
4045.627087116 -0.319888 -0.143757 -0.143357 -1.12566 9.93454 0.785566
4045.632198811 -0.303767 -0.126436 -0.160544 -1.27655 10.0471 0.723296
4045.636552095 -0.279253 -0.115911 -0.177864 -1.31487 10.2004 0.802332
4045.641378880 -0.257669 -0.106452 -0.194651 -1.33882 10.2818 0.871787
4045.646094799 -0.23462 -0.103254 -0.206642 -1.2526 10.2076 0.835862
4045.650846720 -0.211305 -0.0975253 -0.209306 -1.19751 10.1214 0.864602
4045.655560017 -0.181727 -0.097392 -0.206508 -1.0083 9.93933 0.819097
4045.660350561 -0.151084 -0.101123 -0.193851 -0.807122 9.69504 0.699346
4045.665102720 -0.12244 -0.104853 -0.181727 -0.692161 9.55134 0.742456
4045.669854164 -0.0932619 -0.10845 -0.162409 -0.735271 9.51062 0.833467
4045.674606323 -0.0680812 -0.116577 -0.146421 -0.831072 9.58487 0.852627
4045.679358244 -0.0463645 -0.115778 -0.135763 -0.857417 9.67109 0.946033
4045.684110165 -0.0285115 -0.11751 -0.125237 -0.929268 9.68306 1.06339
4045.688862085 -0.00492956 -0.118043 -0.118709 -0.924478 9.72138 1.13524
4045.693614244 0.0183859 -0.119109 -0.109516 -0.914897 9.75012 1.17595
4045.698365688 0.046098 -0.11338 -0.107784 -0.845442 9.62079 1.08015
4045.703477859 0.0780735 -0.112847 -0.100989 -0.790356 9.5705 1.04183
4045.707869530 0.109383 -0.108983 -0.0917963 -0.821492 9.49865 1.0586
4045.712621689 0.139227 -0.104853 -0.088732 -0.831072 9.41482 1.06339
4045.717373610 0.176132 -0.102855 -0.0838025 -0.826282 9.39566 1.06578
4045.722125530 0.198381 -0.0957933 -0.0842021 -0.866997 9.3789 1.10889
4045.726877213 0.216368 -0.0947274 -0.0863338 -0.941243 9.34776 1.15679
4045.731629372 0.226626 -0.085268 -0.0899311 -0.905317 9.3789 1.19751
4045.736381054 0.231156 -0.0836692 -0.0920628 -0.912502 9.29747 1.22385
4045.741133213 0.243813 -0.0846018 -0.090464 -0.845442 9.19688 1.19272
4045.745849133 0.24408 -0.0843354 -0.0928622 -0.814307 9.06515 1.12326
4045.750636816 0.255671 -0.0863338 -0.0854012 -0.756826 8.96695 1.10171
4045.755388737 0.2614 -0.0920628 -0.0875329 -0.795146 8.87115 1.01309
4045.760140896 0.271392 -0.0936616 -0.083536 -0.744851 8.90708 0.977168
4045.764856815 0.277254 -0.100856 -0.0814043 -0.773591 8.8496 0.919688
4045.769644737 0.290844 -0.105119 -0.0788729 -0.754431 8.79451 0.795146
4045.774756432 0.298438 -0.117377 -0.0735436 -0.711321 8.78733 0.862207
4045.779148340 0.311495 -0.123106 -0.0682144 -0.63468 8.71308 0.656235
4045.783861637 0.329348 -0.131766 -0.0584885 -0.519719 8.60531 0.538879
4045.788652182 0.350132 -0.146688 -0.0474303 -0.469424 8.62447 0.435894
4045.793404102 0.368784 -0.158012 -0.0343737 -0.479004 8.73703 0.395178
4045.798156261 0.383972 -0.170802 -0.0243813 -0.502954 8.95977 0.404758
4045.802869081 0.386637 -0.177198 -0.0215835 -0.58678 9.14897 0.57241
4045.807659864 0.381708 -0.183326 -0.0246478 -0.752036 9.32381 0.632285
4045.812411785 0.37811 -0.183859 -0.0359724 -0.869392 9.51781 0.749641
4045.817163706 0.364387 -0.183326 -0.0519602 -0.924478 9.54894 0.701741
4045.821915627 0.350931 -0.180528 -0.065683 -1.00112 9.51062 0.641865
4045.826667786 0.338407 -0.177064 -0.0826034 -0.950823 9.36213 0.589175
4045.831419468 0.325484 -0.174666 -0.0923292 -0.912502 9.18729 0.541274
4045.836171389 0.313893 -0.17027 -0.110848 -0.852627 9.09868 0.443079
4045.840923309 0.304167 -0.171868 -0.120308 -0.807122 8.96695 0.455054
4045.846035242 0.293242 -0.173067 -0.126836 -0.749641 8.91187 0.320933
4045.850427151 0.292975 -0.177997 -0.124038 -0.768801 8.84481 0.263452
4045.855179310 0.291377 -0.180795 -0.128168 -0.778381 8.87594 0.184417
4045.859930992 0.293109 -0.190787 -0.127236 -0.728086 8.93582 0.162861
4045.864682913 0.297372 -0.199047 -0.116844 -0.670605 8.86397 0.0838257
4045.869434595 0.303634 -0.207441 -0.106585 -0.62031 8.91905 0.105381
4045.874186754 0.310962 -0.219299 -0.0924625 -0.62031 8.89989 -0.0119751
4045.878938675 0.315225 -0.229424 -0.0823369 -0.60115 8.95019 -0.0335303
4045.883690596 0.316957 -0.243813 -0.0703461 -0.608335 8.94061 -0.0167651
4045.888442516 0.313626 -0.251407 -0.0579556 -0.646655 9.03641 0.107776
4045.893158436 0.305366 -0.256337 -0.0470306 -0.716111 9.1849 0.0742456
4045.897946119 0.295773 -0.262732 -0.0476968 -0.862207 9.25196 0.119751
4045.902698278 0.285648 -0.266063 -0.0446325 -0.859812 9.23041 0.143701
4045.907450199 0.271525 -0.26966 -0.0405023 -0.821492 9.14418 0.158071
4045.912165880 0.262732 -0.270726 -0.0401026 -0.773591 9.09868 0.110171
4045.916954041 0.256737 -0.271392 -0.0378377 -0.773591 9.15616 0.0383203
4045.921705961 0.251541 -0.27419 -0.0327749 -0.785566 9.24238 -0.00239502
4045.926457644 0.252074 -0.274989 -0.0298438 -0.876577 9.38608 0.0622705
4045.931170940 0.256204 -0.278587 -0.0273124 -0.910107 9.54655 -0.00958008
4045.936321497 0.264864 -0.282051 -0.0227825 -0.958008 9.70462 -0.0143701
4045.940713644 0.27792 -0.284982 -0.0214502 -1.01309 9.68067 -0.0646655
4045.945465565 0.300303 -0.284582 -0.0190521 -0.986748 9.6184 -0.172441
4045.950178623 0.327882 -0.29151 -0.0137228 -0.926873 9.57768 -0.383203
4045.954969168 0.3476 -0.296839 -0.0122573 -1.02267 9.64953 -0.340093
4045.959721327 0.359058 -0.296573 -0.0119908 -1.1544 9.75731 -0.217947
4045.964473009 0.363988 -0.299637 -0.0226493 -1.17835 9.86748 -0.146096
4045.969225168 0.357726 -0.301103 -0.0223828 -1.19272 9.8579 -0.107776
4045.973977089 0.347734 -0.301636 -0.0255804 -1.16398 9.88185 -0.0886157
4045.978728771 0.328681 -0.301103 -0.0273124 -1.1041 9.77407 -0.0694556
4045.983480692 0.302568 -0.299237 -0.0287779 -1.0586 9.57768 -0.160466
4045.988232851 0.284715 -0.297239 -0.0263798 -1.07776 9.59684 -0.136516
4045.992984533 0.265397 -0.297905 -0.0281118 -1.1041 9.73096 -0.155676
4045.997736692 0.250342 -0.293242 -0.0291776 -1.17595 9.86509 -0.174836
4046.002488613 0.240482 -0.289911 -0.029977 -1.14003 9.93694 -0.165256
4046.007600307 0.234354 -0.288046 -0.0259801 -1.2023 9.89622 -0.225132
4046.011992216 0.236619 -0.284049 -0.0289112 -1.152 9.99921 -0.148491
4046.016744375 0.243014 -0.27872 -0.0253139 -1.14482 9.94173 -0.282612
4046.021496058 0.258069 -0.279253 -0.0177198 -1.08494 9.85311 -0.517324
4046.026248217 0.281518 -0.275389 -0.0114579 -1.00112 9.79084 -0.60594
4046.030999899 0.305899 -0.272591 -0.00266462 -1.04902 9.81 -0.62031
4046.035751820 0.32162 -0.270859 -0.000532925 -1.0586 9.9537 -0.55325
4046.040503740 0.331346 -0.268727 0.00519602 -1.1065 10.1214 -0.476609
4046.045255661 0.331746 -0.263132 -0.00333078 -1.17356 10.2651 -0.419128
4046.050007582 0.325351 -0.252873 -0.00519602 -1.19272 10.3561 -0.376018
4046.054759741 0.315492 -0.246211 -0.0166539 -1.14242 10.3153 -0.361648
4046.059475422 0.303101 -0.235819 -0.0205176 -1.13763 10.2219 -0.313748
4046.064263344 0.284449 -0.22676 -0.0242481 -1.03225 10.0758 -0.332908
4046.069015265 0.264597 -0.21277 -0.0287779 -0.996328 9.98723 -0.414338
4046.073767185 0.251674 -0.206109 -0.0278453 -0.924478 9.93694 -0.510139
4046.078519106 0.24368 -0.197715 -0.0234487 -0.929268 9.86988 -0.593965
4046.083271265 0.238351 -0.189188 -0.0218499 -0.874182 9.74294 -0.692161
4046.088022947 0.238617 -0.180528 -0.0149219 -0.787961 9.72378 -0.874182
4046.092774868 0.235686 -0.177597 -0.00692802 -0.775986 9.69983 -0.852627
4046.097835064 0.230224 -0.172801 0.00253139 -0.66342 9.63037 -0.900527
4046.102278709 0.229691 -0.167205 0.0157213 -0.560435 9.52978 -1.00351
4046.107030630 0.223562 -0.170802 0.03051 -0.380808 9.55613 -1.12805
4046.111782551 0.219965 -0.174 0.0423675 -0.261057 9.59924 -1.21667
4046.116495609 0.214236 -0.180662 0.0592879 -0.215552 9.58487 -1.19272
4046.121286392 0.209306 -0.183726 0.0703461 -0.129331 9.59205 -1.17595
4046.126038074 0.203311 -0.186657 0.0839357 -0.0814307 9.63756 -1.18553
4046.130790234 0.198115 -0.192786 0.0949939 -0.102986 9.6639 -1.20709
4046.135542154 0.193985 -0.190121 0.104986 -0.122146 9.60163 -1.25978
4046.140294075 0.191054 -0.19092 0.110582 -0.134121 9.59924 -1.346
4046.145045996 0.189988 -0.18719 0.12124 -0.119751 9.63037 -1.27655
4046.150157928 0.184259 -0.18226 0.130167 -0.0598755 9.68785 -1.22625
4046.154621601 0.182394 -0.175732 0.137361 -0.0359253 9.71659 -1.29331
4046.159301758 0.176665 -0.168937 0.143757 -0.00718506 9.72378 -1.35798
4046.164053679 0.1744 -0.160943 0.158279 0.0550854 9.85551 -1.31966
4046.168805599 0.168804 -0.151617 0.171069 0.0910107 9.89143 -1.30768
4046.173557520 0.167338 -0.144689 0.177064 0.100591 10.0256 -1.30289
4046.178309202 0.160277 -0.132965 0.186923 0.0359253 10.1669 -1.28613
4046.183061123 0.150818 -0.122306 0.193452 0.0502954 10.2938 -1.26218
4046.187813282 0.141092 -0.112047 0.197049 0.0383203 10.3656 -1.18314
4046.192564964 0.124704 -0.0940613 0.197982 -0.0383203 10.483 -1.23344
4046.197317123 0.112847 -0.0796723 0.197582 -0.00958008 10.4854 -1.21906
4046.202069044 0.105119 -0.0606202 0.19998 0.0574805 10.4351 -1.32205
4046.206784725 0.0987243 -0.0425008 0.201312 0.0742456 10.471 -1.36037
4046.211572647 0.0981914 -0.0254472 0.203977 0.0742456 10.6028 -1.36037
4046.216324806 0.0949939 -0.00226493 0.204377 0.0455054 10.5836 -1.31008
4046.221076488 0.105119 0.0142557 0.203311 -0.0574805 10.5285 -1.35079
4046.225792408 0.109383 0.0281118 0.200113 -0.131726 10.5668 -1.35798
4046.230580568 0.116577 0.0510276 0.198515 -0.143701 10.6051 -1.29092
4046.235332251 0.123772 0.0700796 0.195184 -0.170046 10.5644 -1.35079
4046.240444183 0.139493 0.0851348 0.191587 -0.148491 10.5381 -1.36037
4046.244797468 0.15215 0.102988 0.190121 -0.193997 10.5788 -1.37474
4046.249588013 0.163208 0.114979 0.185325 -0.217947 10.7584 -1.36516
4046.254340172 0.167472 0.121773 0.183326 -0.251477 10.8423 -1.32924
