# timestamp tx ty tz qx qy qz qw
3983.950000000 -0.088531651170784 0.45923921244237 1.8368292064907 -0.45181795110123 -0.61078996485552 0.52124507582624 0.38871548569792
3983.960000000 -0.088484652007993 0.45905665343276 1.8387191450189 -0.45008809094549 -0.61060468012144 0.52146652975984 0.3907112659536
3983.970000000 -0.08838950863543 0.45881169873252 1.8405982380731 -0.44844916050677 -0.61014131953455 0.52190537172215 0.39272853678461
3983.980000000 -0.088251421747977 0.45850563316242 1.8424652430096 -0.4469317796675 -0.60942560873547 0.52253367120487 0.39472898829173
3983.990000000 -0.088079912714915 0.45815166768217 1.8443283560224 -0.44555204231492 -0.60855729244856 0.52325590366332 0.39666693670908
3984.000000000 -0.087884902331289 0.45776308599539 1.8461963671599 -0.44432603848499 -0.6076396924783 0.52397388952702 0.39849684910052
3984.010000000 -0.087676951272906 0.45735240500669 1.848078111946 -0.44327017029895 -0.60677672968357 0.52459013912339 0.4001733903849
3984.020000000 -0.087467757472766 0.45693095737995 1.8499824490232 -0.44239970833211 -0.60607013010237 0.52501060259439 0.40165328659035
3984.030000000 -0.087269500246435 0.4565056092834 1.8519194696712 -0.44170465618913 -0.60555496621071 0.52520304305132 0.40294161260413
3984.040000000 -0.087093756087768 0.45607944226279 1.8539005941875 -0.44114943187026 -0.60519843364772 0.52519678695037 0.40409203116109
3984.050000000 -0.086951559345513 0.45565540273114 1.8559373162038 -0.44069699932809 -0.60496430097997 0.52502349940278 0.40516006022052
3984.060000000 -0.08685306459275 0.45523647525552 1.8580410884397 -0.44031016661052 -0.60481594168157 0.52471455382179 0.40620102273979
3984.070000000 -0.086807061228135 0.45482545427176 1.8602223477895 -0.43995220699575 -0.60471609430634 0.52430197891474 0.40726887402862
3984.080000000 -0.086815901629045 0.45442042450133 1.8624693745528 -0.43959778257201 -0.60462072485157 0.52383832888271 0.40838826358149
3984.090000000 -0.086876279686845 0.4540148947318 1.8647480443264 -0.43923288722082 -0.60447931753394 0.52339713280436 0.40955422941235
3984.100000000 -0.0869846542033 0.45360258080532 1.8670232604564 -0.43884380858336 -0.60424127561228 0.52305296497788 0.4107604999782
3984.110000000 -0.087137236263208 0.45317782830972 1.8692600504815 -0.43841673760348 -0.60385606699325 0.5228804395555 0.41200080154632
3984.120000000 -0.087329579099588 0.45273613809432 1.8714244668888 -0.43793888434429 -0.60327513835597 0.52295131612001 0.41326814780384
3984.130000000 -0.087554633540313 0.45228112147519 1.8735012732831 -0.43742032727005 -0.60250052646305 0.52327193843656 0.41453956547903
3984.140000000 -0.087803329074096 0.45182386334028 1.8754940093119 -0.43689444888757 -0.6015859142765 0.52378239381924 0.41577593990071
3984.150000000 -0.088066978362763 0.45137538031341 1.8774069054599 -0.43639584314987 -0.60058751185491 0.52442004912426 0.41693755019422
3984.160000000 -0.088337729343666 0.45094613941564 1.8792439475679 -0.43595916341576 -0.59956193634557 0.52512261408785 0.41798484720492
3984.170000000 -0.088609203269204 0.45054576196519 1.8810087262188 -0.4356179643036 -0.59856500470549 0.52582972936893 0.41887948150953
3984.180000000 -0.088884987782347 0.45017728642405 1.8827025183179 -0.43537904594159 -0.59762259089428 0.52651926865465 0.41960670269096
3984.190000000 -0.089178019033738 0.4498373692521 1.8843245062503 -0.43522179958718 -0.59672966594675 0.52720783826981 0.42017566113479
3984.200000000 -0.089501448981859 0.44952230682607 1.8858738726565 -0.43512423048935 -0.59587969790803 0.52791367858595 0.42059652592947
3984.210000000 -0.08986812200769 0.44922827278172 1.8873498755224 -0.43506419236982 -0.59506606282315 0.52865497633228 0.4208793715459
3984.220000000 -0.090290214954887 0.44895163791725 1.888752151899 -0.43501905315038 -0.5942827491089 0.52944919077383 0.42103443077337
3984.230000000 -0.09077233013207 0.44869645220546 1.8900881440241 -0.43495730496527 -0.59354024273239 0.53029694110364 0.42107870685971
3984.240000000 -0.091311487425713 0.44847470289204 1.8913731741727 -0.43483844382175 -0.59286595802723 0.53118159017114 0.42103634267173
3984.250000000 -0.09190429021954 0.44829865724026 1.892622831159 -0.43462157036001 -0.5922880553567 0.53208572841804 0.42093197511406
3984.260000000 -0.092547271626121 0.44818034984296 1.8938526613793 -0.43426573714597 -0.59183470029004 0.53299197710908 0.42079033901816
3984.270000000 -0.093236941261646 0.44813107077479 1.8950777242725 -0.43373121581559 -0.59153308957717 0.53388349446996 0.42063553189782
3984.280000000 -0.093971075054334 0.44815390382609 1.8963005273399 -0.43300964901406 -0.59138621059166 0.53475599628082 0.42047713163081
3984.290000000 -0.094748884540436 0.44824384735635 1.8975106654406 -0.432124976227 -0.59137209226129 0.5356180842329 0.42030979200822
3984.300000000 -0.095569775391661 0.44839566956129 1.8986972016776 -0.43110257186907 -0.59146758774303 0.53647889151395 0.42012743797244
3984.310000000 -0.096433281770764 0.44860442746724 1.8998492266121 -0.42996777043313 -0.59164950855775 0.53734751745414 0.41992406563331
3984.320000000 -0.097338892254514 0.44886569742674 1.9009561128587 -0.42874602428159 -0.59189488727787 0.53823258654796 0.4196939025706
3984.330000000 -0.098282839828516 0.44917901355212 1.9020145137472 -0.42746632755187 -0.59218716004922 0.53913130033927 0.41943336452487
3984.340000000 -0.099257995539586 0.44954780886151 1.9030286028497 -0.42616139687319 -0.59251650832228 0.54002909591613 0.41914105829024
3984.350000000 -0.10025715692242 0.44997582179919 1.9040028517846 -0.4248641995591 -0.59287359004005 0.54091095148348 0.4188157837657
3984.360000000 -0.10127321476338 0.45046698210773 1.9049416489178 -0.42360778143428 -0.59324921918444 0.54176194029581 0.41845646307865
3984.370000000 -0.10229931716079 0.45102545210968 1.9058492958839 -0.42242420409595 -0.59363479905056 0.54256749173573 0.41806223706729
3984.380000000 -0.10333336744093 0.45165519611148 1.9067313123195 -0.42131939900224 -0.59403335611783 0.54331908538379 0.4176346576872
3984.390000000 -0.10437817220092 0.45235975745296 1.9075946151267 -0.42027209000656 -0.5944598394521 0.54401435846197 0.41717771683937
3984.400000000 -0.1054367812212 0.45314256656206 1.9084462600894 -0.41925964465788 -0.5949296553568 0.54465116724093 0.41669552620766
3984.410000000 -0.10651229093539 0.45400689629309 1.9092934395639 -0.41825934677625 -0.59545814808473 0.5452272758306 0.41619217965281
3984.420000000 -0.10760758393545 0.4549557168247 1.9101432456179 -0.41724901880964 -0.59605974878809 0.54574080848878 0.41567174805016
3984.430000000 -0.1087185865555 0.45598980478426 1.9109956681376 -0.41622134831026 -0.59672715175486 0.54620138769227 0.41513918106144
3984.440000000 -0.10983393899094 0.45710792402017 1.9118431697674 -0.41518459424413 -0.59743046722857 0.54663072218884 0.41460034139963
3984.450000000 -0.11094193063068 0.45830894629405 1.9126778632769 -0.41414782646687 -0.59813880811196 0.5470511435804 0.41406109497337
3984.460000000 -0.11203078880857 0.45959199250713 1.9134918267802 -0.41312015389298 -0.59882134371654 0.54748503529938 0.41352735445215
3984.470000000 -0.11308898287495 0.46095649063743 1.9142772641866 -0.41211019175971 -0.59944793613047 0.5479546049497 0.41300497894227
3984.480000000 -0.11411439498753 0.46240273343938 1.9150316955255 -0.41111471861689 -0.60000453161598 0.54847668712946 0.41249554403938
3984.490000000 -0.11511491289072 0.46393166771348 1.9157582885654 -0.41011815162449 -0.60049382171116 0.54906245585697 0.41199598464444
3984.500000000 -0.11609899507937 0.4655441529947 1.9164604885041 -0.40910430649426 -0.60091920591636 0.54972276940628 0.41150291756559
3984.510000000 -0.11707527267582 0.46724091613371 1.9171417762182 -0.40805698038311 -0.60128400200767 0.55046842454613 0.41101285049006
3984.520000000 -0.11805235594418 0.46902253428129 1.9178057736534 -0.40696060047232 -0.60159146144029 0.55130950232833 0.41052236946094
3984.530000000 -0.11903324115036 0.4708892665072 1.9184584654179 -0.40581632531095 -0.60184513311448 0.55224001478296 0.4100323303473
3984.540000000 -0.12001488590686 0.47284115981222 1.9191082566289 -0.40464294143849 -0.60204898383158 0.55323720409764 0.40954817422812
3984.550000000 -0.12099394339715 0.47487831472451 1.9197636319283 -0.40346014203593 -0.60220709515793 0.55427760827711 0.4090756180615
3984.560000000 -0.12196700289754 0.47700091891188 1.9204330579329 -0.40228772391948 -0.60232365573388 0.55533788301099 0.40862040651433
3984.570000000 -0.12293053876145 0.47920921756498 1.921124714989 -0.40114561421507 -0.60240296721749 0.55639521002456 0.40818774056223
3984.580000000 -0.12388219888087 0.48150250904639 1.9218395744524 -0.40005415528602 -0.60244951144561 0.55743708953089 0.40776850076074
3984.590000000 -0.12482105876026 0.48387901612504 1.9225709819796 -0.39903402587437 -0.60246798420806 0.55846178812573 0.40733844085991
3984.600000000 -0.12574636929344 0.48633688583696 1.9233118418602 -0.39810589383279 -0.60246321100769 0.55946804451565 0.40687256462402
3984.610000000 -0.1266575712666 0.48887425216803 1.9240548757582 -0.39729042195486 -0.60244006970917 0.56045458413089 0.40634584058214
3984.620000000 -0.12755434392733 0.49148928328295 1.924792794951 -0.39660697218879 -0.6024037171786 0.56142004051184 0.40573416081509
3984.630000000 -0.12843692294768 0.49418047027411 1.9255262334909 -0.3960412914928 -0.60236759776686 0.56236027659198 0.40503764257744
3984.640000000 -0.12930598833245 0.49694664500328 1.9262645710722 -0.39554347824107 -0.60235388256868 0.56326825085229 0.40428212248033
3984.650000000 -0.13016228295126 0.49978660590793 1.9270178911341 -0.39506186328688 -0.60238505070468 0.56413682772208 0.40349475147947
3984.660000000 -0.13100668992667 0.50269898632908 1.9277968944372 -0.39454472797377 -0.60248359382834 0.56495886902879 0.40270268573912
3984.670000000 -0.13184038408086 0.50568204490646 1.9286128946853 -0.39394168478105 -0.60267160621699 0.56572734498833 0.40193215246377
3984.680000000 -0.13266625393634 0.50873183797917 1.9294684564719 -0.39323729866717 -0.60295827822534 0.56643999219897 0.40118758317539
3984.690000000 -0.13348879711966 0.51184232708662 1.9303560053128 -0.39245326633303 -0.60333901815931 0.5670996449759 0.40045031599352
3984.700000000 -0.1343125330011 0.51500740773338 1.9312672421939 -0.39161303862968 -0.60380858498724 0.56770931471236 0.39970058126022
3984.710000000 -0.13514193380589 0.51822111430805 1.9321934091936 -0.3907400112947 -0.60436170883228 0.56827200464257 0.39891865989229
3984.720000000 -0.13598124906238 0.52147770363835 1.9331252521047 -0.38985717966952 -0.60499246771563 0.56879104809428 0.39808571573883
3984.730000000 -0.13682918317078 0.52477308407598 1.9340560204859 -0.38897825435956 -0.60567995987221 0.56927714014574 0.39720428189041
3984.740000000 -0.13767844222764 0.52810486806455 1.9349820645396 -0.38810717212762 -0.60638739082539 0.56974885531658 0.39629963040171
3984.750000000 -0.13852124078626 0.53147090430907 1.9358998273257 -0.38724753753872 -0.60707726319416 0.57022527473307 0.39539812498099
3984.760000000 -0.13934938568362 0.53486926065152 1.9368055911232 -0.38640303328453 -0.60771218689398 0.57072557380521 0.39452618819764
3984.770000000 -0.14015418792356 0.5382982264295 1.9376955197183 -0.38557687970911 -0.60825619366296 0.57126831459929 0.39370977310618
3984.780000000 -0.14093022442132 0.54175517257377 1.938569864719 -0.38476035858813 -0.60870731007026 0.57185477751223 0.39295927341469
3984.790000000 -0.1416761313207 0.54523625742186 1.9394335320182 -0.38393191081314 -0.60909982323389 0.57246767984739 0.39226833765415
3984.800000000 -0.14239094924995 0.54873749967308 1.9402918328139 -0.38306924436863 -0.60946968063427 0.57308878185065 0.39162981311864
3984.810000000 -0.1430741395936 0.55225474164142 1.9411504819459 -0.38215004086834 -0.60985272375988 0.57369979678088 0.39103650054766
3984.820000000 -0.14372589309351 0.55578352392149 1.9420157101367 -0.38115302979151 -0.61028331353667 0.57428321061984 0.39048103551853
3984.830000000 -0.14435016100782 0.55931808616433 1.9428902734549 -0.38008387129144 -0.61075887456075 0.57484337022142 0.38995505848993
3984.840000000 -0.14495440570806 0.56285148186847 1.9437725406653 -0.37897726745704 -0.6112372433384 0.57540821066785 0.38944916767518
3984.850000000 -0.14554607572666 0.56637678545213 1.9446602925547 -0.37786949034312 -0.61167445112255 0.57600689686869 0.38895381328825
3984.860000000 -0.14613230273186 0.56988729182176 1.9455505371699 -0.37679688558151 -0.61202661953015 0.57666868867538 0.3884594541313
3984.870000000 -0.14671962316401 0.57337681080206 1.946439081265 -0.37579530415606 -0.61225187903265 0.57742118150157 0.3879565763698
3984.880000000 -0.14731053372188 0.57684367270001 1.9473206228906 -0.37488775180468 -0.6123618311384 0.57824547361615 0.38743300524619
3984.890000000 -0.14790359523493 0.58029071835054 1.9481897626627 -0.37408329460963 -0.61242596937795 0.57907237830504 0.38687375383921
3984.900000000 -0.14849737031088 0.58372085983562 1.9490415847496 -0.37339017703654 -0.61251682744995 0.57983024343462 0.38626390017942
3984.910000000 -0.14909074197104 0.5871367099419 1.9498721045667 -0.37281664004138 -0.61270708198972 0.58044746586657 0.3855885423051
3984.920000000 -0.14968311022112 0.59054031323714 1.9506788207153 -0.3723703736821 -0.61306798942499 0.58085403087688 0.38483313261768
3984.930000000 -0.15027680395638 0.59392867518578 1.951463990887 -0.37204135044655 -0.61363227206583 0.58102228217776 0.38399710396068
3984.940000000 -0.15087697128859 0.59729366318165 1.952233894186 -0.37180012966857 -0.61439078792104 0.58097050504376 0.38309515210375
3984.950000000 -0.15148882913036 0.600626902064 1.9529947695365 -0.37161614546096 -0.61533214603956 0.58071920265133 0.38214264111073
3984.960000000 -0.15211755692667 0.60392005527026 1.9537525620193 -0.37145863603747 -0.61644491009812 0.58028879018971 0.38115492192475
3984.970000000 -0.15276832129117 0.60716485094161 1.9545127393542 -0.3712969798631 -0.61771672742624 0.57970043559116 0.38014734298397
3984.980000000 -0.15344533898029 0.6103550168553 1.9552728009658 -0.371108456244 -0.6191098896021 0.57899858023492 0.37913335699594
3984.990000000 -0.15415161852466 0.6134865547734 1.9560214254781 -0.37087930044291 -0.62055918301055 0.57825329750248 0.37812427694049
3985.000000000 -0.1548898542438 0.61655575901479 1.9567463515267 -0.37059658614129 -0.62199830825169 0.5775363233341 0.37713136981984
3985.010000000 -0.15566242904562 0.61955917261838 1.9574344897987 -0.37024762495391 -0.62336132746262 0.57691978956364 0.37616606445808
3985.020000000 -0.15647139192687 0.62249371581588 1.958072234387 -0.3698202714409 -0.62458453866984 0.57647397100762 0.37523976553221
3985.030000000 -0.15731735206458 0.6253582043619 1.9586597793906 -0.3693161971132 -0.62565538738533 0.57621018580956 0.37435638708972
3985.040000000 -0.15819958451554 0.62815323929618 1.95921332353 -0.36875205916436 -0.62661691947136 0.57607495997823 0.3735114396914
3985.050000000 -0.15911735045546 0.63087936843549 1.9597501860502 -0.36814506877165 -0.62751482820795 0.57601134713448 0.3726999821446
3985.060000000 -0.16006989636539 0.63353700318238 1.9602881543057 -0.36751239832264 -0.62839465526842 0.57596230450035 0.37191695054658
3985.070000000 -0.16105652815726 0.63612649247604 1.9608452346204 -0.36687144149195 -0.62930088479741 0.57587146443294 0.37115737667825
3985.080000000 -0.162079313823 0.63865007462402 1.961429603688 -0.36624314995414 -0.63025283532032 0.57570205440587 0.37042470656698
3985.090000000 -0.16314339075978 0.64111215122601 1.9620381478934 -0.36565224532295 -0.63124233807493 0.57543885021492 0.36973189715701
3985.100000000 -0.16425400924936 0.64351724088177 1.9626670381455 -0.3651235811877 -0.63225987885883 0.57506775297807 0.36909252976841
3985.110000000 -0.16541626197542 0.64586994665198 1.963312256992 -0.36468194965784 -0.63329598052679 0.57457468937846 0.36852028840759
3985.120000000 -0.16663467326373 0.64817484008194 1.9639696297191 -0.36435195182974 -0.63434073847027 0.57394646309673 0.36802845027743
3985.130000000 -0.16790637821155 0.65043023394732 1.9646354690258 -0.36415341322454 -0.63537231438058 0.57319346282628 0.36761878070742
3985.140000000 -0.16922070133066 0.65262739524593 1.9653066651512 -0.36410094761067 -0.6363557665546 0.57235207440895 0.36728046673011
3985.150000000 -0.17056671579957 0.65475726598032 1.9659799445194 -0.36420895736465 -0.63725554219135 0.57146004231041 0.36700221983571
3985.160000000 -0.17193370866953 0.65681082843762 1.9666516866802 -0.3644918200468 -0.63803615942687 0.57055514570108 0.36677295169737
3985.170000000 -0.17331141537256 0.65877935338269 1.9673180218766 -0.36496310940443 -0.63866325138346 0.56967451150582 0.3665816840034
3985.180000000 -0.17469767376982 0.6606586167763 1.9679814366957 -0.36561590191543 -0.63913147095194 0.56883576790055 0.36641758181393
3985.190000000 -0.17609939467396 0.66244917806029 1.9686519213476 -0.36642061911832 -0.63946748845787 0.56803489280594 0.36626987542695
3985.200000000 -0.17752431651419 0.66415165772569 1.9693400547026 -0.36734648573653 -0.63969955627254 0.5672667034225 0.36612774315791
3985.210000000 -0.17898067086009 0.66576634846039 1.9700567306037 -0.36836270422294 -0.63985588913529 0.56652596895978 0.36598044451942
3985.220000000 -0.18047698021355 0.6672931509878 1.9708129827608 -0.36943851136991 -0.63996435888445 0.56580765740869 0.36581757816171
3985.230000000 -0.18201594490472 0.66873300494157 1.9716139983793 -0.37054470914579 -0.64004314790223 0.56511358170842 0.3656337335588
3985.240000000 -0.18359345693814 0.67008832110021 1.972458261759 -0.37165388273502 -0.64009968849791 0.56445325942308 0.3654289235399
3985.250000000 -0.18520509769863 0.67136152400499 1.9733440166986 -0.37273877079824 -0.64014091955443 0.56383670304248 0.36520348322272
3985.260000000 -0.18684652739103 0.67255488799234 1.9742696783723 -0.37377216833293 -0.64017384289585 0.56327400842881 0.36495781739839
3985.270000000 -0.18851356910362 0.67367048784571 1.9752337905352 -0.37472730368805 -0.64020525763163 0.56277536721663 0.36469242112455
3985.280000000 -0.19020446437077 0.67471144019344 1.9762320792923 -0.37558835536986 -0.64023448062707 0.56235208911773 0.36440818458382
3985.290000000 -0.19192004441845 0.67568225765119 1.9772569274857 -0.37635170387971 -0.64025241254957 0.56201669604183 0.36410640832252
3985.300000000 -0.19366117789912 0.67658758357706 1.9783005209425 -0.37701437965077 -0.64024946913935 0.56178176156743 0.36378843738292
3985.310000000 -0.19542864491577 0.6774321561627 1.9793550308136 -0.37757341532991 -0.64021601264257 0.56165984920803 0.36345561899602
3985.320000000 -0.19722300603173 0.67822075381804 1.9804127600135 -0.37802633290508 -0.64014282190765 0.56166273000299 0.36310912535495
3985.330000000 -0.19904118612809 0.67895677756195 1.9814690102705 -0.37838504618472 -0.64003392950696 0.56178002445991 0.3627458201296
3985.340000000 -0.20087609425939 0.6796420361149 1.9825223881937 -0.37867757511831 -0.63990824669443 0.5619765208922 0.36235772363905
3985.350000000 -0.20272045025259 0.68027829951916 1.9835715912464 -0.37893274239476 -0.63978546649193 0.56221567108507 0.36193655907251
3985.360000000 -0.20456705993898 0.68086743255943 1.984615089636 -0.37917935625618 -0.63968526299349 0.56246092177038 0.36147405381205
3985.370000000 -0.20640908965092 0.68141136988119 1.9856510584625 -0.37944555684401 -0.63962710713639 0.56267624945909 0.36096214691061
3985.380000000 -0.20824551100395 0.68191077840854 1.9866794921725 -0.37973963443649 -0.63962591572899 0.56284085974269 0.36039792531314
3985.390000000 -0.2100816705991 0.68236481477333 1.9877027713734 -0.38004749326048 -0.63969152330522 0.56295111998231 0.35978423310162
3985.400000000 -0.21192320973629 0.68277253773153 1.9887234629415 -0.38035381152756 -0.63983348770622 0.56300434267415 0.35912420719885
3985.410000000 -0.21377570309582 0.68313294168759 1.9897442409046 -0.3806432313372 -0.6400613665175 0.56299785900967 0.35842096517845
3985.420000000 -0.21564446092478 0.68344495689125 1.9907675898985 -0.38090116144796 -0.64038419286154 0.56292911138275 0.35767751718343
3985.430000000 -0.21752888712651 0.68370990845799 1.991787164461 -0.38113582822196 -0.64079576588527 0.56279910224433 0.35689415431194
3985.440000000 -0.21942167323143 0.68393203497637 1.992786578693 -0.38138125851904 -0.64127268162624 0.56261281018323 0.35606812447628
3985.450000000 -0.22131501739974 0.68411591977817 1.9937489375533 -0.38167287079394 -0.64179063029411 0.5623753351436 0.35519654979845
3985.460000000 -0.22320097947638 0.68426649931789 1.9946573545648 -0.38204605951154 -0.64232530421643 0.56209174277591 0.35427656523982
3985.470000000 -0.22507176465722 0.68438914335009 1.9954952726927 -0.38253496353668 -0.64285277224226 0.56176735676007 0.35330546524395
3985.480000000 -0.22692629850546 0.68448793183947 1.9962574564568 -0.38313859547651 -0.64336099427798 0.56141407615773 0.35228636475161
3985.490000000 -0.22877116645427 0.68456502605014 1.9969516138201 -0.38381621857726 -0.64385146309841 0.5610513038088 0.35122903968428
3985.500000000 -0.23061333152701 0.6846223254054 1.9975862607218 -0.38452503721691 -0.644326439126 0.56069898819688 0.35014365656332
3985.510000000 -0.23245966049165 0.68466145957373 1.9981701826844 -0.38522234509632 -0.64478828783084 0.5603771657387 0.34904045730162
3985.520000000 -0.2343167115219 0.68468375565026 1.9987125621846 -0.38586629320834 -0.64523924029089 0.5601057588562 0.34792968463557
3985.530000000 -0.23618636881929 0.68469232714369 1.999222661766 -0.3864385831755 -0.64567300651539 0.55990056062571 0.34681832751702
3985.540000000 -0.23806534333787 0.6846926618806 1.9997094730275 -0.38694775760398 -0.64607343334531 0.55977264404231 0.34570961599664
3985.550000000 -0.23995015268111 0.68469046866899 2.0001819481609 -0.38740389132672 -0.64642379632805 0.55973279047527 0.34460659278737
3985.560000000 -0.24183736932644 0.68469160937225 2.0006490025441 -0.38781711101004 -0.64670731545654 0.55979177964483 0.34351229961225
3985.570000000 -0.24372360232708 0.68470208623773 2.0011194058838 -0.38819750635163 -0.64690741582698 0.55996002981398 0.3424299292135
3985.580000000 -0.24560565228649 0.6847262564542 2.0015975304571 -0.3885540584875 -0.6470151364362 0.56023658294065 0.34136802426461
3985.590000000 -0.24748055940035 0.68476644102273 2.0020826647356 -0.38889452471476 -0.64703028583977 0.56060742355577 0.34034126183457
3985.600000000 -0.24934539483395 0.68482487448113 2.0025737354467 -0.38922664184157 -0.64695317001906 0.56105779276828 0.33936465675879
3985.610000000 -0.2511972554262 0.68490385542016 2.0030695472823 -0.38955823375406 -0.64678408307943 0.56157291350717 0.33845323931761
3985.620000000 -0.25303338128542 0.68500574304612 2.0035689118092 -0.38989689164043 -0.64652359770982 0.56213806667901 0.33762174912742
3985.630000000 -0.25485483924448 0.68513105498709 2.0040736941883 -0.39024100242067 -0.64618144509633 0.56274007587938 0.33687550674129
3985.640000000 -0.25666709400324 0.68527805578459 2.0045892782339 -0.39057832212485 -0.64577789681177 0.56336754134713 0.33620900587579
3985.650000000 -0.25847588083158 0.6854448123698 2.0051211583367 -0.39089602413007 -0.64533380878136 0.56400918669969 0.33561616600127
3985.660000000 -0.26028697819618 0.68562922632172 2.0056746998388 -0.39118134090219 -0.64487005267177 0.56465373524884 0.33509093238494
3985.670000000 -0.26210596238277 0.68582904613446 2.0062549251461 -0.39142170302701 -0.64440739005076 0.56528986360096 0.33462745876184
3985.680000000 -0.26393094028257 0.68604466248044 2.0068602051174 -0.3916080099294 -0.64396239841647 0.56590526636579 0.33422571038792
3985.690000000 -0.2657513666038 0.68627969956222 2.0074812872827 -0.39173510560571 -0.64354681555679 0.56648653013866 0.33389236947594
3985.700000000 -0.26755623159336 0.68653792809794 2.0081084315953 -0.39179807393127 -0.64317211869279 0.56702019599778 0.3336345190933
3985.710000000 -0.26933455342846 0.68682309250117 2.0087318187904 -0.39179202274885 -0.64284977857029 0.56749280958245 0.333459269139
3985.720000000 -0.27107548213382 0.6871387933854 2.009341714394 -0.39171271343535 -0.64259074720373 0.56789133799315 0.33337322923957
3985.730000000 -0.27277120659991 0.68748531687425 2.0099322073344 -0.39157541853876 -0.6423906339443 0.56821569037883 0.33336750625121
3985.740000000 -0.27441744001653 0.68785917769359 2.0105017972515 -0.3914179804927 -0.64222728202389 0.56848076180141 0.33341521595887
3985.750000000 -0.27601011758324 0.68825676795425 2.0110491222326 -0.3912794789395 -0.64207753164353 0.56870227540913 0.3334884325788
3985.760000000 -0.27754521201178 0.68867464290727 2.0115725886149 -0.39119899332194 -0.64191820645368 0.56889595063027 0.33355923192691
3985.770000000 -0.27901884941022 0.68910972985788 2.0120703402363 -0.3912146954494 -0.64172658141217 0.5690772887801 0.33360020408894
3985.780000000 -0.28043020307688 0.6895632203544 2.0125425838618 -0.39133659935782 -0.64149473756197 0.56925551372564 0.33359905242119
3985.790000000 -0.28178195195715 0.69004102238371 2.0129922549619 -0.39154196720706 -0.64123199292202 0.56943256993056 0.33356104009784
3985.800000000 -0.28307694635429 0.69054920582362 2.0134225273989 -0.39180621806522 -0.64094863122601 0.56960999184033 0.33349242391785
3985.810000000 -0.2843180181076 0.69109367735599 2.0138367198395 -0.39210477482975 -0.64065494925496 0.56978933077543 0.3333994602355
3985.820000000 -0.28550803829266 0.69168007775561 2.0142382558842 -0.39241320927913 -0.64036096508524 0.56997245902675 0.33328831892125
3985.830000000 -0.28665108443674 0.6923117656299 2.0146281415064 -0.39271142713818 -0.6400672841323 0.57017035644415 0.3331626800993
3985.840000000 -0.28775263254354 0.69298959032897 2.0150044048416 -0.39298438395896 -0.639763480349 0.57040460546929 0.33302334638213
3985.850000000 -0.28881823471708 0.69371425716067 2.0153649019875 -0.39321731529976 -0.63943847222345 0.57069737203125 0.3328709851363
3985.860000000 -0.28985345052561 0.69448645728462 2.0157074979278 -0.39339544252944 -0.63908114190385 0.57107079996788 0.3327062687777
3985.870000000 -0.29086379220932 0.69530688429416 2.0160300544431 -0.39350449363509 -0.63868080973137 0.57154616775944 0.33252972030988
3985.880000000 -0.29185276646066 0.6961773377225 2.0163296482321 -0.39354689980696 -0.63824159883934 0.57211877093767 0.3323380975815
3985.890000000 -0.29282152036095 0.69710093983504 2.0166023706798 -0.39354469575533 -0.63778506502092 0.57275350911138 0.33212377373461
3985.900000000 -0.29377109446289 0.6980808867562 2.0168441780077 -0.39352103598178 -0.63733384506535 0.57341361347243 0.33187888160973
3985.910000000 -0.2947025339427 0.69912039222154 2.0170509301614 -0.39349910294897 -0.63691065892607 0.57406238550234 0.3315956062376
3985.920000000 -0.2956168700205 0.70022261826154 2.017218546055 -0.39350148027317 -0.63653811459947 0.57466376861084 0.33126630787172
3985.930000000 -0.29651529091886 0.70138771449102 2.0173474652872 -0.39353008338465 -0.63623368986327 0.57519987521099 0.33088648946656
3985.940000000 -0.29739920210005 0.70261226291435 2.0174435330733 -0.39356241761857 -0.63600877508812 0.57567417047736 0.33045530846748
3985.950000000 -0.29827003017825 0.70389265192803 2.0175129657224 -0.39357454134702 -0.63587437323325 0.57609135071767 0.32997214654725
3985.960000000 -0.29912926920084 0.70522524859451 2.0175620752141 -0.3935424574568 -0.63584146152089 0.57645610972594 0.32943637253569
3985.970000000 -0.29997853352419 0.70660642817027 2.0175971354785 -0.39344263234304 -0.63592054726304 0.57677311468637 0.32884757380683
3985.980000000 -0.30081892640101 0.70803525650193 2.0176186436427 -0.39326765306923 -0.63610764150574 0.57704733243805 0.32821334158373
3985.990000000 -0.30165077646037 0.70951406723088 2.017620123157 -0.39302920547707 -0.63638163486592 0.5772841222703 0.32755076037472
3986.000000000 -0.30247430559959 0.71104545334566 2.0175946654933 -0.39274009575154 -0.63672044311753 0.57748888825853 0.32687746701663
3986.010000000 -0.30328958306894 0.71263212615102 2.0175352965764 -0.39241312626405 -0.63710201013258 0.57766708926389 0.32621112948837
3986.020000000 -0.30409647008877 0.71427693238684 2.0174352041018 -0.39206083400887 -0.63750416217953 0.57782460142869 0.32556946359236
3986.030000000 -0.30489540215998 0.71598242397216 2.0172952058409 -0.39168765754437 -0.63789968062195 0.57797848648506 0.32497022255933
3986.040000000 -0.30568772555309 0.71775067485217 2.0171252244317 -0.39128849693799 -0.63825532005712 0.57815906126492 0.32443113053476
3986.050000000 -0.30647487483408 0.71958372422877 2.0169356608964 -0.39085777507228 -0.63853747467706 0.57839746269596 0.32396985700134
3986.060000000 -0.30725829503868 0.72148360203877 2.0167367964129 -0.39038993627777 -0.63871251246364 0.57872484867182 0.32360403830176
3986.070000000 -0.30803938703675 0.72345234723582 2.0165385359177 -0.38987993099071 -0.63874751430875 0.5791714014863 0.32335080033219
3986.080000000 -0.30881916056621 0.72549200298144 2.0163447076232 -0.38934083523584 -0.63863397262065 0.57973701629252 0.32321100688694
3986.090000000 -0.30959822483336 0.7276046140764 2.0161520587246 -0.38880739494832 -0.63839255668345 0.58038556779703 0.32316612739825
3986.100000000 -0.31037715833913 0.72979222299078 2.0159568928315 -0.38831565450008 -0.63804570666409 0.58107888001463 0.32319647875347
3986.110000000 -0.31115647122736 0.73205688514422 2.015755491351 -0.38790175238828 -0.6376159320959 0.58177888938257 0.32328234950328
3986.120000000 -0.31193648373259 0.73440059622592 2.0155441922995 -0.38760117247998 -0.63712557501428 0.58244834719157 0.32340416758089
3986.130000000 -0.3127177421968 0.73682152363689 2.0153219777539 -0.38742445332739 -0.6365894385948 0.58307262485622 0.32354674125512
3986.140000000 -0.31350132343783 0.73931317636931 2.0150910394448 -0.38735216284687 -0.63601323293926 0.58366404751557 0.32370009129092
3986.150000000 -0.31428847644286 0.7418687450177 2.0148538080753 -0.38736305890299 -0.63540209493542 0.58423649108225 0.32385453653902
3986.160000000 -0.31508077320312 0.74448132009161 2.0146127725297 -0.38743588558285 -0.63476113561295 0.5848038211406 0.32400034885373
3986.170000000 -0.31588030356942 0.74714392732721 2.0143703659544 -0.38754948395568 -0.63409571246325 0.58537963471591 0.32412761095173
3986.180000000 -0.31669157017474 0.74985175146859 2.0141259877431 -0.3876854215731 -0.63341981796418 0.58596853548964 0.32422249077761
3986.190000000 -0.31752159999091 0.75260268180756 2.0138754113607 -0.38782850056907 -0.63275786196816 0.58656435483997 0.32426655685561
3986.200000000 -0.31837765555829 0.75539474242188 2.013614281439 -0.38796368915243 -0.63213492598256 0.58716035281375 0.32424116230963
3986.210000000 -0.31926720739559 0.75822588313726 2.013338395097 -0.38807594271151 -0.63157614098173 0.58774984552018 0.32412769076739
3986.220000000 -0.32019798300381 0.76109396259993 2.0130438771195 -0.38815019061434 -0.63110635526038 0.58832634810701 0.32390786652855
3986.230000000 -0.32117383503582 0.76399727862473 2.0127310216425 -0.38816984455523 -0.63074022840235 0.58888900647239 0.32357483540733
3986.240000000 -0.32219352190799 0.76693479484197 2.0124049605093 -0.38811642831295 -0.63048007048934 0.58944374495104 0.32313556029544
3986.250000000 -0.32325541794014 0.76990554474314 2.0120711185942 -0.38797129426548 -0.63032737248825 0.58999687198038 0.32259784464778
3986.260000000 -0.32435781828064 0.77290857638518 2.0117349824978 -0.38771570645206 -0.63028354994349 0.5905546718266 0.32196949735152
3986.270000000 -0.3254991201628 0.77594285820187 2.0114021322154 -0.38733115425647 -0.63034956552618 0.59112352360337 0.32125843494925
3986.280000000 -0.32667939888336 0.77900545125271 2.0110760397693 -0.38680960422862 -0.63051304136904 0.59171460296567 0.32047693111555
3986.290000000 -0.32790053850161 0.78209114954636 2.010757415362 -0.38615582719116 -0.6307454286955 0.59234495140344 0.31964251884395
3986.300000000 -0.32916427193659 0.78519464876812 2.0104466985187 -0.38537542730969 -0.63101714341045 0.59303198095243 0.31877298241165
3986.310000000 -0.33047188561299 0.78831072690187 2.0101441208058 -0.38447402028729 -0.63129855169677 0.59379314060908 0.31788609990891
3986.320000000 -0.33182413432363 0.79143443930597 2.0098497937418 -0.3834575346522 -0.63156087872434 0.5946449819557 0.31699924450746
3986.330000000 -0.33322006779548 0.79456586021521 2.0095687509279 -0.38234445170511 -0.63180479444815 0.59557301421791 0.31611423045799
3986.340000000 -0.33465702128586 0.79771112150615 2.0093122385129 -0.3811685160542 -0.63206693096918 0.59652499566887 0.31521403313701
3986.350000000 -0.33613211661747 0.80087683156848 2.0090918904669 -0.3799642991521 -0.63238633518036 0.59744645467498 0.31428074749069
3986.360000000 -0.33764222625591 0.80406974117581 2.0089193927561 -0.37876639878276 -0.63280221778293 0.59828303597496 0.31329662811262
3986.370000000 -0.33918398435843 0.8072966138155 2.0088062905381 -0.37760886673522 -0.63335288295836 0.59898176555216 0.31224431771817
3986.380000000 -0.34075644347934 0.81055886242368 2.0087552505206 -0.37650192206993 -0.63404480058603 0.59953101475289 0.31112064521152
3986.390000000 -0.34236188278333 0.81385120016004 2.0087579211021 -0.37542654803629 -0.63484551793726 0.59996951322356 0.30993976606238
3986.400000000 -0.34400278337718 0.81716786148318 2.0088051644387 -0.37436200778469 -0.63572011672259 0.60033905394329 0.30871676441701
3986.410000000 -0.34568163726268 0.82050301132722 2.0088876339994 -0.37328751337786 -0.63663369232426 0.60068141013981 0.30746677489805
3986.420000000 -0.34740091271256 0.82385083415067 2.0089957976494 -0.37218274203594 -0.63755190472371 0.60103761943383 0.30620476047751
3986.430000000 -0.34916100639459 0.82720774255288 2.0091223856014 -0.37104858276192 -0.63845621266565 0.60142520109883 0.30493333898123
3986.440000000 -0.35095971674316 0.8305729543522 2.0092631068123 -0.36991209880473 -0.63934743189693 0.60183283362641 0.30363982092916
3986.450000000 -0.35279459945392 0.83394590626559 2.009413793044 -0.36880197031296 -0.64022769848701 0.60224735431839 0.30231064321289
3986.460000000 -0.35466306317157 0.83732613516436 2.0095700952638 -0.36774690914468 -0.64109923110113 0.60265559271773 0.30093225693189
3986.470000000 -0.35656231877529 0.84071329549862 2.0097273794962 -0.36677503105003 -0.64196398048962 0.60304484688242 0.29949163093604
3986.480000000 -0.35849053992381 0.84410650743739 2.0098830782772 -0.36589212612953 -0.64281518418788 0.60341594977999 0.29799460157026
3986.490000000 -0.36044730271702 0.84750407953434 2.0100375991871 -0.36507653856905 -0.64363537574754 0.60378640136797 0.29647024403114
3986.500000000 -0.36243227750085 0.85090425212585 2.0101917237078 -0.36430505607926 -0.64440642108032 0.60417486156696 0.29494902480951
3986.510000000 -0.3644451282835 0.8543052460976 2.0103466054572 -0.36355456077196 -0.64511027925004 0.60460003180074 0.29346142931292
3986.520000000 -0.3664853685372 0.85770527381365 2.0105039888657 -0.36280217491824 -0.64572956205139 0.60508008116743 0.29203768582486
3986.530000000 -0.36854964870333 0.86110192709976 2.0106689134603 -0.36203286273559 -0.64626373357394 0.6056162108841 0.29069640190572
3986.540000000 -0.37063119442478 0.86449203642213 2.0108500636885 -0.36124125529526 -0.64673289434047 0.60618873459713 0.28944176771542
3986.550000000 -0.37272307110172 0.86787240430622 2.0110564389087 -0.36042252421067 -0.64715835994019 0.60677669965536 0.28827712007108
3986.560000000 -0.3748184603344 0.87123980759474 2.0112972426848 -0.3595718669936 -0.64756138139253 0.60735918062617 0.28720577206044
3986.570000000 -0.37691077921901 0.87459093469479 2.0115817564707 -0.35868488947217 -0.64796289719422 0.60791552065612 0.28623059527137
3986.580000000 -0.3789978120912 0.87792226124444 2.0119092789839 -0.35776846924945 -0.6483745104517 0.60843446667744 0.28534140317585
3986.590000000 -0.38108268081945 0.88123003997303 2.0122662424755 -0.35684337393625 -0.64879629759568 0.60891638512672 0.28451187431836
3986.600000000 -0.38316887719723 0.88451044499375 2.0126380083985 -0.35593121624275 -0.64922765728444 0.6093622877686 0.28371468161927
3986.610000000 -0.38526000316375 0.88775960371507 2.0130094186569 -0.35505358762016 -0.64966797130634 0.60977317903644 0.28292251077733
3986.620000000 -0.38735976719094 0.89097364383053 2.0133649693824 -0.35423129853653 -0.65011636727988 0.61015038795022 0.28210884462585
3986.630000000 -0.38947082516735 0.89414988550771 2.0137024266268 -0.35345798980562 -0.65056566601677 0.61050486116164 0.28127491559102
3986.640000000 -0.39159439511949 0.897287124585 2.0140368353762 -0.35269348838182 -0.65100081904819 0.61085955234445 0.28045649245684
3986.650000000 -0.39373160636991 0.90038420970216 2.0143845278654 -0.35189555145353 -0.65140615877279 0.61123827849443 0.27969144442271
3986.660000000 -0.39588357665898 0.90343992117772 2.0147622789977 -0.35102194405713 -0.65176595357429 0.61166486853769 0.27901760723747
3986.670000000 -0.39805140187222 0.90645291959141 2.0151872922113 -0.35003152104336 -0.65206498604531 0.6121622831673 0.27847177113165
3986.680000000 -0.40023727182696 0.9094205314575 2.0156664259818 -0.34892439058903 -0.6523066002547 0.61272692715113 0.27805319933453
3986.690000000 -0.40244479761947 0.91233846386813 2.0161927645921 -0.34775236231626 -0.6525175025642 0.61332209488811 0.27771426191844
3986.700000000 -0.40467768041468 0.91520228653743 2.0167582173313 -0.34657051720046 -0.65272610177894 0.6139089913966 0.27740451140219
3986.710000000 -0.40693971430377 0.91800755722338 2.017354033776 -0.34543402334446 -0.65296096083361 0.61444897904068 0.27707358462902
3986.720000000 -0.40923479973947 0.92074994485773 2.0179705325607 -0.3443973420752 -0.65325004393847 0.6149044403465 0.27667197203202
3986.730000000 -0.41156404796917 0.92342879785187 2.0186003869565 -0.34348429713341 -0.65359854164984 0.61526530053377 0.27618127006563
3986.740000000 -0.41392486312897 0.92604806463992 2.0192402734993 -0.34268008800371 -0.65398300430364 0.61555585190743 0.27562216991795
3986.750000000 -0.41631438107685 0.92861199920949 2.0198872737738 -0.34196747144242 -0.65437809948005 0.6158025415895 0.27501778336693
3986.760000000 -0.41872962525098 0.93112489859262 2.0205387677228 -0.34132918708781 -0.65475850952696 0.61603175960739 0.27439123783208
3986.770000000 -0.42116740035911 0.93359108497684 2.0211924753517 -0.34074798019466 -0.65509952132392 0.61626937026251 0.27376540035342
3986.780000000 -0.42362380527417 0.9360124861702 2.0218447998575 -0.34020847088112 -0.65539617851809 0.61652464653959 0.27315088455622
3986.790000000 -0.42609426912225 0.9383878729766 2.0224901713911 -0.3396976610465 -0.65566836360982 0.61678596959344 0.27254277417213
3986.800000000 -0.42857425166472 0.94071572418167 2.0231229854427 -0.33920265506371 -0.6559375094822 0.61704035936907 0.27193517124805
3986.810000000 -0.43105935750005 0.94299430668973 2.0237378097834 -0.33871053530061 -0.65622501859079 0.61727480129319 0.27132216632693
3986.820000000 -0.43354549955443 0.94522164794786 2.024329477712 -0.33820851193174 -0.65655195062407 0.61747648263658 0.27069786105436
3986.830000000 -0.43603200852065 0.94739834708377 2.0248942858249 -0.33768818913218 -0.65692777142548 0.61764162950731 0.27005815586672
3986.840000000 -0.43852232515002 0.94952857739298 2.02543015302 -0.33714672419113 -0.65734727073401 0.61777796219813 0.26940126474845
3986.850000000 -0.44102012654842 0.95161677012533 2.0259350560973 -0.33658163365457 -0.65780428167669 0.6178939351305 0.26872553995328
3986.860000000 -0.44352903847521 0.95366739385907 2.0264069086959 -0.33599042073973 -0.65829262757755 0.61799799881494 0.26802934001508
3986.870000000 -0.44605264711444 0.95568490920284 2.0268435108265 -0.3353706369859 -0.65880608082492 0.61809859784624 0.26731106796445
3986.880000000 -0.44859394278769 0.95767229388297 2.0272407183724 -0.33472264654483 -0.65933665994811 0.61820405467425 0.26657018873611
3986.890000000 -0.45115515622133 0.95963065650262 2.0275919576302 -0.33405044217651 -0.65987416663348 0.61832254448487 0.26580748159749
3986.900000000 -0.45373841060653 0.96156102415627 2.0278904717068 -0.33335829011702 -0.66040827784675 0.6184622431188 0.26502379289079
3986.910000000 -0.45634574001707 0.96346450647539 2.028129451881 -0.33265048053221 -0.66092868869409 0.61863134263914 0.2642199617124
3986.920000000 -0.45897899644353 0.96534232037062 2.0283021346336 -0.33193154617068 -0.66142518130304 0.61883782763981 0.26339688926984
3986.930000000 -0.46163690092478 0.96719624701678 2.0284063963054 -0.3312150648563 -0.6618903167667 0.61908115037877 0.26255726733118
3986.940000000 -0.46431423785597 0.96902872706958 2.0284461280549 -0.3305262012753 -0.66232026067345 0.61934984472917 0.26170608018527
3986.950000000 -0.46700549599069 0.97084233495143 2.0284256060165 -0.32989090638322 -0.66271151731774 0.619631745162 0.26084849067526
3986.960000000 -0.46970503945357 0.97263984174052 2.0283490422765 -0.32933517727613 -0.66306067606579 0.61991471435053 0.25998966863201
3986.970000000 -0.47240704752789 0.97442435154655 2.0282204936219 -0.32888448329545 -0.66336438057881 0.62018691829667 0.25913487144817
3986.980000000 -0.47510743450166 0.97619939554417 2.0280443327269 -0.32854250962616 -0.66361987054113 0.6204460446192 0.258292842541
3986.990000000 -0.47780464275223 0.97796865627914 2.0278255912477 -0.32828496657447 -0.66382510227571 0.62070195408002 0.25747679217959
3987.000000000 -0.48049739380197 0.97973569512692 2.0275695151758 -0.32808574967698 -0.66397803190394 0.62096530970628 0.25670021065291
3987.010000000 -0.4831845914726 0.98150384967119 2.0272816928459 -0.32791877191436 -0.6640766165787 0.62124674345254 0.25597658113425
3987.020000000 -0.48586544714586 0.98327618749214 2.026968204185 -0.32775834667659 -0.66411903762128 0.62155654393256 0.25531908026514
3987.030000000 -0.48854250805311 0.98505492217255 2.0266353183374 -0.32759418106939 -0.6641106010002 0.62189393211663 0.25472946308808
3987.040000000 -0.49122244303654 0.98684135750806 2.0262890175911 -0.32743579987677 -0.66406575577561 0.62224391122461 0.2541947755347
3987.050000000 -0.49391222114521 0.98863668421843 2.0259351501208 -0.32729400872541 -0.66399956251626 0.6225905319947 0.25370108849044
3987.060000000 -0.4966188384276 0.9904420148866 2.025579361072 -0.32717962092532 -0.66392707820824 0.62291784044835 0.25323446551407
3987.070000000 -0.4993491153216 0.99225834981303 2.0252269262799 -0.32710337862667 -0.66386293512065 0.62321026303959 0.25278123171261
3987.080000000 -0.50210285483494 0.99408464466098 2.0248795775104 -0.32707200261573 -0.66380611771537 0.62346678787879 0.252338081947
3987.090000000 -0.5048707916487 0.99591723878836 2.0245347613882 -0.32708699815827 -0.66373538492892 0.62370522247372 0.25191512437342
3987.100000000 -0.507643072057 0.9977522916341 2.0241896901603 -0.32714955285587 -0.66362814196217 0.62394459989869 0.25152334984909
3987.110000000 -0.51040985444209 0.99958595491897 2.0238416436311 -0.32726085761349 -0.66346178593264 0.62420392591461 0.25117374176841
3987.120000000 -0.51316135695646 1.001414427858 2.0234879593382 -0.3274220659789 -0.66321422566751 0.62450172683166 0.25087701123582
3987.130000000 -0.51589127654742 1.0032343772844 2.0231254338261 -0.32763403447719 -0.66288383294024 0.62483894885985 0.25063369978194
3987.140000000 -0.51859789690889 1.0050429497269 2.0227501119035 -0.32789726340321 -0.66249559411516 0.62519374216954 0.25043114259758
3987.150000000 -0.5212798733902 1.0068371936058 2.0223580002251 -0.32821222276776 -0.6620763054512 0.62554276567335 0.25025577096176
3987.160000000 -0.52393597016682 1.0086139637311 2.0219451028074 -0.32857940952339 -0.66165280346915 0.62586270657202 0.2500940059678
3987.170000000 -0.52656505719367 1.0103699887486 2.0215073720115 -0.32899913281288 -0.66125193789622 0.62613038297199 0.24993236836436
3987.180000000 -0.52916569582004 1.0121044486309 2.0210403332389 -0.32946244242347 -0.66089968092071 0.62632716188666 0.24976067960002
3987.190000000 -0.53173596334114 1.0138198321437 2.0205390390045 -0.3299482596987 -0.66062085108917 0.62644037509824 0.24957302232974
3987.200000000 -0.53427394622518 1.0155187592701 2.0199985922015 -0.33043468129935 -0.66044021023063 0.62645780382497 0.24936373058631
3987.210000000 -0.53677784566117 1.0172036840469 2.0194142693453 -0.33089979222551 -0.66038252947663 0.62636725257547 0.24912709039408
3987.220000000 -0.53924602879621 1.0188767911849 2.0187816196578 -0.33132190693791 -0.66047180412177 0.62615711271437 0.24885750971263
3987.230000000 -0.54167595994448 1.0205381010653 2.0180968339118 -0.3316889236169 -0.66070189571763 0.62583999168314 0.24855536154956
3987.240000000 -0.54406367525311 1.0221850556587 2.017356662027 -0.33200133386943 -0.66102723357825 0.62546026197181 0.24822886913282
3987.250000000 -0.54640504466046 1.0238150059495 2.016557839413 -0.33226053829181 -0.66139961413876 0.62506448263649 0.24788682429188
3987.260000000 -0.54869586927553 1.0254253445848 2.0156969947851 -0.33246798564203 -0.66177091377257 0.62469930744102 0.24753802029275
3987.270000000 -0.5509320473943 1.0270134251262 2.0147707814063 -0.33262513950515 -0.66209384756492 0.62441076819666 0.24719111259493
3987.280000000 -0.55311374460117 1.028577335445 2.013782557021 -0.33273328716205 -0.66235084024927 0.62421549002495 0.24685004769768
3987.290000000 -0.55524669438516 1.0301162581537 2.012744625081 -0.33279345912619 -0.66256327460939 0.62409131117707 0.24651258794427
3987.300000000 -0.55733698079111 1.0316295090553 2.0116698826071 -0.33280663046098 -0.6627551409795 0.62401339619685 0.24617605731128
3987.310000000 -0.55939059849989 1.0331165562792 2.010571226684 -0.33277376554708 -0.66295039057859 0.62395688357753 0.24583776770773
3987.320000000 -0.56141329032233 1.0345771213851 2.0094614413223 -0.33269596470899 -0.66317250730154 0.62389722904071 0.24549514907847
3987.330000000 -0.56340564799755 1.0360132119191 2.008347401868 -0.33257935245528 -0.66342760266693 0.62382359298727 0.2451508008808
3987.340000000 -0.56536154969377 1.0374296752937 2.0072281304104 -0.33243667768354 -0.66369889156447 0.62374326416243 0.24481416846011
3987.350000000 -0.56727438186034 1.0388316104643 2.0061020767196 -0.33228116098261 -0.66396804691433 0.62366479223122 0.24449517308938
3987.360000000 -0.56913744400205 1.040224196158 2.0049676238263 -0.33212603509173 -0.66421676652569 0.62359675697901 0.24420374396324
3987.370000000 -0.57094399334255 1.0416126206346 2.0038230645224 -0.33198444949272 -0.66442692055151 0.62354772244358 0.24394964721614
3987.380000000 -0.57269029272334 1.0429984961267 2.0026668714849 -0.33186598782353 -0.66458654399661 0.62352432432515 0.2437357352532
3987.390000000 -0.57437671480176 1.044378587299 2.0014978395433 -0.3317755065814 -0.66469182699391 0.62353060657316 0.24355568362629
3987.400000000 -0.57600391954579 1.0457492795046 2.0003147595706 -0.33171753577533 -0.66473951090117 0.62357041944051 0.24340252896138
3987.410000000 -0.57757257662334 1.0471068938655 1.9991163648509 -0.3316966016462 -0.66472632352953 0.62364759863515 0.24326929929585
3987.420000000 -0.57908330598769 1.0484477416343 1.9979012954572 -0.33171718949558 -0.66464911567778 0.62376587024115 0.24314892215305
3987.430000000 -0.58053509202077 1.0497714731154 1.9966679874878 -0.33178235725142 -0.66451050538166 0.62392503192858 0.24303047172531
3987.440000000 -0.58192476189516 1.0510822596021 1.9954147217926 -0.3318932574468 -0.66432080034205 0.62411966263358 0.24289789337992
3987.450000000 -0.58324900945373 1.0523845641695 1.9941397878852 -0.33205089134495 -0.66409083365906 0.62434397808351 0.24273476726233
3987.460000000 -0.58450453931474 1.0536828185047 1.9928414964725 -0.33225624939606 -0.66383143104892 0.62459218949649 0.24252466412469
3987.470000000 -0.58568818252702 1.0549813554201 1.9915182990509 -0.33250986873148 -0.66355347997298 0.62485858027096 0.24225135928142
3987.480000000 -0.58680245662965 1.0562822425553 1.9901749650832 -0.33279333314652 -0.66327080225643 0.62514100634107 0.24190734275383
3987.490000000 -0.58785754415299 1.0575846103861 1.9888247822575 -0.33306287634051 -0.66300114562879 0.62544216348356 0.24149679384147
3987.500000000 -0.58886428658297 1.0588874661012 1.9874817432557 -0.33327296244411 -0.66276252159194 0.62576516026081 0.24102476362519
3987.510000000 -0.58983378722137 1.0601899030823 1.9861600599663 -0.33337804972509 -0.6625729387238 0.62611316144504 0.24049633239966
3987.520000000 -0.59077745556198 1.0614911408245 1.9848741956107 -0.33333315902047 -0.66245016766578 0.62648929944008 0.23991652328275
3987.530000000 -0.59170224499934 1.0627936592061 1.9836357844326 -0.33311721522081 -0.66240156767304 0.62689555419791 0.23928862947229
3987.540000000 -0.5926086233818 1.0641043320817 1.982452287395 -0.33274122542689 -0.66242047537149 0.62733237970305 0.23861365444192
3987.550000000 -0.59349649382986 1.0654304156167 1.9813307805715 -0.33221842238034 -0.66249918330235 0.6278000831868 0.23789242843244
3987.560000000 -0.59436556309746 1.066779261106 1.9802782115333 -0.33156200540258 -0.66262991450649 0.62829896569072 0.23712579506777
3987.570000000 -0.59521534302288 1.0681581796571 1.9793012003214 -0.33078517271773 -0.66280482718564 0.62882929388455 0.23631472599518
3987.580000000 -0.59604591129264 1.0695693756028 1.9783985509712 -0.32990235616153 -0.66301592331543 0.62938920461727 0.23546454072855
3987.590000000 -0.59685824237611 1.0710081292244 1.9775586484717 -0.32892970005548 -0.66325506212954 0.62997396741892 0.23458639209342
3987.600000000 -0.5976532559083 1.0724692760952 1.976769120558 -0.32788350531078 -0.66351413900741 0.63057871132356 0.23369185503111
3987.610000000 -0.59843166555208 1.0739477447833 1.9760175536329 -0.32678011049503 -0.66378509711813 0.63119865128212 0.23279254036237
3987.620000000 -0.59919391435006 1.0754386493759 1.9752915019988 -0.32563595968684 -0.66406006797261 0.63182895620635 0.23190001721051
3987.630000000 -0.59993919473517 1.0769395734038 1.9745794205459 -0.3244709507562 -0.66433673335849 0.63245872247697 0.23102223094053
3987.640000000 -0.60066525976714 1.0784513518069 1.9738710089429 -0.32330962624359 -0.6646203107438 0.63306878028561 0.23016222008126
3987.650000000 -0.60136974203845 1.0799750936865 1.9731560363823 -0.32217686562589 -0.66491668424277 0.63363944245276 0.22932275778742
3987.660000000 -0.60205016555011 1.0815119908235 1.9724242565862 -0.32109758022255 -0.66523184236987 0.63415111463884 0.22850668190389
3987.670000000 -0.60270383643357 1.083063373216 1.9716655084109 -0.32009633095178 -0.66557164924958 0.63458464675826 0.22771702774518
3987.680000000 -0.6033282270884 1.0846309164063 1.9708731870251 -0.31918032880833 -0.66593388193321 0.63493546318467 0.22696462320293
3987.690000000 -0.60392135844385 1.0862166287381 1.9700454962078 -0.31833314568616 -0.66630523735465 0.63521873153419 0.22627086011992
3987.700000000 -0.60448139081309 1.087822512524 1.9691809840538 -0.31753666994997 -0.66667154347593 0.63545106095856 0.22565785047977
3987.710000000 -0.60500667042255 1.0894505242095 1.9682781843767 -0.31677275491926 -0.66701859593152 0.63564905636235 0.22514771055479
3987.720000000 -0.60549596678005 1.0911024963724 1.9673357930191 -0.3160231094382 -0.66733222409901 0.63582930431338 0.22476252524931
3987.730000000 -0.60595702243915 1.0927778323503 1.9663597771921 -0.31526534599317 -0.66759959086567 0.63601004132398 0.22452121331149
3987.740000000 -0.60640960161644 1.0944725915447 1.9653660420305 -0.31447152521266 -0.6678095793569 0.63621182774523 0.2244382672065
3987.750000000 -0.60687434916685 1.0961824546817 1.964371230543 -0.31361326083885 -0.66795104171338 0.63645534926873 0.22452776417907
3987.760000000 -0.6073720240067 1.0979029682274 1.963392017887 -0.31266209183225 -0.6680126363104 0.63676120622264 0.22480369283131
3987.770000000 -0.60792320200824 1.0996295232535 1.9624448339767 -0.31159049297654 -0.66798327830828 0.6371491342141 0.22527912765585
3987.780000000 -0.60853068650719 1.1013557904713 1.9615328031509 -0.31041614393152 -0.66787279691998 0.63760768996355 0.22592958730612
3987.790000000 -0.60917266179907 1.1030732383944 1.960640623359 -0.30921888983716 -0.66772013894975 0.63808305321209 0.22667931403713
3987.800000000 -0.60982545738833 1.1047732684497 1.9597514036617 -0.30808332328533 -0.66756679705996 0.63851871840756 0.22744907917979
3987.810000000 -0.61046509185414 1.1064473713626 1.9588479252562 -0.30709429622468 -0.66745469962344 0.63885867822805 0.2281598265023
3987.820000000 -0.61106733308852 1.1080871739722 1.9579128506437 -0.30633501645952 -0.66742555797539 0.63904842170947 0.22873368130346
3987.830000000 -0.61162464388578 1.1096853652597 1.9569388027553 -0.30580808548409 -0.66749669037298 0.63907996776462 0.22914270225266
3987.840000000 -0.61215331925487 1.1112359207816 1.9559325051161 -0.30540500053377 -0.66765147547543 0.63900883458423 0.22942755341884
3987.850000000 -0.6126717082272 1.1127328144004 1.954901839897 -0.30500902468339 -0.66787059999372 0.63889491559371 0.22963371563041
3987.860000000 -0.61319891008731 1.1141698387259 1.9538548576166 -0.30450336264097 -0.66813457506758 0.63879795453861 0.22980658175277
3987.870000000 -0.61375486850975 1.1155405905154 1.9527997030543 -0.30377277308169 -0.66842420078547 0.63877651613772 0.22999076627014
3987.880000000 -0.61434565103541 1.1168414470636 1.9517373100909 -0.30277319166721 -0.66874267416146 0.63884404899739 0.23019537619954
3987.890000000 -0.614956747318 1.1180730073204 1.9506582551691 -0.30155898363006 -0.6691244482188 0.638951842623 0.23038054387591
3987.900000000 -0.61557182147298 1.1192363659189 1.9495521897102 -0.30019178720464 -0.66960639814065 0.63904655053423 0.23050307745081
3987.910000000 -0.61617393752288 1.1203329118075 1.9484085202735 -0.29873330381327 -0.67022557712862 0.63907483311527 0.23051994845158
3987.920000000 -0.6167454522482 1.1213643502299 1.9472164542033 -0.29724508153027 -0.67101822651538 0.63898434524147 0.23038860155514
3987.930000000 -0.61727447585325 1.122330247825 1.9459670652548 -0.29578006250781 -0.67197880647438 0.63876185987617 0.23009112247037
3987.940000000 -0.61775794297243 1.1232268734933 1.9446541737326 -0.29437935072848 -0.67304393952273 0.63844834716854 0.22964398823867
3987.950000000 -0.61819331926513 1.1240502955699 1.9432716760869 -0.29308339078711 -0.67414631654257 0.63808896442464 0.22906624241976
3987.960000000 -0.61857793945586 1.1247964458273 1.9418132702367 -0.29193285929105 -0.6752190406452 0.63772903804784 0.22837715920576
3987.970000000 -0.61890902953713 1.1254609578518 1.9402725735015 -0.29096803309817 -0.67619633565332 0.63741350056636 0.22759646012131
3987.980000000 -0.6191845130894 1.1260450077057 1.9386503075585 -0.29020413626283 -0.67704646837991 0.63716100764323 0.22674983856509
3987.990000000 -0.61940348701223 1.1265580867316 1.9369574353081 -0.28962133369892 -0.6777847432899 0.63695338610431 0.22587100026378
3988.000000000 -0.61956534313717 1.1270103786206 1.9352058892305 -0.28919708158686 -0.67842983754445 0.63676966069837 0.22499422824849
3988.010000000 -0.61966977167179 1.1274123598886 1.9334078268196 -0.28890883755615 -0.67900041311668 0.6365887177394 0.2241538021454
3988.020000000 -0.61971695514042 1.1277748796318 1.931575537648 -0.28873405952849 -0.67951471509772 0.6363898301795 0.22338392708063
3988.030000000 -0.61971368409969 1.1281056601578 1.9297181409139 -0.28864606179512 -0.67997026160676 0.63617744506482 0.22271540748544
3988.040000000 -0.61967568213588 1.1284074958855 1.9278401230256 -0.28861229249623 -0.68033553920345 0.63599142511372 0.22217426920921
3988.050000000 -0.61961948417935 1.1286826808207 1.9259455650363 -0.28859980923863 -0.68057688231103 0.63587432073682 0.22178617089149
3988.060000000 -0.61956194350736 1.1289333187171 1.9240385027579 -0.28857565761818 -0.68066061868553 0.63586864975662 0.22157678636888
3988.070000000 -0.61952020443845 1.1291612015182 1.9221227908374 -0.28850758524051 -0.68055341363503 0.63601622371031 0.22157117959174
3988.080000000 -0.6194992841797 1.1293679082685 1.9201956850984 -0.28839950269811 -0.68024094291088 0.63633154258339 0.22176599005402
3988.090000000 -0.61948641110754 1.1295551266553 1.9182452158215 -0.28830617097993 -0.67973565573347 0.6367908909527 0.2221178770364
3988.100000000 -0.61946722915796 1.1297245987748 1.9162587082346 -0.28828609085883 -0.67905192830147 0.6373677088837 0.22258034989578
3988.110000000 -0.61942679500888 1.1298781379959 1.9142234729296 -0.28839773537947 -0.67820410232642 0.6380354955656 0.22310680898161
3988.120000000 -0.61934956981311 1.1300175226053 1.9121271189813 -0.28869869638941 -0.67720691542254 0.63876764648199 0.22365095621256
3988.130000000 -0.61923504328426 1.1301418661023 1.9099707623247 -0.28920349855647 -0.676093591815 0.63953281955177 0.22417975877753
3988.140000000 -0.61910500006722 1.130246770609 1.9077746221466 -0.28986592264805 -0.67492355821033 0.64029318676154 0.22467882064592
3988.150000000 -0.61898298445318 1.130328105582 1.90556047206 -0.29063530814565 -0.67375850530157 0.64101071018831 0.22513521185446
3988.160000000 -0.61889268733502 1.1303825693333 1.9033501678564 -0.29146112626521 -0.67266046155243 0.64164774553674 0.22553599710004
3988.170000000 -0.6188576572343 1.1304079206891 1.9011653957184 -0.29229323364404 -0.67169104157453 0.64216759139583 0.22586853431878
3988.180000000 -0.61888852469184 1.1304032003995 1.8990190837741 -0.29309471336139 -0.67087719841905 0.64255941787474 0.22613418171848
3988.190000000 -0.61897760407695 1.130368047734 1.8969117415042 -0.29384727410012 -0.67019644538391 0.64284859011335 0.22635413468274
3988.200000000 -0.61911599702532 1.1303018705589 1.8948429053995 -0.2945339978923 -0.66962244090745 0.64306306453671 0.22655111067347
3988.210000000 -0.61929515060332 1.1302036984307 1.8928121183864 -0.29513793042134 -0.66912876017478 0.6432307175446 0.2267477636949
3988.220000000 -0.61950702633818 1.1300720958729 1.890818944244 -0.29564256520819 -0.66868917860661 0.64337900840317 0.22696631379501
3988.230000000 -0.61974543728906 1.1299034395883 1.8888625550597 -0.29605419948926 -0.66829095216123 0.6435162084262 0.22721356411309
3988.240000000 -0.62000626085284 1.1296913787807 1.886941502636 -0.29641159065253 -0.66794054804807 0.64362330396068 0.22747447285095
3988.250000000 -0.62028540378631 1.129429311088 1.8850542814144 -0.29675597390027 -0.6676458534581 0.64367920250193 0.22773227830325
3988.260000000 -0.62057851144529 1.1291105969203 1.8831993440224 -0.29712858598586 -0.6674147222585 0.64366278393637 0.22797020085513
3988.270000000 -0.62088081564523 1.1287286574356 1.8813750152049 -0.29757032925458 -0.6672546679821 0.6435532540628 0.22817168182884
3988.280000000 -0.62118699433505 1.1282793302302 1.8795778644693 -0.29810642195499 -0.66715804600529 0.64334901435649 0.22833034963869
3988.290000000 -0.62149147346923 1.1277618031505 1.8778020783393 -0.29873968962359 -0.66709557249402 0.64307595420378 0.22845439835419
3988.300000000 -0.62178882208775 1.1271753862207 1.8760417050672 -0.29947121391176 -0.6670362725276 0.64276204002883 0.22855319527121
3988.310000000 -0.62207388444992 1.1265191373305 1.8742909088413 -0.30030207372584 -0.66694914598726 0.64243522875049 0.22863612584877
3988.320000000 -0.62234191222827 1.125791817534 1.8725440529373 -0.30123298178941 -0.66680339018009 0.64212337137205 0.22871271382322
3988.330000000 -0.62259154432885 1.1249951068602 1.8707959243391 -0.30224608055582 -0.66657895163177 0.64184861437651 0.22880158271544
3988.340000000 -0.62282592022258 1.1241353105929 1.8690416802443 -0.30329688043038 -0.66627131878676 0.6416248890232 0.22893456241755
3988.350000000 -0.62304858350249 1.1232191593586 1.8672765007122 -0.30433887065207 -0.66587734795529 0.64146547359201 0.22914461695538
3988.360000000 -0.62326329543879 1.1222534895669 1.8654955502381 -0.30532557555 -0.66539401550959 0.64138365382654 0.22946482441369
3988.370000000 -0.62347414986972 1.1212451880994 1.863694007609 -0.30621117984094 -0.66481829234887 0.64139271097889 0.22992768820198
3988.380000000 -0.62368053414943 1.1201976074773 1.861868023034 -0.30698185141662 -0.6641459454769 0.64150283339834 0.23053507487869
3988.390000000 -0.62387443765224 1.1191088373591 1.8600151321607 -0.30766973622996 -0.66337097551358 0.64171968543612 0.2312447352441
3988.400000000 -0.62404708847424 1.1179764354945 1.8581329565767 -0.30831040501601 -0.6624871277833 0.64204860253521 0.23201097315189
3988.410000000 -0.62418929552298 1.1167977725109 1.8562191290242 -0.30893931932298 -0.66148812178864 0.64249486362457 0.23278812668356
3988.420000000 -0.62429132493298 1.1155700627054 1.85427145528 -0.30959149109329 -0.66036801741662 0.64306340099127 0.2335308384805
3988.430000000 -0.62434659631744 1.1142977781619 1.8522915607978 -0.31027959226613 -0.65913644700991 0.64374957698567 0.23420546743639
3988.440000000 -0.62435371261754 1.1129963347167 1.8502863009888 -0.3109839199536 -0.65782559902194 0.64453522791144 0.23479527845098
3988.450000000 -0.62431152173722 1.1116822045684 1.8482626990844 -0.31168223134436 -0.65646958030481 0.64540132025607 0.23528496044233
3988.460000000 -0.62421865631693 1.110372230051 1.8462274237961 -0.31235224277996 -0.65510266981811 0.64632905588169 0.23565933028549
3988.470000000 -0.62407353781161 1.1090836252218 1.8441867379081 -0.3129715427351 -0.65375912805373 0.64730010662614 0.23590334437271
3988.480000000 -0.62387873774896 1.1078269757602 1.8421453884484 -0.3135113246251 -0.65246341420192 0.6483086697452 0.23600426096365
3988.490000000 -0.62364326449793 1.1066027282781 1.840106293326 -0.31393336535955 -0.65122555145543 0.64936693301597 0.23595276974647
3988.500000000 -0.62337676391265 1.1054106237316 1.8380722134593 -0.31419854598372 -0.65005433575775 0.65048848015356 0.23574005058915
3988.510000000 -0.62308907473056 1.104250498362 1.836045839441 -0.31426754847204 -0.64895842282922 0.651686854637 0.23535742374042
