# Format: timestamp angular_velocity[rad/sec](x y z) linear_acceleration[m/s^2](x y z)
3983.717041016 0.214369 0.0676815 -0.0567565 -1.03225 -9.7597 -1.55676
3983.721433163 0.218233 0.0702129 -0.0752757 -1.02746 -9.81719 -1.56155
3983.726184845 0.220897 0.0714119 -0.0888652 -1.02986 -9.80521 -1.47773
3983.730937004 0.22143 0.0730107 -0.113646 -1.06818 -9.77647 -1.52802
3983.735688925 0.227159 0.0779403 -0.127236 -1.08973 -9.84832 -1.57113
3983.740440845 0.229424 0.0786064 -0.141891 -1.05381 -9.77886 -1.60945
3983.745192528 0.229957 0.0834028 -0.15668 -1.09931 -9.67109 -1.65256
3983.749944687 0.236485 0.080072 -0.168804 -1.14242 -9.48907 -1.69088
3983.754696369 0.246211 0.0796723 -0.180795 -1.06099 -9.28789 -1.72441
3983.759448528 0.253939 0.0792726 -0.193452 -1.02746 -9.17292 -1.74118
3983.764200449 0.264864 0.0763415 -0.201712 -0.972378 -9.12502 -1.76752
3983.768952370 0.274323 0.0696799 -0.209839 -0.960403 -9.10586 -1.70765
3983.773704052 0.276721 0.0707458 -0.215435 -1.01549 -9.09628 -1.6837
3983.778420210 0.281118 0.0715452 -0.219032 -1.03944 -9.12981 -1.70286
3983.783207893 0.275123 0.0716784 -0.221963 -1.07536 -9.18011 -1.76034
3983.788320065 0.272858 0.0710123 -0.222363 -1.06578 -9.20646 -1.65017
3983.792711735 0.266063 0.0730107 -0.222363 -1.04662 -9.30226 -1.70046
3983.797427654 0.25194 0.0780735 -0.22556 -1.0083 -9.19448 -1.59269
3983.802215576 0.238084 0.0747427 -0.227825 -1.01549 -9.23041 -1.55197
3983.806967497 0.219165 0.0750092 -0.242881 -0.917292 -9.26873 -1.56874
3983.811719418 0.194784 0.0711455 -0.245812 -0.898132 -9.24238 -1.65017
3983.816432714 0.17027 0.0735436 -0.257669 -0.850232 -9.29507 -1.64298
3983.821223259 0.145755 0.070879 -0.268994 -0.811912 -9.32621 -1.66454
3983.825975418 0.128968 0.0663492 -0.287513 -0.790356 -9.36453 -1.61424
3983.830727100 0.11751 0.0618193 -0.296306 -0.866997 -9.26633 -1.66454
3983.835440397 0.111381 0.0591547 -0.302302 -0.902922 -9.16574 -1.65496
3983.840230942 0.107251 0.0543583 -0.309896 -0.948428 -9.01006 -1.76992
3983.844983101 0.107118 0.051294 -0.315891 -0.890947 -8.93582 -1.71004
3983.849734783 0.110848 0.0498285 -0.320021 -0.907712 -8.96935 -1.71004
3983.854486942 0.118443 0.0486294 -0.318156 -0.869392 -9.06275 -1.70765
3983.859598637 0.12577 0.0463645 -0.324818 -0.838257 -9.12502 -1.77231
3983.863990545 0.126969 0.0435666 -0.327083 -0.799937 -9.15616 -1.74357
3983.868742466 0.131899 0.0381041 -0.336542 -0.665815 -9.1825 -1.71244
3983.873494387 0.135496 0.0335743 -0.344936 -0.60115 -9.29986 -1.76513
3983.878606081 0.137761 0.0311761 -0.350665 -0.593965 -9.31184 -1.77231
3983.882998466 0.148819 0.0346401 -0.359058 -0.548459 -9.34537 -1.79626
3983.887749910 0.155747 0.0338407 -0.373181 -0.58678 -9.33818 -1.84417
3983.892502069 0.163874 0.0323752 -0.384106 -0.579595 -9.44117 -1.82979
3983.897253990 0.175066 0.0338407 -0.391167 -0.526904 -9.52978 -1.825
3983.902005911 0.185458 0.0362389 -0.404224 -0.507744 -9.48907 -1.81782
3983.906757832 0.199047 0.0377044 -0.421277 -0.397573 -9.38608 -1.78189
3983.911509991 0.209839 0.0378377 -0.435266 -0.407153 -9.34537 -1.81063
3983.916261435 0.223962 0.0474303 -0.449389 -0.385598 -9.34297 -1.74836
3983.921013594 0.239017 0.049562 -0.453119 -0.462239 -9.38369 -1.65975
3983.925765514 0.257936 0.0543583 -0.456717 -0.59157 -9.35255 -1.59029
3983.930517435 0.27419 0.0626187 -0.445925 -0.680186 -9.43398 -1.4418
3983.935269356 0.297505 0.0730107 -0.431669 -0.859812 -9.52499 -1.3939
3983.940021515 0.325351 0.0842021 -0.405556 -0.931663 -9.65911 -1.1999
3983.944737196 0.349732 0.0945942 -0.377311 -1.06339 -9.69025 -1.09452
3983.949885130 0.377311 0.106985 -0.341072 -1.06578 -9.56571 -1.14961
3983.954276800 0.393432 0.11791 -0.308164 -1.00591 -9.64953 -1.1544
3983.959028959 0.409953 0.124172 -0.275522 -0.895737 -9.69504 -1.17116
3983.963780880 0.421943 0.128835 -0.245812 -0.692161 -9.8076 -1.07536
3983.968532801 0.424741 0.13483 -0.225694 -0.526904 -9.7621 -1.03225
3983.973284483 0.43047 0.1311 -0.211571 -0.359253 -9.70462 -0.996328
3983.978036642 0.433002 0.133231 -0.19998 -0.241897 -9.60163 -0.998723
3983.982749701 0.433534 0.132832 -0.195184 -0.174836 -9.59924 -0.946033
3983.987540483 0.43007 0.129634 -0.188655 -0.165256 -9.56331 -0.926873
3983.992328405 0.41728 0.130167 -0.185191 -0.153281 -9.57289 -0.960403
3983.997044325 0.405423 0.131499 -0.179462 -0.105381 -9.6639 -0.855022
3984.001757383 0.388236 0.134031 -0.175199 -0.0910107 -9.9058 -0.752036
3984.006548166 0.366919 0.135763 -0.171069 -0.0167651 -9.99921 -0.708926
3984.011299849 0.341338 0.139093 -0.168271 0.00239502 -10.1022 -0.716111
3984.016052008 0.314559 0.144423 -0.170669 0.0119751 -10.1405 -0.65384
3984.021163464 0.281118 0.149619 -0.170403 0.0455054 -10.1597 -0.613125
3984.025555849 0.252207 0.149619 -0.164541 0.182021 -10.1405 -0.529299
3984.030307531 0.222496 0.155747 -0.16081 0.275427 -10.095 -0.517324
3984.035059452 0.187989 0.156014 -0.162009 0.304167 -10.1166 -0.488584
3984.039811373 0.151484 0.160144 -0.162542 0.366438 -10.0064 -0.514929
3984.044563532 0.12204 0.159078 -0.163608 0.318538 -9.97047 -0.435894
3984.049315214 0.0985911 0.16081 -0.157213 0.359253 -9.98005 -0.438289
3984.054067373 0.0780735 0.164008 -0.157346 0.368833 -10.0136 -0.392783
3984.058819056 0.0667489 0.162142 -0.155214 0.368833 -9.91538 -0.376018
3984.063570976 0.0655498 0.16121 -0.152017 0.292192 -9.83395 -0.308958
3984.068322897 0.0735436 0.162675 -0.146954 0.263452 -9.73096 -0.277822
3984.073075056 0.0840689 0.163208 -0.141891 0.273032 -9.75012 -0.299377
3984.077826738 0.102188 0.162409 -0.136162 0.268242 -9.65193 -0.392783
3984.082578897 0.121107 0.160011 -0.132832 0.301772 -9.56092 -0.347278
3984.087330580 0.139893 0.158812 -0.133364 0.335303 -9.40285 -0.376018
3984.092370510 0.160677 0.158945 -0.133631 0.364043 -9.36213 -0.447869
3984.096834421 0.17853 0.159345 -0.134963 0.285007 -9.25915 -0.356858
3984.101586342 0.196383 0.157746 -0.128835 0.241897 -9.17292 -0.481399
3984.106338263 0.212104 0.159744 -0.118709 0.261057 -8.99809 -0.514929
3984.111054182 0.228891 0.158545 -0.109516 0.292192 -8.96935 -0.490979
3984.115841866 0.240349 0.154815 -0.0997902 0.318538 -9.00048 -0.524509
3984.120594025 0.247277 0.156946 -0.0839357 0.227527 -8.91426 -0.550854
3984.125345945 0.261133 0.154149 -0.0687473 0.198787 -8.83523 -0.493374
3984.130059004 0.27379 0.150551 -0.0476968 0.143701 -8.8017 -0.445474
3984.134849787 0.287113 0.145089 -0.03051 0.138911 -8.82086 -0.490979
3984.139601946 0.29524 0.140959 -0.00599541 0.172441 -8.88313 -0.431104
3984.144353390 0.301902 0.140959 0.0114579 0.337698 -8.95737 -0.464634
3984.149066925 0.302035 0.132965 0.0246478 0.342488 -8.94061 -0.452659
3984.153857470 0.300836 0.1299 0.0397029 0.421523 -8.92624 -0.404758
3984.158609390 0.29977 0.119908 0.0482297 0.548459 -8.95498 -0.423918
3984.163721085 0.287513 0.114179 0.0554242 0.56762 -8.98372 -0.402363
3984.168113470 0.274723 0.109916 0.0655498 0.58678 -8.92145 -0.423918
3984.172864914 0.268194 0.0985911 0.0734104 0.63468 -8.95977 -0.435894
3984.177617073 0.258469 0.0892649 0.0775406 0.627495 -8.93103 -0.380808
3984.182692766 0.249675 0.0794058 0.0867335 0.62031 -8.92863 -0.332908
3984.187084913 0.241282 0.0738101 0.0885988 0.608335 -8.9454 -0.294587
3984.191836834 0.229824 0.0630184 0.0960597 0.66821 -9.02922 -0.318538
3984.196588516 0.220098 0.0520934 0.0988576 0.603545 -9.01246 -0.299377
3984.201340675 0.210772 0.0415681 0.106452 0.62031 -9.00288 -0.222737
3984.206092596 0.205176 0.0294441 0.110582 0.603545 -9.10826 -0.215552
3984.210844517 0.193452 0.0167871 0.11711 0.617915 -9.06275 -0.222737
3984.215596437 0.187057 0.00746095 0.11711 0.689766 -9.0388 -0.198787
3984.220348358 0.183326 -0.00492956 0.115245 0.687371 -8.98372 -0.227527
3984.225100040 0.178397 -0.0233155 0.113646 0.790356 -8.9454 -0.191602
3984.229852200 0.17893 -0.0379709 0.109649 0.804727 -8.90708 -0.287402
3984.234604120 0.178397 -0.0527596 0.106851 0.821492 -8.85439 -0.277822
3984.239319801 0.1744 -0.0619525 0.096193 0.799937 -8.8017 -0.277822
3984.244107723 0.176398 -0.076075 0.0927289 0.821492 -8.89989 -0.273032
3984.248859882 0.176531 -0.0895314 0.0792726 0.838257 -8.95737 -0.325723
3984.253971577 0.171469 -0.100723 0.0727443 0.855022 -9.09389 -0.387993
3984.258327723 0.172401 -0.109783 0.0607534 0.871787 -9.15376 -0.352068
3984.263115406 0.172801 -0.121907 0.0454319 0.886157 -9.19688 -0.328118
3984.267867565 0.171469 -0.133897 0.0306432 0.938848 -9.17053 -0.299377
3984.272619247 0.174933 -0.14762 0.0171868 0.931663 -9.11065 -0.246687
3984.277332306 0.178263 -0.159744 0.00279786 0.950823 -9.18729 -0.189207
3984.282123089 0.180395 -0.173734 -0.0110582 0.950823 -9.14418 -0.217947
3984.286875248 0.182793 -0.188256 -0.032242 0.969983 -9.08431 -0.222737
3984.291626930 0.183459 -0.203844 -0.0450322 0.948428 -9.06994 -0.220342
3984.296340466 0.180528 -0.214769 -0.0542251 0.962798 -8.93342 -0.208367
3984.301130772 0.173867 -0.22676 -0.0638178 0.953218 -8.93821 -0.304167
3984.305882692 0.166006 -0.236885 -0.0771409 0.895737 -8.91187 -0.196392
3984.310634613 0.160677 -0.245012 -0.0786064 0.852627 -8.86636 -0.186812
3984.315386772 0.159744 -0.251807 -0.0763415 0.850232 -8.943 -0.193997
3984.320138454 0.150951 -0.254738 -0.0804717 0.819097 -9.03641 -0.241897
3984.325250387 0.156946 -0.259801 -0.0776738 0.804727 -9.09868 -0.263452
3984.329642296 0.154282 -0.257802 -0.0762083 0.792751 -9.07473 -0.208367
3984.334394217 0.150551 -0.254472 -0.0703461 0.718506 -9.12023 -0.155676
3984.339146137 0.153349 -0.254338 -0.0651501 0.701741 -9.1825 -0.136516
3984.343898058 0.150285 -0.251141 -0.0618193 0.718506 -9.22322 -0.249082
3984.348649979 0.149485 -0.243014 -0.053559 0.799937 -9.21364 -0.174836
3984.353402138 0.14309 -0.242881 -0.0502282 0.804727 -9.1825 -0.265847
3984.358153582 0.140692 -0.238484 -0.049562 0.934058 -9.15137 -0.301772
3984.362905741 0.126836 -0.241015 -0.053026 0.917292 -9.11065 -0.306563
3984.367657661 0.115511 -0.240882 -0.0539587 0.981958 -9.0891 -0.376018
3984.372409582 0.0993905 -0.242214 -0.0571562 0.965193 -9.09149 -0.364043
3984.377161503 0.083536 -0.241015 -0.0556907 0.996328 -9.16334 -0.356858
3984.381913662 0.0727443 -0.240482 -0.0619525 0.962798 -9.26154 -0.342488
3984.386629105 0.0646172 -0.238484 -0.062219 0.996328 -9.39327 -0.268242
3984.391417265 0.0542251 -0.243147 -0.0650168 1.01309 -9.43159 -0.263452
3984.396529198 0.0491623 -0.246211 -0.0710123 1.01309 -9.52739 -0.285007
3984.400921106 0.0434334 -0.247544 -0.0712787 1.00591 -9.58247 -0.292192
3984.405636787 0.0422343 -0.247544 -0.0750092 1.06578 -9.59684 -0.347278
3984.410425186 0.0366386 -0.245412 -0.0779403 1.11129 -9.53697 -0.349673
3984.415176630 0.0346401 -0.248476 -0.0770077 1.10171 -9.48667 -0.366438
3984.419928789 0.035173 -0.246611 -0.0863338 1.10889 -9.43159 -0.414338
3984.424641848 0.0318423 -0.246877 -0.0944609 1.06099 -9.35255 -0.443079
3984.429432631 0.032242 -0.245012 -0.0920628 1.08015 -9.26873 -0.541274
3984.434184551 0.026513 -0.245412 -0.0945942 1.06818 -9.1849 -0.60594
3984.438936472 0.0153216 -0.244879 -0.0953936 1.03944 -9.1346 -0.58199
3984.443649530 0.00746095 -0.239283 -0.0975253 1.06578 -9.08431 -0.665815
3984.448440313 -0.00346401 -0.23955 -0.0916631 1.01549 -9.02922 -0.58199
3984.453191996 -0.00506279 -0.238617 -0.0881991 0.958008 -9.10826 -0.59157
3984.457944155 -0.00719449 -0.237818 -0.0806049 0.950823 -9.17532 -0.55804
3984.462696075 -0.0021317 -0.235286 -0.0732772 0.902922 -9.29507 -0.56762
3984.467807770 0.00866003 -0.232622 -0.0642175 0.831072 -9.39566 -0.495769
3984.472199678 0.0241149 -0.231689 -0.0519602 0.819097 -9.331 -0.493374
3984.476951838 0.0397029 -0.232489 -0.0406355 0.852627 -9.32621 -0.617915
3984.481703520 0.0640842 -0.232888 -0.0349066 0.902922 -9.37171 -0.548459
3984.486815691 0.0820704 -0.233421 -0.0249142 0.926873 -9.29507 -0.56762
3984.491207600 0.105386 -0.23502 -0.0237152 0.962798 -9.22083 -0.608335
3984.495959520 0.125637 -0.237951 -0.0229158 0.974773 -9.16813 -0.565225
3984.500711203 0.144023 -0.245279 -0.0258469 1.11847 -9.1849 -0.622705
3984.505463123 0.154415 -0.246611 -0.0311761 1.16877 -9.20646 -0.589175
3984.510215044 0.160943 -0.250608 -0.0373047 1.22146 -9.23759 -0.61073
3984.514967203 0.164274 -0.251407 -0.0359724 1.22146 -9.32381 -0.65384
3984.519718885 0.167338 -0.256204 -0.0390368 1.11368 -9.33579 -0.524509
3984.524471045 0.172135 -0.257802 -0.0410352 1.08255 -9.44117 -0.517324
3984.529222727 0.175865 -0.257669 -0.0333078 1.05141 -9.54415 -0.399968
3984.533974648 0.179862 -0.255271 -0.0215835 0.993933 -9.64714 -0.380808
3984.538726568 0.182394 -0.254605 -0.0133231 0.984353 -9.65672 -0.385598
3984.543478727 0.180528 -0.252873 -0.00346401 0.924478 -9.72857 -0.328118
3984.548230410 0.181861 -0.248343 0.00652833 0.962798 -9.8076 -0.318538
3984.552946329 0.180928 -0.244879 0.0115911 0.991538 -9.81 -0.344883
3984.558094263 0.174533 -0.243413 0.0157213 1.12087 -9.84593 -0.328118
3984.562486172 0.168138 -0.241282 0.017853 1.20469 -9.90101 -0.392783
3984.567238092 0.156014 -0.235553 0.0141225 1.23823 -9.8076 -0.443079
3984.571954250 0.152417 -0.233288 0.016121 1.20709 -9.75252 -0.457449
3984.576741934 0.142158 -0.229691 0.017853 1.16158 -9.64953 -0.376018
3984.581494093 0.13856 -0.224761 0.0198515 1.08973 -9.57529 -0.452659
3984.586245537 0.132032 -0.22183 0.0235819 1.02507 -9.55852 -0.445474
3984.590958834 0.127636 -0.216767 0.035173 0.977168 -9.58247 -0.383203
3984.595749617 0.128568 -0.213303 0.0442328 0.931663 -9.63756 -0.354463
3984.600501537 0.124838 -0.20491 0.0534257 0.886157 -9.63756 -0.397573
3984.605253458 0.124971 -0.200646 0.0642175 0.754431 -9.62558 -0.376018
3984.609966993 0.12577 -0.195583 0.0786064 0.778381 -9.58247 -0.419128
3984.614757061 0.126037 -0.197315 0.0854012 0.780776 -9.52499 -0.356858
3984.619509220 0.128035 -0.19585 0.0860674 0.787961 -9.54415 -0.411943
3984.624261141 0.12657 -0.194651 0.0897979 0.835862 -9.55134 -0.390388
3984.629373074 0.11791 -0.195983 0.0913966 0.859812 -9.56571 -0.493374
3984.633764982 0.111515 -0.199847 0.0888652 0.859812 -9.51541 -0.409548
3984.638517141 0.0971256 -0.203311 0.0806049 0.907712 -9.56571 -0.450264
3984.643268585 0.0827366 -0.207041 0.0723446 0.996328 -9.56571 -0.440684
3984.648020744 0.0690138 -0.210372 0.0658162 0.955613 -9.57768 -0.414338
3984.652772427 0.0576891 -0.216101 0.0538254 0.934058 -9.52978 -0.347278
3984.657524586 0.0467642 -0.220098 0.0452986 0.931663 -9.55613 -0.316143
3984.662276506 0.0401026 -0.224761 0.0338407 0.857417 -9.63277 -0.258662
3984.667028427 0.0399694 -0.232489 0.0283783 0.878972 -9.68546 -0.275427
3984.671780109 0.0421011 -0.234087 0.0209173 0.816702 -9.6639 -0.301772
3984.676532269 0.0398361 -0.240749 0.0127902 0.771196 -9.65672 -0.119751
3984.681283951 0.0482297 -0.244746 0.00959265 0.768801 -9.62079 -0.126936
3984.686036110 0.0455651 -0.248876 0.00386371 0.723296 -9.54176 -0.129331
3984.690788031 0.046098 -0.251274 -0.00319755 0.673 -9.51302 -0.160466
3984.695539951 0.0439663 -0.255937 -0.00173201 0.677791 -9.55852 -0.177231
3984.700579643 0.0377044 -0.260467 0.000133231 0.61552 -9.54655 -0.148491
3984.705043793 0.029977 -0.259668 -0.00572894 0.60115 -9.48907 -0.0958008
3984.709795475 0.0205176 -0.2614 -0.00812711 0.543669 -9.45314 -0.182021
3984.714619637 0.00746095 -0.263931 -0.0114579 0.574805 -9.48667 -0.208367
3984.719263315 -0.00546248 -0.266862 -0.0101256 0.514929 -9.3789 -0.205972
3984.724051476 -0.0181194 -0.266196 -0.0113247 0.483794 -9.30465 -0.244292
3984.728803158 -0.0229158 -0.264997 -0.0101256 0.486189 -9.27831 -0.282612
3984.733555079 -0.0257136 -0.267928 -0.00599541 0.373623 -9.35495 -0.220342
3984.738268375 -0.0206508 -0.265663 -0.00186524 0.308958 -9.35255 -0.241897
3984.743059158 -0.0174533 -0.260201 0.00452986 0.273032 -9.3789 -0.234712
3984.747810841 -0.00652833 -0.259934 0.00626187 0.263452 -9.4268 -0.210762
3984.752563000 0.00506279 -0.251541 0.013856 0.261057 -9.35016 -0.256267
3984.757237673 0.0154548 -0.249142 0.0145222 0.332908 -9.41243 -0.265847
3984.762030602 0.032242 -0.241548 0.0119908 0.292192 -9.33339 -0.347278
3984.766782522 0.0389035 -0.23875 0.00839357 0.328118 -9.34058 -0.332908
3984.771894455 0.0464977 -0.235153 0.00919296 0.296982 -9.36213 -0.280217
3984.776286125 0.051294 -0.225427 0.00106585 0.361648 -9.40045 -0.306563
3984.781038284 0.0594211 -0.22676 -0.00479632 0.294587 -9.53697 -0.301772
3984.785790205 0.0678147 -0.224228 -0.0085268 0.253872 -9.56092 -0.196392
3984.790902138 0.0703461 -0.219698 -0.0158545 0.227527 -9.56092 -0.268242
3984.795294046 0.0715452 -0.223962 -0.019585 0.256267 -9.52978 -0.217947
3984.800046206 0.0720781 -0.224628 -0.0311761 0.292192 -9.46991 -0.222737
3984.804797649 0.069147 -0.227292 -0.0371715 0.387993 -9.31663 -0.308958
3984.809549809 0.0680812 -0.233288 -0.0496953 0.344883 -9.23759 -0.270637
3984.814301491 0.063951 -0.237685 -0.0531593 0.277822 -9.29747 -0.261057
3984.819053650 0.0631516 -0.24328 -0.0612864 0.229922 -9.29747 -0.210762
3984.823805571 0.0594211 -0.244879 -0.0611531 0.155676 -9.45314 -0.253872
3984.828557491 0.058755 -0.241282 -0.062219 0.138911 -9.47709 -0.122146
3984.833309174 0.0659495 -0.243413 -0.0595544 0.0910107 -9.56092 -0.0526904
3984.838061333 0.076075 -0.240482 -0.0516937 0.0622705 -9.63516 0.0311353
3984.842813015 0.0905972 -0.237418 -0.0403691 -0.0598755 -9.65432 0.100591
3984.847528934 0.100989 -0.23502 -0.0262466 -0.0742456 -9.69743 0.105381
3984.852317095 0.111914 -0.233155 -0.0162542 -0.0622705 -9.73815 0.150886
3984.857069016 0.118975 -0.225294 -0.00306432 -0.0359253 -9.82916 0.246687
3984.862180948 0.12244 -0.221164 0.00839357 0.00958008 -9.84114 0.246687
3984.866536856 0.120841 -0.220098 0.0137228 0.112566 -9.81958 0.323328
3984.871324539 0.113646 -0.213703 0.0251807 0.158071 -9.63516 0.323328
3984.876076698 0.105253 -0.212237 0.0251807 0.146096 -9.63756 0.371228
3984.880828619 0.0915299 -0.210239 0.0261133 0.177231 -9.53697 0.344883
3984.885541439 0.0707458 -0.206908 0.0287779 0.162861 -9.47709 0.306563
3984.890332222 0.0483629 -0.206109 0.0302435 0.256267 -9.3789 0.249082
3984.895084143 0.0206508 -0.20038 0.0294441 0.189207 -9.28789 0.258662
3984.899836063 -0.00719449 -0.192119 0.0278453 0.119751 -9.33339 0.265847
3984.904549599 -0.0255804 -0.187856 0.029977 -0.0359253 -9.33339 0.325723
3984.909339905 -0.0463645 -0.181328 0.0361057 -0.0526904 -9.3765 0.325723
3984.914092064 -0.0694135 -0.177597 0.0343737 -0.0431104 -9.46991 0.395178
3984.918843746 -0.0879326 -0.170403 0.0323752 -0.0383203 -9.4723 0.392783
3984.923595667 -0.109916 -0.166539 0.0301103 0.0119751 -9.40285 0.337698
3984.928347588 -0.1299 -0.162942 0.0218499 -0.0431104 -9.30226 0.481399
3984.933459759 -0.152816 -0.158812 0.0114579 -0.0550854 -9.18729 0.397573
3984.937851429 -0.179995 -0.158145 0.00239816 -0.0143701 -9.24238 0.476609
3984.942603588 -0.205443 -0.157346 -0.0137228 -0.0526904 -9.28789 0.423918
3984.947355270 -0.235686 -0.156413 -0.0181194 -0.0838257 -9.29986 0.510139
3984.952107191 -0.263265 -0.159877 -0.0311761 -0.110171 -9.35734 0.488584
3984.956859112 -0.286181 -0.160277 -0.0397029 -0.0742456 -9.32142 0.438289
3984.961611271 -0.30843 -0.162675 -0.0536922 -0.0934058 -9.29507 0.433499
3984.966362953 -0.324418 -0.167871 -0.0668821 -0.0790356 -9.26633 0.450264
3984.971115112 -0.33028 -0.172801 -0.0738101 -0.122146 -9.17292 0.428708
3984.975866556 -0.327216 -0.179862 -0.0860674 -0.153281 -9.08431 0.440684
3984.980618715 -0.315492 -0.187057 -0.0860674 -0.189207 -9.1825 0.469424
3984.985370636 -0.302302 -0.192786 -0.0868668 -0.244292 -9.25675 0.423918
3984.990122557 -0.286847 -0.194118 -0.0826034 -0.308958 -9.27831 0.409548
3984.994874477 -0.268194 -0.194384 -0.0751424 -0.371228 -9.22322 0.428708
3984.999626637 -0.247544 -0.199047 -0.0671485 -0.419128 -9.23999 0.457449
3985.004738331 -0.226493 -0.198381 -0.0594211 -0.373623 -9.2807 0.431104
3985.009130239 -0.203044 -0.198781 -0.0528928 -0.385598 -9.3765 0.471819
3985.013846397 -0.185458 -0.198115 -0.0456983 -0.289797 -9.39566 0.455054
3985.018634081 -0.16494 -0.201446 -0.0386371 -0.263452 -9.3789 0.426313
3985.023386002 -0.154815 -0.203044 -0.0373047 -0.258662 -9.34058 0.450264
3985.028138161 -0.146021 -0.201446 -0.0327749 -0.189207 -9.34297 0.435894
3985.032889605 -0.134963 -0.207441 -0.0309096 -0.148491 -9.40285 0.414338
3985.037641764 -0.1311 -0.207308 -0.033441 -0.0814307 -9.39087 0.414338
3985.042393684 -0.129501 -0.20944 -0.0422343 -0.0598755 -9.40045 0.450264
3985.047145605 -0.121907 -0.210639 -0.0496953 -0.0694556 -9.3789 0.526904
3985.051859140 -0.125104 -0.20944 -0.0556907 -0.0143701 -9.58487 0.522114
3985.056649446 -0.126037 -0.207574 -0.0612864 0.00718506 -9.56331 0.555645
3985.061401129 -0.127636 -0.203977 -0.0715452 -0.0287402 -9.63995 0.574805
3985.066153288 -0.137095 -0.202378 -0.0788729 -0.0287402 -9.5705 0.680186
3985.070904970 -0.141625 -0.194251 -0.0847351 0.00718506 -9.73575 0.641865
3985.076017141 -0.154149 -0.184925 -0.0899311 -0.00479004 -9.73575 0.62031
3985.080409050 -0.163741 -0.174933 -0.0971256 -0.0239502 -9.9058 0.65384
3985.085160971 -0.16907 -0.163874 -0.104187 0.00479004 -9.86988 0.651445
3985.089912653 -0.180129 -0.150818 -0.111248 -0.0239502 -9.80042 0.673
3985.095024824 -0.191587 -0.140692 -0.111248 -0.0598755 -9.82677 0.651445
3985.099416494 -0.194917 -0.123239 -0.115911 -0.0479004 -9.77168 0.584385
3985.104168653 -0.205842 -0.108317 -0.113513 -0.0502954 -9.71659 0.555645
3985.108920574 -0.213037 -0.0941945 -0.114046 -0.0718506 -9.63756 0.560435
3985.113672495 -0.223162 -0.0820704 -0.106851 -0.0479004 -9.67588 0.505349
3985.118424177 -0.225294 -0.0687473 -0.104986 -0.102986 -9.64714 0.531694
3985.123176336 -0.226626 -0.0482297 -0.100856 -0.0790356 -9.60163 0.55325
3985.127928019 -0.234087 -0.0326417 -0.0895314 -0.184417 -9.54894 0.522114
3985.132680178 -0.236752 -0.0173201 -0.0798055 -0.237107 -9.63516 0.560435
3985.137431860 -0.236485 -0.00159877 -0.0634181 -0.251477 -9.6639 0.570015
3985.142184019 -0.239816 0.0194518 -0.051294 -0.308958 -9.76928 0.493374
3985.146935701 -0.246877 0.0370383 -0.0382374 -0.277822 -9.8579 0.481399
3985.151687622 -0.248609 0.0544916 -0.0245145 -0.282612 -9.8579 0.447869
3985.156439543 -0.247544 0.0716784 -0.014389 -0.246687 -9.86269 0.433499
3985.161155462 -0.242081 0.0875329 0.00199847 -0.289797 -9.9058 0.390388
3985.166303396 -0.236086 0.10019 0.0146554 -0.299377 -9.93694 0.423918
3985.170695305 -0.227692 0.116178 0.0251807 -0.273032 -9.94173 0.402363
3985.175447226 -0.216767 0.129368 0.0434334 -0.318538 -9.98484 0.373623
3985.180163145 -0.210106 0.137761 0.0516937 -0.335303 -9.97047 0.330513
3985.184951067 -0.201179 0.14842 0.0584885 -0.320933 -10.0016 0.368833
3985.189703226 -0.193052 0.158412 0.0711455 -0.349673 -9.99681 0.325723
3985.194454908 -0.192386 0.160544 0.0799387 -0.320933 -9.97765 0.318538
3985.199167967 -0.191054 0.164274 0.0880659 -0.354463 -9.97765 0.275427
3985.203958511 -0.188655 0.163741 0.0933951 -0.320933 -9.98484 0.215552
3985.208710670 -0.188123 0.169204 0.0987243 -0.330513 -10.0064 0.210762
3985.213462591 -0.185058 0.16907 0.107651 -0.366438 -10.0112 0.134121
3985.218175888 -0.180262 0.166006 0.115645 -0.426313 -10.0543 0.155676
3985.222966433 -0.176132 0.165207 0.127502 -0.373623 -10.0447 0.0934058
3985.227754593 -0.172534 0.163874 0.131233 -0.340093 -10.0758 0.0622705
3985.232470036 -0.16907 0.158678 0.139626 -0.287402 -10.0926 -0.0143701
3985.237582207 -0.16947 0.154948 0.140026 -0.268242 -10.0926 -0.0718506
3985.241974115 -0.166006 0.148686 0.140426 -0.179626 -9.96568 -0.112566
3985.246726036 -0.16574 0.145489 0.136429 -0.208367 -9.9537 -0.213157
3985.251477957 -0.165873 0.137361 0.137095 -0.112566 -9.89143 -0.201182
3985.256229877 -0.161609 0.125237 0.131366 -0.105381 -9.86748 -0.263452
3985.260981560 -0.160277 0.118309 0.12657 -0.0335303 -9.8579 -0.261057
3985.265733719 -0.153349 0.110315 0.117377 -0.0886157 -9.78605 -0.222737
3985.270485640 -0.143757 0.0997902 0.112447 -0.170046 -9.81479 -0.141306
3985.275237560 -0.133631 0.0913966 0.109516 -0.189207 -9.88664 -0.150886
3985.279989481 -0.121907 0.0794058 0.105519 -0.203577 -9.9082 -0.196392
3985.284741163 -0.109649 0.0710123 0.103254 -0.205972 -9.91538 -0.193997
3985.289493084 -0.0937948 0.0628851 0.10019 -0.246687 -9.81 -0.232317
3985.294245243 -0.0746095 0.051827 0.101256 -0.232317 -9.62079 -0.313748
3985.298996925 -0.0644839 0.0442328 0.104587 -0.220342 -9.45554 -0.395178
3985.303749084 -0.0522266 0.0331746 0.103787 -0.160466 -9.36932 -0.498164
3985.308789015 -0.0399694 0.0278453 0.105119 -0.215552 -9.27591 -0.574805
3985.313252687 -0.032242 0.0219832 0.109383 -0.249082 -9.19208 -0.490979
3985.318004608 -0.0245145 0.00959265 0.112847 -0.256267 -9.20406 -0.505349
3985.322756767 -0.0187856 0.00399694 0.118443 -0.268242 -9.30465 -0.438289
3985.327472687 -0.00866003 0.00239816 0.114712 -0.225132 -9.37411 -0.469424
3985.332260609 -0.00692802 -0.00612864 0.12204 -0.179626 -9.51062 -0.452659
3985.337012529 -0.00466309 -0.012124 0.124838 -0.165256 -9.55134 -0.392783
3985.341764212 -0.00279786 -0.012657 0.118842 -0.174836 -9.53697 -0.371228
3985.346477509 -0.00839357 -0.0203844 0.121107 -0.191602 -9.59205 -0.387993
3985.351268291 -0.010392 -0.0235819 0.116711 -0.198787 -9.5705 -0.407153
3985.356019974 -0.0145222 -0.0253139 0.11258 -0.241897 -9.54415 -0.320933
3985.360772133 -0.0227825 -0.0270459 0.118043 -0.289797 -9.50344 -0.440684
3985.365485430 -0.0331746 -0.0302435 0.114446 -0.344883 -9.47949 -0.538879
3985.370275736 -0.0434334 -0.031709 0.115511 -0.294587 -9.46272 -0.522114
3985.375027657 -0.0579556 -0.035173 0.116311 -0.265847 -9.41722 -0.579595
3985.380139589 -0.0680812 -0.0379709 0.116044 -0.249082 -9.35016 -0.517324
3985.384531498 -0.0770077 -0.0425008 0.113513 -0.227527 -9.36932 -0.486189
3985.389283657 -0.0839357 -0.0526263 0.108983 -0.196392 -9.44835 -0.457449
3985.394035339 -0.0896646 -0.0560904 0.106585 -0.189207 -9.53457 -0.455054
3985.399147272 -0.0972588 -0.0620858 0.104187 -0.174836 -9.55852 -0.447869
3985.403503418 -0.101256 -0.0650168 0.099124 -0.160466 -9.53697 -0.428708
3985.408255100 -0.109783 -0.0718116 0.0993905 -0.220342 -9.46272 -0.411943
3985.413007259 -0.117776 -0.073144 0.0948606 -0.261057 -9.3765 -0.438289
3985.417758942 -0.124838 -0.070879 0.0964594 -0.251477 -9.31663 -0.392783
3985.422510862 -0.134963 -0.0734104 0.100456 -0.251477 -9.24957 -0.356858
3985.427262783 -0.142957 -0.0728775 0.0975253 -0.246687 -9.15376 -0.368833
3985.432014942 -0.160011 -0.0744763 0.0945942 -0.172441 -9.08191 -0.440684
3985.436766624 -0.1736 -0.0698132 0.097392 -0.210762 -9.01725 -0.423918
3985.441518784 -0.189055 -0.0706126 0.100456 -0.191602 -8.94779 -0.476609
3985.446270227 -0.208107 -0.0647504 0.0960597 -0.167651 -8.87594 -0.462239
3985.451022387 -0.224495 -0.0603538 0.0981914 -0.213157 -8.85918 -0.574805
3985.455738544 -0.237285 -0.0574227 0.10432 -0.249082 -8.89989 -0.56283
3985.460526228 -0.241815 -0.0520934 0.110582 -0.287402 -8.8975 -0.589175
3985.465278149 -0.242081 -0.0523599 0.122972 -0.325723 -8.93342 -0.63468
3985.470390081 -0.241015 -0.0487626 0.129501 -0.263452 -8.95258 -0.62989
3985.474745989 -0.234221 -0.0496953 0.141492 -0.280217 -8.95977 -0.651445
3985.479533911 -0.228092 -0.0502282 0.145489 -0.268242 -9.04359 -0.641865
3985.484285831 -0.22143 -0.0486294 0.152017 -0.232317 -9.08191 -0.617915
3985.489037752 -0.207841 -0.0506279 0.159211 -0.117356 -9.12742 -0.66821
3985.493751049 -0.195583 -0.0544916 0.158545 -0.155676 -9.07712 -0.689766
3985.498541832 -0.185458 -0.0563568 0.157346 -0.0694556 -9.08431 -0.656235
3985.503293276 -0.172934 -0.0632848 0.161077 -0.0455054 -9.02683 -0.692161
3985.508045435 -0.166672 -0.0651501 0.159611 -0.0215552 -9.05317 -0.754431
3985.512758970 -0.166806 -0.0699464 0.158545 -0.0383203 -9.07473 -0.840652
3985.517549276 -0.165207 -0.0752757 0.155614 0.0502954 -9.10826 -0.819097
3985.522301197 -0.164407 -0.0779403 0.152283 -0.00718506 -9.17053 -0.814307
3985.527053118 -0.163741 -0.0824701 0.151884 -0.0335303 -9.24238 -0.845442
3985.531804800 -0.156014 -0.088732 0.150418 -0.0694556 -9.29028 -0.929268
3985.536556959 -0.146821 -0.0901975 0.158678 -0.0287402 -9.29268 -0.888552
3985.541668892 -0.139227 -0.0923292 0.160277 -0.0886157 -9.28789 -0.960403
3985.546060801 -0.129767 -0.0923292 0.162809 -0.0766406 -9.32142 -0.981958
3985.550812721 -0.120175 -0.0936616 0.170003 -0.0431104 -9.41722 -1.01309
3985.555564642 -0.110182 -0.0977917 0.178263 -0.0431104 -9.46751 -1.02507
3985.560352564 -0.0972588 -0.0957933 0.177331 -0.0407153 -9.54655 -1.04183
3985.565068483 -0.0830031 -0.0949939 0.181727 0.00718506 -9.62079 -0.993933
3985.569820166 -0.0675482 -0.0988576 0.188123 0.00479004 -9.61361 -0.998723
3985.574572325 -0.0544916 -0.0976585 0.193052 -0.0742456 -9.53936 -1.06099
3985.579324245 -0.0347734 -0.097392 0.192919 -0.0215552 -9.46751 -1.08973
3985.584076166 -0.021317 -0.0963262 0.193319 0.0790356 -9.41482 -1.13284
3985.588827848 -0.00586217 -0.0911302 0.193585 0.0910107 -9.35255 -1.08734
3985.593580008 0.00519602 -0.0915299 0.188256 0.0790356 -9.34537 -1.14003
3985.598331690 0.0159877 -0.0889985 0.184525 0.0838257 -9.331 -1.18314
3985.603083849 0.0237152 -0.0842021 0.181861 0.0311353 -9.38608 -1.18793
3985.607835531 0.03051 -0.0780735 0.18226 -0.0622705 -9.39806 -1.15679
3985.612947464 0.0407688 -0.0755421 0.188389 -0.138911 -9.49386 -1.14721
3985.617339373 0.0456983 -0.0676815 0.191587 -0.167651 -9.55613 -1.14003
3985.622055292 0.0558239 -0.0618193 0.193718 -0.191602 -9.59924 -1.0107
3985.626843214 0.0659495 -0.0536922 0.195983 -0.208367 -9.67348 -1.06578
3985.631595373 0.0722113 -0.0506279 0.20038 -0.210762 -9.63277 -1.00351
3985.636347055 0.074343 -0.0430337 0.19958 -0.162861 -9.65193 -1.01309
3985.641099215 0.0746095 -0.03917 0.198515 -0.165256 -9.56092 -1.04183
3985.645850897 0.072611 -0.0354395 0.193452 -0.107776 -9.47949 -1.0586
3985.650602818 0.0664824 -0.0325084 0.189455 -0.0455054 -9.37171 -1.04662
3985.655354738 0.0606202 -0.0301103 0.183193 -0.0311353 -9.36213 -1.11368
3985.660068274 0.0583553 -0.0255804 0.169204 -0.0479004 -9.27352 -1.16637
3985.664858580 0.0491623 -0.0294441 0.154015 -0.0431104 -9.18729 -1.17116
3985.669610739 0.0456983 -0.0249142 0.139893 -0.0407153 -9.09628 -1.16637
3985.674362183 0.0507611 -0.0267795 0.12657 -0.0814307 -9.12742 -1.08015
3985.679114342 0.0562236 -0.0241149 0.107651 -0.136516 -9.21604 -1.11847
3985.684226513 0.0664824 -0.0251807 0.0943277 -0.229922 -9.24478 -1.13284
3985.688618183 0.0723446 -0.0202511 0.0824701 -0.296982 -9.25915 -1.14242
3985.693370104 0.0794058 -0.0173201 0.0759418 -0.330513 -9.28789 -1.18074
3985.698122263 0.083536 -0.0169204 0.0686141 -0.361648 -9.26873 -1.18314
3985.703233957 0.0856677 -0.0133231 0.0607534 -0.344883 -9.18011 -1.26936
3985.707625866 0.0846018 -0.00892649 0.0444992 -0.258662 -9.11784 -1.33642
3985.712377787 0.0811378 -0.0127902 0.0342404 -0.220342 -9.05796 -1.32445
3985.717129707 0.0719449 -0.0135896 0.0274456 -0.160466 -8.95019 -1.38432
3985.721881628 0.0648836 -0.00945942 0.0209173 -0.246687 -8.93103 -1.42264
3985.726633787 0.0562236 -0.00586217 0.0145222 -0.316143 -8.8951 -1.43222
3985.731385231 0.051827 -0.00106585 0.0107917 -0.337698 -8.87594 -1.38672
3985.736173391 0.0459648 0.00333078 0.0102588 -0.407153 -8.95258 -1.3005
3985.740889311 0.0446325 0.00972588 0.0135896 -0.447869 -9.0867 -1.26457
3985.745641232 0.0421011 0.016121 0.0190521 -0.479004 -9.23041 -1.22625
3985.750393152 0.0435666 0.0222496 0.0314426 -0.512534 -9.29507 -1.32924
3985.755145073 0.0373047 0.0289112 0.0314426 -0.452659 -9.28549 -1.34361
3985.759896755 0.029977 0.0342404 0.0366386 -0.423918 -9.27112 -1.36516
3985.764648914 0.0259801 0.0386371 0.0448989 -0.383203 -9.25436 -1.44899
3985.769364834 0.0203844 0.0403691 0.0498285 -0.330513 -9.15855 -1.38193
3985.774512768 0.0203844 0.0468974 0.057023 -0.414338 -9.15855 -1.46336
3985.778904676 0.0189188 0.0483629 0.0638178 -0.428708 -9.18729 -1.45617
3985.783656597 0.0193185 0.0516937 0.0776738 -0.457449 -9.22562 -1.47054
3985.788372517 0.0173201 0.053559 0.0892649 -0.399968 -9.27591 -1.4921
3985.793160439 0.0233155 0.0550245 0.0949939 -0.361648 -9.25196 -1.42025
3985.797912121 0.0342404 0.0536922 0.0980582 -0.318538 -9.25675 -1.3963
3985.802664280 0.0451654 0.0507611 0.0963262 -0.263452 -9.24957 -1.34121
3985.807377577 0.0592879 0.0480965 0.099124 -0.217947 -9.19927 -1.32445
3985.812168121 0.0715452 0.0431669 0.102322 -0.244292 -9.20885 -1.30289
3985.816919804 0.0786064 0.0415681 0.0984579 -0.182021 -9.18729 -1.38911
3985.821671963 0.0863338 0.0365054 0.0928622 -0.138911 -9.20646 -1.42504
3985.826385260 0.0822037 0.0302435 0.0935283 -0.0814307 -9.2831 -1.37714
3985.831175804 0.0831363 0.0253139 0.0925957 -0.117356 -9.34058 -1.36995
3985.835927486 0.080072 0.0238484 0.0931286 -0.112566 -9.29747 -1.38672
3985.840679646 0.0739433 0.0171868 0.0941945 -0.172441 -9.29507 -1.4442
3985.845791578 0.0680812 0.00839357 0.0993905 -0.124541 -9.31184 -1.42264
3985.850183249 0.0608867 0.00839357 0.106851 -0.107776 -9.30226 -1.4442
3985.854935169 0.0572894 0.00186524 0.108717 -0.0670605 -9.21364 -1.46336
3985.859687328 0.0562236 -0.00626187 0.114579 -0.0287402 -9.13221 -1.48491
3985.864439011 0.0602205 -0.0107917 0.117643 -0.0335303 -9.14418 -1.42743
3985.869191170 0.0740766 -0.0207841 0.119642 0.00718506 -9.09149 -1.44899
3985.873942852 0.0855345 -0.0227825 0.118576 0.0191602 -9.12263 -1.34361
3985.878694773 0.0968591 -0.0283783 0.116178 0.0670605 -9.06275 -1.29571
3985.883446693 0.113113 -0.0335743 0.110449 0.0526904 -9.01964 -1.26936
3985.888198853 0.124838 -0.0403691 0.107251 0.0143701 -8.93103 -1.30289
3985.892986536 0.133498 -0.0447657 0.105119 0.00239502 -9.00767 -1.27176
3985.897702694 0.135763 -0.0459648 0.102455 -0.0191602 -8.95498 -1.24781
3985.902454376 0.133631 -0.0451654 0.101389 -0.00239502 -8.96695 -1.29571
3985.907206297 0.124838 -0.0480965 0.0957933 -0.0479004 -8.943 -1.21906
3985.911958218 0.114179 -0.0476968 0.0969923 -0.0191602 -8.92624 -1.22865
3985.916998148 0.0981914 -0.0508943 0.100989 -0.0862207 -9.00288 -1.23104
3985.921462059 0.0822037 -0.0556907 0.10059 -0.0431104 -9.12023 -1.25499
3985.926214218 0.0576891 -0.0562236 0.0999234 -0.0838257 -9.1825 -1.17835
3985.930965662 0.0343737 -0.0567565 0.106718 -0.0598755 -9.2352 -1.13045
3985.935681820 0.0141225 -0.0632848 0.106185 -0.0526904 -9.25675 -1.07297
3985.940469742 -0.00905972 -0.0659495 0.100723 -0.0407153 -9.19688 -1.11129
3985.945221663 -0.0275789 -0.0723446 0.0931286 -0.0239502 -9.06036 -1.15919
3985.949973583 -0.0456983 -0.0798055 0.0884655 -0.0646655 -8.9454 -1.17116
3985.954686642 -0.0522266 -0.0868668 0.0864671 -0.122146 -8.93821 -1.14003
3985.959477186 -0.0542251 -0.0972588 0.074343 -0.0814307 -8.94779 -1.08015
3985.964229345 -0.0507611 -0.105119 0.0648836 0.0359253 -8.95977 -1.13284
3985.968981266 -0.0401026 -0.111381 0.0470306 0.0143701 -9.04359 -1.09692
3985.973694563 -0.0270459 -0.121773 0.0385038 -0.105381 -8.98611 -1.06818
3985.978485107 -0.0201179 -0.12617 0.0298438 -0.0790356 -8.96216 -1.11368
3985.983237267 -0.0113247 -0.1303 0.0223828 -0.117356 -9.00527 -1.08015
3985.988348961 -0.00399694 -0.136296 0.0173201 -0.174836 -9.06036 -1.13284
3985.992740870 -0.00239816 -0.135763 0.0131899 -0.167651 -9.06275 -1.19511
3985.997492552 -0.00439663 -0.136828 0.0105253 -0.0934058 -9.01964 -1.1065
3986.002208471 -0.00572894 -0.138161 0.00945942 -0.107776 -9.00288 -1.08255
3986.007320642 -0.0135896 -0.134297 0.0130567 -0.0934058 -9.01964 -1.12805
3986.011712313 -0.021317 -0.133631 0.0179862 -0.158071 -8.98372 -1.17835
3986.016464472 -0.0255804 -0.133498 0.0154548 -0.126936 -8.95019 -1.13284
3986.021216393 -0.0382374 -0.129101 0.0185191 -0.0263452 -9.04359 -1.1544
3986.025968313 -0.0435666 -0.121773 0.0167871 -0.0694556 -9.09628 -1.16637
3986.030719995 -0.0454319 -0.12244 0.0162542 -0.0191602 -9.17053 -1.11129
3986.035472155 -0.0369051 -0.116844 0.0115911 0.0335303 -9.23759 -1.03465
3986.040223837 -0.0226493 -0.116577 0.00626187 0.0335303 -9.3286 -1.01788
3986.044975996 -0.00692802 -0.111648 -0.00159877 0.100591 -9.35974 -1.0562
3986.049727917 0.0085268 -0.106585 -0.00479632 0.105381 -9.29747 -1.04662
3986.054479837 0.0311761 -0.105786 -0.0106585 0.0886157 -9.26873 -1.04183
3986.059231520 0.0516937 -0.101789 -0.0139893 0.136516 -9.25675 -1.04183
3986.063947678 0.0715452 -0.0969923 -0.0155881 0.124541 -9.34537 -1.07297
3986.068735361 0.0988576 -0.087 -0.0174533 0.0981958 -9.34537 -0.943638
3986.073487520 0.124438 -0.0820704 -0.0145222 0.107776 -9.36692 -0.902922
3986.078598976 0.148819 -0.0718116 -0.00572894 0.0455054 -9.34537 -0.759221
3986.082955122 0.175466 -0.0619525 0.000932619 0.00239502 -9.32142 -0.792751
3986.087743044 0.191853 -0.0531593 0.0085268 -0.0455054 -9.37171 -0.680186
3986.092494965 0.201312 -0.0438331 0.0239816 -0.0526904 -9.31423 -0.835862
3986.097246885 0.207574 -0.0341072 0.0331746 -0.0287402 -9.34297 -0.809517
3986.101960182 0.204377 -0.0222496 0.0470306 0.0502954 -9.49865 -0.859812
3986.106750727 0.203044 -0.00919296 0.0542251 0.0766406 -9.63037 -0.826282
3986.111502886 0.195583 -0.000399694 0.0607534 0.0550854 -9.61121 -0.862207
3986.116254568 0.190387 0.00826034 0.0618193 0.0981958 -9.59445 -0.902922
3986.120967865 0.184259 0.0179862 0.0667489 0.119751 -9.63756 -0.843047
3986.125758410 0.178663 0.0253139 0.0666156 0.138911 -9.59924 -0.941243
3986.130510569 0.168404 0.0315758 0.0723446 0.131726 -9.51302 -0.986748
3986.135262251 0.154948 0.0365054 0.0715452 0.160466 -9.45075 -0.924478
3986.140014410 0.146688 0.03917 0.0715452 0.110171 -9.45793 -0.845442
3986.144766092 0.145755 0.0463645 0.0734104 0.0119751 -9.4747 -0.857417
3986.149878025 0.141092 0.042634 0.0812711 0.00479004 -9.48907 -0.799937
3986.154269934 0.142025 0.0463645 0.0854012 -0.0718506 -9.44117 -0.799937
3986.159021854 0.13896 0.049562 0.0953936 -0.170046 -9.44117 -0.735271
3986.163773775 0.135363 0.0470306 0.104587 -0.153281 -9.41482 -0.696951
3986.168525934 0.137628 0.044366 0.113113 -0.203577 -9.48188 -0.60594
3986.173277378 0.138427 0.0410352 0.121907 -0.275427 -9.44835 -0.65863
3986.178029537 0.137628 0.0379709 0.129767 -0.205972 -9.41243 -0.584385
3986.182781458 0.137095 0.0313093 0.129101 -0.165256 -9.4244 -0.589175
3986.187533379 0.137628 0.0281118 0.130034 -0.138911 -9.46512 -0.58678
3986.192285299 0.133498 0.0201179 0.124305 -0.122146 -9.38369 -0.5772
3986.197037458 0.132432 0.00826034 0.122173 -0.0934058 -9.29747 -0.641865
3986.201788902 0.125104 -0.00133231 0.120708 -0.0359253 -9.27831 -0.66821
3986.206541061 0.115511 -0.0167871 0.115645 -0.0886157 -9.29747 -0.716111
3986.211292982 0.108184 -0.0313093 0.109116 -0.0862207 -9.25196 -0.737666
3986.216044903 0.0952603 -0.0413017 0.10432 -0.0981958 -9.26154 -0.692161
3986.221156597 0.0896646 -0.0532925 0.102588 -0.102986 -9.26394 -0.641865
3986.225548744 0.0798055 -0.0700796 0.0953936 -0.150886 -9.29268 -0.617915
3986.230264664 0.067415 -0.0828698 0.093928 -0.146096 -9.41482 -0.66342
3986.235052586 0.0602205 -0.099124 0.0916631 -0.158071 -9.45554 -0.598755
3986.239804268 0.0515605 -0.114845 0.0862006 -0.148491 -9.43159 -0.60115
3986.244556427 0.0397029 -0.128968 0.0810046 -0.114961 -9.44117 -0.593965
3986.249347210 0.0386371 -0.145755 0.0786064 -0.134121 -9.43638 -0.505349
3986.254060268 0.0362389 -0.160943 0.0755421 -0.198787 -9.43638 -0.502954
3986.258811951 0.0342404 -0.174933 0.0686141 -0.244292 -9.3789 -0.548459
3986.263564110 0.03051 -0.19092 0.0607534 -0.261057 -9.39806 -0.536484
3986.268277168 0.0302435 -0.19958 0.0560904 -0.282612 -9.41243 -0.502954
3986.273103714 0.0290444 -0.212237 0.0532925 -0.325723 -9.43638 -0.522114
3986.277819872 0.0255804 -0.224628 0.0456983 -0.335303 -9.44356 -0.522114
3986.282571793 0.0293109 -0.231289 0.0389035 -0.340093 -9.40045 -0.555645
3986.287284851 0.0349066 -0.245412 0.0297106 -0.330513 -9.3765 -0.507744
3986.292435646 0.0427672 -0.252873 0.0281118 -0.409548 -9.4268 -0.548459
3986.296827316 0.0482297 -0.262732 0.0173201 -0.383203 -9.44596 -0.507744
3986.301579475 0.0608867 -0.270726 0.0163874 -0.378413 -9.50104 -0.490979
3986.306331158 0.0675482 -0.279386 0.0130567 -0.392783 -9.56092 -0.498164
3986.311443090 0.0756753 -0.289778 0.00799387 -0.385598 -9.56331 -0.411943
3986.315834999 0.0828698 -0.296839 0.00439663 -0.366438 -9.616 -0.349673
3986.320586920 0.0834028 -0.306165 0.00439663 -0.380808 -9.68306 -0.311353
3986.325338840 0.0839357 -0.313893 0.00759418 -0.378413 -9.72138 -0.306563
3986.330091000 0.0834028 -0.31789 0.00399694 -0.414338 -9.77647 -0.318538
3986.334842682 0.0727443 -0.319755 0.00226493 -0.385598 -9.83874 -0.246687
3986.339594841 0.0612864 -0.327349 0.00226493 -0.340093 -9.89383 -0.277822
3986.344346523 0.0498285 -0.329881 0.00186524 -0.342488 -10.0136 -0.289797
3986.349098444 0.0395697 -0.333478 -0.00905972 -0.265847 -10.016 -0.356858
3986.353850365 0.0214502 -0.340273 -0.0107917 -0.277822 -9.93933 -0.359253
3986.358602524 0.00839357 -0.33974 -0.0142557 -0.265847 -9.91538 -0.325723
3986.363354206 -0.0085268 -0.340806 -0.0221164 -0.296982 -10.0016 -0.282612
3986.368106365 -0.0167871 -0.340672 -0.0250475 -0.323328 -10.0687 -0.311353
3986.372858047 -0.0315758 -0.343337 -0.0294441 -0.387993 -10.107 -0.289797
3986.377573967 -0.0398361 -0.342937 -0.0346401 -0.330513 -10.004 -0.320933
3986.382721901 -0.0502282 -0.346801 -0.0346401 -0.330513 -10.0543 -0.320933
3986.387113810 -0.0610199 -0.344136 -0.0395697 -0.282612 -10.0567 -0.340093
3986.391865730 -0.0696799 -0.352263 -0.0395697 -0.241897 -9.99681 -0.371228
3986.396581650 -0.0735436 -0.354795 -0.0433002 -0.304167 -9.83156 -0.296982
3986.401369333 -0.0771409 -0.356127 -0.0467642 -0.347278 -9.7621 -0.287402
3986.406121492 -0.0771409 -0.358792 -0.0486294 -0.342488 -9.76689 -0.299377
3986.410873413 -0.0790061 -0.359858 -0.0444992 -0.404758 -9.7118 -0.253872
3986.415586472 -0.0775406 -0.364254 -0.0363721 -0.479004 -9.57768 -0.306563
3986.420377254 -0.0848683 -0.363322 -0.0298438 -0.476609 -9.58966 -0.253872
3986.425129414 -0.0826034 -0.361856 -0.0277121 -0.493374 -9.62319 -0.256267
3986.429880857 -0.0838025 -0.360657 -0.0150551 -0.493374 -9.62798 -0.304167
3986.434594393 -0.0872665 -0.360524 -0.00586217 -0.519719 -9.68067 -0.292192
3986.439384937 -0.0953936 -0.358259 0.00119908 -0.526904 -9.65672 -0.261057
3986.444136858 -0.100723 -0.358259 0.00519602 -0.493374 -9.63516 -0.306563
3986.448888779 -0.10019 -0.352263 0.0139893 -0.514929 -9.57768 -0.294587
3986.454000473 -0.102988 -0.351597 0.0170536 -0.490979 -9.56092 -0.328118
3986.458392382 -0.10059 -0.349865 0.0235819 -0.476609 -9.54894 -0.258662
3986.463180542 -0.0940613 -0.34427 0.0266462 -0.488584 -9.52499 -0.294587
3986.467896223 -0.0881991 -0.342538 0.0257136 -0.519719 -9.52739 -0.244292
3986.472648382 -0.076608 -0.338407 0.0275789 -0.538879 -9.62798 -0.237107
3986.477400303 -0.0671485 -0.334677 0.0241149 -0.58199 -9.66869 -0.217947
3986.482152224 -0.0596876 -0.328948 0.0235819 -0.593965 -9.67109 -0.208367
3986.486903906 -0.0511608 -0.324818 0.0277121 -0.584385 -9.68067 -0.205972
3986.491656065 -0.0438331 -0.323219 0.0242481 -0.579595 -9.60163 -0.277822
3986.496407747 -0.0370383 -0.321221 0.026513 -0.555645 -9.63995 -0.299377
3986.501159906 -0.0362389 -0.316025 0.024781 -0.59157 -9.64953 -0.261057
3986.505911827 -0.0321087 -0.315092 0.0214502 -0.64426 -9.64953 -0.299377
3986.510663748 -0.0277121 -0.31256 0.0274456 -0.725691 -9.616 -0.253872
3986.515415430 -0.0249142 -0.309363 0.0293109 -0.66821 -9.5681 -0.275427
3986.520167589 -0.017853 -0.305766 0.0298438 -0.682581 -9.50344 -0.273032
3986.525207281 -0.0145222 -0.30017 0.0333078 -0.775986 -9.47949 -0.301772
3986.529671431 -0.0105253 -0.29604 0.0382374 -0.878972 -9.52499 -0.308958
3986.534423351 -0.00452986 -0.28738 0.0383706 -0.862207 -9.54894 -0.347278
3986.539175272 -0.000666156 -0.28325 0.0337075 -0.883762 -9.60163 -0.359253
3986.543891191 0.00266462 -0.275789 0.0309096 -0.847837 -9.54415 -0.306563
3986.548678875 0.000266462 -0.271925 0.0261133 -0.910107 -9.55613 -0.356858
3986.553430796 0.000532925 -0.266063 0.0198515 -0.890947 -9.56092 -0.387993
3986.558218718 0.000266462 -0.261 0.014389 -0.902922 -9.5681 -0.287402
3986.562896013 0.00239816 -0.259401 0.00892649 -0.900527 -9.65911 -0.268242
3986.567686796 0.00146554 -0.254871 0.0021317 -1.00112 -9.70701 -0.234712
3986.572438478 0.00119908 -0.253406 0.00173201 -1.04902 -9.74773 -0.275427
3986.577190399 -0.000932619 -0.25194 -0.00839357 -1.09692 -9.72378 -0.256267
3986.581903696 -0.00186524 -0.249409 -0.0085268 -1.10171 -9.73815 -0.215552
3986.586694479 -0.00546248 -0.247677 -0.012657 -1.09692 -9.70701 -0.198787
3986.591446161 -0.00812711 -0.247677 -0.0139893 -1.07297 -9.59205 -0.191602
3986.596558094 -0.0106585 -0.246611 -0.0203844 -1.11608 -9.45793 -0.246687
3986.600950003 -0.00945942 -0.245412 -0.024781 -1.06339 -9.3789 -0.308958
3986.605701923 -0.00892649 -0.240349 -0.0274456 -1.11368 -9.33339 -0.287402
3986.610453844 -0.014389 -0.23875 -0.0241149 -1.12087 -9.26154 -0.368833
3986.615565777 -0.00666156 -0.236219 -0.0246478 -1.17116 -9.23041 -0.330513
3986.619957685 -0.00985911 -0.230757 -0.0261133 -1.15919 -9.14658 -0.359253
3986.624709845 0.000133231 -0.230757 -0.0253139 -1.13524 -9.29747 -0.289797
3986.629461288 0.00826034 -0.224361 -0.0294441 -1.10889 -9.44356 -0.237107
3986.634213448 0.0135896 -0.222096 -0.0289112 -1.14721 -9.50583 -0.0981958
3986.638929605 0.0233155 -0.220764 -0.0365054 -1.09931 -9.62079 -0.102986
3986.643681049 0.029977 -0.219832 -0.0337075 -1.08255 -9.64953 -0.0479004
3986.648433208 0.0370383 -0.216368 -0.0387703 -1.09213 -9.74533 -0.0407153
3986.653185129 0.0462312 -0.218632 -0.0456983 -1.04183 -9.82677 0.0311353
3986.657937050 0.0507611 -0.216501 -0.0500949 -1.02028 -9.88664 -0.0502954
3986.662688971 0.0594211 -0.2173 -0.0574227 -0.955613 -9.82437 -0.0191602
3986.667441130 0.0655498 -0.217966 -0.0658162 -0.989143 -9.7621 0.00239502
3986.672156572 0.0690138 -0.216501 -0.0782067 -0.900527 -9.78605 0.0574805
3986.676944733 0.0798055 -0.221963 -0.0827366 -0.917292 -9.73815 0.124541
3986.681696653 0.0840689 -0.221031 -0.0847351 -0.946033 -9.77407 0.0790356
3986.686808586 0.088732 -0.219698 -0.0903308 -1.01549 -9.77407 0.0958008
3986.691164255 0.0900643 -0.216767 -0.0925957 -1.03704 -9.86748 0.170046
3986.695952415 0.0863338 -0.216234 -0.0901975 -1.04662 -9.92496 0.165256
3986.700704098 0.0803384 -0.207574 -0.0844686 -1.11129 -9.86748 0.0670605
3986.705456257 0.0698132 -0.206375 -0.0831363 -1.14721 -9.84832 0.165256
3986.710169315 0.0576891 -0.203044 -0.0762083 -1.14961 -9.82916 0.122146
3986.714960098 0.0369051 -0.193585 -0.0652833 -1.19751 -9.78126 0.0910107
3986.719712019 0.0130567 -0.186657 -0.0540919 -1.18314 -9.80281 0.0958008
3986.724463940 -0.00452986 -0.181194 -0.0500949 -1.10889 -9.75491 0.0718506
3986.729176998 -0.017853 -0.175332 -0.0367718 -1.1065 -9.76928 0.0574805
3986.733967781 -0.023049 -0.1736 -0.0325084 -1.06339 -9.73815 0.0766406
3986.738719463 -0.0285115 -0.173867 -0.026513 -1.09452 -9.73336 0.126936
3986.743471622 -0.0185191 -0.1736 -0.021317 -1.08015 -9.6639 0.0622705
3986.748223543 -0.0123905 -0.171069 -0.0182527 -1.0586 -9.59205 0.138911
3986.752975464 -0.00479632 -0.170136 -0.016121 -1.08734 -9.5226 0.117356
3986.758087158 0.00799387 -0.171202 -0.013856 -1.07057 -9.43638 0.0910107
3986.762515306 0.0130567 -0.164807 -0.0139893 -1.04662 -9.44117 0.0742456
3986.767230988 0.0166539 -0.164541 -0.0179862 -1.03225 -9.34537 -0.0526904
3986.771983147 0.0217167 -0.164541 -0.012657 -1.07536 -9.36453 0.0263452
3986.776734829 0.0151884 -0.162142 -0.0171868 -1.02986 -9.35734 -0.00718506
3986.781486988 0.0150551 -0.162675 -0.0175865 -1.03944 -9.27591 0.00479004
3986.786238670 0.0119908 -0.160011 -0.0182527 -1.01788 -9.29747 -0.0143701
3986.790990591 0.0021317 -0.159211 -0.0170536 -0.993933 -9.29268 -0.0407153
3986.795742512 -0.00905972 -0.15668 -0.0133231 -1.04183 -9.25196 -0.0263452
3986.800494671 -0.0150551 -0.158545 -0.0129234 -1.08734 -9.27831 0.0119751
3986.805246353 -0.0209173 -0.15668 -0.00479632 -1.05141 -9.29747 -0.0526904
3986.809998512 -0.031709 -0.154282 0.000532925 -1.07057 -9.31423 -0.110171
3986.814750195 -0.0423675 -0.157613 0.0042634 -1.0562 -9.39566 -0.0550854
3986.819502115 -0.0519602 -0.158545 0.00679479 -0.984353 -9.31663 -0.100591
3986.824254036 -0.0606202 -0.156813 0.00772741 -1.00112 -9.18729 -0.136516
3986.829366207 -0.0690138 -0.160011 0.012657 -0.977168 -9.19688 -0.122146
3986.833757877 -0.0703461 -0.162409 0.00985911 -0.960403 -9.18729 -0.110171
3986.838473797 -0.0740766 -0.166006 0.00479632 -0.886157 -9.13221 -0.0742456
3986.843261719 -0.0754089 -0.166672 0.00559571 -0.888552 -9.18011 -0.0910107
3986.848013639 -0.0738101 -0.168404 0.00306432 -0.859812 -9.15855 -0.0814307
3986.852765560 -0.0703461 -0.175599 -0.000666156 -0.883762 -9.12742 -0.0958008
3986.857481480 -0.069147 -0.176798 -0.00879326 -0.831072 -9.11305 -0.153281
3986.862269402 -0.069147 -0.183726 -0.0105253 -0.910107 -9.05078 -0.182021
3986.867021561 -0.0659495 -0.190254 -0.0139893 -0.902922 -8.97174 -0.102986
3986.871773005 -0.0634181 -0.194651 -0.0218499 -0.890947 -8.89989 -0.189207
3986.876486301 -0.0562236 -0.201179 -0.0198515 -0.902922 -8.86397 -0.265847
3986.881277084 -0.05649 -0.206642 -0.0238484 -0.855022 -8.85918 -0.222737
3986.886029005 -0.0571562 -0.208107 -0.0291776 -0.802332 -8.91187 -0.244292
3986.890816927 -0.0566233 -0.217567 -0.0255804 -0.871787 -8.89271 -0.232317
3986.895494461 -0.0539587 -0.215035 -0.0246478 -0.862207 -8.95737 -0.174836
3986.900644541 -0.051294 -0.219698 -0.0210505 -0.883762 -8.943 -0.158071
3986.905036688 -0.0446325 -0.2177 -0.0133231 -0.888552 -8.97414 -0.182021
3986.909788609 -0.0387703 -0.215968 -0.00919296 -0.878972 -8.98132 -0.110171
3986.914540529 -0.0325084 -0.214769 -0.00759418 -0.809517 -8.95977 -0.0838257
3986.919652224 -0.0202511 -0.214103 -0.00866003 -0.792751 -8.89031 -0.105381
3986.924044609 -0.012124 -0.211305 -0.00732772 -0.771196 -8.8975 -0.0502954
3986.928796053 -0.00879326 -0.211438 -0.0021317 -0.768801 -8.96216 -0.00958008
3986.933548212 -0.00706126 -0.205709 0.00239816 -0.744851 -8.94779 -0.143701
3986.938299894 -0.0107917 -0.20038 0.000799387 -0.742456 -9.04359 -0.0814307
3986.943052053 -0.00719449 -0.196383 -0.000666156 -0.764011 -9.02683 -0.158071
3986.947803974 -0.0163874 -0.189188 0.00892649 -0.775986 -9.03401 -0.172441
3986.952555895 -0.0146554 -0.183726 0.0170536 -0.857417 -9.05557 -0.215552
3986.957307577 -0.0165207 -0.1736 0.0235819 -0.888552 -9.07712 -0.229922
3986.962059736 -0.0197182 -0.166939 0.0367718 -0.900527 -9.07712 -0.289797
3986.966811419 -0.0174533 -0.160011 0.0411685 -0.917292 -9.09628 -0.308958
3986.971563578 -0.0153216 -0.149219 0.055291 -0.826282 -9.09389 -0.371228
3986.976315498 -0.0201179 -0.14349 0.0575559 -0.802332 -9.11065 -0.354463
3986.981067419 -0.0154548 -0.135629 0.0662159 -0.785566 -9.03162 -0.445474
3986.985783100 -0.0194518 -0.130567 0.0687473 -0.713716 -8.9909 -0.311353
3986.990931273 -0.0190521 -0.123372 0.0751424 -0.718506 -8.97414 -0.347278
3986.995322943 -0.0142557 -0.120041 0.074343 -0.689766 -9.10586 -0.325723
3987.000075102 -0.0122573 -0.115645 0.076075 -0.704136 -9.16334 -0.380808
3987.004790783 -0.00413017 -0.10845 0.0816708 -0.711321 -9.26154 -0.234712
3987.009578943 0.00373047 -0.106185 0.0774074 -0.696951 -9.34537 -0.208367
3987.014330626 0.00999234 -0.100456 0.087 -0.725691 -9.4723 -0.208367
3987.019082546 0.0170536 -0.0960597 0.0816708 -0.713716 -9.50104 -0.237107
3987.023795843 0.0227825 -0.0888652 0.0836692 -0.696951 -9.46272 -0.244292
3987.028586626 0.0291776 -0.0846018 0.0826034 -0.711321 -9.39087 -0.275427
3987.033338308 0.0291776 -0.083536 0.0816708 -0.646655 -9.38848 -0.292192
3987.038090467 0.0329081 -0.0814043 0.0788729 -0.61552 -9.41003 -0.376018
3987.042803526 0.0331746 -0.0780735 0.0699464 -0.593965 -9.38369 -0.423918
3987.047594070 0.0345069 -0.0706126 0.0682144 -0.641865 -9.35734 -0.409548
3987.052345991 0.0318423 -0.0695467 0.0630184 -0.673 -9.35016 -0.411943
3987.057098150 0.0303767 -0.0650168 0.0640842 -0.720901 -9.38129 -0.399968
3987.062209606 0.0349066 -0.0556907 0.065683 -0.752036 -9.39566 -0.443079
3987.066601992 0.0330413 -0.0506279 0.0660827 -0.828677 -9.46751 -0.378413
3987.071353674 0.0342404 -0.0385038 0.0707458 -0.881367 -9.50104 -0.340093
3987.076105595 0.0335743 -0.0361057 0.0770077 -0.898132 -9.58966 -0.335303
3987.080857515 0.0333078 -0.0254472 0.0863338 -0.902922 -9.55852 -0.325723
3987.085609674 0.0365054 -0.0197182 0.0945942 -0.972378 -9.5226 -0.383203
3987.090361357 0.0387703 -0.0110582 0.099657 -1.01309 -9.47709 -0.371228
3987.095113516 0.0386371 -0.00519602 0.107251 -1.02507 -9.49625 -0.332908
3987.099864960 0.0405023 0.00119908 0.110449 -1.02986 -9.40764 -0.404758
3987.104617119 0.0431669 0.00279786 0.111914 -0.981958 -9.43638 -0.414338
3987.109369040 0.0429005 0.00706126 0.113513 -0.972378 -9.3765 -0.481399
3987.114120960 0.0490291 0.00932619 0.12164 -1.01549 -9.1849 -0.433499
3987.118872881 0.0531593 0.0102588 0.115778 -1.00112 -9.07233 -0.462239
3987.123625040 0.062219 0.012657 0.107518 -1.03465 -9.10586 -0.423918
3987.128376484 0.0692802 0.0174533 0.110049 -1.0562 -9.19927 -0.464634
3987.133416653 0.072611 0.0219832 0.110049 -1.1065 -9.33579 -0.376018
3987.137880564 0.076075 0.0269127 0.106718 -1.15919 -9.36692 -0.435894
3987.142632484 0.0711455 0.0345069 0.10845 -1.19272 -9.31663 -0.306563
3987.147384405 0.070879 0.0366386 0.114579 -1.27894 -9.37171 -0.359253
3987.152100325 0.0611531 0.0474303 0.120574 -1.34361 -9.32381 -0.392783
3987.156888008 0.0514273 0.0543583 0.128035 -1.41067 -9.30944 -0.373623
3987.161640167 0.035706 0.0595544 0.127236 -1.35319 -9.32381 -0.423918
3987.166392088 0.0259801 0.0651501 0.124438 -1.29092 -9.2807 -0.419128
3987.171105146 0.0106585 0.0670153 0.124438 -1.29092 -9.26154 -0.486189
3987.175895929 -0.00399694 0.0664824 0.125237 -1.2023 -9.15855 -0.514929
3987.180647850 -0.0153216 0.0618193 0.117776 -1.22625 -9.0388 -0.543669
3987.185399532 -0.0269127 0.0608867 0.107917 -1.18553 -8.89989 -0.55325
3987.190113068 -0.037438 0.0555574 0.0955268 -1.16637 -8.72745 -0.56283
3987.194903374 -0.0482297 0.049562 0.0888652 -1.22865 -8.69632 -0.61073
3987.199655533 -0.0582221 0.0474303 0.0720781 -1.18074 -8.68195 -0.543669
3987.204767227 -0.067415 0.0389035 0.0663492 -1.24062 -8.68674 -0.574805
3987.209159374 -0.0770077 0.0395697 0.0630184 -1.34121 -8.66997 -0.641865
3987.213911057 -0.0855345 0.0318423 0.0562236 -1.37235 -8.7035 -0.637075
3987.218627214 -0.0952603 0.0331746 0.0571562 -1.41306 -8.7514 -0.565225
3987.223738909 -0.104986 0.0315758 0.0511608 -1.4442 -8.68674 -0.656235
3987.228131056 -0.109383 0.0259801 0.0470306 -1.38911 -8.66039 -0.684976
3987.232882738 -0.113779 0.0258469 0.0447657 -1.41067 -8.65081 -0.66342
3987.237634659 -0.122306 0.0203844 0.0458315 -1.42504 -8.68913 -0.680186
3987.242386580 -0.126703 0.0219832 0.046098 -1.50647 -8.71787 -0.713716
3987.247138500 -0.127236 0.0210505 0.0480965 -1.50407 -8.74901 -0.732876
3987.251890421 -0.126303 0.0149219 0.0463645 -1.51844 -8.80409 -0.687371
3987.256642580 -0.118176 0.0130567 0.0454319 -1.52084 -8.84241 -0.699346
3987.261394024 -0.110315 0.0085268 0.0434334 -1.52802 -8.83044 -0.641865
3987.266146183 -0.099657 0.00159877 0.0419678 -1.51844 -8.82804 -0.665815
3987.270898104 -0.0823369 -0.00386371 0.0427672 -1.50886 -8.78254 -0.58678
3987.275650024 -0.0695467 -0.0101256 0.0405023 -1.49449 -8.88552 -0.64426
3987.280401945 -0.0544916 -0.0159877 0.0390368 -1.48731 -8.90229 -0.637075
3987.285154104 -0.0444992 -0.0255804 0.0347734 -1.47773 -8.96695 -0.716111
3987.289905548 -0.0346401 -0.0306432 0.0359724 -1.40348 -9.01964 -0.64905
3987.295017719 -0.0313093 -0.0359724 0.0291776 -1.43222 -9.1346 -0.656235
3987.299373865 -0.0246478 -0.0395697 0.0249142 -1.3963 -9.16813 -0.742456
3987.304161549 -0.026513 -0.0429005 0.0231822 -1.42983 -9.20885 -0.696951
3987.308913469 -0.0291776 -0.0466309 0.0186524 -1.42743 -9.20406 -0.699346
3987.313665628 -0.0347734 -0.0448989 0.0170536 -1.40827 -9.12023 -0.792751
3987.318417072 -0.0381041 -0.0471639 0.0142557 -1.3963 -9.10826 -0.847837
3987.323169231 -0.046098 -0.0466309 0.010925 -1.38911 -9.19688 -0.831072
3987.327920914 -0.0594211 -0.0430337 0.0125237 -1.43941 -9.2328 -0.871787
3987.332673073 -0.065683 -0.0401026 0.00972588 -1.44899 -9.27591 -0.835862
3987.337386608 -0.0707458 -0.0394364 0.0063951 -1.42983 -9.36453 -0.744851
3987.342176914 -0.0746095 -0.033974 0.012124 -1.54479 -9.2807 -0.835862
3987.346928596 -0.065683 -0.035706 -0.000532925 -1.65735 -9.26633 -0.883762
3987.351680756 -0.0548913 -0.0361057 -0.000666156 -1.33882 -9.42919 -0.64426
3987.356432438 -0.04783 -0.0315758 -0.00373047 -1.32684 -9.41722 -0.768801
3987.361184597 -0.0354395 -0.0314426 -0.00293109 -1.3484 -9.331 -0.704136
3987.366296530 -0.0258469 -0.028245 -0.00146554 -1.43462 -9.19208 -0.775986
3987.370688438 -0.0111914 -0.0254472 0.00293109 -1.47294 -9.15855 -0.716111
3987.375440121 0.000532925 -0.0189188 0.00373047 -1.52084 -9.06036 -0.804727
3987.380192280 0.00866003 -0.0157213 0.00905972 -1.59748 -9.03401 -0.773591
3987.384943962 0.0173201 -0.0113247 0.0155881 -1.45857 -9.1346 -0.831072
3987.389696121 0.0189188 -0.00732772 0.0221164 -1.48252 -9.23041 -0.876577
3987.394448042 0.017853 -0.00452986 0.0263798 -1.54718 -9.28789 -0.926873
3987.399199963 0.0145222 0.00199847 0.031709 -1.60945 -9.38848 -0.845442
3987.403951645 0.012657 0.00812711 0.0394364 -1.64777 -9.51062 -0.811912
3987.408703566 0.00919296 0.0129234 0.0515605 -1.67651 -9.46272 -0.919688
3987.413455486 0.00732772 0.0166539 0.0574227 -1.66454 -9.31184 -0.931663
3987.418207645 0.00679479 0.0198515 0.0648836 -1.62382 -9.21125 -0.991538
3987.422959328 0.00826034 0.0190521 0.0728775 -1.54479 -9.14897 -1.03944
3987.427711487 0.0101256 0.0202511 0.0752757 -1.50647 -9.12742 -1.03704
3987.432463169 0.0179862 0.0186524 0.0768744 -1.4418 -9.06036 -0.974773
3987.437575102 0.0314426 0.0163874 0.0774074 -1.4418 -9.0388 -0.977168
3987.441967010 0.0435666 0.0147887 0.0858009 -1.50168 -9.11065 -0.917292
3987.446682930 0.0532925 0.0127902 0.0880659 -1.48252 -9.22801 -0.926873
3987.451470852 0.0595544 0.00799387 0.0929954 -1.51126 -9.18729 -0.924478
3987.456223011 0.0606202 0.00719449 0.10059 -1.55197 -9.24717 -0.888552
3987.460974693 0.0611531 0.00452986 0.105919 -1.54958 -9.30226 -1.00112
3987.465690613 0.0624855 0.000799387 0.112314 -1.54239 -9.31663 -0.991538
3987.470478535 0.0563568 -0.00119908 0.119908 -1.52563 -9.38848 -1.09931
3987.475230694 0.04783 -0.00519602 0.119508 -1.46815 -9.45793 -1.03465
3987.479982376 0.0381041 -0.012657 0.127103 -1.41785 -9.5226 -1.07057
3987.484695435 0.0289112 -0.0214502 0.123772 -1.37953 -9.58247 -1.06339
3987.489485979 0.0221164 -0.0285115 0.124571 -1.35079 -9.59445 -1.1544
3987.494238138 0.012124 -0.0365054 0.121907 -1.40109 -9.58726 -1.13284
3987.498990059 0.0122573 -0.0498285 0.124704 -1.33882 -9.52499 -1.12326
3987.503703356 0.013856 -0.0662159 0.116977 -1.34361 -9.46272 -1.12087
3987.508853912 0.0197182 -0.0788729 0.110449 -1.26457 -9.5202 -1.04902
3987.513245821 0.0310429 -0.0976585 0.0971256 -1.15919 -9.51062 -1.07297
3987.517997503 0.0394364 -0.118309 0.0842021 -1.16637 -9.57529 -1.04183
3987.522749662 0.0470306 -0.133098 0.0732772 -1.1065 -9.67348 -1.04662
3987.527861834 0.0506279 -0.151351 0.0615528 -1.14961 -9.82916 -1.04902
3987.532253504 0.0511608 -0.167205 0.0491623 -1.14721 -9.92496 -1.04423
3987.537005424 0.0507611 -0.181194 0.0370383 -1.13284 -9.98244 -1.05141
3987.541757345 0.0442328 -0.196783 0.0271792 -1.10171 -10.0423 -1.05141
3987.546509027 0.037438 -0.212504 0.0123905 -1.08255 -10.0136 -1.11129
3987.551261187 0.0262466 -0.223029 0.00586217 -1.07536 -10.0064 -1.12087
3987.556013107 0.0155881 -0.232222 -0.00186524 -1.06818 -9.9561 -1.17835
3987.560765028 0.00959265 -0.241815 -0.00399694 -1.07776 -9.96807 -1.19511
3987.565516949 0.0085268 -0.25274 -0.00759418 -1.16877 -9.89143 -1.07536
3987.570268631 0.0166539 -0.261133 -0.00839357 -1.19032 -9.84353 -0.931663
3987.575020552 0.0281118 -0.267262 -0.00826034 -1.27894 -9.78365 -0.910107
3987.579772711 0.0417014 -0.269926 -0.00692802 -1.28134 -9.76689 -0.886157
3987.584524393 0.0511608 -0.276721 -0.000932619 -1.29571 -9.79323 -0.831072
3987.589276552 0.0595544 -0.280319 -0.00386371 -1.31008 -9.77407 -0.855022
3987.593992472 0.0687473 -0.279652 -0.00359724 -1.2526 -9.7621 -0.720901
3987.599140167 0.0687473 -0.281384 -0.00466309 -1.23344 -9.72138 -0.711321
3987.603568316 0.0638178 -0.280452 -0.00253139 -1.25499 -9.6663 -0.694556
3987.608284235 0.0632848 -0.280052 -0.0042634 -1.2502 -9.63995 -0.675396
3987.613000154 0.0550245 -0.277387 -0.00532925 -1.20948 -9.5202 -0.684976
3987.617788076 0.0439663 -0.277254 -0.0102588 -1.12087 -9.46751 -0.684976
3987.622539997 0.0347734 -0.281651 -0.0175865 -1.09692 -9.45554 -0.684976
3987.627291679 0.0239816 -0.278853 -0.0234487 -1.13524 -9.40524 -0.732876
3987.632004976 0.0118576 -0.281384 -0.0302435 -1.14961 -9.24238 -0.720901
3987.636795759 0.00652833 -0.28285 -0.0362389 -1.13284 -9.17292 -0.60115
3987.641547441 0.00399694 -0.278853 -0.0413017 -1.11608 -9.19448 -0.61073
3987.646299601 0.00652833 -0.277654 -0.0526263 -1.0562 -9.15376 -0.598755
3987.651012897 0.0122573 -0.27379 -0.0608867 -1.10171 -9.15137 -0.531694
3987.655803204 0.0210505 -0.268061 -0.0647504 -1.14482 -9.05796 -0.447869
3987.660555124 0.0259801 -0.257136 -0.0624855 -1.23104 -8.96695 -0.447869
3987.665307045 0.0309096 -0.244479 -0.0548913 -1.3005 -8.90468 -0.411943
3987.670419216 0.0331746 -0.229557 -0.0514273 -1.40109 -8.91426 -0.459844
3987.674811125 0.03051 -0.214636 -0.0398361 -1.40827 -8.93342 -0.407153
3987.679562807 0.0214502 -0.198515 -0.0271792 -1.3963 -8.98611 -0.534089
3987.684314728 0.0115911 -0.180395 -0.0207841 -1.32205 -9.01485 -0.483794
3987.689066648 -0.000266462 -0.168671 -0.0155881 -1.29331 -9.06754 -0.490979
3987.693818569 -0.0135896 -0.152683 -0.0207841 -1.2023 -9.05317 -0.61073
3987.698570490 -0.0274456 -0.145888 -0.0197182 -1.11608 -9.0388 -0.65384
3987.703322649 -0.031709 -0.135096 -0.0314426 -1.06339 -9.05078 -0.565225
3987.708074331 -0.0399694 -0.133231 -0.0436998 -1.00112 -9.0388 -0.5772
3987.712826252 -0.0330413 -0.12657 -0.0603538 -0.974773 -9.01725 -0.651445
3987.717577934 -0.0262466 -0.12204 -0.0784732 -0.965193 -8.95737 -0.56283
3987.722330093 -0.0085268 -0.118176 -0.0953936 -0.917292 -8.91187 -0.486189
3987.727082014 0.0162542 -0.114312 -0.114046 -0.914897 -8.91905 -0.414338
3987.731833935 0.049562 -0.11258 -0.129634 -0.871787 -8.98372 -0.308958
3987.736585855 0.0808714 -0.109116 -0.144822 -0.893342 -9.08191 -0.141306
3987.741625786 0.112447 -0.10392 -0.161077 -0.835862 -9.2807 -0.0287402
3987.746089458 0.140292 -0.096193 -0.172534 -0.862207 -9.44596 -0.0263452
3987.750841618 0.164807 -0.0872665 -0.179995 -0.962798 -9.4747 -0.0335303
3987.755593538 0.176931 -0.0759418 -0.185991 -0.953218 -9.50823 -0.00958008
3987.760309219 0.180262 -0.0630184 -0.193052 -0.969983 -9.5705 -0.00239502
3987.765097380 0.185591 -0.0578224 -0.193718 -0.972378 -9.61121 -0
3987.769849300 0.181994 -0.0470306 -0.192519 -0.972378 -9.60163 0.0287402
3987.774600983 0.177331 -0.040902 -0.200247 -0.912502 -9.59924 0.0359253
3987.779314280 0.171469 -0.0343737 -0.202511 -1.02507 -9.57289 0.0694556
3987.784105062 0.162809 -0.029977 -0.200247 -1.0586 -9.5705 0.0431104
3987.788856983 0.150551 -0.0253139 -0.195317 -1.12087 -9.5705 0.0766406
3987.793608904 0.136562 -0.021317 -0.187456 -1.17595 -9.53218 -0.0119751
3987.798321962 0.11298 -0.0133231 -0.18226 -1.25739 -9.55134 -0.0838257
3987.803112507 0.099657 -0.00999234 -0.175865 -1.29331 -9.56571 -0.114961
3987.807864666 0.0795391 -0.00786064 -0.162675 -1.33403 -9.44356 -0.100591
3987.812976599 0.0628851 -0.0042634 -0.151617 -1.42264 -9.30226 -0.110171
3987.817368507 0.0522266 -0.00346401 -0.137894 -1.46336 -9.27591 -0.102986
3987.822120428 0.0433002 -0.000666156 -0.126969 -1.49449 -9.20406 -0.100591
3987.826872110 0.0342404 0.00266462 -0.116178 -1.4921 -9.20167 -0.117356
3987.831984282 0.0313093 0.0021317 -0.105119 -1.51365 -9.14658 -0.0670605
3987.836376190 0.0202511 -0.00319755 -0.0984579 -1.49449 -9.12502 -0.0718506
3987.841127872 0.0118576 -0.00679479 -0.096193 -1.55676 -9.05317 -0.0383203
3987.845880032 0.00599541 -0.0111914 -0.0960597 -1.52084 -9.05796 -0.0431104
3987.850631952 0.00106585 -0.0225161 -0.102455 -1.46815 -9.02922 -0.0311353
3987.855383635 0.000266462 -0.0346401 -0.105253 -1.36995 -9.13221 -0.0742456
3987.860135555 0.00133231 -0.0527596 -0.125637 -1.28373 -9.12981 0.0550854
3987.864887714 -0.00159877 -0.0700796 -0.140692 -1.31487 -9.02683 -0.0718506
3987.869639397 0.00159877 -0.0920628 -0.159744 -1.16877 -9.10826 -0.0814307
3987.874391556 0.00839357 -0.110582 -0.177864 -1.09931 -9.17532 0.100591
3987.879143238 0.00786064 -0.134963 -0.197049 -1.07776 -9.17771 0.0790356
3987.883895159 0.0110582 -0.157746 -0.214636 -1.23344 -9.15376 0.0479004
3987.888647079 0.0118576 -0.175066 -0.229957 -1.29092 -9.11305 0.00718506
3987.893399000 0.00519602 -0.193185 -0.242081 -1.2981 -9.13221 -0.0550854
3987.898150921 -0.00572894 -0.209839 -0.243014 -1.346 -8.95737 -0.0790356
3987.903262854 -0.0218499 -0.216501 -0.241015 -1.4418 -8.87594 -0.0910107
3987.907618761 -0.0358392 -0.225294 -0.238084 -1.47054 -8.97174 -0.0526904
3987.912406683 -0.0544916 -0.234487 -0.231156 -1.51844 -8.97174 -0.00718506
3987.917158604 -0.0770077 -0.238884 -0.221564 -1.49928 -9.02683 -0.0263452
3987.921910524 -0.101922 -0.23955 -0.210106 -1.4921 -8.9933 -0.0383203
3987.926662445 -0.129101 -0.238884 -0.199047 -1.54 -8.97414 -0.0502954
3987.931414604 -0.145489 -0.242081 -0.183326 -1.62622 -8.943 -0.0143701
3987.936166286 -0.158012 -0.24328 -0.161077 -1.66693 -9.01006 -0.0263452
3987.940918207 -0.16947 -0.240349 -0.143357 -1.69088 -9.01485 0.0215552
3987.945631742 -0.171602 -0.234221 -0.128835 -1.70765 -8.98611 -0.0215552
3987.950422049 -0.177198 -0.232489 -0.111248 -1.68609 -9.06515 -0.0814307
3987.955173969 -0.177064 -0.228358 -0.0955268 -1.67891 -9.06754 -0.110171
3987.959925890 -0.177464 -0.223029 -0.077807 -1.7316 -8.95498 -0.0502954
3987.964677811 -0.1736 -0.211704 -0.0620858 -1.6837 -9.01246 -0.0742456
3987.969429731 -0.16907 -0.206375 -0.04783 -1.67891 -9.01725 -0.138911
3987.974541664 -0.157746 -0.199714 -0.0361057 -1.57832 -9.00527 -0.00479004
3987.978933573 -0.142691 -0.190121 -0.0253139 -1.51365 -9.03641 0.0502954
3987.983685493 -0.130034 -0.181328 -0.0166539 -1.4921 -9.01964 0.0431104
3987.988437414 -0.120441 -0.167072 -0.00746095 -1.56634 -9.08431 0.0742456
3987.993189335 -0.110848 -0.154948 0.00812711 -1.56634 -9.16813 -0.00239502
3987.997941256 -0.108184 -0.137894 0.0191853 -1.54239 -9.16574 -0.0910107
3988.002692938 -0.106718 -0.124838 0.0301103 -1.54479 -9.20406 0.00239502
3988.007445097 -0.10392 -0.105919 0.0450322 -1.50168 -9.24717 -0.0670605
3988.012197018 -0.099657 -0.0928622 0.0542251 -1.43701 -9.26154 -0.0958008
3988.016948938 -0.0980582 -0.0784732 0.0627519 -1.36516 -9.25196 -0.117356
3988.021700859 -0.0943277 -0.0626187 0.0642175 -1.16877 -9.27112 -0.136516
3988.026452780 -0.0892649 -0.0520934 0.0591547 -1.08015 -9.32142 -0.170046
3988.031204462 -0.0787397 -0.03917 0.0572894 -0.986748 -9.25436 -0.201182
3988.035956621 -0.0648836 -0.0279786 0.0455651 -0.955613 -9.10586 -0.143701
3988.040708303 -0.0451654 -0.0171868 0.0414349 -0.955613 -9.04838 -0.198787
3988.045820236 -0.0243813 -0.00919296 0.0274456 -0.938848 -8.9909 -0.162861
3988.050212383 0.00706126 0.00226493 0.0253139 -0.953218 -9.08191 -0.0598755
3988.054928064 0.0329081 0.0118576 0.0159877 -0.969983 -9.11784 -0.0622705
3988.059715986 0.0671485 0.0227825 0.00826034 -0.972378 -9.15616 -0.0335303
3988.064468145 0.0948606 0.0311761 0.00413017 -0.955613 -9.23759 0.0431104
3988.069219828 0.12244 0.0436998 0.00466309 -0.934058 -9.33579 0.0167651
3988.073935747 0.147487 0.0556907 0.00546248 -0.878972 -9.35974 -0.0191602
3988.078759909 0.163874 0.065683 0.00199847 -0.888552 -9.35734 -0.0431104
3988.083475590 0.182127 0.0767412 0.00839357 -0.934058 -9.28789 -0.0143701
3988.088227510 0.198381 0.0899311 0.0129234 -0.960403 -9.19448 -0.0455054
3988.092940807 0.2173 0.100323 0.0218499 -0.998723 -9.12263 -0.0814307
3988.097731352 0.234487 0.112714 0.0385038 -1.08494 -8.9933 -0.122146
3988.102483511 0.242614 0.124172 0.0575559 -1.1544 -8.92145 -0.0958008
3988.107235432 0.255538 0.142158 0.0770077 -1.18553 -8.96695 -0.0383203
3988.111948490 0.25647 0.152949 0.0951271 -1.17595 -9.08191 -0.0862207
3988.117099285 0.258335 0.160144 0.120308 -1.10171 -9.24957 -0.0958008
3988.121490955 0.255005 0.170936 0.136296 -1.03465 -9.3765 -0.119751
3988.126242876 0.246478 0.17893 0.149086 -0.917292 -9.47709 -0.0335303
3988.130995035 0.237685 0.187456 0.163608 -0.845442 -9.63037 -0.00479004
3988.136106730 0.222096 0.193185 0.165473 -0.780776 -9.67348 0.0359253
3988.140498638 0.215302 0.190521 0.169603 -0.713716 -9.70941 0.0407153
3988.145250559 0.204776 0.191986 0.171735 -0.756826 -9.74054 0.0718506
3988.150002480 0.196383 0.193718 0.170669 -0.716111 -9.70941 0.0287402
3988.154754400 0.190521 0.187323 0.169737 -0.732876 -9.67109 0.0622705
3988.159506559 0.174533 0.187456 0.168271 -0.704136 -9.64235 0.0646655
3988.164258242 0.15708 0.181061 0.161743 -0.699346 -9.67588 0.0981958
3988.169010162 0.136962 0.177198 0.154282 -0.641865 -9.73575 0.177231
3988.173762083 0.122706 0.173334 0.14389 -0.64905 -9.71899 0.208367
3988.178514004 0.105519 0.166006 0.124838 -0.622705 -9.81 0.232317
3988.183265924 0.0935283 0.158012 0.113646 -0.66821 -9.85551 0.301772
3988.188018084 0.0827366 0.151484 0.0995237 -0.749641 -9.86509 0.292192
3988.192769766 0.0742098 0.142291 0.0912634 -0.847837 -9.8579 0.275427
3988.197521687 0.0666156 0.140426 0.0780735 -0.862207 -9.8076 0.258662
3988.202237606 0.0563568 0.134164 0.0723446 -0.900527 -9.80521 0.265847
3988.207385540 0.0528928 0.128968 0.0706126 -0.934058 -9.76689 0.296982
3988.211777449 0.0487626 0.124971 0.0626187 -1.05141 -9.75012 0.213157
3988.216529369 0.0464977 0.121374 0.0610199 -1.14961 -9.75252 0.313748
3988.221245289 0.0476968 0.115778 0.0675482 -1.18793 -9.77647 0.246687
3988.226033211 0.049562 0.110982 0.0614196 -1.16398 -9.80521 0.273032
3988.230784893 0.0500949 0.108583 0.0599541 -1.16398 -9.79323 0.285007
3988.235537052 0.0514273 0.107917 0.0558239 -1.16398 -9.74773 0.330513
3988.240250349 0.0503614 0.105519 0.0499617 -1.11608 -9.69743 0.376018
3988.245040894 0.046098 0.10472 0.0451654 -1.17835 -9.65911 0.306563
3988.249792814 0.0394364 0.105919 0.0433002 -1.20948 -9.67348 0.285007
3988.254544735 0.0250475 0.112447 0.0413017 -1.2981 -9.81958 0.270637
3988.259258032 0.000399694 0.118043 0.0431669 -1.42264 -9.86269 0.232317
3988.264048576 -0.0133231 0.124971 0.0502282 -1.49689 -9.82198 0.299377
3988.268836260 -0.0274456 0.136162 0.0543583 -1.45857 -9.79084 0.301772
3988.273552418 -0.0422343 0.140825 0.0644839 -1.45378 -9.83395 0.239502
3988.278664351 -0.051294 0.145888 0.0696799 -1.45138 -9.87706 0.292192
3988.283056021 -0.0592879 0.152283 0.0814043 -1.52323 -9.82677 0.285007
3988.287807941 -0.0663492 0.155481 0.0900643 -1.49928 -9.85311 0.313748
3988.292560101 -0.0730107 0.165074 0.0964594 -1.4897 -9.81958 0.330513
3988.297311783 -0.0740766 0.16534 0.106585 -1.4921 -9.83395 0.311353
3988.302063942 -0.0796723 0.171868 0.113513 -1.50886 -9.73575 0.402363
3988.306815863 -0.0782067 0.177997 0.122573 -1.50168 -9.64953 0.342488
3988.311567545 -0.073144 0.180395 0.129368 -1.52323 -9.5226 0.320933
3988.316319466 -0.0643507 0.184925 0.130167 -1.57113 -9.46033 0.316143
3988.321071625 -0.0486294 0.19545 0.141625 -1.54958 -9.30226 0.320933
3988.325823307 -0.0333078 0.196383 0.143357 -1.55437 -9.1849 0.313748
3988.330575466 -0.0189188 0.207574 0.144023 -1.56874 -9.16813 0.179626
3988.335327148 -0.00586217 0.211438 0.143623 -1.51605 -9.12742 0.148491
3988.340079069 0.0131899 0.213303 0.133764 -1.44899 -9.05078 0.158071
3988.344830990 0.0309096 0.216368 0.127502 -1.33403 -9.06036 0.215552
3988.349870920 0.0499617 0.218366 0.115245 -1.27894 -9.08191 0.186812
3988.354334831 0.0698132 0.22223 0.103521 -1.29331 -9.1346 0.119751
3988.359086990 0.0856677 0.225294 0.0947274 -1.33403 -9.0891 0.0958008
3988.363874674 0.108051 0.226227 0.0896646 -1.40588 -9.06754 0.0838257
3988.368554592 0.126836 0.227026 0.0850015 -1.51605 -9.04838 0.0526904
3988.373342514 0.140559 0.228891 0.0840689 -1.46815 -9.12502 -0.0215552
3988.378094435 0.156946 0.227692 0.0826034 -1.48252 -9.19927 -0.0718506
3988.382846355 0.170936 0.228358 0.0808714 -1.46096 -9.27112 -0.0886157
3988.387559414 0.183859 0.225028 0.080072 -1.45138 -9.27591 -0.105381
3988.392349958 0.197049 0.222763 0.0819372 -1.42264 -9.18969 -0.162861
3988.397102118 0.205043 0.222363 0.0816708 -1.38911 -9.18729 -0.165256
3988.401854038 0.214636 0.218632 0.0795391 -1.42983 -9.20646 -0.210762
3988.406567335 0.226893 0.216634 0.0839357 -1.44659 -9.17771 -0.232317
3988.411357880 0.236086 0.215701 0.0969923 -1.49449 -9.19927 -0.275427
3988.416110039 0.241415 0.21357 0.102588 -1.57592 -9.21125 -0.325723
3988.421221733 0.24821 0.211305 0.119375 -1.5879 -9.32381 -0.387993
3988.425613642 0.254738 0.205443 0.134031 -1.54718 -9.37171 -0.419128
3988.430365324 0.26966 0.200113 0.141625 -1.47773 -9.44835 -0.397573
3988.435117483 0.278986 0.190521 0.153083 -1.43941 -9.57768 -0.443079
3988.440229654 0.287646 0.182926 0.164541 -1.35079 -9.64235 -0.476609
3988.444621325 0.297372 0.166006 0.165473 -1.31247 -9.62558 -0.58199
3988.449373007 0.301236 0.154415 0.173334 -1.29331 -9.60642 -0.728086
3988.454125166 0.302835 0.136695 0.169337 -1.26697 -9.53697 -0.752036
3988.458876848 0.302035 0.118043 0.179196 -1.21667 -9.49386 -0.831072
3988.463629007 0.301369 0.0995237 0.178263 -1.17595 -9.43398 -0.902922
3988.468380928 0.300836 0.0772741 0.181727 -1.17595 -9.38129 -0.924478
3988.473132849 0.295507 0.0582221 0.179729 -1.16877 -9.3286 -0.847837
3988.477884531 0.289778 0.0379709 0.181727 -1.14721 -9.2831 -0.955613
3988.482636690 0.288179 0.017853 0.18226 -1.16637 -9.30226 -0.989143
3988.487388372 0.276322 -0.00119908 0.183326 -1.22385 -9.30944 -0.979563
3988.492140532 0.266729 -0.0255804 0.188789 -1.23344 -9.34058 -1.01309
3988.496856451 0.260201 -0.0474303 0.190121 -1.17835 -9.36932 -0.917292
3988.501644373 0.255937 -0.0742098 0.193052 -1.12087 -9.47709 -0.871787
3988.506396055 0.250741 -0.10059 0.187856 -1.03704 -9.50344 -0.804727
3988.511507988 0.248876 -0.127369 0.185591 -0.984353 -9.5705 -0.740061
3988.515864134 0.247943 -0.15668 0.183726 -0.948428 -9.50583 -0.723296
3988.520652056 0.245678 -0.187456 0.180129 -0.900527 -9.50344 -0.675396
3988.525403738 0.242481 -0.21317 0.173734 -0.893342 -9.4723 -0.651445
3988.530155897 0.24408 -0.239816 0.172934 -0.881367 -9.46272 -0.61073
3988.534907579 0.246478 -0.265263 0.167738 -0.881367 -9.41003 -0.464634
3988.539659500 0.243813 -0.289378 0.172401 -0.845442 -9.39087 -0.440684
3988.544411421 0.235286 -0.308697 0.176798 -0.855022 -9.41722 -0.411943
3988.549163580 0.229158 -0.331613 0.174133 -0.857417 -9.4723 -0.387993
3988.553876877 0.213703 -0.348533 0.174799 -0.792751 -9.49625 -0.325723
3988.558667421 0.198248 -0.36159 0.172668 -0.785566 -9.53936 -0.263452
3988.563419104 0.179329 -0.373714 0.17773 -0.823887 -9.60882 -0.265847
3988.568171024 0.157213 -0.382907 0.18266 -0.900527 -9.61121 -0.213157
3988.572922945 0.132832 -0.394231 0.188256 -0.953218 -9.55373 -0.138911
3988.577675104 0.106718 -0.401426 0.191187 -0.888552 -9.58966 -0.265847
3988.582787037 0.0784732 -0.413949 0.196916 -0.881367 -9.60403 -0.268242
3988.587178946 0.0467642 -0.419945 0.20864 -0.843047 -9.56331 -0.270637
3988.591930389 0.0119908 -0.427406 0.210372 -0.847837 -9.48667 -0.296982
3988.596682549 -0.0169204 -0.437132 0.216368 -0.900527 -9.42919 -0.268242
3988.601434469 -0.037438 -0.447923 0.218499 -0.905317 -9.38369 -0.251477
3988.606186390 -0.0560904 -0.456317 0.229424 -0.946033 -9.39806 -0.222737
3988.610938311 -0.0724778 -0.464844 0.235153 -0.943638 -9.39087 -0.193997
3988.615690470 -0.0794058 -0.473371 0.240749 -0.946033 -9.43159 -0.222737
3988.620441914 -0.0808714 -0.476168 0.242614 -0.984353 -9.48188 -0.205972
3988.625194073 -0.0858009 -0.483763 0.247011 -0.953218 -9.56092 -0.220342
3988.629945993 -0.0843354 -0.490824 0.242881 -0.929268 -9.5681 -0.225132
3988.634697914 -0.0899311 -0.492689 0.242481 -0.895737 -9.55613 -0.273032
3988.639449835 -0.0907305 -0.494554 0.234087 -0.893342 -9.51781 -0.270637
3988.644201994 -0.0892649 -0.501349 0.22223 -0.864602 -9.52499 -0.308958
3988.648953438 -0.0971256 -0.504147 0.213303 -0.778381 -9.55373 -0.340093
3988.654065609 -0.0965926 -0.502548 0.204377 -0.740061 -9.53457 -0.380808
3988.658457518 -0.097925 -0.503881 0.19172 -0.735271 -9.5202 -0.395178
3988.663173437 -0.101123 -0.498418 0.187856 -0.792751 -9.49386 -0.304167
3988.667961359 -0.105652 -0.495887 0.180129 -0.828677 -9.50583 -0.376018
3988.672713280 -0.111115 -0.49149 0.175732 -0.785566 -9.49865 -0.258662
3988.677464962 -0.118975 -0.483496 0.167338 -0.692161 -9.51781 -0.304167
3988.682181120 -0.127236 -0.475769 0.164407 -0.720901 -9.55134 -0.237107
3988.686968803 -0.134297 -0.466576 0.16041 -0.692161 -9.63756 -0.225132
3988.691720963 -0.137761 -0.454319 0.155747 -0.701741 -9.67588 -0.198787
3988.696472883 -0.141358 -0.43913 0.152683 -0.696951 -9.67348 -0.215552
3988.701185703 -0.141492 -0.425807 0.147354 -0.804727 -9.62079 -0.191602
3988.705976486 -0.130167 -0.406222 0.149885 -0.874182 -9.60642 -0.146096
3988.710728645 -0.123505 -0.385305 0.15668 -0.986748 -9.5681 -0.217947
3988.715480328 -0.115112 -0.362922 0.165074 -1.02986 -9.61361 -0.196392
3988.720193863 -0.103121 -0.33934 0.167205 -1.05381 -9.58966 -0.289797
3988.725344658 -0.0897979 -0.315358 0.17813 -1.03225 -9.55852 -0.277822
3988.729736328 -0.0755421 -0.293642 0.185591 -1.0586 -9.53457 -0.289797
3988.734488010 -0.0595544 -0.26966 0.186124 -1.06578 -9.58008 -0.222737
3988.739239931 -0.0415681 -0.245279 0.194651 -1.0107 -9.60163 -0.282612
3988.744352102 -0.0233155 -0.224361 0.19998 -0.977168 -9.60403 -0.251477
3988.748744011 -0.00253139 -0.205842 0.197182 -1.03944 -9.59684 -0.134121
