# Format: timestamp angular_velocity[rad/sec](x y z) linear_acceleration[m/s^2](x y z)
3983.719057083 0.217833 0.074876 -0.0928622 -0.833467 -10.0256 -2.15552
3983.723773003 0.218899 0.0763415 -0.111914 -0.833467 -10.0447 -2.13875
3983.728560925 0.223162 0.0794058 -0.132432 -0.787961 -10.0303 -2.12678
3983.733312845 0.224095 0.0784732 -0.143224 -0.823887 -10.0735 -2.11959
3983.738064766 0.228092 0.087 -0.162942 -0.912502 -10.0447 -2.18905
3983.742777824 0.230623 0.0863338 -0.174933 -0.914897 -9.99202 -2.22976
3983.747568607 0.236086 0.0872665 -0.187856 -0.953218 -9.82677 -2.25132
3983.752680302 0.242881 0.0855345 -0.201046 -0.922083 -9.67348 -2.24653
3983.757072210 0.25194 0.0791394 -0.214369 -0.835862 -9.49146 -2.30401
3983.761785746 0.259668 0.0848683 -0.22596 -0.790356 -9.39566 -2.29682
3983.766576052 0.268061 0.0799387 -0.233421 -0.785566 -9.39566 -2.34233
3983.771328211 0.275389 0.0772741 -0.239283 -0.785566 -9.41482 -2.27287
3983.776080132 0.276721 0.0772741 -0.243946 -0.838257 -9.36453 -2.29203
3983.780832052 0.278853 0.07834 -0.24781 -0.910107 -9.35495 -2.27527
3983.785583735 0.273923 0.0792726 -0.248343 -0.888552 -9.47709 -2.28006
3983.790335894 0.268594 0.0762083 -0.251674 -0.910107 -9.53697 -2.23216
3983.795087576 0.2614 0.0807381 -0.249009 -0.790356 -9.50583 -2.23216
3983.799839735 0.245812 0.077807 -0.25194 -0.780776 -9.48428 -2.22976
3983.804591656 0.229025 0.0782067 -0.259934 -0.761616 -9.49386 -2.22018
3983.809343576 0.206642 0.0788729 -0.269793 -0.680186 -9.55134 -2.27287
3983.814095259 0.181594 0.0771409 -0.278054 -0.687371 -9.48907 -2.33514
3983.818847418 0.157346 0.0767412 -0.287113 -0.622705 -9.54655 -2.30401
3983.823959351 0.133498 0.074343 -0.303767 -0.56762 -9.54415 -2.27287
3983.828351259 0.122306 0.0699464 -0.314959 -0.62989 -9.5226 -2.27287
3983.833102942 0.115645 0.0644839 -0.329747 -0.670605 -9.48428 -2.25611
3983.837855101 0.109116 0.0670153 -0.335077 -0.778381 -9.31663 -2.28006
3983.842606783 0.110049 0.0616861 -0.340139 -0.787961 -9.21604 -2.3088
3983.847358704 0.113646 0.0584885 -0.344003 -0.718506 -9.17532 -2.31119
3983.852074862 0.116577 0.0555574 -0.345335 -0.692161 -9.27831 -2.32317
3983.856862783 0.123372 0.053026 -0.347067 -0.646655 -9.34537 -2.28485
3983.861614466 0.125371 0.0476968 -0.350265 -0.64426 -9.35974 -2.2609
3983.866366625 0.129368 0.046098 -0.35706 -0.55325 -9.36453 -2.30161
3983.871082544 0.133764 0.0451654 -0.363588 -0.483794 -9.46751 -2.31598
3983.875870228 0.140959 0.040902 -0.369983 -0.423918 -9.56092 -2.3064
3983.880622149 0.143357 0.0390368 -0.380642 -0.376018 -9.57289 -2.34472
3983.885374308 0.153749 0.037438 -0.390634 -0.402363 -9.60403 -2.32796
3983.890125990 0.161876 0.0383706 -0.402891 -0.407153 -9.62558 -2.38065
3983.894878149 0.172668 0.0417014 -0.41275 -0.399968 -9.73096 -2.38065
3983.899629831 0.18226 0.046098 -0.425407 -0.241897 -9.72378 -2.34951
3983.904381752 0.191587 0.044366 -0.436732 -0.263452 -9.70462 -2.40699
3983.909095287 0.201845 0.0475636 -0.452986 -0.172441 -9.54655 -2.32077
3983.914245605 0.218499 0.0488959 -0.463911 -0.193997 -9.58966 -2.27527
3983.918637514 0.232089 0.0538254 -0.4791 -0.232317 -9.61361 -2.22976
3983.923389673 0.252473 0.0558239 -0.481764 -0.342488 -9.616 -2.16989
3983.928141117 0.266196 0.0667489 -0.478167 -0.455054 -9.63277 -2.09325
3983.932893276 0.290844 0.072611 -0.467775 -0.60594 -9.72138 -1.95194
3983.937645197 0.312827 0.0866003 -0.448856 -0.759221 -9.83395 -1.78668
3983.942397118 0.33934 0.0941945 -0.419279 -0.936453 -9.93694 -1.67172
3983.947149038 0.363322 0.106052 -0.386504 -0.981958 -9.86509 -1.63819
3983.951901197 0.388902 0.117377 -0.351331 -0.936453 -9.82677 -1.70765
3983.956652641 0.402758 0.125104 -0.316291 -0.886157 -9.89143 -1.71723
3983.961404800 0.416481 0.135896 -0.285115 -0.699346 -10.0663 -1.70046
3983.966156721 0.423142 0.136562 -0.262332 -0.505349 -10.0327 -1.69088
3983.970908642 0.43087 0.141225 -0.242747 -0.332908 -10.0303 -1.65975
3983.975660563 0.433801 0.137495 -0.233288 -0.129331 -9.89143 -1.58311
3983.980412722 0.431136 0.136429 -0.223695 -0.0646655 -9.89622 -1.57113
3983.985524416 0.430337 0.136562 -0.219565 0.00958008 -9.82437 -1.58311
3983.989916325 0.420877 0.137361 -0.212371 0.0191602 -9.81719 -1.57353
3983.994668007 0.409286 0.136828 -0.209573 0.0263452 -9.86988 -1.47533
3983.999420166 0.396496 0.138161 -0.203577 -0.00239502 -10.0351 -1.46096
3984.004172087 0.379842 0.138827 -0.200646 0.0766406 -10.1884 -1.3939
3984.008924007 0.355727 0.143623 -0.197315 0.0910107 -10.2914 -1.36037
3984.013675690 0.326949 0.148286 -0.197049 0.196392 -10.3728 -1.35319
3984.018391848 0.298438 0.151217 -0.192386 0.213157 -10.3896 -1.24302
3984.023179531 0.267395 0.156014 -0.193319 0.213157 -10.3345 -1.22146
3984.027931690 0.23502 0.160943 -0.19172 0.359253 -10.3609 -1.20469
3984.032683611 0.203844 0.161077 -0.189188 0.399968 -10.3345 -1.17835
3984.037399292 0.167072 0.165473 -0.187456 0.498164 -10.2866 -1.19032
3984.042187214 0.139493 0.166406 -0.188389 0.483794 -10.2411 -1.07776
3984.046939373 0.114312 0.165074 -0.185325 0.524509 -10.2387 -1.0586
3984.051691055 0.0905972 0.164674 -0.183326 0.524509 -10.2004 -1.04662
3984.056404352 0.0720781 0.172002 -0.181328 0.517324 -10.2315 -0.989143
3984.061195135 0.0680812 0.163208 -0.179329 0.481399 -10.1118 -0.907712
3984.065947056 0.0706126 0.166406 -0.175865 0.414338 -10.0615 -0.847837
3984.070698738 0.0770077 0.166539 -0.170536 0.411943 -9.98723 -0.838257
3984.074262857 0.0933951 0.166806 -0.163608 0.438289 -9.92736 -0.859812
3984.080202579 0.112447 0.166273 -0.162942 0.467029 -9.83635 -0.866997
3984.084954739 0.130433 0.166273 -0.159611 0.498164 -9.75012 -0.912502
3984.089706421 0.149086 0.163075 -0.157746 0.502954 -9.64235 -0.878972
3984.094458580 0.173201 0.165473 -0.159078 0.457449 -9.59684 -0.919688
3984.099210262 0.189055 0.161743 -0.156147 0.366438 -9.47949 -0.989143
3984.103962183 0.20864 0.159078 -0.151617 0.428708 -9.34537 -1.00112
3984.108714104 0.221564 0.159078 -0.14389 0.409548 -9.28549 -1.02267
3984.113466263 0.23009 0.165473 -0.133498 0.414338 -9.22801 -1.11368
3984.118217945 0.244746 0.157213 -0.120041 0.364043 -9.17053 -1.1544
3984.122970104 0.255404 0.158145 -0.101655 0.289797 -9.13221 -1.07057
3984.128082037 0.268594 0.157346 -0.085268 0.306563 -9.03641 -1.07057
3984.132473707 0.282717 0.152017 -0.0647504 0.265847 -9.07233 -1.02746
3984.137225628 0.29151 0.147887 -0.0435666 0.263452 -9.0891 -0.986748
3984.141977549 0.301236 0.147753 -0.0266462 0.352068 -9.12263 -1.01309
3984.146729469 0.304966 0.141358 -0.00985911 0.455054 -9.22083 -1.01549
3984.151481628 0.303501 0.13523 0.00706126 0.538879 -9.13939 -0.972378
3984.156233072 0.295907 0.127502 0.0175865 0.66342 -9.16813 -0.981958
3984.160985231 0.29151 0.120708 0.0269127 0.680186 -9.21604 -1.02986
3984.165701389 0.279386 0.112314 0.0354395 0.775986 -9.20885 -1.02267
3984.170453072 0.270459 0.107518 0.0436998 0.761616 -9.20406 -1.02986
3984.175240994 0.260067 0.0989908 0.0486294 0.797542 -9.16334 -0.962798
3984.179993153 0.254738 0.0900643 0.051827 0.790356 -9.12742 -0.946033
3984.184708834 0.245012 0.0799387 0.0578224 0.780776 -9.17292 -0.984353
3984.189460754 0.235286 0.070879 0.0654165 0.790356 -9.24717 -0.910107
3984.194212914 0.224761 0.0620858 0.0722113 0.802332 -9.25436 -0.934058
3984.198964596 0.214236 0.0534257 0.0746095 0.716111 -9.27831 -0.838257
3984.203677654 0.205842 0.0411685 0.0828698 0.708926 -9.29268 -0.850232
3984.208468437 0.196516 0.0311761 0.0855345 0.773591 -9.2831 -0.804727
3984.213220358 0.187856 0.0186524 0.0896646 0.811912 -9.35255 -0.835862
3984.218332529 0.183593 0.00319755 0.0908637 0.847837 -9.25915 -0.747246
3984.222685575 0.183726 -0.00746095 0.0855345 0.874182 -9.1849 -0.790356
3984.227476120 0.181328 -0.0269127 0.0819372 0.967588 -9.17053 -0.843047
3984.232228041 0.176665 -0.0373047 0.0755421 0.965193 -9.09868 -0.852627
3984.236979723 0.179729 -0.0519602 0.0715452 1.01788 -9.07952 -0.878972
3984.241731882 0.172268 -0.0600873 0.0654165 0.967588 -9.09149 -0.866997
3984.246483803 0.175199 -0.0755421 0.0546248 0.972378 -9.21364 -0.876577
3984.251235723 0.174133 -0.0867335 0.0462312 1.04183 -9.24717 -0.900527
3984.255987644 0.173067 -0.0989908 0.0369051 1.04902 -9.37411 -0.907712
3984.260739565 0.171602 -0.111648 0.0222496 1.07536 -9.38369 -0.912502
3984.265491247 0.172268 -0.121374 0.00959265 1.08255 -9.39087 -0.881367
3984.270243406 0.176132 -0.135096 -0.00559571 1.13045 -9.39327 -0.855022
3984.274995327 0.17893 -0.146954 -0.0209173 1.16398 -9.41482 -0.759221
3984.279747248 0.180262 -0.160677 -0.0338407 1.14242 -9.45075 -0.771196
3984.284499168 0.181328 -0.176665 -0.0544916 1.16158 -9.3765 -0.804727
3984.289611101 0.179995 -0.18679 -0.0658162 1.16158 -9.30944 -0.816702
3984.294002771 0.181594 -0.202778 -0.0788729 1.16398 -9.26154 -0.823887
3984.298754930 0.175599 -0.217034 -0.0919296 1.18553 -9.20646 -0.852627
3984.303506613 0.172268 -0.227559 -0.100723 1.10889 -9.15376 -0.797542
3984.308258772 0.167605 -0.234887 -0.10925 1.04183 -9.14658 -0.811912
3984.312974691 0.161343 -0.241948 -0.106985 1.01549 -9.12742 -0.838257
3984.317762375 0.157746 -0.245945 -0.107784 0.998723 -9.24717 -0.814307
3984.322514296 0.158678 -0.250075 -0.108717 0.981958 -9.32381 -0.826282
3984.327266455 0.152816 -0.251141 -0.103521 0.924478 -9.39087 -0.785566
3984.331982374 0.15255 -0.251541 -0.10432 0.905317 -9.39566 -0.771196
3984.336770296 0.153216 -0.246345 -0.0981914 0.859812 -9.41961 -0.780776
3984.341522217 0.150418 -0.246345 -0.0913966 0.881367 -9.46751 -0.773591
3984.346273899 0.149219 -0.24408 -0.083536 0.888552 -9.49625 -0.823887
3984.350987196 0.147087 -0.235819 -0.081804 0.902922 -9.4244 -0.797542
3984.355777979 0.141891 -0.238351 -0.0807381 0.996328 -9.41003 -0.866997
3984.360889912 0.131233 -0.236086 -0.0838025 1.08494 -9.35974 -0.910107
3984.365281820 0.123106 -0.23462 -0.0855345 1.13763 -9.35016 -0.886157
3984.369995117 0.106718 -0.232888 -0.0840689 1.09452 -9.30944 -0.991538
3984.374785423 0.0923292 -0.231556 -0.0872665 1.12566 -9.331 -0.998723
3984.379537344 0.0776738 -0.234087 -0.0891317 1.09931 -9.41961 -0.938848
3984.384289265 0.0678147 -0.235819 -0.0932619 1.09452 -9.55852 -0.922083
3984.389041185 0.0620858 -0.236219 -0.0901975 1.14242 -9.65911 -0.878972
3984.393793344 0.0506279 -0.235686 -0.0935283 1.19032 -9.72617 -0.852627
3984.398545027 0.0490291 -0.241681 -0.0981914 1.20469 -9.79323 -0.864602
3984.403296947 0.0452986 -0.23875 -0.102988 1.20709 -9.80521 -0.907712
3984.408048868 0.0369051 -0.240882 -0.106319 1.21188 -9.81958 -0.936453
3984.412800789 0.0394364 -0.238884 -0.106185 1.24541 -9.76689 -0.931663
3984.417552710 0.0354395 -0.242081 -0.111515 1.33163 -9.68067 -1.01549
3984.422304869 0.0333078 -0.238484 -0.122173 1.26218 -9.61361 -1.04183
3984.427056551 0.0330413 -0.239017 -0.123772 1.21667 -9.55852 -1.09692
3984.432168484 0.028245 -0.239283 -0.127369 1.22625 -9.44835 -1.07057
3984.436560392 0.0202511 -0.237951 -0.126969 1.19272 -9.39327 -1.20948
3984.441312313 0.0141225 -0.236619 -0.127502 1.18074 -9.32381 -1.21667
3984.446064234 0.00572894 -0.235153 -0.126436 1.16877 -9.34297 -1.21667
3984.450816393 -0.00359724 -0.231289 -0.120441 1.17835 -9.31902 -1.18074
3984.455568075 -0.0042634 -0.227825 -0.115245 1.08734 -9.39327 -1.18553
3984.460319996 -0.00759418 -0.227292 -0.106052 1.0083 -9.51302 -1.15679
3984.465071678 0.000133231 -0.226626 -0.0944609 0.989143 -9.60642 -1.09931
3984.469823837 0.0151884 -0.225294 -0.0834028 0.943638 -9.63277 -1.01788
3984.474575758 0.0318423 -0.223695 -0.0739433 0.979563 -9.6639 -1.02028
3984.479291439 0.053559 -0.226093 -0.0694135 1.03704 -9.60882 -1.04183
3984.484079599 0.0706126 -0.225161 -0.0650168 1.06818 -9.57529 -1.07776
3984.488831520 0.0940613 -0.23049 -0.0543583 1.14482 -9.48428 -1.09452
3984.493583202 0.113913 -0.229158 -0.0539587 1.13524 -9.41003 -1.07536
3984.498335361 0.134297 -0.236219 -0.0532925 1.23823 -9.38129 -1.16398
3984.503087282 0.150285 -0.242481 -0.057023 1.31487 -9.39566 -1.17356
3984.507839203 0.159078 -0.241282 -0.0614196 1.35319 -9.43159 -1.11847
3984.512591124 0.167205 -0.249809 -0.0630184 1.42983 -9.56571 -1.12326
3984.517304420 0.168671 -0.248743 -0.0704793 1.36756 -9.53697 -1.152
3984.522454977 0.173467 -0.249409 -0.0680812 1.26697 -9.6184 -1.11368
3984.526846886 0.170536 -0.251141 -0.0640842 1.20948 -9.76449 -1.02267
3984.531598806 0.1736 -0.249142 -0.0578224 1.11847 -9.83395 -0.974773
3984.536350727 0.176132 -0.246345 -0.046098 1.10171 -9.9058 -0.950823
3984.541102648 0.180262 -0.244879 -0.0418346 1.07297 -9.97047 -0.898132
3984.545854330 0.184792 -0.242614 -0.0277121 1.08255 -10.0423 -0.910107
3984.550606251 0.181594 -0.238084 -0.0218499 1.13045 -10.0471 -0.969983
3984.555358410 0.180528 -0.23875 -0.0166539 1.20469 -10.1118 -0.948428
3984.560110092 0.174533 -0.233688 -0.0147887 1.28852 -10.1812 -0.974773
3984.564862251 0.165606 -0.230623 -0.0190521 1.38672 -10.1357 -0.993933
3984.569614172 0.158545 -0.227959 -0.0145222 1.33403 -10.0279 -1.00591
3984.574365854 0.147753 -0.225694 -0.0142557 1.35079 -9.94412 -1.02986
3984.579117775 0.13936 -0.220631 -0.0115911 1.28613 -9.87706 -1.0083
3984.583869934 0.135629 -0.218233 -0.00866003 1.21427 -9.81 -1.00351
3984.588621616 0.132299 -0.209839 -0.00373047 1.17595 -9.82916 -1.0107
3984.593733549 0.125504 -0.210772 0.00732772 1.06578 -9.87946 -0.977168
3984.598125696 0.128968 -0.204243 0.0163874 0.989143 -9.84114 -1.02507
3984.602877378 0.12617 -0.197715 0.0314426 0.931663 -9.89622 -0.991538
3984.607629299 0.129368 -0.19625 0.0401026 0.895737 -9.8579 -0.958008
3984.612381220 0.131766 -0.191453 0.0499617 0.850232 -9.81479 -0.946033
3984.617133141 0.131499 -0.186923 0.0571562 0.919688 -9.82198 -0.953218
3984.621885300 0.127636 -0.189988 0.0615528 1.00112 -9.82437 -1.02267
3984.626600981 0.12204 -0.18759 0.0602205 1.05141 -9.79802 -0.974773
3984.631388903 0.114579 -0.194917 0.0576891 1.02746 -9.79323 -1.00351
3984.636140823 0.10472 -0.195051 0.0538254 1.03704 -9.77168 -1.07297
3984.640892744 0.0893982 -0.195184 0.0451654 1.12326 -9.77407 -1.07776
3984.645608902 0.0774074 -0.19998 0.0346401 1.11847 -9.79323 -1.07057
3984.650396824 0.0610199 -0.209173 0.0279786 1.08973 -9.76689 -1.02267
3984.655148506 0.0519602 -0.210505 0.0185191 1.11129 -9.77647 -1.02267
3984.659900427 0.044366 -0.213836 0.00932619 1.06578 -9.84353 -0.886157
3984.664613724 0.0415681 -0.221697 0.00293109 1.03944 -9.92975 -0.811912
3984.669404268 0.0418346 -0.225294 -0.00572894 1.02267 -9.92017 -0.802332
3984.674156189 0.0413017 -0.233021 -0.00985911 0.998723 -9.91059 -0.802332
3984.678908348 0.0433002 -0.234753 -0.0177198 0.926873 -9.87946 -0.728086
3984.682471991 0.0483629 -0.243413 -0.0243813 0.866997 -9.8124 -0.740061
3984.688411951 0.0458315 -0.245945 -0.0261133 0.866997 -9.8124 -0.754431
3984.693163633 0.0451654 -0.246078 -0.0291776 0.816702 -9.82916 -0.740061
3984.697915792 0.0390368 -0.250741 -0.0329081 0.802332 -9.80281 -0.749641
3984.702667713 0.0329081 -0.253672 -0.0355727 0.797542 -9.73815 -0.725691
3984.707419634 0.024781 -0.255804 -0.0418346 0.780776 -9.74054 -0.759221
3984.712531567 0.0117243 -0.259002 -0.03917 0.752036 -9.68546 -0.823887
3984.716923475 0.000666156 -0.258469 -0.0419678 0.694556 -9.67827 -0.852627
3984.721675158 -0.0127902 -0.260867 -0.0414349 0.64905 -9.5705 -0.857417
3984.726427317 -0.0197182 -0.257802 -0.0402358 0.651445 -9.5226 -0.852627
3984.731179237 -0.0201179 -0.258202 -0.0383706 0.59636 -9.5705 -0.809517
3984.736290932 -0.0181194 -0.257536 -0.033974 0.479004 -9.57289 -0.802332
3984.740682840 -0.0186524 -0.257003 -0.0269127 0.440684 -9.59205 -0.799937
3984.745434999 -0.00879326 -0.251541 -0.023049 0.390388 -9.60642 -0.775986
3984.750150919 0.00239816 -0.247544 -0.0171868 0.428708 -9.67827 -0.759221
3984.754902840 0.0131899 -0.243813 -0.0135896 0.443079 -9.63756 -0.732876
3984.759654760 0.0227825 -0.241149 -0.0135896 0.459844 -9.60163 -0.814307
3984.764406443 0.0326417 -0.234221 -0.0169204 0.526904 -9.59205 -0.804727
3984.769158602 0.0459648 -0.231023 -0.0189188 0.495769 -9.62558 -0.811912
3984.773874521 0.053026 -0.222096 -0.0262466 0.522114 -9.62798 -0.847837
3984.778662443 0.058755 -0.219165 -0.0329081 0.507744 -9.75252 -0.852627
3984.783414364 0.0648836 -0.217167 -0.0347734 0.416733 -9.78365 -0.823887
3984.788166046 0.0660827 -0.218766 -0.0419678 0.402363 -9.80281 -0.795146
3984.792882204 0.0722113 -0.216101 -0.0455651 0.354463 -9.81479 -0.797542
3984.797670126 0.0710123 -0.216501 -0.0520934 0.459844 -9.74773 -0.823887
3984.802421808 0.0707458 -0.2181 -0.0608867 0.498164 -9.64235 -0.826282
3984.807173967 0.0707458 -0.227292 -0.0738101 0.519719 -9.52978 -0.859812
3984.811887026 0.0648836 -0.23009 -0.0864671 0.502954 -9.48428 -0.876577
3984.816677570 0.0643507 -0.232888 -0.0891317 0.399968 -9.53697 -0.843047
3984.821429491 0.0612864 -0.234354 -0.0943277 0.337698 -9.63037 -0.799937
3984.826541662 0.0644839 -0.234753 -0.0931286 0.292192 -9.74054 -0.725691
3984.830894709 0.0647504 -0.233421 -0.0908637 0.244292 -9.79323 -0.641865
3984.835685492 0.0734104 -0.234221 -0.0827366 0.217947 -9.81719 -0.546064
3984.840437412 0.0814043 -0.232755 -0.0727443 0.150886 -9.87706 -0.481399
3984.845189095 0.0927289 -0.231156 -0.0638178 0.0934058 -9.94412 -0.395178
3984.849941015 0.107384 -0.228225 -0.0520934 0.00958008 -9.91538 -0.383203
3984.854692936 0.115112 -0.224228 -0.0373047 0.0263452 -10.0351 -0.337698
3984.859444857 0.122972 -0.217034 -0.029977 0.141306 -10.095 -0.361648
3984.864197016 0.125637 -0.215035 -0.0170536 0.210762 -10.0902 -0.344883
3984.868948698 0.115778 -0.210106 -0.0111914 0.239502 -9.98484 -0.313748
3984.873700619 0.109783 -0.204776 -0.00559571 0.294587 -9.91059 -0.292192
3984.878452539 0.0940613 -0.202511 -0.000932619 0.301772 -9.8603 -0.294587
3984.883204460 0.0803384 -0.201979 -0.00119908 0.332908 -9.74533 -0.318538
3984.887956381 0.0595544 -0.197582 -0.000133231 0.380808 -9.69264 -0.340093
3984.892708540 0.0365054 -0.195184 0.000266462 0.402363 -9.56571 -0.397573
3984.897819996 0.00599541 -0.190387 0.000133231 0.318538 -9.54894 -0.399968
3984.902212143 -0.00999234 -0.184658 0.00119908 0.172441 -9.58726 -0.380808
3984.906964064 -0.033974 -0.180662 0.00346401 0.0694556 -9.61121 -0.349673
3984.911715984 -0.0550245 -0.173734 0.010392 0.0886157 -9.67109 -0.280217
3984.916467905 -0.0780735 -0.168138 0.00226493 0.112566 -9.74294 -0.232317
3984.921183825 -0.0968591 -0.163608 0.0021317 0.138911 -9.70462 -0.217947
3984.925971746 -0.119375 -0.155881 -0.00586217 0.114961 -9.65193 -0.217947
3984.930723667 -0.139493 -0.153616 -0.0131899 0.182021 -9.51062 -0.232317
3984.935475349 -0.168538 -0.151884 -0.026513 0.143701 -9.43877 -0.222737
3984.940191507 -0.192786 -0.150551 -0.0333078 0.124541 -9.48667 -0.205972
3984.944979429 -0.214502 -0.14762 -0.0431669 0.0910107 -9.58726 -0.174836
3984.949731350 -0.249942 -0.15175 -0.053026 0.0502954 -9.58966 -0.141306
3984.954483271 -0.27006 -0.151617 -0.0666156 0.0886157 -9.60163 -0.186812
3984.959196329 -0.297372 -0.152816 -0.0784732 0.136516 -9.57529 -0.186812
3984.963986874 -0.317623 -0.158945 -0.0864671 0.114961 -9.5681 -0.208367
3984.969099045 -0.325217 -0.162009 -0.099124 0.105381 -9.51781 -0.179626
3984.973490953 -0.330413 -0.168538 -0.10885 0.0502954 -9.40764 -0.141306
3984.978204250 -0.321354 -0.176531 -0.115112 -0.0311353 -9.38129 -0.0766406
3984.982994795 -0.308564 -0.180928 -0.117776 -0.0766406 -9.4747 -0.0287402
3984.987746716 -0.294175 -0.18306 -0.112047 -0.134121 -9.50583 -0.110171
3984.992498398 -0.276055 -0.183459 -0.109649 -0.225132 -9.50104 -0.114961
3984.997250557 -0.257536 -0.189588 -0.102055 -0.282612 -9.4747 -0.122146
3985.002002478 -0.238617 -0.191054 -0.0947274 -0.239502 -9.49146 -0.0838257
3985.006754398 -0.216501 -0.192386 -0.0872665 -0.249082 -9.5705 -0.0981958
3985.011506319 -0.195317 -0.193585 -0.0774074 -0.213157 -9.66151 -0.0191602
3985.016258001 -0.1744 -0.193319 -0.0702129 -0.217947 -9.63756 -0.136516
3985.021009922 -0.164407 -0.194118 -0.0671485 -0.126936 -9.62079 -0.117356
3985.025762081 -0.149352 -0.196516 -0.0659495 -0.0239502 -9.62798 -0.134121
3985.030513763 -0.137628 -0.196783 -0.0636845 0.0143701 -9.64474 -0.141306
3985.035265923 -0.131632 -0.196649 -0.0668821 0.00958008 -9.6663 -0.124541
3985.040377617 -0.128568 -0.199447 -0.0696799 0.141306 -9.62079 -0.184417
3985.044769526 -0.12617 -0.201979 -0.074343 0.146096 -9.68067 -0.122146
3985.049521446 -0.122972 -0.198115 -0.0815375 0.138911 -9.7142 -0.158071
3985.054273605 -0.127103 -0.198914 -0.0884655 0.141306 -9.72378 -0.100591
3985.059025288 -0.128701 -0.198115 -0.0983247 0.167651 -9.91059 -0.105381
3985.063777447 -0.132432 -0.194651 -0.103787 0.117356 -9.81479 -0.0215552
3985.068529367 -0.136029 -0.192119 -0.111781 0.141306 -9.87946 0.0383203
3985.073281050 -0.145355 -0.181861 -0.115112 0.170046 -10.0447 0.0862207
3985.078032970 -0.153749 -0.174 -0.120574 0.227527 -10.0998 0.0814307
3985.082785130 -0.163075 -0.159877 -0.128835 0.193997 -10.1932 0.119751
3985.087501049 -0.172801 -0.145489 -0.13523 0.189207 -10.1022 0.146096
3985.092288971 -0.185325 -0.138028 -0.138694 0.172441 -10.0854 0.138911
3985.097040653 -0.189855 -0.124438 -0.13896 0.167651 -10.0639 0.0934058
3985.101792574 -0.198381 -0.110049 -0.145222 0.129331 -9.97286 -0.0215552
3985.106544495 -0.207175 -0.0947274 -0.140825 0.124541 -9.89862 -0.0359253
3985.111296415 -0.213436 -0.0803384 -0.142025 0.134121 -9.89862 -0.0574805
3985.116048336 -0.219432 -0.0670153 -0.137894 0.0934058 -9.89622 -0.0335303
3985.120800495 -0.223562 -0.0526263 -0.132965 0.0646655 -9.87227 -0.0407153
3985.125513315 -0.231423 -0.0365054 -0.124305 -0.0191602 -9.81479 -0.0766406
3985.130664110 -0.233421 -0.0202511 -0.115511 -0.0790356 -9.84353 -0.0622705
3985.135056019 -0.236752 -0 -0.101522 -0.134121 -9.88904 -0.0886157
3985.139807940 -0.23955 0.0130567 -0.0876662 -0.182021 -9.98244 -0.0574805
3985.144521236 -0.243014 0.035706 -0.0724778 -0.158071 -10.0758 -0.174836
3985.149312019 -0.245545 0.0531593 -0.0550245 -0.148491 -10.1237 -0.146096
3985.154063702 -0.247277 0.0695467 -0.0423675 -0.177231 -10.083 -0.119751
3985.158815622 -0.241415 0.0850015 -0.0301103 -0.184417 -10.1214 -0.191602
3985.163567305 -0.236619 0.097392 -0.0199847 -0.172441 -10.1597 -0.129331
3985.168319464 -0.229424 0.118043 -0.0042634 -0.179626 -10.198 -0.131726
3985.173071384 -0.223562 0.127636 0.00679479 -0.179626 -10.2219 -0.126936
3985.177823305 -0.209573 0.140026 0.0194518 -0.198787 -10.2339 -0.158071
3985.182575226 -0.201979 0.152683 0.028245 -0.227527 -10.2028 -0.227527
3985.187327147 -0.193718 0.159078 0.0355727 -0.201182 -10.2651 -0.201182
3985.192078829 -0.189721 0.165074 0.0482297 -0.201182 -10.2339 -0.220342
3985.196830988 -0.189988 0.170003 0.0556907 -0.229922 -10.2411 -0.258662
3985.201942921 -0.185591 0.174933 0.0620858 -0.191602 -10.2555 -0.275427
3985.206334829 -0.184392 0.175332 0.069147 -0.186812 -10.2195 -0.354463
3985.211086750 -0.184126 0.174666 0.0755421 -0.213157 -10.2531 -0.332908
3985.215838671 -0.179995 0.171069 0.085268 -0.213157 -10.2651 -0.397573
3985.220590353 -0.178263 0.170003 0.0943277 -0.222737 -10.2339 -0.438289
3985.225342512 -0.171202 0.16907 0.100723 -0.196392 -10.3177 -0.514929
3985.230094433 -0.170936 0.167738 0.107118 -0.229922 -10.3034 -0.56762
3985.234810114 -0.164674 0.164141 0.112314 -0.160466 -10.2962 -0.570015
3985.239598274 -0.160677 0.158412 0.111515 -0.0886157 -10.2938 -0.692161
3985.244349957 -0.162542 0.152283 0.112047 -0.0335303 -10.2172 -0.735271
3985.249101877 -0.160277 0.144423 0.109916 0.0287402 -10.1501 -0.747246
3985.253818035 -0.163475 0.136962 0.107651 0.0431104 -10.0375 -0.852627
3985.258605719 -0.162675 0.1311 0.10019 0.0958008 -10.1118 -0.792751
3985.263357878 -0.152816 0.116178 0.0935283 0.112566 -10.0663 -0.766406
3985.268109798 -0.148819 0.110182 0.0847351 0.0981958 -10.0447 -0.761616
3985.272822618 -0.138161 0.102855 0.0840689 0.0191602 -10.0591 -0.677791
3985.277613401 -0.126703 0.0928622 0.0796723 -0.0455054 -10.1261 -0.675396
3985.282365561 -0.112714 0.0827366 0.0758086 -0.0838257 -10.1716 -0.687371
3985.287117243 -0.0987243 0.0739433 0.072611 -0.0718506 -10.1285 -0.735271
3985.290681362 -0.0828698 0.0651501 0.0730107 -0.0143701 -9.94652 -0.814307
3985.296621323 -0.0678147 0.0548913 0.0750092 -0.0766406 -9.75731 -0.893342
3985.301373005 -0.0563568 0.0476968 0.0738101 -0.0335303 -9.64953 -1.0083
3985.306124926 -0.0452986 0.0350398 0.0730107 -0.0574805 -9.55134 -1.04423
3985.310877085 -0.0365054 0.0301103 0.0782067 -0.0574805 -9.46272 -1.08734
3985.315628767 -0.0287779 0.0238484 0.0822037 -0.0694556 -9.4268 -1.10889
3985.320380926 -0.0163874 0.0151884 0.0867335 -0.0886157 -9.51062 -1.07776
3985.325132608 -0.0129234 0.00706126 0.0877994 -0.0670605 -9.60403 -1.07536
3985.329884529 -0.0102588 0.00466309 0.0925957 -0.00718506 -9.67109 -0.991538
3985.334636450 -0.00692802 -0.00186524 0.0931286 -0.0383203 -9.7621 -0.914897
3985.339388371 -0.000666156 -0.00786064 0.0903308 0.00718506 -9.81958 -0.926873
3985.344500303 -0.0063951 -0.0117243 0.0897979 -0.0119751 -9.77647 -0.981958
3985.348892450 -0.00799387 -0.016121 0.087 -0.0335303 -9.81479 -1.0083
3985.353644133 -0.0125237 -0.0159877 0.0843354 -0.0359253 -9.79802 -0.953218
3985.358396053 -0.0183859 -0.0211838 0.0840689 -0.0814307 -9.74773 -1.0107
3985.363147974 -0.0283783 -0.0239816 0.0856677 -0.174836 -9.75491 -1.08255
3985.367899895 -0.0369051 -0.0233155 0.083536 -0.182021 -9.73575 -1.17835
3985.372651815 -0.0500949 -0.0266462 0.0867335 -0.162861 -9.71659 -1.19032
3985.377403975 -0.0616861 -0.0298438 0.0862006 -0.143701 -9.60403 -1.19272
3985.382119656 -0.0730107 -0.033441 0.0858009 -0.0574805 -9.60642 -1.14242
3985.386907578 -0.0763415 -0.0414349 0.0803384 -0.0263452 -9.67588 -1.11847
3985.391659498 -0.0883323 -0.0444992 0.0763415 -0.00958008 -9.74294 -1.1041
3985.396375418 -0.0948606 -0.0503614 0.0716784 0.0119751 -9.78126 -1.04662
3985.401127577 -0.0959265 -0.0574227 0.0714119 -0.0239502 -9.8124 -1.05381
3985.405879021 -0.104853 -0.0642175 0.0704793 -0.0383203 -9.75731 -1.00591
3985.410631180 -0.10885 -0.0662159 0.067415 -0.0455054 -9.67827 -0.969983
3985.415383101 -0.118443 -0.0670153 0.0676815 -0.0526904 -9.59924 -0.965193
3985.420096159 -0.127902 -0.0651501 0.0663492 -0.0958008 -9.48188 -0.972378
3985.424886942 -0.137361 -0.067415 0.0706126 -0.0958008 -9.44596 -0.960403
3985.429639101 -0.149885 -0.0648836 0.0670153 -0.0670605 -9.31902 -1.0083
3985.434750557 -0.165473 -0.0643507 0.0647504 -0.0215552 -9.27112 -1.04183
3985.439104080 -0.178263 -0.0619525 0.0643507 -0.0479004 -9.22322 -1.07776
3985.443894625 -0.196116 -0.0595544 0.0671485 -0.0526904 -9.16574 -1.17595
3985.448646545 -0.213436 -0.0578224 0.072611 -0.0359253 -9.15376 -1.16158
3985.453398466 -0.225827 -0.0550245 0.0736769 -0.0958008 -9.11544 -1.19272
3985.458150625 -0.234221 -0.0494288 0.0775406 -0.143701 -9.137 -1.15679
3985.462902069 -0.240216 -0.0466309 0.0859342 -0.189207 -9.15376 -1.14482
3985.467654228 -0.242081 -0.0431669 0.0957933 -0.129331 -9.1825 -1.19272
3985.472406149 -0.235553 -0.0397029 0.101789 -0.138911 -9.18969 -1.21667
3985.477158070 -0.232489 -0.0423675 0.112047 -0.117356 -9.25436 -1.19751
3985.481909990 -0.221963 -0.0419678 0.118709 -0.0910107 -9.26394 -1.19272
3985.486661911 -0.211305 -0.0486294 0.127502 -0.0479004 -9.26633 -1.17835
3985.491413593 -0.198914 -0.0459648 0.127902 0.00958008 -9.30705 -1.11847
3985.496165752 -0.18306 -0.0483629 0.131766 0.0646655 -9.3286 -1.15679
3985.500917435 -0.175998 -0.0568897 0.129234 0.0862207 -9.31663 -1.23583
3985.506029606 -0.169737 -0.0599541 0.132299 0.117356 -9.2831 -1.28373
3985.510421515 -0.16574 -0.0638178 0.129234 0.165256 -9.29268 -1.3484
3985.515173435 -0.16534 -0.0646172 0.125904 0.184417 -9.30705 -1.36516
3985.519925117 -0.167338 -0.0714119 0.124571 0.162861 -9.40045 -1.40109
3985.524677277 -0.160943 -0.0768744 0.12164 0.189207 -9.44356 -1.3939
3985.529392958 -0.158812 -0.0796723 0.123106 0.0958008 -9.49386 -1.47533
3985.534181118 -0.152017 -0.0806049 0.123505 0.0574805 -9.55134 -1.47054
3985.538933039 -0.139893 -0.0847351 0.125237 0.0502954 -9.49625 -1.51605
3985.543684959 -0.135629 -0.0884655 0.132032 0.117356 -9.54415 -1.54239
3985.548400640 -0.124571 -0.0881991 0.138161 0.126936 -9.58008 -1.57832
3985.553188801 -0.111648 -0.0909969 0.140825 0.0766406 -9.70462 -1.57353
3985.557940483 -0.105786 -0.0893982 0.147221 0.136516 -9.73336 -1.58071
3985.562692642 -0.0940613 -0.0899311 0.150551 0.0742456 -9.84593 -1.59029
3985.567405701 -0.0767412 -0.092196 0.154681 0.122146 -9.8603 -1.52323
3985.572196484 -0.0580888 -0.0928622 0.162409 0.117356 -9.81958 -1.58071
3985.577308178 -0.0433002 -0.0933951 0.164141 0.146096 -9.72617 -1.62382
3985.581700087 -0.0253139 -0.0905972 0.164008 0.177231 -9.68306 -1.66693
3985.586413383 -0.0177198 -0.0883323 0.162142 0.237107 -9.65911 -1.63819
3985.591204166 -0.000266462 -0.0892649 0.160943 0.234712 -9.62798 -1.69328
3985.595955849 0.00759418 -0.0847351 0.15628 0.270637 -9.60403 -1.71244
3985.600708008 0.0209173 -0.0810046 0.154681 0.189207 -9.60882 -1.7316
3985.605459690 0.0251807 -0.0746095 0.152417 0.131726 -9.62558 -1.68609
3985.610211611 0.0350398 -0.0700796 0.151884 0.0981958 -9.65193 -1.67172
3985.614963531 0.0452986 -0.065683 0.154681 0.00239502 -9.73575 -1.67651
3985.619715691 0.0543583 -0.058755 0.160677 -0.0455054 -9.81 -1.61903
3985.624467373 0.0642175 -0.053026 0.163608 -0.0886157 -9.9082 -1.61185
3985.629219532 0.074876 -0.0479632 0.168671 -0.0143701 -9.9082 -1.56155
3985.633971214 0.076608 -0.0410352 0.170536 -0.0287402 -9.9082 -1.5855
3985.638723135 0.0788729 -0.0361057 0.172268 -0.0119751 -9.86509 -1.62382
3985.643475056 0.0771409 -0.0291776 0.165873 0.0455054 -9.82198 -1.60466
3985.648586988 0.0735436 -0.0318423 0.165207 0.0790356 -9.64953 -1.65256
3985.652978897 0.0660827 -0.0290444 0.154548 0.136516 -9.61121 -1.70286
3985.657730818 0.0580888 -0.0246478 0.143224 0.170046 -9.55373 -1.75076
3985.662482500 0.0515605 -0.0233155 0.134164 0.174836 -9.48907 -1.78189
3985.667234659 0.0494288 -0.0225161 0.119109 0.203577 -9.33818 -1.73639
3985.671986580 0.0496953 -0.0233155 0.102855 0.158071 -9.35016 -1.71004
3985.676738501 0.0539587 -0.019585 0.0876662 0.105381 -9.39566 -1.62622
3985.681490421 0.0630184 -0.0181194 0.0724778 0.0239502 -9.46751 -1.67412
3985.686242342 0.0694135 -0.0191853 0.0583553 -0.102986 -9.54415 -1.65735
3985.690994024 0.0788729 -0.0129234 0.0494288 -0.136516 -9.54415 -1.71483
3985.695710182 0.0784732 -0.0141225 0.0415681 -0.162861 -9.53218 -1.74118
3985.700498104 0.0855345 -0.00719449 0.0321087 -0.191602 -9.45793 -1.83219
3985.705250025 0.0875329 -0.00972588 0.0239816 -0.0981958 -9.39087 -1.83938
3985.710001945 0.0863338 -0.00812711 0.0133231 -0.0287402 -9.24717 -1.93039
3985.714717627 0.080072 -0.0085268 0.00226493 0.0359253 -9.17532 -2.00224
3985.719505548 0.0728775 -0.00346401 -0.00905972 -0.00239502 -9.17292 -1.98547
3985.724257708 0.0618193 -0.000532925 -0.0142557 -0.107776 -9.10826 -2.019
3985.729009390 0.0551577 0.000532925 -0.0177198 -0.158071 -9.11784 -1.98787
3985.733722687 0.0531593 0.00546248 -0.0202511 -0.189207 -9.1825 -1.90165
3985.738945484 0.0448989 0.0133231 -0.0165207 -0.241897 -9.24957 -1.85375
3985.743265152 0.0442328 0.016121 -0.0133231 -0.294587 -9.35974 -1.8274
3985.748017073 0.0450322 0.0238484 -0.00599541 -0.330513 -9.50583 -1.79626
3985.752730608 0.0410352 0.0301103 -0.00173201 -0.323328 -9.50104 -1.89686
3985.757520914 0.0371715 0.0375712 0.00546248 -0.325723 -9.48667 -1.94955
3985.762273073 0.0314426 0.0407688 0.0135896 -0.304167 -9.4723 -1.91602
3985.767024994 0.0267795 0.0436998 0.0198515 -0.239502 -9.46751 -2.01661
3985.771776676 0.0234487 0.0503614 0.0255804 -0.244292 -9.44117 -2.00224
3985.776528597 0.0186524 0.0531593 0.0366386 -0.244292 -9.41243 -2.03098
3985.781280756 0.0221164 0.0503614 0.0427672 -0.261057 -9.43159 -2.02379
3985.786032438 0.0185191 0.0526263 0.0536922 -0.258662 -9.46751 -2.04774
3985.790784597 0.0246478 0.0571562 0.060487 -0.261057 -9.48667 -1.98787
3985.795536280 0.0341072 0.0554242 0.0679479 -0.203577 -9.51781 -1.99505
3985.800288200 0.0397029 0.0554242 0.0722113 -0.141306 -9.46751 -1.9232
3985.805040121 0.0555574 0.0543583 0.0720781 -0.0287402 -9.41482 -1.89686
3985.810152054 0.0668821 0.0490291 0.0706126 -0.0550854 -9.45075 -1.89207
3985.814543962 0.0788729 0.0459648 0.0714119 -0.0335303 -9.41482 -1.96871
3985.819296122 0.0844686 0.0431669 0.0679479 0.0143701 -9.39806 -2.019
3985.824047804 0.0847351 0.0390368 0.0658162 0.0502954 -9.45314 -2.02379
3985.828799725 0.0855345 0.0333078 0.0655498 0.0574805 -9.57529 -2.00703
3985.833551645 0.0798055 0.0269127 0.0606202 0.0670605 -9.58487 -1.99266
3985.838303566 0.0784732 0.0249142 0.0666156 0.0335303 -9.55134 -2.00463
3985.843019485 0.0716784 0.0145222 0.0694135 -0 -9.53457 -2.04056
3985.847807646 0.0702129 0.0149219 0.0716784 0.0407153 -9.50583 -2.05732
3985.852559328 0.0602205 0.00826034 0.0767412 0.0742456 -9.51541 -2.07409
3985.857311249 0.0559571 0.00226493 0.087 0.0934058 -9.41961 -2.03816
3985.862027168 0.0598208 -0.00373047 0.0846018 0.102986 -9.36453 -2.01182
3985.866815090 0.0658162 -0.00945942 0.0889985 0.162861 -9.33818 -1.93997
3985.871567011 0.0791394 -0.0147887 0.0883323 0.179626 -9.35255 -1.90404
3985.876318932 0.0895314 -0.0194518 0.0873997 0.198787 -9.33339 -1.91123
3985.881031990 0.103787 -0.0267795 0.0812711 0.220342 -9.25436 -1.87051
3985.885822773 0.121507 -0.0315758 0.0771409 0.177231 -9.2352 -1.8274
3985.890574455 0.129501 -0.0355727 0.0746095 0.208367 -9.18011 -1.82261
3985.895326614 0.133098 -0.0407688 0.0722113 0.114961 -9.22562 -1.80105
3985.898890495 0.136962 -0.0414349 0.0724778 0.122146 -9.22083 -1.83219
3985.904830456 0.1311 -0.0431669 0.0690138 0.165256 -9.21364 -1.82979
3985.909582376 0.12164 -0.0452986 0.0683476 0.0886157 -9.17053 -1.87051
3985.914334297 0.106851 -0.0450322 0.0700796 0.0910107 -9.19448 -1.89446
3985.919085979 0.0925957 -0.0494288 0.072611 0.0766406 -9.3286 -1.83219
3985.923838139 0.0702129 -0.0483629 0.0723446 0.124541 -9.40764 -1.85614
3985.928590059 0.0470306 -0.0503614 0.0750092 0.0646655 -9.44356 -1.825
3985.933341980 0.0227825 -0.0531593 0.072611 0.0838257 -9.48188 -1.78908
3985.938093901 0.000532925 -0.0595544 0.0736769 0.146096 -9.46751 -1.76034
3985.942845821 -0.0226493 -0.0655498 0.0690138 0.107776 -9.39087 -1.76513
3985.947597504 -0.0346401 -0.0687473 0.0651501 0.0742456 -9.24957 -1.76273
3985.952709675 -0.04783 -0.0775406 0.0611531 0.0886157 -9.18011 -1.76513
3985.957101345 -0.049562 -0.0859342 0.0536922 0.0934058 -9.15855 -1.68609
3985.961853504 -0.0492956 -0.0941945 0.0431669 0.160466 -9.20406 -1.71244
3985.966605425 -0.0421011 -0.101389 0.0293109 0.205972 -9.23999 -1.62861
3985.971357107 -0.0337075 -0.110715 0.0151884 0.167651 -9.21125 -1.59987
3985.976109028 -0.023049 -0.116977 0.00879326 0.124541 -9.23041 -1.59748
3985.980861187 -0.0162542 -0.12204 -0.00319755 0.0574805 -9.2328 -1.61903
3985.985612869 -0.00746095 -0.126303 -0.00959265 0.0311353 -9.26633 -1.63819
3985.990328789 -0.00119908 -0.126969 -0.0150551 0.0359253 -9.29507 -1.67172
3985.995080709 -0.00173201 -0.133631 -0.0142557 0.0407153 -9.29747 -1.70525
3985.999868631 -0.00386371 -0.1299 -0.0155881 0.0143701 -9.24957 -1.70046
3986.004584551 -0.00706126 -0.128568 -0.0177198 0.0383203 -9.22562 -1.6813
3986.009336710 -0.0127902 -0.128168 -0.0165207 0.0335303 -9.22083 -1.73399
3986.014088392 -0.0254472 -0.123772 -0.0181194 0.0311353 -9.14897 -1.7292
3986.018840313 -0.0354395 -0.123106 -0.0110582 0.00958008 -9.24717 -1.71962
3986.023592234 -0.0417014 -0.117377 -0.0122573 0.0862207 -9.27591 -1.71962
3986.028305292 -0.0425008 -0.118842 -0.0119908 0.141306 -9.39806 -1.67412
3986.033096075 -0.0382374 -0.115778 -0.0179862 0.220342 -9.41243 -1.65496
3986.037847996 -0.0318423 -0.111648 -0.0215835 0.241897 -9.49625 -1.57113
3986.042959929 -0.0150551 -0.108317 -0.0281118 0.227527 -9.60882 -1.57592
3986.047313213 0.00159877 -0.107251 -0.0355727 0.261057 -9.61121 -1.6358
3986.052103519 0.0201179 -0.0980582 -0.0411685 0.294587 -9.58487 -1.61664
3986.056855679 0.0423675 -0.0933951 -0.0413017 0.306563 -9.53697 -1.59029
3986.061607599 0.0602205 -0.0905972 -0.0459648 0.342488 -9.56092 -1.56155
3986.066359520 0.0846018 -0.0840689 -0.0435666 0.282612 -9.56331 -1.51365
3986.071111441 0.109649 -0.0790061 -0.0458315 0.246687 -9.5681 -1.39869
3986.075863361 0.137761 -0.070879 -0.0383706 0.198787 -9.57768 -1.35079
3986.080615044 0.164407 -0.0631516 -0.032242 0.189207 -9.57768 -1.30768
3986.085367203 0.184925 -0.0528928 -0.0198515 0.0742456 -9.59924 -1.27176
3986.090119123 0.201179 -0.0440995 -0.0114579 0.107776 -9.54655 -1.346
3986.094871044 0.205709 -0.0323752 -0.00319755 0.0910107 -9.59445 -1.38911
3986.099622726 0.203711 -0.0185191 0.0105253 0.131726 -9.66869 -1.4418
3986.104374886 0.201845 -0.00999234 0.0209173 0.182021 -9.79563 -1.43462
3986.109126568 0.195983 0.000266462 0.0250475 0.177231 -9.85072 -1.40348
3986.114238739 0.192919 0.00932619 0.0303767 0.222737 -9.8579 -1.43462
3986.118630409 0.185325 0.0185191 0.0365054 0.299377 -9.85311 -1.47054
3986.123382568 0.178663 0.0253139 0.0403691 0.282612 -9.83874 -1.53042
3986.128134251 0.171335 0.0347734 0.0411685 0.313748 -9.80042 -1.55916
3986.132886171 0.162009 0.0393032 0.0414349 0.328118 -9.72857 -1.5879
3986.137602329 0.153616 0.0439663 0.0450322 0.292192 -9.66151 -1.48491
3986.142390251 0.144689 0.0446325 0.0423675 0.210762 -9.67588 -1.49449
3986.147141933 0.145888 0.0528928 0.0479632 0.134121 -9.73336 -1.42983
3986.151894093 0.140426 0.0482297 0.0536922 0.100591 -9.67827 -1.38193
3986.156610012 0.138294 0.0523599 0.060487 0.0407153 -9.7142 -1.36995
3986.161397696 0.139093 0.0528928 0.0692802 -0.00239502 -9.7142 -1.30529
3986.166149616 0.138161 0.0490291 0.0791394 -0.0670605 -9.74054 -1.24302
3986.170901775 0.139893 0.0467642 0.0877994 -0.0766406 -9.68546 -1.23823
3986.175653458 0.139493 0.0480965 0.09566 -0.0814307 -9.63037 -1.17356
3986.180405617 0.139893 0.0405023 0.099124 -0.0670605 -9.63516 -1.1544
3986.185517311 0.13936 0.0329081 0.100456 -0.0263452 -9.69743 -1.16637
3986.189909220 0.132565 0.0255804 0.0984579 0.0790356 -9.65672 -1.16877
3986.194622755 0.132432 0.0197182 0.0960597 0.0598755 -9.616 -1.17116
3986.199413061 0.126836 0.00786064 0.0919296 0.0838257 -9.50344 -1.22385
3986.204164982 0.115511 -0.000266462 0.0866003 0.0383203 -9.5226 -1.25978
3986.208917141 0.110715 -0.0163874 0.0814043 0.0838257 -9.51781 -1.31726
3986.213668585 0.10472 -0.0263798 0.076075 0.0958008 -9.48667 -1.34361
3986.218420744 0.0908637 -0.0401026 0.0739433 0.0598755 -9.53697 -1.29092
3986.223172665 0.0831363 -0.0526263 0.0707458 0.0622705 -9.54894 -1.26457
3986.227924585 0.073144 -0.0730107 0.0643507 0.0598755 -9.57529 -1.27176
3986.232676506 0.0627519 -0.0822037 0.0634181 0.00239502 -9.69264 -1.28134
3986.237428665 0.0498285 -0.0997902 0.0555574 0.0574805 -9.70701 -1.18074
3986.242180109 0.0429005 -0.114446 0.0548913 0.0502954 -9.69264 -1.20948
3986.246932268 0.0394364 -0.130167 0.0448989 0.00958008 -9.67109 -1.11129
3986.251684189 0.0347734 -0.146421 0.0419678 -0.00239502 -9.67348 -1.06339
3986.256796122 0.0354395 -0.162542 0.0405023 -0.0598755 -9.616 -1.07057
3986.261188030 0.033441 -0.179329 0.031709 -0.0718506 -9.64474 -1.06099
3986.265939951 0.028245 -0.188123 0.0281118 -0.0550854 -9.65911 -1.08973
3986.270691633 0.0279786 -0.199714 0.0187856 -0.136516 -9.67348 -1.14721
3986.275443792 0.024781 -0.210239 0.016121 -0.105381 -9.72857 -1.11847
3986.280195475 0.0233155 -0.220098 0.0106585 -0.162861 -9.6639 -1.14721
3986.284947634 0.0297106 -0.229957 0.00492956 -0.153281 -9.63995 -1.11608
3986.289699554 0.0377044 -0.239949 -0.00106585 -0.213157 -9.64474 -1.09931
3986.294451475 0.0442328 -0.249942 -0.00799387 -0.229922 -9.68785 -1.11368
3986.299203157 0.0520934 -0.256337 -0.0137228 -0.193997 -9.69743 -1.04423
3986.303919315 0.0642175 -0.267928 -0.0167871 -0.165256 -9.74533 -1.03225
3986.308706999 0.0702129 -0.272724 -0.0219832 -0.227527 -9.75731 -1.00591
3986.313459158 0.0770077 -0.289378 -0.0238484 -0.249082 -9.87227 -0.953218
3986.318211079 0.0819372 -0.294708 -0.0270459 -0.239502 -9.86269 -0.934058
3986.322926760 0.0867335 -0.302835 -0.0285115 -0.229922 -9.91059 -0.934058
3986.327714682 0.0820704 -0.304433 -0.0253139 -0.268242 -10.0327 -0.900527
3986.332466841 0.0739433 -0.313093 -0.0291776 -0.263452 -10.0495 -0.919688
3986.337218523 0.0679479 -0.316824 -0.0277121 -0.258662 -10.1214 -0.938848
3986.341931820 0.0555574 -0.320021 -0.0291776 -0.193997 -10.186 -0.924478
3986.347082615 0.0430337 -0.32202 -0.0315758 -0.162861 -10.2555 -0.941243
3986.351474524 0.0321087 -0.326417 -0.0361057 -0.129331 -10.2579 -0.958008
3986.356226206 0.0142557 -0.330014 -0.0430337 -0.0742456 -10.1836 -0.962798
3986.360939503 0.00479632 -0.332678 -0.0491623 -0.143701 -10.1884 -0.974773
3986.365730047 -0.00919296 -0.334277 -0.0540919 -0.112566 -10.2818 -0.936453
3986.370482206 -0.0254472 -0.333877 -0.057023 -0.179626 -10.3249 -0.962798
3986.375233889 -0.0365054 -0.337208 -0.0608867 -0.201182 -10.301 -0.926873
3986.379986048 -0.0458315 -0.341472 -0.0652833 -0.153281 -10.3177 -0.924478
3986.384737730 -0.0546248 -0.340806 -0.0696799 -0.153281 -10.3441 -0.917292
3986.389489651 -0.0608867 -0.341338 -0.0723446 -0.0958008 -10.2794 -0.972378
3986.394241571 -0.067415 -0.344669 -0.0736769 -0.0838257 -10.2004 -0.931663
3986.398993731 -0.0744763 -0.346534 -0.076608 -0.138911 -10.0782 -0.888552
3986.403745413 -0.0794058 -0.349066 -0.0771409 -0.186812 -9.98484 -0.869392
3986.408497572 -0.0810046 -0.35173 -0.0755421 -0.225132 -9.94652 -0.847837
3986.413249254 -0.0799387 -0.351864 -0.072611 -0.330513 -9.88664 -0.866997
3986.418361187 -0.0764747 -0.352263 -0.0634181 -0.347278 -9.84832 -0.828677
3986.422753096 -0.07834 -0.355194 -0.0582221 -0.361648 -9.82916 -0.828677
3986.427505016 -0.0822037 -0.354129 -0.051827 -0.318538 -9.90101 -0.845442
3986.432256937 -0.0819372 -0.353596 -0.0430337 -0.340093 -9.92975 -0.869392
3986.437009096 -0.0917963 -0.351997 -0.0347734 -0.347278 -9.92257 -0.917292
3986.441760540 -0.100989 -0.348266 -0.0270459 -0.399968 -9.87706 -0.912502
3986.446512699 -0.103787 -0.349066 -0.0179862 -0.407153 -9.86269 -0.900527
3986.451228857 -0.10432 -0.34307 -0.0130567 -0.404758 -9.84593 -0.941243
3986.456016541 -0.104054 -0.344003 -0.00839357 -0.344883 -9.80521 -0.917292
3986.460768461 -0.0995237 -0.340006 -0.0101256 -0.335303 -9.77168 -0.871787
3986.465520620 -0.088732 -0.336276 -0.00812711 -0.337698 -9.81479 -0.807122
3986.470236301 -0.0788729 -0.332945 -0.00719449 -0.366438 -9.81479 -0.802332
3986.475024223 -0.0722113 -0.32575 -0.00839357 -0.366438 -9.86988 -0.718506
3986.479776144 -0.0614196 -0.325617 -0.00719449 -0.407153 -9.87467 -0.754431
3986.484528065 -0.0527596 -0.320288 -0.00492956 -0.395178 -9.88425 -0.771196
3986.489241362 -0.0463645 -0.316291 -0.00599541 -0.421523 -9.89143 -0.783171
3986.494032145 -0.0415681 -0.315891 -0.00879326 -0.435894 -9.84114 -0.843047
3986.498783588 -0.0362389 -0.312694 -0.00719449 -0.421523 -9.89622 -0.835862
3986.503535748 -0.0361057 -0.309096 -0.00413017 -0.488584 -9.85311 -0.826282
3986.507099867 -0.0285115 -0.306032 -0.00599541 -0.481399 -9.84832 -0.862207
3986.513039589 -0.0237152 -0.304567 -0.00186524 -0.502954 -9.8603 -0.871787
3986.517791510 -0.0191853 -0.300303 -0.0042634 -0.505349 -9.8124 -0.862207
3986.522543430 -0.0165207 -0.297106 -0.00106585 -0.555645 -9.77407 -0.843047
3986.527295113 -0.0123905 -0.289245 0.00333078 -0.62989 -9.70701 -0.888552
3986.532047272 -0.00626187 -0.283783 0.00519602 -0.696951 -9.73815 -0.871787
3986.536798954 -0.00546248 -0.278453 0.00226493 -0.687371 -9.77407 -0.905317
3986.541551113 -0.0021317 -0.273524 0.00799387 -0.720901 -9.85072 -0.874182
3986.546303034 0.00253139 -0.265263 -0.00279786 -0.656235 -9.84114 -0.893342
3986.551054955 0.00159877 -0.262466 -0.00333078 -0.728086 -9.82198 -0.898132
3986.555806637 0.00413017 -0.254205 -0.0119908 -0.749641 -9.86748 -0.912502
3986.560918808 0.00586217 -0.248343 -0.0147887 -0.752036 -9.8603 -0.905317
3986.565310478 0.00612864 -0.248743 -0.0233155 -0.828677 -9.95849 -0.799937
3986.570062637 0.00479632 -0.246078 -0.026513 -0.835862 -10.0208 -0.835862
3986.574814558 0.00199847 -0.243147 -0.0345069 -0.895737 -10.0303 -0.778381
3986.579566479 -0.000133231 -0.244879 -0.0387703 -0.886157 -9.97047 -0.790356
3986.584318161 -0.00239816 -0.244346 -0.0387703 -0.907712 -9.97526 -0.797542
3986.589070082 -0.00452986 -0.241815 -0.0431669 -0.905317 -9.92257 -0.819097
3986.593822002 -0.00439663 -0.241415 -0.0464977 -0.914897 -9.76449 -0.831072
3986.598538160 -0.00572894 -0.238217 -0.0531593 -0.941243 -9.63995 -0.876577
3986.603325844 -0.0085268 -0.238484 -0.0556907 -0.943638 -9.63756 -0.929268
3986.608078003 -0.00985911 -0.235153 -0.0534257 -0.958008 -9.53697 -0.926873
3986.612829685 -0.00826034 -0.232489 -0.053559 -0.977168 -9.4723 -0.907712
3986.617545605 -0.00732772 -0.229158 -0.0556907 -1.00591 -9.44117 -0.902922
3986.622333527 -0.00119908 -0.223429 -0.053559 -0.965193 -9.46751 -0.838257
3986.627085686 0.00479632 -0.220498 -0.0579556 -0.962798 -9.55373 -0.814307
3986.631837368 0.0123905 -0.217966 -0.0580888 -0.936453 -9.67588 -0.740061
3986.636511803 0.0194518 -0.21277 -0.0599541 -0.943638 -9.81479 -0.677791
3986.641305447 0.028245 -0.211704 -0.0620858 -0.922083 -9.88664 -0.656235
3986.646057129 0.0353063 -0.208374 -0.0686141 -0.902922 -10.0232 -0.574805
3986.651169062 0.0413017 -0.210239 -0.0718116 -0.852627 -10.0615 -0.56762
3986.655522585 0.0488959 -0.208507 -0.0750092 -0.831072 -10.1142 -0.579595
3986.660312891 0.0538254 -0.209839 -0.0823369 -0.831072 -10.1022 -0.548459
3986.665064812 0.0610199 -0.21317 -0.0909969 -0.773591 -10.0758 -0.536484
3986.669816732 0.0648836 -0.209972 -0.0999234 -0.795146 -9.98005 -0.565225
3986.674568653 0.0779403 -0.212504 -0.108983 -0.768801 -9.97286 -0.550854
3986.679320812 0.0834028 -0.215968 -0.111781 -0.780776 -10.0279 -0.512534
3986.684072495 0.0891317 -0.21277 -0.116844 -0.814307 -10.0136 -0.529299
3986.688824415 0.0928622 -0.212104 -0.121107 -0.866997 -10.0758 -0.426313
3986.693576336 0.0907305 -0.210372 -0.120841 -0.917292 -10.1597 -0.383203
3986.698328257 0.0840689 -0.205043 -0.116577 -0.953218 -10.1573 -0.416733
3986.703080177 0.0779403 -0.201046 -0.113513 -0.984353 -10.1118 -0.402363
3986.707832336 0.0619525 -0.195317 -0.109516 -0.977168 -10.0806 -0.479004
3986.712584019 0.0483629 -0.191587 -0.099657 -1.0562 -10.1381 -0.519719
3986.717335939 0.0286447 -0.18266 -0.0912634 -1.04662 -10.1333 -0.560435
3986.722448111 0.00799387 -0.176531 -0.0826034 -0.993933 -10.0543 -0.589175
3986.726839781 -0.00759418 -0.173201 -0.0715452 -1.04662 -9.99202 -0.55325
3986.731591702 -0.0194518 -0.171202 -0.0654165 -0.960403 -9.93215 -0.459844
3986.736343622 -0.0239816 -0.166139 -0.0584885 -0.941243 -9.95849 -0.459844
3986.741095543 -0.0237152 -0.162675 -0.0544916 -0.929268 -9.91778 -0.431104
3986.745847464 -0.0170536 -0.161876 -0.0498285 -0.958008 -9.87706 -0.443079
3986.750599146 -0.00959265 -0.163608 -0.0439663 -0.907712 -9.77647 -0.433499
3986.755351305 0.00266462 -0.161743 -0.0450322 -0.890947 -9.75252 -0.443079
3986.760139227 0.00839357 -0.163075 -0.0439663 -0.874182 -9.69743 -0.500559
3986.764818907 0.0179862 -0.159478 -0.0459648 -0.888552 -9.616 -0.538879
3986.769607067 0.0226493 -0.162942 -0.0439663 -0.878972 -9.62798 -0.531694
3986.774358988 0.0210505 -0.160943 -0.0411685 -0.912502 -9.60163 -0.598755
3986.779110670 0.0162542 -0.157479 -0.0463645 -0.835862 -9.52978 -0.613125
3986.783862829 0.013856 -0.15708 -0.0482297 -0.862207 -9.55373 -0.593965
3986.788614750 0.00386371 -0.154149 -0.0463645 -0.878972 -9.54655 -0.603545
3986.793726444 -0.00399694 -0.158145 -0.0479632 -0.898132 -9.53697 -0.656235
3986.798118591 -0.00799387 -0.15255 -0.0414349 -0.890947 -9.57768 -0.62031
3986.802831888 -0.017853 -0.152417 -0.0370383 -0.962798 -9.50344 -0.584385
3986.807622194 -0.0251807 -0.15175 -0.0327749 -0.931663 -9.51781 -0.637075
3986.812374353 -0.032242 -0.146954 -0.0266462 -0.924478 -9.57768 -0.684976
3986.817126036 -0.0446325 -0.150818 -0.0190521 -0.862207 -9.58487 -0.713716
3986.821878195 -0.0556907 -0.150285 -0.0209173 -0.814307 -9.50823 -0.754431
3986.826630116 -0.0630184 -0.150418 -0.0198515 -0.843047 -9.46272 -0.742456
3986.831381798 -0.070879 -0.152816 -0.0173201 -0.783171 -9.42919 -0.692161
3986.836133718 -0.0722113 -0.15708 -0.0169204 -0.754431 -9.43398 -0.694556
3986.840885878 -0.0720781 -0.157479 -0.0223828 -0.716111 -9.34297 -0.725691
3986.845637560 -0.0703461 -0.164807 -0.0278453 -0.737666 -9.40045 -0.713716
3986.850389719 -0.0718116 -0.168671 -0.0263798 -0.716111 -9.39566 -0.696951
3986.855141640 -0.0646172 -0.172801 -0.0345069 -0.694556 -9.36932 -0.720901
3986.859893322 -0.0712787 -0.1736 -0.0373047 -0.725691 -9.2831 -0.747246
3986.865005493 -0.0634181 -0.180395 -0.0393032 -0.749641 -9.23759 -0.696951
3986.869397402 -0.0603538 -0.185325 -0.0472971 -0.723296 -9.16095 -0.744851
3986.874149084 -0.0584885 -0.192652 -0.0492956 -0.699346 -9.09149 -0.780776
3986.878901243 -0.0555574 -0.197848 -0.0519602 -0.701741 -9.07712 -0.816702
3986.883653164 -0.0546248 -0.19998 -0.0544916 -0.651445 -9.10586 -0.814307
3986.888404846 -0.0551577 -0.207175 -0.0534257 -0.65384 -9.16095 -0.807122
3986.893156767 -0.0527596 -0.211704 -0.0524931 -0.699346 -9.18011 -0.773591
3986.897908688 -0.0522266 -0.212104 -0.0516937 -0.752036 -9.19927 -0.735271
3986.902660608 -0.0472971 -0.208773 -0.0479632 -0.752036 -9.24717 -0.723296
3986.907412767 -0.0393032 -0.211305 -0.0422343 -0.737666 -9.26154 -0.682581
3986.912128448 -0.0355727 -0.210372 -0.0386371 -0.708926 -9.23759 -0.670605
3986.916916370 -0.0259801 -0.20864 -0.0354395 -0.656235 -9.1849 -0.61552
3986.921668291 -0.0155881 -0.205975 -0.0379709 -0.59157 -9.15616 -0.62031
3986.926420212 -0.00732772 -0.205576 -0.0338407 -0.62031 -9.16095 -0.608335
3986.931136370 -0.00679479 -0.202112 -0.0329081 -0.608335 -9.17053 -0.665815
3986.935924292 -0.0063951 -0.197049 -0.0321087 -0.55325 -9.26873 -0.730481
3986.940675974 -0.00466309 -0.193052 -0.0273124 -0.61073 -9.30465 -0.687371
3986.945427895 -0.0102588 -0.191986 -0.0255804 -0.63947 -9.31902 -0.720901
3986.950141191 -0.0151884 -0.180129 -0.0147887 -0.737666 -9.26154 -0.809517
3986.955291748 -0.0145222 -0.172934 -0.00892649 -0.747246 -9.31663 -0.766406
3986.959683657 -0.0155881 -0.16494 0.00186524 -0.740061 -9.31663 -0.838257
3986.964435816 -0.0163874 -0.158012 0.00945942 -0.766406 -9.31423 -0.855022
3986.969148874 -0.0162542 -0.153083 0.0198515 -0.761616 -9.34537 -0.876577
3986.973939419 -0.0166539 -0.143623 0.0277121 -0.680186 -9.30465 -0.917292
3986.978691101 -0.0166539 -0.136029 0.0326417 -0.63947 -9.27352 -0.962798
3986.983443260 -0.0191853 -0.128968 0.0359724 -0.613125 -9.22083 -1.00351
3986.988195181 -0.0201179 -0.123106 0.040902 -0.550854 -9.21843 -0.969983
3986.992947102 -0.0179862 -0.113913 0.0452986 -0.579595 -9.29747 -0.958008
3986.997698784 -0.0129234 -0.108983 0.0467642 -0.56283 -9.38369 -0.936453
3987.002450943 -0.0111914 -0.106452 0.0503614 -0.555645 -9.42919 -0.859812
3987.007202625 0.000799387 -0.101522 0.049562 -0.579595 -9.56092 -0.792751
3987.011954784 0.00719449 -0.0955268 0.0506279 -0.5772 -9.68306 -0.759221
3987.016706705 0.0166539 -0.0936616 0.053559 -0.507744 -9.70222 -0.795146
3987.021458626 0.0241149 -0.0855345 0.054758 -0.548459 -9.69743 -0.780776
3987.026570559 0.0289112 -0.0815375 0.051294 -0.534089 -9.7142 -0.780776
3987.030962467 0.0309096 -0.0775406 0.0531593 -0.488584 -9.68067 -0.826282
3987.035714149 0.0311761 -0.0739433 0.0496953 -0.431104 -9.64474 -0.895737
3987.040466309 0.0287779 -0.0710123 0.0463645 -0.435894 -9.60163 -0.962798
3987.045218229 0.0319755 -0.0687473 0.0407688 -0.440684 -9.63277 -1.00351
3987.049970150 0.0354395 -0.065683 0.0363721 -0.483794 -9.5705 -0.969983
3987.054721832 0.0310429 -0.0599541 0.0330413 -0.507744 -9.56331 -0.989143
3987.059437752 0.035173 -0.0532925 0.0349066 -0.617915 -9.64953 -0.984353
3987.064225674 0.0329081 -0.0498285 0.0375712 -0.627495 -9.71899 -0.948428
3987.068977833 0.033441 -0.0417014 0.0399694 -0.704136 -9.74533 -0.981958
3987.073729515 0.0337075 -0.0310429 0.0468974 -0.749641 -9.80042 -0.924478
3987.078445435 0.0331746 -0.0250475 0.051294 -0.802332 -9.80521 -0.946033
3987.083233356 0.0347734 -0.0173201 0.0584885 -0.835862 -9.79323 -0.914897
3987.087985277 0.0370383 -0.0119908 0.0663492 -0.833467 -9.75731 -0.907712
3987.092737198 0.0397029 -0.00346401 0.074343 -0.898132 -9.69504 -0.931663
3987.097450495 0.0383706 0.00492956 0.0772741 -0.864602 -9.66151 -0.943638
3987.102241039 0.0403691 0.00333078 0.0823369 -0.845442 -9.6663 -1.01549
3987.106993198 0.0440995 0.012657 0.0877994 -0.847837 -9.61361 -1.01549
3987.111744881 0.0482297 0.014389 0.0848683 -0.809517 -9.53697 -1.02746
3987.115308762 0.051294 0.0171868 0.0842021 -0.807122 -9.39566 -1.00112
3987.121248722 0.0582221 0.0182527 0.0862006 -0.783171 -9.33579 -1.02986
3987.126000881 0.0662159 0.0227825 0.0828698 -0.859812 -9.35974 -1.02986
3987.130752563 0.0680812 0.0237152 0.0799387 -0.876577 -9.48907 -1.02507
3987.135504723 0.0719449 0.0267795 0.0787397 -0.936453 -9.51541 -0.981958
3987.140256166 0.0747427 0.0358392 0.0776738 -0.979563 -9.59924 -0.946033
3987.145008326 0.0710123 0.0433002 0.0804717 -1.08255 -9.58008 -0.993933
3987.149760246 0.0672818 0.04783 0.0873997 -1.15679 -9.52739 -0.946033
3987.154512167 0.0574227 0.0531593 0.0928622 -1.25978 -9.54176 -0.979563
3987.159264088 0.0459648 0.0644839 0.0983247 -1.2023 -9.56331 -1.00351
3987.164016247 0.029977 0.065683 0.103121 -1.1544 -9.53218 -1.04423
3987.169127941 0.0139893 0.0664824 0.10059 -1.08734 -9.5226 -1.03465
3987.173519850 0.0021317 0.0740766 0.097392 -1.08015 -9.49625 -1.07057
3987.178271770 -0.010392 0.0686141 0.0889985 -1.01549 -9.331 -1.11129
3987.183023691 -0.0226493 0.0675482 0.0828698 -1.02267 -9.17053 -1.17356
3987.187775612 -0.0331746 0.0643507 0.0738101 -1.00351 -9.04359 -1.16398
3987.192527771 -0.042634 0.0556907 0.0651501 -0.998723 -8.99809 -1.19032
3987.197279215 -0.0520934 0.053559 0.051294 -1.04423 -8.90947 -1.18314
3987.202031374 -0.0648836 0.0487626 0.0470306 -1.05141 -8.943 -1.18553
3987.206747293 -0.0715452 0.0446325 0.0359724 -1.1041 -8.95737 -1.19032
3987.211535215 -0.0836692 0.0435666 0.0279786 -1.1544 -8.96216 -1.25978
3987.216251135 -0.0929954 0.0381041 0.0273124 -1.20469 -9.01964 -1.16637
3987.221039057 -0.0995237 0.0359724 0.0233155 -1.24302 -8.97653 -1.23823
3987.225718975 -0.107118 0.032242 0.0233155 -1.24302 -8.93103 -1.23823
3987.230506897 -0.10925 0.0338407 0.0187856 -1.24302 -8.943 -1.23583
3987.235258818 -0.118309 0.0319755 0.0153216 -1.20469 -8.92624 -1.25978
3987.240010738 -0.118709 0.0281118 0.0150551 -1.29092 -8.97414 -1.30529
3987.244723797 -0.123505 0.0225161 0.0174533 -1.36995 -8.95019 -1.27176
3987.249514341 -0.125371 0.0227825 0.0179862 -1.36037 -9.06994 -1.28134
3987.254266500 -0.121107 0.0234487 0.0167871 -1.35079 -9.06515 -1.24781
3987.259378433 -0.113646 0.0151884 0.0177198 -1.3005 -9.04838 -1.22146
3987.263731718 -0.103521 0.0119908 0.0150551 -1.32205 -9.09389 -1.21188
3987.268522263 -0.0897979 0.0042634 0.012657 -1.36037 -9.06515 -1.20948
3987.273274183 -0.0744763 -0.00346401 0.0110582 -1.33882 -9.09389 -1.21667
3987.278025866 -0.0598208 -0.00759418 0.00999234 -1.32445 -9.0867 -1.16398
3987.282778025 -0.0475636 -0.0146554 0.00905972 -1.29571 -9.11784 -1.21427
3987.287529707 -0.0375712 -0.0205176 0.00293109 -1.27176 -9.24717 -1.24541
3987.292281866 -0.0325084 -0.0261133 0.0021317 -1.22146 -9.32381 -1.28852
3987.297033787 -0.0306432 -0.033441 -0.000133231 -1.22146 -9.36932 -1.27655
3987.301785469 -0.028245 -0.0361057 -0.00359724 -1.23104 -9.45075 -1.31487
3987.306537390 -0.029977 -0.0387703 -0.00652833 -1.21667 -9.43398 -1.35079
3987.311289549 -0.0321087 -0.0422343 -0.00706126 -1.20469 -9.43398 -1.34121
3987.316041231 -0.0337075 -0.0406355 -0.0147887 -1.19511 -9.35734 -1.42743
3987.320793390 -0.0395697 -0.0406355 -0.0174533 -1.23344 -9.36692 -1.42743
3987.325545311 -0.0528928 -0.0358392 -0.0147887 -1.26697 -9.4723 -1.4418
3987.330657005 -0.0623522 -0.0371715 -0.0181194 -1.26697 -9.4723 -1.44659
3987.335048914 -0.0698132 -0.0331746 -0.0182527 -1.26218 -9.59684 -1.33403
3987.339801073 -0.0730107 -0.0349066 -0.0257136 -1.20948 -9.71659 -1.41067
3987.344552755 -0.0698132 -0.0274456 -0.0218499 -0.735271 -9.96807 -0.924478
3987.349304914 -0.0687473 -0.0335743 -0.0233155 -1.16158 -9.77168 -1.25499
3987.354056835 -0.054758 -0.0283783 -0.0298438 -1.33642 -9.40524 -1.35079
3987.358808517 -0.0463645 -0.0253139 -0.0293109 -1.19751 -9.41243 -1.46096
3987.363560438 -0.028245 -0.0197182 -0.0295773 -1.27415 -9.33579 -1.27415
3987.368312359 -0.0190521 -0.0162542 -0.0269127 -1.3939 -9.30226 -1.46575
3987.373028517 -0.00306432 -0.0129234 -0.0242481 -1.42504 -9.17771 -1.4442
3987.377816439 0.00559571 -0.0139893 -0.017853 -1.30289 -9.22562 -1.346
3987.382568121 0.0139893 -0.00759418 -0.0145222 -1.40827 -9.29028 -1.3939
3987.387320042 0.0186524 -0.00719449 -0.00732772 -1.40827 -9.39566 -1.49689
3987.392071962 0.0173201 -0.000399694 -0.00186524 -1.43462 -9.49625 -1.43701
3987.396823883 0.013856 0.00679479 0.00133231 -1.38911 -9.67588 -1.43222
3987.401935816 0.0170536 0.014389 0.0063951 -1.45138 -9.7118 -1.40348
3987.406327963 0.0113247 0.016121 0.0146554 -1.45617 -9.72378 -1.46096
3987.411040783 0.00905972 0.0245145 0.0237152 -1.50168 -9.6184 -1.48252
3987.415831566 0.00492956 0.0225161 0.0326417 -1.49449 -9.52978 -1.59269
3987.420583487 0.00626187 0.0249142 0.0382374 -1.44899 -9.44117 -1.5879
3987.425335407 0.00373047 0.024781 0.0447657 -1.39869 -9.38608 -1.60466
3987.430048704 0.0171868 0.0254472 0.0450322 -1.32445 -9.31423 -1.55197
3987.434839487 0.0210505 0.0235819 0.0480965 -1.27176 -9.25915 -1.55916
3987.439591169 0.0350398 0.0177198 0.0538254 -1.33642 -9.26873 -1.49928
3987.444343090 0.0483629 0.0158545 0.0562236 -1.36995 -9.31423 -1.46336
3987.449094772 0.058755 0.0167871 0.0646172 -1.35319 -9.43398 -1.4897
3987.453846931 0.063951 0.0181194 0.0642175 -1.37235 -9.46991 -1.57592
3987.458598852 0.0631516 0.0142557 0.0723446 -1.38911 -9.50823 -1.46575
3987.463350773 0.0571562 0.00999234 0.0804717 -1.38911 -9.52978 -1.53281
3987.468102694 0.058755 0.00519602 0.0848683 -1.29571 -9.60403 -1.56634
3987.473214626 0.0503614 0.00346401 0.0911302 -1.35319 -9.73815 -1.61424
3987.477606297 0.042634 -0.00386371 0.097392 -1.36277 -9.7142 -1.65496
3987.482358456 0.0303767 -0.0106585 0.0955268 -1.24541 -9.77647 -1.68849
3987.487110376 0.0246478 -0.0159877 0.099657 -1.18314 -9.82677 -1.71483
3987.491862297 0.0151884 -0.0273124 0.0976585 -1.20469 -9.87227 -1.70765
3987.496614218 0.010925 -0.0355727 0.0940613 -1.19511 -9.79802 -1.71004
3987.501366138 0.0122573 -0.0550245 0.0883323 -1.15919 -9.75012 -1.70525
3987.506117821 0.0146554 -0.0651501 0.0863338 -1.10171 -9.74054 -1.62622
3987.510869980 0.0242481 -0.0838025 0.0724778 -1.04662 -9.75731 -1.64059
3987.515621901 0.0350398 -0.102721 0.0650168 -0.981958 -9.84593 -1.59269
3987.520337582 0.042634 -0.118043 0.0504946 -0.917292 -9.9082 -1.64298
3987.525125742 0.0466309 -0.137095 0.0375712 -0.950823 -9.98723 -1.62861
3987.529877424 0.0532925 -0.155214 0.0229158 -0.936453 -10.1046 -1.59269
3987.534629345 0.0504946 -0.166672 0.00826034 -0.934058 -10.1716 -1.59748
3987.539345503 0.0446325 -0.182793 0.00373047 -0.917292 -10.2243 -1.66214
3987.544133186 0.0375712 -0.197582 -0.00826034 -0.914897 -10.2698 -1.68849
3987.548885345 0.0291776 -0.20824 -0.0186524 -0.895737 -10.2243 -1.72202
3987.553637266 0.0209173 -0.219165 -0.0279786 -0.902922 -10.2124 -1.80105
3987.558350086 0.0153216 -0.229557 -0.0313093 -0.919688 -10.21 -1.79147
3987.563500881 0.0085268 -0.240083 -0.0345069 -0.991538 -10.1597 -1.75076
3987.567893028 0.012124 -0.248476 -0.0369051 -1.00591 -10.1261 -1.65496
3987.572644711 0.0235819 -0.254871 -0.0375712 -1.11368 -10.1142 -1.54718
3987.577358246 0.0325084 -0.262732 -0.0378377 -1.0586 -10.0711 -1.44659
3987.582148790 0.0448989 -0.267662 -0.0358392 -1.13284 -10.0256 -1.41306
3987.586900473 0.0558239 -0.268461 -0.0347734 -1.10171 -10.0854 -1.40348
3987.591652393 0.0680812 -0.274456 -0.0343737 -1.09692 -10.0615 -1.31247
3987.596404552 0.0675482 -0.271792 -0.0371715 -1.09692 -9.99202 -1.28373
3987.601156235 0.0696799 -0.27459 -0.0314426 -1.09213 -9.92975 -1.34361
3987.605908394 0.0692802 -0.269793 -0.0330413 -1.04662 -9.87706 -1.31966
3987.610660076 0.0610199 -0.274856 -0.033974 -1.08015 -9.81719 -1.29571
3987.615411997 0.0482297 -0.27379 -0.0402358 -1.0107 -9.76928 -1.31966
3987.620163918 0.0382374 -0.275256 -0.0455651 -0.955613 -9.72857 -1.30529
3987.624915838 0.0281118 -0.276188 -0.0488959 -0.926873 -9.63756 -1.3005
3987.629667759 0.0174533 -0.272325 -0.0544916 -0.946033 -9.55613 -1.34121
3987.634743690 0.00919296 -0.274456 -0.062219 -0.996328 -9.45554 -1.30529
3987.639171600 0.00266462 -0.271658 -0.0703461 -0.960403 -9.38129 -1.23104
3987.643923521 0.00439663 -0.26966 -0.0772741 -0.931663 -9.46033 -1.17356
3987.648675442 0.0106585 -0.271658 -0.0860674 -0.941243 -9.43638 -1.13524
3987.653427362 0.0157213 -0.258735 -0.0913966 -0.941243 -9.39087 -1.02986
3987.658179283 0.0245145 -0.25647 -0.0948606 -1.07057 -9.26154 -1.03465
3987.662931442 0.0319755 -0.242747 -0.0901975 -1.16158 -9.14658 -0.972378
3987.667647123 0.0346401 -0.230757 -0.0823369 -1.1999 -9.12263 -0.991538
3987.672435045 0.0314426 -0.215835 -0.0742098 -1.27894 -9.12502 -1.06099
3987.677186966 0.0295773 -0.197848 -0.067415 -1.3005 -9.21364 -1.07536
3987.681938887 0.0182527 -0.182394 -0.0559571 -1.29331 -9.24238 -1.11368
3987.686655045 0.00386371 -0.166672 -0.0511608 -1.22865 -9.30705 -1.14482
3987.691442728 -0.00466309 -0.154282 -0.0456983 -1.13284 -9.30944 -1.21427
3987.696194649 -0.0207841 -0.142691 -0.0484962 -1.02507 -9.32381 -1.25739
3987.700946569 -0.0279786 -0.13483 -0.0551577 -0.907712 -9.30465 -1.20948
3987.705659628 -0.03917 -0.125371 -0.0676815 -0.807122 -9.30944 -1.21427
3987.710450411 -0.0366386 -0.121773 -0.080072 -0.783171 -9.25675 -1.16637
3987.715202332 -0.0301103 -0.118043 -0.0985911 -0.771196 -9.26873 -1.11608
3987.719954252 -0.0131899 -0.115911 -0.115911 -0.747246 -9.20406 -1.06578
3987.723518133 0.00612864 -0.114046 -0.130833 -0.723296 -9.16095 -1.00112
3987.729458094 0.0287779 -0.110582 -0.150951 -0.675396 -9.19448 -0.919688
3987.734209776 0.0663492 -0.10392 -0.166672 -0.661025 -9.2831 -0.730481
3987.738961935 0.0975253 -0.102188 -0.18266 -0.613125 -9.43159 -0.57241
3987.743713856 0.1299 -0.0941945 -0.194651 -0.65863 -9.57289 -0.493374
3987.748465776 0.158012 -0.0864671 -0.202378 -0.694556 -9.7118 -0.507744
3987.753217697 0.173467 -0.0776738 -0.211971 -0.764011 -9.7621 -0.59157
3987.757969379 0.180662 -0.0664824 -0.212637 -0.814307 -9.79084 -0.60115
3987.762721300 0.185191 -0.0536922 -0.220364 -0.819097 -9.83156 -0.579595
3987.767473459 0.184126 -0.0480965 -0.221564 -0.850232 -9.84593 -0.570015
3987.772225142 0.181194 -0.03917 -0.220897 -0.809517 -9.81719 -0.60115
3987.777337074 0.176798 -0.0318423 -0.226093 -0.826282 -9.84353 -0.565225
3987.781729221 0.168804 -0.0278453 -0.225028 -0.890947 -9.81479 -0.56762
3987.786516905 0.156813 -0.0219832 -0.22183 -0.936453 -9.77168 -0.589175
3987.791232824 0.141891 -0.0175865 -0.220098 -1.01788 -9.7597 -0.61073
3987.795984983 0.12577 -0.0115911 -0.213836 -1.09692 -9.78126 -0.680186
3987.800736666 0.107251 -0.00586217 -0.205576 -1.14482 -9.80042 -0.701741
3987.805488825 0.0875329 -0.00253139 -0.193185 -1.2526 -9.79084 -0.682581
3987.810240746 0.0699464 -0.00119908 -0.18226 -1.26218 -9.65911 -0.687371
3987.814956427 0.0616861 0.00266462 -0.168671 -1.33403 -9.55613 -0.749641
3987.819744349 0.0516937 0.00466309 -0.159345 -1.3939 -9.49386 -0.711321
3987.824496508 0.0410352 0.00506279 -0.149352 -1.38911 -9.44356 -0.682581
3987.829248190 0.0353063 0.00506279 -0.136695 -1.38911 -9.41722 -0.6251
3987.833964109 0.0255804 0.00373047 -0.1299 -1.40588 -9.3765 -0.66342
3987.838752031 0.0171868 0.00159877 -0.124971 -1.38672 -9.331 -0.687371
3987.843503952 0.0119908 -0.00319755 -0.124704 -1.42743 -9.30944 -0.696951
3987.848255873 0.00706126 -0.0115911 -0.125371 -1.36277 -9.30465 -0.673
3987.852968931 0.00386371 -0.0258469 -0.127902 -1.19751 -9.31902 -0.699346
3987.857759714 0.00319755 -0.0381041 -0.144822 -1.06339 -9.40764 -0.524509
3987.862511873 0.00226493 -0.0592879 -0.157746 -1.19272 -9.41722 -0.60594
3987.867623329 0.00386371 -0.0770077 -0.177198 -0.972378 -9.39566 -0.65384
3987.871976852 0.00492956 -0.0993905 -0.19958 -0.919688 -9.46512 -0.534089
3987.876767397 0.0107917 -0.119908 -0.217567 -0.850232 -9.42201 -0.534089
3987.881519318 0.0151884 -0.140026 -0.236086 -0.917292 -9.40285 -0.462239
3987.886271238 0.0114579 -0.161743 -0.252873 -1.04662 -9.3789 -0.548459
3987.891023397 0.0107917 -0.176798 -0.263398 -1.13045 -9.34537 -0.61073
3987.895775080 0.00266462 -0.193052 -0.270593 -1.2023 -9.25436 -0.711321
3987.900527000 -0.00905972 -0.206375 -0.268461 -1.27176 -9.14418 -0.661025
3987.905278921 -0.0259801 -0.215701 -0.268194 -1.26936 -9.13221 -0.696951
3987.910030842 -0.0415681 -0.225161 -0.261799 -1.32205 -9.1825 -0.699346
3987.914782763 -0.0642175 -0.229691 -0.254072 -1.33163 -9.2352 -0.706531
3987.919534683 -0.0867335 -0.233155 -0.243413 -1.33642 -9.25196 -0.682581
3987.924286366 -0.114979 -0.232622 -0.231956 -1.38193 -9.25196 -0.749641
3987.929038525 -0.136162 -0.233954 -0.216501 -1.47533 -9.26873 -0.684976
3987.933790207 -0.152283 -0.232888 -0.202511 -1.58071 -9.2328 -0.651445
3987.938902378 -0.165606 -0.231822 -0.183326 -1.55676 -9.21843 -0.62031
3987.943294287 -0.17027 -0.231822 -0.167738 -1.55676 -9.25675 -0.622705
3987.948046207 -0.172534 -0.228625 -0.14802 -1.57592 -9.29986 -0.632285
3987.952797890 -0.172002 -0.223296 -0.130833 -1.5879 -9.28789 -0.673
3987.957550049 -0.172534 -0.217833 -0.116444 -1.60227 -9.25196 -0.66342
3987.962301731 -0.171868 -0.210106 -0.099124 -1.60706 -9.24957 -0.65863
3987.967053890 -0.169603 -0.203311 -0.0840689 -1.55197 -9.2352 -0.627495
3987.971805811 -0.164674 -0.199447 -0.070879 -1.49689 -9.27112 -0.617915
3987.976557732 -0.148153 -0.190387 -0.0599541 -1.45378 -9.25436 -0.565225
3987.981273651 -0.13856 -0.17853 -0.0511608 -1.39869 -9.30944 -0.512534
3987.986061573 -0.123505 -0.167871 -0.040902 -1.47533 -9.331 -0.469424
3987.990813255 -0.114046 -0.154015 -0.0310429 -1.39151 -9.39806 -0.543669
3987.995565414 -0.107651 -0.138694 -0.0177198 -1.40109 -9.40285 -0.56283
3988.000317097 -0.104587 -0.126303 -0.00479632 -1.41785 -9.40285 -0.651445
3988.005069256 -0.105386 -0.109916 0.00932619 -1.40827 -9.46272 -0.61552
3988.010180950 -0.100456 -0.0967259 0.0211838 -1.37235 -9.46751 -0.6251
3988.014572859 -0.10019 -0.0794058 0.0295773 -1.26697 -9.46751 -0.737666
3988.019286156 -0.0945942 -0.0654165 0.0337075 -1.14242 -9.49386 -0.677791
3988.024076939 -0.0908637 -0.0544916 0.035173 -0.914897 -9.55613 -0.742456
3988.028828621 -0.0836692 -0.0398361 0.0295773 -0.823887 -9.50823 -0.752036
3988.033580780 -0.0683476 -0.0279786 0.023049 -0.799937 -9.42919 -0.780776
3988.038293839 -0.0515605 -0.0203844 0.0139893 -0.778381 -9.33818 -0.699346
3988.043084383 -0.0331746 -0.00879326 0.00319755 -0.752036 -9.27831 -0.673
3988.047836304 -0.00919296 0.00439663 -0.00106585 -0.728086 -9.27591 -0.59636
3988.052588463 0.0191853 0.0146554 -0.00919296 -0.764011 -9.33579 -0.546064
3988.057340145 0.04783 0.0238484 -0.0183859 -0.797542 -9.39327 -0.522114
3988.062092304 0.0803384 0.033974 -0.0215835 -0.773591 -9.4723 -0.490979
3988.066843987 0.110715 0.0403691 -0.0238484 -0.780776 -9.55613 -0.510139
3988.071595907 0.13483 0.051294 -0.0246478 -0.723296 -9.63995 -0.555645
3988.076347828 0.157213 0.0647504 -0.0250475 -0.778381 -9.59205 -0.543669
3988.081459761 0.175066 0.0767412 -0.0209173 -0.728086 -9.56331 -0.593965
3988.085851669 0.194917 0.0858009 -0.0179862 -0.823887 -9.49386 -0.58678
3988.090603828 0.207841 0.099124 -0.0102588 -0.833467 -9.36932 -0.60115
3988.095355272 0.223828 0.10885 0.00266462 -0.919688 -9.29747 -0.60115
3988.100107431 0.237152 0.122972 0.0214502 -1.02028 -9.19927 -0.6251
3988.104859352 0.247677 0.137761 0.0379709 -1.04662 -9.16095 -0.670605
3988.109611273 0.256737 0.14802 0.0583553 -1.07776 -9.24478 -0.61552
3988.114363194 0.258335 0.160277 0.0804717 -1.05381 -9.43398 -0.656235
3988.119115353 0.258202 0.172002 0.0993905 -0.969983 -9.51062 -0.651445
3988.123866796 0.254205 0.17853 0.113113 -0.886157 -9.68546 -0.603545
3988.128582954 0.243547 0.186657 0.129234 -0.768801 -9.82437 -0.589175
3988.133370876 0.232222 0.191986 0.137894 -0.730481 -9.96328 -0.5772
3988.138122797 0.219832 0.196516 0.142691 -0.61552 -9.96328 -0.555645
3988.142874718 0.212371 0.194384 0.14309 -0.529299 -10.004 -0.517324
3988.147590637 0.203044 0.194917 0.142424 -0.555645 -9.98484 -0.512534
3988.152378321 0.194384 0.191853 0.14389 -0.565225 -9.92017 -0.490979
3988.157130480 0.180928 0.187456 0.139493 -0.593965 -9.93454 -0.519719
3988.161882162 0.17027 0.185858 0.136296 -0.58199 -9.90101 -0.490979
3988.166595459 0.147087 0.183193 0.129767 -0.486189 -9.97047 -0.550854
3988.171746016 0.132165 0.178263 0.121907 -0.467029 -9.99442 -0.498164
3988.176138163 0.11711 0.173067 0.107784 -0.479004 -10.0351 -0.378413
3988.180889845 0.0987243 0.166539 0.0920628 -0.471819 -10.0375 -0.347278
3988.185603380 0.0866003 0.158279 0.0791394 -0.481399 -10.0998 -0.395178
3988.190393686 0.074876 0.153616 0.067415 -0.58199 -10.1261 -0.292192
3988.195145845 0.0688806 0.147753 0.0532925 -0.65863 -10.0687 -0.320933
3988.199897766 0.0660827 0.142824 0.0468974 -0.687371 -10.0663 -0.364043
3988.204649687 0.0588882 0.135496 0.0395697 -0.768801 -10.0711 -0.359253
3988.209401369 0.0511608 0.133764 0.0366386 -0.835862 -10.0184 -0.385598
3988.214153528 0.0498285 0.129234 0.0373047 -0.958008 -10.0088 -0.349673
3988.218905210 0.0506279 0.121507 0.0389035 -1.02267 -10.0256 -0.378413
3988.223657370 0.0467642 0.119908 0.0361057 -1.03465 -10.0639 -0.335303
3988.228409052 0.0499617 0.118576 0.033974 -1.06339 -10.0303 -0.287402
3988.233161211 0.0524931 0.115245 0.0350398 -1.00112 -10.0327 -0.277822
3988.237912893 0.051294 0.110049 0.0275789 -0.979563 -9.95849 -0.294587
3988.243024826 0.0492956 0.109783 0.0234487 -0.986748 -9.94173 -0.263452
3988.247416735 0.0459648 0.111914 0.0186524 -1.0083 -9.92017 -0.304167
3988.252168894 0.0333078 0.116977 0.0155881 -1.07057 -9.98963 -0.354463
3988.256920576 0.0162542 0.12124 0.0159877 -1.25978 -10.095 -0.414338
3988.261672735 -0.0042634 0.128168 0.0181194 -1.32684 -10.083 -0.335303
3988.266424417 -0.0203844 0.137495 0.0267795 -1.30529 -10.0782 -0.364043
3988.271176338 -0.0361057 0.142557 0.0326417 -1.36277 -10.0591 -0.368833
3988.275892496 -0.0419678 0.145222 0.0419678 -1.37235 -10.1285 -0.325723
3988.280680418 -0.0527596 0.157346 0.0523599 -1.40109 -10.0687 -0.296982
3988.285432100 -0.0619525 0.158678 0.0615528 -1.36516 -10.083 -0.294587
3988.290184259 -0.0710123 0.163475 0.0638178 -1.38911 -10.0782 -0.268242
3988.294900179 -0.074876 0.168138 0.0742098 -1.37953 -10.0543 -0.265847
3988.299687862 -0.0772741 0.174133 0.0803384 -1.36756 -10.0256 -0.253872
3988.304439783 -0.07834 0.179329 0.0872665 -1.3484 -9.92257 -0.253872
3988.309191704 -0.0767412 0.181594 0.0989908 -1.38432 -9.79563 -0.323328
3988.313905001 -0.0676815 0.18759 0.101522 -1.3963 -9.74294 -0.249082
3988.318695784 -0.0568897 0.194118 0.109116 -1.42504 -9.62319 -0.241897
3988.323447227 -0.0367718 0.201312 0.113913 -1.43701 -9.47949 -0.227527
3988.328199387 -0.0255804 0.205709 0.116178 -1.41067 -9.44835 -0.263452
3988.331763506 -0.00972588 0.211571 0.116977 -1.3939 -9.37411 -0.337698
3988.337703228 0.00239816 0.219832 0.111515 -1.30529 -9.32381 -0.383203
3988.342455149 0.0231822 0.221297 0.10472 -1.20709 -9.25436 -0.368833
3988.347207308 0.0414349 0.22636 0.0935283 -1.10171 -9.3286 -0.385598
3988.351958752 0.0556907 0.227825 0.0802052 -1.07057 -9.35016 -0.368833
3988.356710911 0.0779403 0.232755 0.0710123 -1.152 -9.37411 -0.373623
3988.361462831 0.0987243 0.229691 0.0662159 -1.24781 -9.31902 -0.397573
3988.366214752 0.118309 0.231822 0.0599541 -1.31247 -9.32142 -0.452659
3988.370966673 0.13483 0.231556 0.0571562 -1.33163 -9.29028 -0.517324
3988.375718832 0.146821 0.232489 0.0519602 -1.29571 -9.35255 -0.593965
3988.380470276 0.162409 0.233421 0.0542251 -1.31966 -9.50104 -0.593965
3988.385582447 0.175466 0.231289 0.0528928 -1.27176 -9.47709 -0.570015
3988.389974117 0.190387 0.233155 0.0500949 -1.26697 -9.48428 -0.62031
3988.394726276 0.198781 0.227959 0.0500949 -1.25499 -9.46991 -0.687371
3988.399478197 0.209972 0.224628 0.0532925 -1.26936 -9.43877 -0.720901
3988.404230118 0.22143 0.220498 0.0567565 -1.28852 -9.45314 -0.749641
3988.408981800 0.23089 0.222096 0.0608867 -1.33642 -9.4244 -0.821492
3988.413733959 0.240216 0.218632 0.0719449 -1.40588 -9.43398 -0.919688
3988.418485641 0.248743 0.219432 0.0842021 -1.47054 -9.51781 -0.922083
3988.423201799 0.250874 0.213969 0.0972588 -1.48252 -9.57529 -0.912502
3988.427989721 0.262865 0.211038 0.109916 -1.38911 -9.69025 -0.955613
3988.432741642 0.270992 0.199181 0.120574 -1.31726 -9.81479 -0.986748
3988.437493324 0.279386 0.192119 0.1299 -1.24062 -9.8603 -1.00351
3988.442209482 0.29151 0.176265 0.136695 -1.16398 -9.8579 -1.09931
3988.446997166 0.296706 0.163075 0.140292 -1.18553 -9.83635 -1.18553
3988.451749325 0.298971 0.147221 0.142291 -1.08973 -9.81 -1.26218
3988.456501245 0.300436 0.129101 0.14762 -1.08255 -9.71659 -1.38193
3988.461253166 0.298172 0.112047 0.145489 -1.06578 -9.70462 -1.40109
3988.466004848 0.296306 0.0927289 0.150818 -1.03944 -9.67348 -1.40109
3988.470756769 0.29977 0.0730107 0.150551 -0.989143 -9.60642 -1.47054
3988.475868702 0.293508 0.0514273 0.147887 -0.965193 -9.51541 -1.51365
3988.480222225 0.288312 0.031709 0.148819 -0.979563 -9.53936 -1.5855
3988.485012531 0.276055 0.013856 0.148553 -1.06099 -9.51781 -1.58311
3988.489764690 0.270326 -0.00839357 0.154548 -1.12087 -9.55373 -1.55197
3988.494516373 0.264064 -0.029977 0.157746 -1.04662 -9.58726 -1.54718
3988.499268293 0.257802 -0.053559 0.160144 -0.967588 -9.67109 -1.50886
3988.504020214 0.252074 -0.0790061 0.160011 -0.955613 -9.69025 -1.46815
3988.508772373 0.250608 -0.106319 0.155747 -0.847837 -9.76928 -1.3963
3988.513524055 0.244879 -0.136296 0.155348 -0.797542 -9.79563 -1.37474
3988.518276215 0.244346 -0.166672 0.149086 -0.730481 -9.81719 -1.27176
3988.523027897 0.243413 -0.19092 0.143357 -0.696951 -9.75491 -1.22625
3988.527779818 0.242481 -0.220231 0.13896 -0.716111 -9.7597 -1.14721
3988.532531738 0.245145 -0.245545 0.14309 -0.735271 -9.70462 -1.1065
3988.537283897 0.239949 -0.270459 0.137228 -0.682581 -9.65193 -1.07776
3988.542035580 0.239816 -0.292842 0.138694 -0.704136 -9.67827 -0.998723
3988.547147512 0.232355 -0.313227 0.140692 -0.718506 -9.72378 -1.0107
3988.551539183 0.219299 -0.331479 0.139626 -0.65863 -9.74773 -0.979563
3988.556291342 0.204643 -0.345335 0.142557 -0.64905 -9.77647 -0.929268
3988.561043262 0.187456 -0.360124 0.141758 -0.651445 -9.82198 -0.857417
3988.565795183 0.166806 -0.372914 0.145355 -0.694556 -9.88185 -0.907712
3988.570547104 0.14349 -0.381841 0.153882 -0.766406 -9.83874 -0.869392
3988.575299263 0.120041 -0.391034 0.158012 -0.821492 -9.79323 -0.883762
3988.580050707 0.0893982 -0.40076 0.164274 -0.756826 -9.80042 -0.902922
3988.584802866 0.0582221 -0.407688 0.169337 -0.682581 -9.83874 -0.924478
3988.589519024 0.0279786 -0.416481 0.176931 -0.716111 -9.78844 -0.941243
3988.594306707 -0.00346401 -0.42634 0.178663 -0.716111 -9.69264 -0.953218
3988.599058628 -0.0277121 -0.433268 0.185458 -0.718506 -9.63037 -0.941243
3988.603810787 -0.049562 -0.443926 0.193851 -0.821492 -9.61361 -0.843047
3988.608562231 -0.0682144 -0.451787 0.20038 -0.814307 -9.63995 -0.838257
3988.613314390 -0.0751424 -0.456051 0.202778 -0.838257 -9.67109 -0.773591
3988.618426085 -0.0838025 -0.468441 0.210905 -0.855022 -9.67348 -0.759221
3988.622818232 -0.0851348 -0.473371 0.209972 -0.850232 -9.73575 -0.792751
3988.627531528 -0.0875329 -0.478167 0.211571 -0.792751 -9.77647 -0.773591
3988.632322073 -0.0876662 -0.483763 0.209573 -0.713716 -9.79323 -0.828677
3988.637073755 -0.0929954 -0.486694 0.203311 -0.687371 -9.77647 -0.874182
3988.641825914 -0.0909969 -0.489758 0.193718 -0.684976 -9.77647 -0.871787
3988.646538973 -0.0944609 -0.492689 0.186124 -0.60594 -9.78605 -0.924478
3988.651329756 -0.0960597 -0.493622 0.178263 -0.603545 -9.74773 -0.922083
3988.656081676 -0.0987243 -0.496686 0.166139 -0.495769 -9.75252 -0.948428
3988.660833597 -0.101522 -0.49149 0.152683 -0.584385 -9.7118 -0.981958
3988.665585279 -0.102322 -0.487626 0.148953 -0.608335 -9.70701 -0.958008
3988.670337439 -0.108051 -0.487227 0.144156 -0.570015 -9.74773 -0.943638
3988.675089121 -0.114046 -0.4783 0.140426 -0.560435 -9.75491 -0.934058
3988.679841280 -0.122706 -0.470972 0.132299 -0.560435 -9.7621 -0.871787
3988.684593201 -0.129767 -0.463778 0.1299 -0.514929 -9.77647 -0.912502
3988.689704895 -0.140559 -0.452986 0.123106 -0.464634 -9.93694 -0.809517
3988.694096804 -0.145089 -0.442328 0.116977 -0.505349 -9.92017 -0.804727
3988.698848724 -0.145222 -0.425541 0.115511 -0.5772 -9.88425 -0.766406
3988.703600645 -0.137495 -0.406755 0.116977 -0.699346 -9.82437 -0.742456
3988.708352804 -0.126969 -0.389968 0.119508 -0.797542 -9.80521 -0.735271
3988.713104486 -0.118043 -0.366253 0.126037 -0.866997 -9.84593 -0.775986
3988.717856646 -0.108051 -0.34387 0.134031 -0.948428 -9.83635 -0.778381
3988.722608328 -0.0943277 -0.320554 0.140292 -0.900527 -9.79084 -0.864602
3988.727360249 -0.081804 -0.294708 0.145755 -0.910107 -9.77647 -0.866997
3988.732112169 -0.0682144 -0.272858 0.157346 -0.912502 -9.76928 -0.802332
3988.736828327 -0.0494288 -0.25194 0.160677 -0.926873 -9.7621 -0.828677
3988.741616011 -0.0337075 -0.227825 0.162542 -0.843047 -9.87946 -0.742456
3988.746368170 -0.0153216 -0.211838 0.170403 -0.869392 -9.89622 -0.754431
