<?xml version="1.0" encoding="UTF-8"?>
<svg width="600" height="600" viewBox="0 0 600 600" xmlns="http://www.w3.org/2000/svg" version="1.1">
<polyline points="513.577,225.081 514.049,230.588 514.633,236.265 514.878,242.523 514.581,249.17 513.891,255.157 513.078,260.3 511.984,264.663 510.303,268.408 508.095,271.984 505.432,275.239 502.464,278.047 499.364,280.587 496.107,283.086 492.971,285.418 490.069,287.465 487.183,289.396 484.373,291.482 481.708,293.66 479.19,295.913 476.757,298.502 474.275,301.24 471.864,303.893 469.751,306.434 467.937,309.023 466.2,311.627 464.452,314.072 462.654,316.332 460.621,318.543 458.23,320.417 455.453,322.028 452.25,323.842 448.504,325.801 444.456,327.77 440.201,329.854 435.54,332.362 430.567,335.277 425.318,338.381 419.891,341.467 414.469,344.489 408.94,347.483 403.404,350.078 397.961,351.97 392.438,353.442 386.887,354.84 381.435,356.301 376.092,357.861 370.734,359.652 365.628,361.435 361.068,362.992 357.159,364.295 353.801,365.435 350.803,366.391 348.031,367.045 345.432,367.32 342.951,367.38 340.562,367.133 338.243,366.582 335.946,366.007 333.644,365.366 331.297,364.656 328.758,363.878 325.798,362.937 322.386,361.967 318.521,361.079 314.208,360.419 309.526,360.329 304.442,360.643 298.959,361.094 293.15,361.55 287.066,362.059 280.903,362.881 274.741,363.955 268.47,364.976 262.025,366.368 255.297,368.15 248.233,370.058 240.961,371.949 233.63,373.638 226.214,374.984 218.592,375.842 210.726,376.019 202.768,375.585 194.85,374.738 186.918,373.709 178.794,372.685 170.705,371.632 162.867,370.418 155.345,368.872 148.22,366.809 141.614,364.102 135.509,360.911 129.793,357.603 124.642,354.194 120.127,350.629 116.304,346.843 113.179,342.89 110.433,339.211 107.896,336.207 105.556,333.869 103.406,331.763 101.524,329.474 99.9914,326.795 98.594,323.891 96.7815,321.211 95.0397,318.423 93.4572,315.355 91.6719,312.115 90.1566,308.369 89.1769,303.842 88.804,298.611 88.9123,293.064 88.9933,287.363 89.1933,281.238 89.4829,274.746 89.2243,268.544 88.5492,262.748 87.6797,257.318 86.8171,252.124 86.1119,246.95 85.5029,241.599 85.1225,235.936 85.2298,229.99" stroke="green" stroke-width="1" fill="none" />
<polyline points="513.926,225.902 514.127,231.591 514.328,237.281 514.779,242.926 513.812,248.663 512.845,254.399 511.878,260.136 509.483,263.15 507.088,266.165 504.694,269.18 502.299,272.194 499.904,275.209 497.509,278.224 495.114,281.238 492.626,283.814 490.139,286.389 487.651,288.965 485.163,291.54 482.675,294.116 480.187,296.691 477.7,299.267 475.212,301.843 472.724,304.418 470.236,306.994 467.963,309.359 465.691,311.725 463.418,314.091 461.145,316.456 458.872,318.822 456.6,321.187 454.327,323.553 452.054,325.919 447.112,328.441 442.17,330.964 437.229,333.486 432.287,336.008 427.345,338.531 422.403,341.053 417.462,343.576 412.52,346.098 407.578,348.621 402.636,351.143 397.695,353.665 392.753,356.188 387.811,358.71 384.342,359.163 380.872,359.615 377.403,360.067 373.934,360.519 370.464,360.971 366.995,361.423 363.526,361.875 360.056,362.328 356.587,362.78 353.118,363.232 349.648,363.684 346.179,364.136 342.71,364.588 339.24,365.04 335.771,365.493 332.302,365.945 327.927,365.692 323.553,365.439 319.179,365.186 314.805,364.933 310.431,364.681 306.057,364.428 301.683,364.175 297.309,363.922 292.935,363.669 288.561,363.416 281.286,364.476 274.012,365.536 266.738,366.596 259.463,367.655 252.189,368.715 244.915,369.775 237.641,370.835 230.366,371.894 223.092,372.954 215.818,374.014 208.543,375.074 201.269,376.133 194.255,373.967 187.241,371.801 180.228,369.635 173.214,367.469 166.2,365.303 159.186,363.137 152.172,360.971 145.159,358.805 138.145,356.638 131.131,354.472 124.117,352.306 117.104,350.14 114.905,347.269 112.706,344.399 110.507,341.528 108.308,338.657 106.109,335.786 103.909,332.915 101.71,330.045 99.5114,327.174 97.3124,324.303 95.1134,321.432 92.9144,318.562 90.7154,315.691 90.344,310.652 89.9727,305.614 89.6013,300.575 89.23,295.537 88.8586,290.498 88.4873,285.46 88.116,280.421 87.7446,275.383 87.3733,270.344 86.525,264.837 85.6767,259.329 84.8284,253.821 84.4433,248.459 84.0582,243.097 83.673,237.735 83.9873,232.066" stroke="red" stroke-width="1" fill="none" />
</svg>
