3983.964881 0.000000000 0.000000000 0.000000000 0.000000000 0.000000000 0.000000000 1.000000000
3984.001745 -0.002018709 -0.005679013 -0.001761953 0.008592303 0.002231656 -0.004726967 0.999949396
3984.038608 -0.003343480 -0.013299401 -0.002722966 0.014487459 0.004114511 -0.008175977 0.999853134
3984.075471 -0.004269740 -0.022789776 -0.003771515 0.014994116 0.006194429 -0.010405287 0.999814272
3984.112335 -0.005833909 -0.030162996 -0.003808540 0.017922040 0.008838722 -0.013617689 0.999707580
3984.149198 -0.007002022 -0.037422914 -0.004154517 0.022790426 0.011053733 -0.014948566 0.999567389
3984.186061 -0.008047687 -0.044216715 -0.003452737 0.027822630 0.012717261 -0.014075460 0.999432862
3984.222925 -0.008586051 -0.049763795 -0.002758780 0.031882416 0.013113681 -0.012435198 0.999328256
3984.259788 -0.008314386 -0.054906178 -0.000942530 0.035080437 0.011655607 -0.010536507 0.999260962
3984.296651 -0.007605074 -0.059207931 0.000703804 0.038317025 0.008726547 -0.010554166 0.999171793
3984.333515 -0.006041398 -0.063814849 0.002926096 0.041081246 0.004129073 -0.012005591 0.999075174
3984.370378 -0.002662474 -0.068648033 0.005833461 0.043112472 -0.001270960 -0.013572483 0.998977244
3984.407242 0.001138020 -0.071888983 0.008199850 0.044712413 -0.006213298 -0.014661506 0.998872995
3984.444105 0.005705717 -0.075218648 0.010516992 0.045286633 -0.010930207 -0.016526295 0.998777509
3984.480968 0.011668376 -0.078483693 0.012213748 0.045202322 -0.015756236 -0.018463673 0.998682916
3984.517832 0.018192619 -0.081033342 0.013518364 0.046905410 -0.020459807 -0.019066542 0.998507738
3984.554695 0.026119154 -0.083234824 0.014204868 0.050147675 -0.025545148 -0.019941425 0.998215914
3984.591558 0.034190614 -0.085606292 0.014354801 0.053048719 -0.029796056 -0.019808313 0.997950733
3984.628422 0.044930246 -0.088701032 0.014287859 0.054884676 -0.034649525 -0.019040944 0.997709632
3984.665285 0.055541586 -0.092242122 0.014214112 0.055851229 -0.038631547 -0.017846020 0.997531891
3984.702148 0.068334535 -0.094077669 0.013921546 0.057425499 -0.044122133 -0.017337112 0.997223616
3984.739012 0.080618404 -0.097422212 0.013182327 0.057342604 -0.049282067 -0.017936293 0.996976137
3984.775875 0.093363091 -0.100386530 0.011079754 0.057133902 -0.054300714 -0.018303610 0.996720672
3984.812738 0.106333315 -0.102891110 0.009276253 0.058249813 -0.058953173 -0.018506873 0.996387959
3984.849602 0.120424278 -0.105444431 0.007676847 0.059604194 -0.064390779 -0.019828102 0.995945752
3984.886465 0.132824063 -0.108249024 0.005765390 0.061379954 -0.068756536 -0.019876329 0.995545089
3984.923328 0.145569772 -0.110678591 0.003644187 0.061657041 -0.072806649 -0.019529872 0.995246768
3984.960192 0.157728806 -0.112998381 0.002581763 0.058843873 -0.075996689 -0.020301690 0.995163143
3984.997055 0.169838071 -0.115274541 0.001495590 0.053253479 -0.079575822 -0.022069186 0.995160639
3985.033918 0.181251436 -0.118719503 0.000689287 0.048345003 -0.083570860 -0.024357082 0.995030344
3985.070781 0.191033751 -0.120143361 0.001328332 0.046198089 -0.087379552 -0.025349695 0.994780362
3985.107645 0.201740906 -0.122619197 0.001737056 0.043077491 -0.091288254 -0.027712461 0.994506299
3985.144508 0.210592568 -0.125333771 0.003128024 0.039116818 -0.092591383 -0.030253442 0.994475484
3985.181372 0.218626097 -0.127674907 0.006424934 0.035080180 -0.091535002 -0.031170623 0.994695485
3985.218235 0.226733953 -0.130561739 0.008945599 0.031565316 -0.089382842 -0.029941780 0.995046675
3985.255099 0.232466295 -0.134091020 0.012274653 0.028098054 -0.086301021 -0.027849151 0.995483339
3985.291962 0.237148911 -0.138402387 0.017142557 0.025292404 -0.084104396 -0.025899578 0.995799184
3985.328825 0.242899179 -0.145249203 0.020324286 0.022424769 -0.084332861 -0.025269996 0.995864749
3985.365688 0.246289492 -0.148507863 0.026051857 0.022940954 -0.084538929 -0.023168612 0.995886624
3985.402552 0.249898806 -0.149664372 0.032501187 0.024056520 -0.085703813 -0.020078378 0.995827794
3985.439415 0.255025774 -0.157252848 0.036944237 0.019486420 -0.088617511 -0.019110829 0.995691717
3985.476278 0.257391781 -0.161079809 0.042525310 0.015600565 -0.089992538 -0.017844127 0.995660365
3985.513142 0.260082990 -0.163927525 0.048784334 0.011697558 -0.091644548 -0.015318741 0.995605230
3985.550005 0.261781812 -0.167544097 0.054387808 0.007798107 -0.093186863 -0.013091778 0.995532036
3985.586869 0.263844132 -0.169861674 0.061477821 0.005982786 -0.095372178 -0.010047033 0.995373011
3985.623732 0.266011387 -0.172343403 0.067888282 0.005884022 -0.097330615 -0.006560548 0.995213091
3985.660595 0.268379986 -0.176225305 0.073619738 0.005895822 -0.098556928 -0.003274065 0.995108545
3985.697459 0.271423846 -0.178627029 0.078977272 0.007096724 -0.099598795 -0.000769021 0.995002091
3985.734322 0.273970097 -0.180814981 0.084727004 0.009098318 -0.100033976 0.000564847 0.994942307
3985.771185 0.278392196 -0.183557034 0.089130051 0.009675737 -0.101176888 0.000956911 0.994820952
3985.808049 0.280037761 -0.185466200 0.093719184 0.010285203 -0.099701546 0.002018992 0.994962215
3985.844912 0.284002990 -0.187847584 0.096445300 0.010892989 -0.099719286 0.003519665 0.994949758
3985.881775 0.288120776 -0.188303679 0.099017903 0.012715772 -0.100319028 0.005830230 0.994857013
3985.918638 0.293623030 -0.191893414 0.100667968 0.012831577 -0.102016091 0.007446212 0.994672120
3985.955502 0.298709214 -0.191989377 0.101921692 0.013868473 -0.103439927 0.009896695 0.994489789
3985.992365 0.304459304 -0.192812383 0.103549078 0.012577568 -0.105618253 0.010434791 0.994272470
3986.029229 0.311295748 -0.191719785 0.106001817 0.012913346 -0.108952895 0.010687009 0.993905604
3986.066092 0.318194568 -0.190959409 0.106197014 0.012717491 -0.111132316 0.010477537 0.993669033
3986.102955 0.326186866 -0.190222561 0.107048847 0.015064944 -0.112692811 0.010334748 0.993461907
3986.139819 0.333819807 -0.189862579 0.107057437 0.018030146 -0.111992061 0.011402601 0.993480086
3986.176682 0.344834596 -0.188595608 0.107875884 0.020785280 -0.112398677 0.013069698 0.993359804
3986.213545 0.357311785 -0.187453136 0.107546806 0.022893829 -0.113540843 0.016247557 0.993136644
3986.250409 0.368429840 -0.186197832 0.108526409 0.024301054 -0.114979632 0.017654685 0.992913604
3986.287272 0.379985124 -0.185347915 0.109277211 0.024660572 -0.118382566 0.018614262 0.992487252
3986.324135 0.392151356 -0.183773533 0.111489937 0.025994249 -0.123575300 0.018728936 0.991817892
3986.360999 0.405360788 -0.182825416 0.113623075 0.027325477 -0.130288586 0.019127386 0.990914881
3986.397862 0.417777270 -0.182333693 0.115452871 0.027370732 -0.136528671 0.018836509 0.990078747
3986.434726 0.431856155 -0.180009767 0.118741877 0.028282814 -0.143967137 0.018124767 0.989012182
3986.471589 0.444245785 -0.181208685 0.120673306 0.026185812 -0.149807572 0.017888803 0.988206446
3986.508452 0.459338397 -0.183694616 0.123287231 0.023934443 -0.156776860 0.017795380 0.987183630
3986.545316 0.473251075 -0.184856772 0.127175406 0.023464134 -0.162757456 0.018167393 0.986219764
3986.582179 0.488420606 -0.186201215 0.130926579 0.023496306 -0.168732658 0.018020278 0.985216975
3986.619042 0.500103891 -0.186753839 0.133957729 0.024273405 -0.172154129 0.017983334 0.984606683
3986.655905 0.513396561 -0.187738448 0.137439758 0.025025070 -0.176676780 0.017399158 0.983796895
3986.692769 0.527785718 -0.192429423 0.142436832 0.024784893 -0.182249993 0.015733724 0.982813835
3986.729632 0.538984120 -0.194910616 0.147059113 0.026578231 -0.185622156 0.014038372 0.982161343
3986.766495 0.551081836 -0.200194240 0.151577517 0.024817703 -0.189400777 0.013367414 0.981495142
3986.803359 0.559609234 -0.201889277 0.156276971 0.026189413 -0.190997347 0.012447647 0.981162131
3986.840222 0.574408889 -0.204444796 0.164442420 0.025699159 -0.197580472 0.012892216 0.979864955
3986.877086 0.583363116 -0.205295324 0.171175510 0.025726091 -0.200605541 0.012320695 0.979256749
3986.913949 0.590335369 -0.210204765 0.176381662 0.022723055 -0.202910557 0.011482961 0.978866220
3986.950812 0.600805521 -0.209451675 0.185142100 0.023938071 -0.208373964 0.010903893 0.977695405
3986.987676 0.610061169 -0.212834328 0.191387877 0.021549786 -0.211587816 0.011059585 0.977058768
3987.024539 0.621214926 -0.215692282 0.199572295 0.018986469 -0.215587318 0.011906311 0.976227343
3987.061402 0.629154861 -0.215081394 0.206917778 0.019449018 -0.216623291 0.013270865 0.975971282
3987.098266 0.638820291 -0.215260372 0.214702278 0.019360850 -0.218047217 0.014780384 0.975634217
3987.135129 0.647691190 -0.214084029 0.221943945 0.020245388 -0.217930287 0.017071299 0.975604951
3987.171992 0.656124234 -0.213318765 0.229928687 0.021227203 -0.217454463 0.019125901 0.975652158
3987.208856 0.666130424 -0.214534149 0.237750396 0.019002531 -0.217652440 0.020629907 0.975623250
3987.245719 0.676226199 -0.214301854 0.245893180 0.016140837 -0.218861803 0.021055516 0.975395143
3987.282583 0.682963490 -0.210289568 0.250915110 0.014978303 -0.217779413 0.021397537 0.975648463
3987.319446 0.690154612 -0.205249578 0.258935720 0.015628181 -0.219279096 0.021694781 0.975295722
3987.356309 0.696710289 -0.199973404 0.266000241 0.016262308 -0.220553562 0.021409703 0.975004256
3987.393173 0.702246010 -0.199046060 0.268482924 0.013754589 -0.219715640 0.020960489 0.975241780
3987.430036 0.708974779 -0.195172086 0.273506373 0.013685678 -0.220601663 0.021987375 0.975020051
3987.466899 0.716813207 -0.191328898 0.278660983 0.013348965 -0.222432226 0.023761023 0.974567175
3987.503762 0.720545411 -0.185780331 0.281487256 0.014848748 -0.221677735 0.025206007 0.974681020
3987.540626 0.725926042 -0.182261214 0.283041030 0.014313638 -0.223338857 0.026908737 0.974264205
3987.577489 0.731734812 -0.178791285 0.285435140 0.014723822 -0.227913320 0.027312227 0.973186910
3987.614352 0.737305284 -0.175646245 0.287315071 0.016167000 -0.233037934 0.027015610 0.971957862
3987.651216 0.743817091 -0.173066944 0.289202005 0.016933136 -0.238983780 0.026702704 0.970508575
3987.688079 0.749519944 -0.170579150 0.289695829 0.017338937 -0.243298948 0.025886234 0.969450772
3987.724943 0.755892873 -0.167148516 0.289675772 0.017177379 -0.246291623 0.025028372 0.968720257
3987.761806 0.761743426 -0.163769662 0.290825546 0.019076947 -0.248496100 0.022662010 0.968179822
3987.798669 0.769282043 -0.160596818 0.291919887 0.022826392 -0.250373125 0.020006001 0.967673481
3987.835533 0.775564849 -0.156825364 0.292534232 0.025432793 -0.250696272 0.017151134 0.967579663
3987.872396 0.780920982 -0.152596295 0.293651700 0.026482929 -0.251368225 0.015261381 0.967408776
3987.909259 0.785774410 -0.149278834 0.295289963 0.027104687 -0.254433334 0.011264659 0.966644764
3987.946123 0.789544821 -0.143629849 0.296933830 0.027146857 -0.259120494 0.007322268 0.965435624
3987.982986 0.793117762 -0.139265776 0.298646271 0.023620166 -0.264108390 0.004422119 0.964193583
3988.019849 0.794523060 -0.132806242 0.300027907 0.021570191 -0.267354876 0.003899288 0.963348806
3988.056713 0.795455337 -0.125806123 0.300489068 0.019986764 -0.268458754 0.004347758 0.963073969
3988.093576 0.796036482 -0.118300587 0.300848573 0.021900382 -0.268031299 0.005069832 0.963147938
3988.130440 0.796263516 -0.111142114 0.301751733 0.025476167 -0.266289353 0.007074517 0.963530421
3988.167303 0.796068966 -0.103280544 0.303377569 0.028498646 -0.263631880 0.010975971 0.964139819
3988.204166 0.796607852 -0.095994003 0.304036438 0.029508116 -0.261273712 0.013860426 0.964714050
3988.241030 0.795875490 -0.088563420 0.306616187 0.030642137 -0.259365767 0.014755650 0.965180159
3988.277893 0.794967592 -0.082329132 0.309348315 0.030467248 -0.257848322 0.015921321 0.965573668
3988.314756 0.793273449 -0.076200247 0.311664850 0.028827824 -0.255447358 0.016995041 0.966243625
3988.351619 0.790406048 -0.069541641 0.314374566 0.028163314 -0.252329975 0.018727506 0.967050016
3988.388483 0.786981225 -0.063546427 0.317457676 0.028866448 -0.248919249 0.021218659 0.967861414
3988.425346 0.782518983 -0.057078511 0.320531249 0.031786043 -0.245359123 0.024009071 0.968613505
3988.462209 0.777889788 -0.049802363 0.322591215 0.036525030 -0.242144376 0.027234249 0.969169915
3988.499073 0.773674786 -0.043407056 0.323886633 0.039822523 -0.241772711 0.032688003 0.968964219
