ply
format ascii 1.0
comment author: Gordon Liu
element vertex 2313
property double x
property double y
property double z
property uchar red
property uchar green
property uchar blue
end_header
0.102164 -0.0194806 0.464878 255 0 0
0.0582176 -0.0188871 0.457584 255 0 0
-0.00998046 -0.00517112 0.466468 255 0 0
-0.00794615 -0.00462437 0.502419 255 0 0
0.061155 -0.0208512 0.47515 255 0 0
0.140763 0.0855573 0.487641 255 0 0
0.140971 0.0854839 0.485493 255 0 0
0.140989 0.0844172 0.483558 255 0 0
0.141325 0.0855905 0.48552 255 0 0
0.13015 0.0417535 0.510136 255 0 0
0.147749 0.0143294 0.511693 255 0 0
0.132026 0.0380025 0.511427 255 0 0
0.130067 0.0405022 0.509585 255 0 0
0.129695 0.0397921 0.499227 255 0 0
0.145153 0.0136035 0.520323 255 0 0
0.151252 0.0126317 0.516778 255 0 0
0.151909 0.0121653 0.515022 255 0 0
0.153115 0.0123213 0.514962 255 0 0
0.153184 0.011828 0.515645 255 0 0
0.132229 -0.0442248 0.545788 255 0 0
0.0806392 -0.0486892 0.548571 255 0 0
0.126345 -0.0652201 0.582426 255 0 0
0.129434 -0.0694417 0.583533 255 0 0
0.179189 -0.110966 0.587618 255 0 0
0.0456677 -0.00400575 0.43706 255 0 0
0.046861 -0.00581877 0.435024 255 0 0
0.0472418 -0.00777385 0.44885 255 0 0
-0.0334143 -0.000341494 0.464365 255 0 0
0.0378997 -0.0573002 0.610594 255 0 0
0.0338576 -0.0558026 0.659261 255 0 0
0.038025 -0.0566703 0.636908 255 0 0
0.181839 -0.125365 0.627858 255 0 0
0.0212426 -0.204003 0.639425 255 0 0
0.021026 -0.204125 0.638885 255 0 0
0.053685 -0.206968 0.634964 255 0 0
-0.0423381 -0.206736 0.643062 255 0 0
0.0878538 -0.0783365 0.650768 255 0 0
-0.0421964 -0.207601 0.643112 255 0 0
-0.0448858 -0.209164 0.645838 255 0 0
0.196402 -0.145791 0.617712 255 0 0
0.200048 -0.148075 0.622991 255 0 0
0.0686471 -0.202103 0.643918 255 0 0
0.0686697 -0.201455 0.643512 255 0 0
0.067913 -0.201918 0.646825 255 0 0
0.0968107 -0.0791484 0.657206 255 0 0
0.106942 -0.0111729 0.456848 255 0 0
0.348212 -0.0590348 0.6906 255 0 0
0.0941318 -0.071443 0.628862 255 0 0
0.0787212 -0.0711574 0.633501 255 0 0
0.0895134 -0.182161 0.663426 255 0 0
0.0868 -0.183197 0.653359 255 0 0
-0.07549 -0.185637 0.648532 255 0 0
0.0932215 -0.170351 0.670812 255 0 0
0.0934381 -0.170028 0.668549 255 0 0
0.191144 -0.209875 0.685665 255 0 0
0.0996692 -0.158215 0.678319 255 0 0
-0.0724693 -0.200328 0.659705 255 0 0
-0.164307 -0.253262 0.647456 255 0 0
-0.143276 -0.245023 0.639541 255 0 0
-0.0392724 -0.191992 0.65549 255 0 0
-0.128919 -0.183485 0.667844 255 0 0
0.0792586 -0.134648 0.720133 255 0 0
0.0646271 -0.151021 0.712232 255 0 0
0.0409519 -0.172991 0.696124 255 0 0
-0.0907387 -0.176578 0.688823 255 0 0
-0.0833815 -0.176864 0.673849 255 0 0
0.0760486 -0.188883 0.659177 255 0 0
0.0907254 -0.180835 0.659341 255 0 0
0.0859565 -0.182897 0.663248 255 0 0
0.137896 -0.149914 0.666514 255 0 0
0.1373 -0.151147 0.66838 255 0 0
0.0487276 -0.191456 0.668888 255 0 0
-0.0922571 0.0829882 0.678024 255 0 0
0.0489015 -0.191307 0.668363 255 0 0
0.137035 -0.150977 0.669693 255 0 0
0.136042 -0.15264 0.672723 255 0 0
0.190477 -0.17742 0.675339 255 0 0
-0.091496 0.0817564 0.676816 255 0 0
0.137789 -0.149914 0.669651 255 0 0
0.12173 -0.167146 0.66946 255 0 0
0.0425014 -0.19229 0.668336 255 0 0
0.13393 -0.0584564 0.55954 255 0 0
0.132311 -0.0572433 0.550284 255 0 0
0.137064 -0.0632901 0.561493 255 0 0
0.14219 -0.0662772 0.588408 255 0 0
0.149218 -0.0901808 0.57256 255 0 0
0.15322 -0.0915475 0.588268 255 0 0
0.152311 -0.0917908 0.586092 255 0 0
0.12509 -0.0651174 0.577286 255 0 0
0.178607 -0.106949 0.566676 255 0 0
0.11316 -0.0646696 0.591821 255 0 0
0.15853 -0.0976241 0.597788 255 0 0
0.159303 -0.0978221 0.591097 255 0 0
0.159239 -0.0973923 0.59573 255 0 0
0.180401 -0.112064 0.592663 255 0 0
0.180183 -0.112469 0.59985 255 0 0
0.0249616 -0.0461242 0.533918 255 0 0
0.172474 -0.013859 0.541759 255 0 0
0.13232 -0.0500953 0.555353 255 0 0
0.183249 -0.122962 0.618928 255 0 0
0.0603149 -0.156364 0.696102 255 0 0
0.0537019 -0.00343653 0.445086 255 0 0
-0.0153438 0.111293 0.755212 255 0 0
-0.0964718 0.116034 0.717396 255 0 0
-0.0925875 0.118049 0.720192 255 0 0
0.144326 -0.13705 0.674255 255 0 0
0.146804 -0.141188 0.671955 255 0 0
0.107421 -0.113336 0.716724 255 0 0
0.106201 -0.112757 0.709861 255 0 0
0.0506397 -0.145551 0.705172 255 0 0
0.0512315 -0.150776 0.701613 255 0 0
0.0566476 -0.159585 0.696622 255 0 0
0.182574 -0.116177 0.594584 255 0 0
0.128349 0.0437025 0.508215 255 0 0
0.117238 0.0417435 0.43153 255 0 0
0.0627604 -0.0782649 0.65134 255 0 0
0.0611875 -0.0788008 0.643721 255 0 0
0.0799027 -0.131664 0.717026 255 0 0
0.111902 -0.111395 0.707857 255 0 0
0.135311 -0.114619 0.671684 255 0 0
0.0438818 0.00346848 0.431457 255 0 0
0.0448958 0.00119003 0.434704 255 0 0
0.10528 -0.0255727 0.471305 255 0 0
0.181922 -0.126011 0.624893 255 0 0
-0.0626208 0.118353 0.734792 255 0 0
-0.172822 -0.111368 0.714773 255 0 0
0.0706084 -0.120978 0.708562 255 0 0
0.0455502 -0.00412001 0.436971 255 0 0
0.0285003 -0.158384 0.702225 255 0 0
0.0286949 -0.15901 0.703968 255 0 0
0.183149 -0.116782 0.595662 255 0 0
0.108887 0.098753 0.600198 255 0 0
0.0746202 -0.124953 0.702469 255 0 0
0.0511883 -0.144976 0.703271 255 0 0
0.0390969 -0.155216 0.711532 255 0 0
0.128288 -0.0682342 0.580328 255 0 0
0.135894 -0.116041 0.675892 255 0 0
0.106376 -0.0372996 0.480915 255 0 0
-0.13067 0.00540309 0.809018 255 0 0
-0.0623917 0.11802 0.734212 255 0 0
-0.172804 -0.112771 0.714347 255 0 0
0.128425 0.0433237 0.507495 255 0 0
0.187088 -0.129353 0.607902 255 0 0
0.0709554 -0.120667 0.709896 255 0 0
-0.0949065 0.113332 0.713263 255 0 0
-0.0282711 -0.00973368 0.468117 255 0 0
0.0415921 -0.0742945 0.648124 255 0 0
0.197155 -0.138402 0.634993 255 0 0
0.0772674 0.115635 0.541256 255 0 0
0.0319875 0.112685 0.564965 255 0 0
0.0327394 0.107662 0.573115 255 0 0
0.116006 0.0428895 0.429271 255 0 0
0.180855 -0.110859 0.594694 255 0 0
0.0610697 -0.0784332 0.648851 255 0 0
0.0509739 -0.14615 0.703347 255 0 0
0.0439542 0.00310206 0.43298 255 0 0
0.0445484 0.00214768 0.434256 255 0 0
0.0406291 0.0137241 0.413659 255 0 0
0.0975636 -0.00126302 0.535 255 0 0
-0.0162749 0.110183 0.754449 255 0 0
-0.163556 -0.130308 0.725152 255 0 0
-0.129579 0.00490213 0.806228 255 0 0
-0.00316329 0.0669029 0.613804 255 0 0
0.143999 -0.137851 0.673204 255 0 0
0.0799149 -0.131734 0.71773 255 0 0
0.104897 -0.113218 0.711507 255 0 0
-0.0764119 0.151272 0.768465 255 0 0
-0.136677 0.0169131 0.800213 255 0 0
-0.0410598 -0.121845 0.708761 255 0 0
0.100402 -0.119049 0.718722 255 0 0
0.127659 -0.0670512 0.582687 255 0 0
0.0504557 -0.149879 0.726224 255 0 0
0.0397024 -0.0745917 0.650081 255 0 0
0.0956938 -0.0926031 0.706727 255 0 0
0.0941829 0.0979288 0.541597 255 0 0
-0.176074 -0.108229 0.712591 255 0 0
-0.0404409 -0.120934 0.704303 255 0 0
-0.0756005 0.0600101 0.609104 255 0 0
0.0448077 0.0020407 0.432936 255 0 0
0.143494 -0.136984 0.671391 255 0 0
0.0211291 -0.0763008 0.679265 255 0 0
0.124071 0.118513 0.752307 255 0 0
-0.165087 0.0589437 0.766259 255 0 0
-0.139331 0.0158091 0.801943 255 0 0
-0.177435 -0.107822 0.713327 255 0 0
-0.172333 -0.114058 0.712485 255 0 0
0.0768424 0.114435 0.538728 255 0 0
0.11338 -0.00291275 0.44341 255 0 0
-0.0752694 0.059479 0.609753 255 0 0
-0.137666 0.0157125 0.800873 255 0 0
-0.16894 -0.129176 0.72494 255 0 0
0.00255771 0.00107628 0.4227 255 0 0
-0.0943239 0.111422 0.712228 255 0 0
0.0870278 -0.0243061 0.469164 255 0 0
0.071183 -0.121693 0.711868 255 0 0
0.0318403 0.107949 0.570758 255 0 0
0.0226265 -0.0767155 0.680172 255 0 0
-0.190568 -0.0830709 0.714438 255 0 0
-0.075971 0.149038 0.764848 255 0 0
0.00324994 0.000546953 0.422486 255 0 0
-0.00267152 0.0653375 0.609296 255 0 0
-0.0870413 0.119955 0.728584 255 0 0
-0.0936912 0.110385 0.707468 255 0 0
0.0895638 -0.0251803 0.477756 255 0 0
0.106363 -0.119169 0.753548 255 0 0
0.0801232 -0.130485 0.715868 255 0 0
0.0719044 -0.121761 0.709115 255 0 0
0.116613 0.0411753 0.434372 255 0 0
0.151186 -0.104064 0.667843 255 0 0
-0.163953 0.0559161 0.769727 255 0 0
0.0647692 -0.0837007 0.655366 255 0 0
-0.0940361 0.109804 0.709993 255 0 0
-0.128848 0.00239453 0.807285 255 0 0
-0.172142 -0.115076 0.71258 255 0 0
-0.171945 -0.129677 0.732483 255 0 0
-0.00392276 0.0639251 0.609081 255 0 0
0.0873499 -0.0245943 0.472497 255 0 0
0.0391927 0.019544 0.40509 255 0 0
0.0460371 0.000647761 0.436553 255 0 0
0.141096 0.0838968 0.48493 255 0 0
0.116481 0.0416333 0.433966 255 0 0
0.113729 -0.00169247 0.443587 255 0 0
0.0457454 0.000143669 0.436912 255 0 0
-0.0939615 0.112071 0.716222 255 0 0
0.10173 -0.0239465 0.469766 255 0 0
0.0873981 -0.0229117 0.474331 255 0 0
0.13531 -0.0986287 0.69667 255 0 0
0.159323 -0.113385 0.710148 255 0 0
0.141418 0.0834606 0.48677 255 0 0
0.101615 -0.114585 0.706566 255 0 0
-0.191516 -0.0854708 0.719438 255 0 0
0.0303466 0.107789 0.578091 255 0 0
0.115851 0.0434336 0.428414 255 0 0
0.106039 -0.036678 0.479913 255 0 0
0.115702 0.0424096 0.428686 255 0 0
0.0420429 -0.191408 0.670682 255 0 0
0.137569 -0.130398 0.637568 255 0 0
0.14251 -0.137381 0.672342 255 0 0
0.0866934 -0.171816 0.669457 255 0 0
0.151071 -0.105347 0.695325 255 0 0
0.142906 -0.0965925 0.639182 255 0 0
0.149653 -0.103916 0.67999 255 0 0
-0.00561751 -0.186177 0.693574 255 0 0
0.123406 -0.0952537 0.698765 255 0 0
-0.0437717 -0.00152521 0.458379 255 0 0
0.114378 -0.0126073 0.456573 255 0 0
0.113863 -0.0143693 0.461215 255 0 0
0.113413 -0.0165724 0.461781 255 0 0
0.115918 -0.00743558 0.448852 255 0 0
0.105728 -0.0113222 0.457932 255 0 0
-0.0494997 -0.000624517 0.460337 255 0 0
0.109133 -0.0101838 0.454964 255 0 0
0.109278 -0.0102256 0.455103 255 0 0
0.0968093 -0.0785123 0.65654 255 0 0
-0.0641738 -0.19865 0.638846 255 0 0
-0.0419185 -0.192771 0.659323 255 0 0
0.137854 -0.0971873 0.617839 255 0 0
0.0539797 -0.190359 0.663573 255 0 0
0.14772 -0.095715 0.666013 255 0 0
0.149703 -0.101953 0.675672 255 0 0
0.0548053 -0.189351 0.659237 255 0 0
0.0499998 -0.191872 0.669986 255 0 0
0.0510284 -0.191859 0.680532 255 0 0
0.0507085 -0.190832 0.665133 255 0 0
0.0533261 -0.189932 0.65964 255 0 0
0.133762 -0.154699 0.671077 255 0 0
-0.0543069 -0.174694 0.676658 255 0 0
-0.0546287 -0.175641 0.675456 255 0 0
-0.0553099 -0.175975 0.68168 255 0 0
-0.0544955 -0.17545 0.674522 255 0 0
0.146978 -0.138453 0.671299 255 0 0
-0.148084 -0.24757 0.642338 255 0 0
-0.129971 -0.239883 0.643042 255 0 0
-0.126129 -0.23905 0.642399 255 0 0
-0.127081 -0.238773 0.645724 255 0 0
-0.123621 -0.237029 0.649047 255 0 0
-0.112192 -0.231328 0.627081 255 0 0
-0.115156 -0.232738 0.636001 255 0 0
0.0405742 -0.19278 0.670134 255 0 0
-0.12112 -0.182902 0.664874 255 0 0
0.0410427 -0.191517 0.668836 255 0 0
0.0396503 -0.192104 0.669272 255 0 0
-0.00568253 -0.186054 0.689603 255 0 0
-0.00432384 -0.185712 0.681919 255 0 0
-0.00500394 -0.185375 0.686005 255 0 0
0.121435 -0.0953179 0.69064 255 0 0
0.121674 -0.0957314 0.696459 255 0 0
-0.106078 -0.0450755 0.697642 255 0 0
0.105349 -0.0957515 0.730554 255 0 0
0.0565253 -0.163712 0.697473 255 0 0
0.196373 -0.145855 0.6276 255 0 0
0.195743 -0.14469 0.622368 255 0 0
0.0545753 -0.205982 0.634481 255 0 0
0.0203913 -0.204379 0.638319 255 0 0
0.0205872 -0.203761 0.638006 255 0 0
0.0222555 -0.203205 0.638216 255 0 0
-0.170988 -0.255957 0.631509 255 0 0
-0.170961 -0.255996 0.632669 255 0 0
-0.17162 -0.256601 0.636653 255 0 0
0.0253825 -0.202583 0.643743 255 0 0
0.0263153 -0.201721 0.633716 255 0 0
0.10005 -0.0170031 0.46549 255 0 0
-0.0955751 -0.222679 0.630123 255 0 0
0.0905998 -0.191294 0.666361 255 0 0
0.0906865 -0.191852 0.667588 255 0 0
0.050699 -0.191155 0.663514 255 0 0
0.0521629 -0.190031 0.661217 255 0 0
0.149367 -0.141277 0.696525 255 0 0
-0.0011386 -0.125523 0.702044 255 0 0
0.0067575 -0.105867 0.719033 255 0 0
0.108912 -0.117409 0.720073 255 0 0
0.0704302 -0.12046 0.708705 255 0 0
0.0995162 -0.119062 0.714951 255 0 0
0.0967061 -0.122051 0.715112 255 0 0
0.0986203 -0.120534 0.717686 255 0 0
-0.166107 -0.129102 0.720876 255 0 0
0.0194445 -0.106627 0.742668 255 0 0
0.140703 -0.131839 0.717001 255 0 0
0.0843676 -0.128514 0.72231 255 0 0
-0.00748266 -0.00565921 0.463982 255 0 0
-0.0279356 -0.0107382 0.46657 255 0 0
0.136955 -0.0642128 0.563244 255 0 0
0.127494 -0.0636986 0.575981 255 0 0
0.10721 -0.0605755 0.577614 255 0 0
0.0943871 -0.0691537 0.625921 255 0 0
0.182615 -0.124534 0.62479 255 0 0
0.0962537 -0.0718966 0.611558 255 0 0
0.0981304 -0.0734126 0.632608 255 0 0
0.0984365 -0.0732369 0.632722 255 0 0
0.10082 -0.0749951 0.652913 255 0 0
0.0971012 -0.0722934 0.628825 255 0 0
0.020469 -0.203466 0.638991 255 0 0
0.0372827 -0.0763379 0.645583 255 0 0
0.0565397 -0.189513 0.660183 255 0 0
0.136408 -0.119622 0.676246 255 0 0
0.190444 -0.177372 0.674198 255 0 0
0.188048 -0.177812 0.669442 255 0 0
0.0863867 -0.173234 0.674457 255 0 0
-0.00554007 -0.187088 0.690935 255 0 0
0.0954687 -0.165651 0.682304 255 0 0
-0.0888641 -0.160969 0.699111 255 0 0
0.0390795 -0.167942 0.698649 255 0 0
0.0409147 -0.172835 0.700259 255 0 0
-0.0559608 -0.177731 0.682301 255 0 0
-0.105753 -0.0448759 0.694506 255 0 0
-0.10525 -0.0468933 0.694981 255 0 0
-0.0860989 -0.163828 0.695475 255 0 0
0.00698113 -0.181253 0.69795 255 0 0
0.00849346 -0.178219 0.697088 255 0 0
0.0494714 -0.152456 0.703221 255 0 0
0.0459321 -0.155115 0.715929 255 0 0
0.0521743 -0.149448 0.707905 255 0 0
0.042191 -0.153935 0.699085 255 0 0
0.0163149 -0.177077 0.697659 255 0 0
-0.170678 -0.117346 0.715348 255 0 0
0.00591678 -0.104681 0.718013 255 0 0
0.140356 -0.131747 0.711008 255 0 0
-0.0618595 0.116964 0.733083 255 0 0
0.26441 -0.0853453 0.778368 255 0 0
0.122506 0.117755 0.761799 255 0 0
-0.0831589 -0.0103513 0.805988 255 0 0
0.305649 -0.223186 0.81546 255 0 0
0.300394 -0.250641 0.811138 255 0 0
0.311925 -0.202674 0.819424 255 0 0
0.0507347 -0.0353608 0.525074 255 0 0
0.065745 -0.0468895 0.537454 255 0 0
-0.0665313 0.0608189 0.613396 255 0 0
0.145523 -0.0915251 0.582604 255 0 0
0.180414 -0.112385 0.600596 255 0 0
0.191215 -0.134226 0.612689 255 0 0
0.190167 -0.132488 0.612673 255 0 0
0.0764209 -0.0678626 0.617913 255 0 0
0.0780868 -0.0686202 0.625135 255 0 0
0.0780677 -0.06905 0.62522 255 0 0
0.0780749 -0.0715731 0.649426 255 0 0
0.0801281 -0.0713041 0.620194 255 0 0
0.238519 -0.249303 0.766899 255 0 0
0.144332 -0.276318 0.779923 255 0 0
0.186206 -0.204458 0.783523 255 0 0
0.212899 -0.223673 0.783485 255 0 0
0.138204 -0.266893 0.796666 255 0 0
0.20816 -0.209213 0.788021 255 0 0
-0.136785 0.019872 0.802222 255 0 0
-0.0629505 -0.0485025 0.802467 255 0 0
-0.0802199 -0.0126102 0.800926 255 0 0
0.219358 -0.250318 0.795023 255 0 0
0.200484 -0.250151 0.79938 255 0 0
0.164544 -0.316655 0.815226 255 0 0
0.153041 -0.309664 0.796068 255 0 0
0.154162 -0.308152 0.794616 255 0 0
0.156179 -0.293481 0.791321 255 0 0
0.195266 -0.297873 0.796661 255 0 0
0.194984 -0.297658 0.796407 255 0 0
0.155047 -0.297949 0.784885 255 0 0
0.160587 -0.296893 0.804203 255 0 0
-0.0765224 -0.0278216 0.820506 255 0 0
0.159441 -0.292818 0.794987 255 0 0
0.145917 -0.295164 0.78109 255 0 0
0.145958 -0.295862 0.786137 255 0 0
0.148677 -0.292073 0.783534 255 0 0
0.150237 -0.29649 0.795943 255 0 0
0.149807 -0.291381 0.781536 255 0 0
0.199426 -0.295875 0.791435 255 0 0
0.244318 -0.332939 0.802961 255 0 0
0.221968 -0.332471 0.802035 255 0 0
0.215019 -0.309369 0.80282 255 0 0
0.33734 -0.394049 0.961744 255 0 0
0.000443794 -0.0271546 0.501198 255 0 0
-0.0023489 -0.0263547 0.512604 255 0 0
-0.00427716 -0.0270854 0.503051 255 0 0
0.127214 -0.0221237 0.523289 255 0 0
0.178305 -0.0887801 0.511209 255 0 0
0.0199622 -0.0302041 0.498265 255 0 0
-0.0554978 0.00323806 0.453236 255 0 0
0.311672 -0.284622 0.80929 255 0 0
0.303049 -0.213926 0.815934 255 0 0
0.302957 -0.212171 0.817331 255 0 0
0.302521 -0.20951 0.811108 255 0 0
0.309815 -0.268735 0.812098 255 0 0
0.307239 -0.267105 0.8159 255 0 0
0.267821 -0.318554 0.800541 255 0 0
0.307077 -0.26465 0.821273 255 0 0
0.177865 -0.277439 0.790039 255 0 0
0.231289 -0.344017 0.800834 255 0 0
0.192795 -0.294221 0.792719 255 0 0
0.193377 -0.295831 0.796296 255 0 0
0.19016 -0.293848 0.794154 255 0 0
0.293412 -0.269047 0.817385 255 0 0
0.292454 -0.269972 0.812051 255 0 0
0.219592 -0.334112 0.803072 255 0 0
0.292752 -0.270994 0.818919 255 0 0
0.24219 -0.280405 0.8072 255 0 0
0.12475 -0.0626854 0.573006 255 0 0
0.180379 -0.110944 0.586471 255 0 0
0.11619 -0.0674664 0.609459 255 0 0
0.116195 -0.0675491 0.60902 255 0 0
0.115716 -0.0670165 0.598189 255 0 0
0.179286 -0.111038 0.594217 255 0 0
0.0699125 -0.0586584 0.594714 255 0 0
-0.115467 -0.241491 0.604906 255 0 0
-0.115307 -0.241357 0.605297 255 0 0
0.0525479 0.000111016 0.438148 255 0 0
-0.0548193 0.00266454 0.449965 255 0 0
-0.0105854 -0.0318249 0.518708 255 0 0
0.000683654 -0.033135 0.519072 255 0 0
0.00117408 -0.03453 0.519642 255 0 0
0.0990264 -0.00215821 0.54412 255 0 0
0.0626454 0.125965 0.53697 255 0 0
0.0625908 0.125545 0.537187 255 0 0
0.0773384 0.113026 0.539665 255 0 0
0.0787757 0.112797 0.54013 255 0 0
0.0788853 0.110954 0.539197 255 0 0
0.0943033 0.097967 0.540968 255 0 0
0.0938155 0.102485 0.540316 255 0 0
0.095627 0.10314 0.542212 255 0 0
0.137261 -0.0523576 0.550992 255 0 0
0.138789 -0.0601574 0.55816 255 0 0
0.134382 -0.0569333 0.557227 255 0 0
0.102814 -0.0230648 0.471219 255 0 0
0.0571421 -0.0328483 0.492112 255 0 0
0.0589332 -0.034546 0.485022 255 0 0
0.0597825 -0.0347833 0.488832 255 0 0
0.0600106 -0.0351691 0.488489 255 0 0
0.0592431 -0.0337312 0.489746 255 0 0
-0.0909758 -0.157802 0.701001 255 0 0
-0.0883241 -0.157354 0.694802 255 0 0
0.00732356 -0.178408 0.695218 255 0 0
-0.0887627 -0.159023 0.697704 255 0 0
0.00770505 -0.177153 0.694392 255 0 0
0.00901632 -0.183275 0.689093 255 0 0
0.00684619 -0.1778 0.696083 255 0 0
0.0398564 -0.168757 0.695866 255 0 0
-0.121713 0.120453 0.708204 255 0 0
-0.122199 0.120244 0.710118 255 0 0
0.0101785 -0.183077 0.68897 255 0 0
0.0397473 -0.169676 0.69693 255 0 0
0.0396573 -0.170489 0.698097 255 0 0
0.0397678 -0.17601 0.728665 255 0 0
0.00691573 -0.176933 0.695903 255 0 0
0.0415882 -0.174851 0.697969 255 0 0
0.0412789 -0.175067 0.698904 255 0 0
0.0414858 -0.174813 0.697209 255 0 0
0.040987 -0.174055 0.698594 255 0 0
0.0402077 -0.172892 0.699945 255 0 0
0.0924173 -0.0892376 0.696516 255 0 0
0.0405973 -0.155129 0.702435 255 0 0
-0.122334 0.121053 0.710157 255 0 0
0.0143793 -0.18354 0.728835 255 0 0
0.0146562 -0.184058 0.722804 255 0 0
0.00660379 -0.123725 0.706174 255 0 0
-0.0963877 0.114474 0.715961 255 0 0
-0.175015 -0.107699 0.712234 255 0 0
0.0788669 -0.130722 0.718069 255 0 0
0.00558865 -0.121543 0.696568 255 0 0
-0.174691 -0.108576 0.712411 255 0 0
0.079663 -0.130727 0.7178 255 0 0
0.00167626 -0.131304 0.710571 255 0 0
-0.163487 -0.123779 0.717419 255 0 0
-0.161727 -0.126569 0.717607 255 0 0
-0.171694 -0.116932 0.718445 255 0 0
0.118551 -0.158504 0.724212 255 0 0
0.142024 0.0779673 0.715741 255 0 0
-0.190214 -0.0823218 0.712458 255 0 0
0.111171 -0.110859 0.711195 255 0 0
0.0889443 -0.099583 0.729811 255 0 0
0.141648 0.0962374 0.722848 255 0 0
-0.160246 -0.137452 0.719478 255 0 0
-0.0704729 -0.0734137 0.726025 255 0 0
-0.169342 -0.131882 0.724596 255 0 0
-0.163555 -0.134622 0.724966 255 0 0
-0.167039 -0.125608 0.722144 255 0 0
-0.0223693 0.103861 0.731817 255 0 0
-0.0221592 0.104612 0.734005 255 0 0
-0.159634 -0.133585 0.711082 255 0 0
0.123782 0.120657 0.740556 255 0 0
0.117787 0.0971462 0.765631 255 0 0
0.140677 0.099925 0.769607 255 0 0
0.138997 0.0991084 0.769454 255 0 0
0.138112 0.0975799 0.769706 255 0 0
0.142002 0.0984729 0.771501 255 0 0
-0.168295 0.0629847 0.77703 255 0 0
0.134487 0.0883679 0.7809 255 0 0
0.104394 0.0673068 0.779022 255 0 0
0.107326 0.0677378 0.794549 255 0 0
0.185346 -0.202742 0.781784 255 0 0
0.186333 -0.204181 0.783139 255 0 0
0.196284 -0.218341 0.787023 255 0 0
0.196651 -0.219428 0.783897 255 0 0
0.212283 -0.222281 0.783358 255 0 0
0.205194 -0.213771 0.786355 255 0 0
0.205157 -0.213135 0.783254 255 0 0
0.203656 -0.227906 0.787716 255 0 0
0.204459 -0.228668 0.789078 255 0 0
0.208566 -0.209982 0.788119 255 0 0
0.20792 -0.234112 0.788012 255 0 0
-0.127698 0.00985527 0.803419 255 0 0
-0.12017 -0.00706402 0.805014 255 0 0
-0.105803 -0.0136707 0.819042 255 0 0
-0.107176 -0.0130662 0.8238 255 0 0
0.301937 -0.209953 0.817251 255 0 0
0.300535 -0.220004 0.816941 255 0 0
0.307068 -0.216362 0.830716 255 0 0
0.30516 -0.224091 0.815252 255 0 0
0.30523 -0.225146 0.814451 255 0 0
0.306496 -0.213632 0.830328 255 0 0
0.309235 -0.217175 0.813555 255 0 0
0.300988 -0.209267 0.817826 255 0 0
0.30324 -0.212461 0.816207 255 0 0
0.0624746 -0.0348491 0.477133 255 0 0
0.0621674 -0.0349069 0.472132 255 0 0
0.14209 0.0137051 0.514164 255 0 0
0.140073 0.0136229 0.508327 255 0 0
0.0237555 -0.0466776 0.529871 255 0 0
0.104774 -0.00555115 0.573466 255 0 0
0.0836091 -0.0472691 0.539114 255 0 0
0.095802 -0.0712474 0.635266 255 0 0
0.0796147 -0.0714153 0.631736 255 0 0
0.0790956 -0.071185 0.634135 255 0 0
0.0845125 -0.0726799 0.637539 255 0 0
0.0871297 -0.074425 0.642769 255 0 0
0.231663 -0.117239 0.516055 255 0 0
0.235577 -0.117693 0.507581 255 0 0
0.233377 -0.116922 0.513149 255 0 0
0.232907 -0.123283 0.524803 255 0 0
0.284759 -0.126594 0.487976 255 0 0
0.234123 -0.119073 0.509355 255 0 0
0.234132 -0.118551 0.509073 255 0 0
0.240371 -0.123084 0.53438 255 0 0
0.0570179 -0.0330597 0.493885 255 0 0
0.232678 -0.119386 0.532521 255 0 0
0.170511 -0.0433943 0.513522 255 0 0
0.235952 -0.123766 0.520345 255 0 0
0.0296186 -0.0329845 0.505922 255 0 0
0.0875768 -0.184882 0.650952 255 0 0
0.0885917 -0.185417 0.649786 255 0 0
0.189505 -0.208232 0.687844 255 0 0
0.19054 -0.207524 0.684866 255 0 0
0.09984 -0.15846 0.678042 255 0 0
0.0991414 -0.158475 0.681631 255 0 0
0.0974586 -0.158365 0.685341 255 0 0
0.422384 -0.22017 0.849053 255 0 0
0.363255 -0.239833 0.841343 255 0 0
0.430947 -0.191617 0.836924 255 0 0
0.318745 -0.285834 0.809941 255 0 0
0.16786 -0.238048 0.773041 255 0 0
0.167096 -0.240548 0.775852 255 0 0
0.417617 -0.227973 0.849422 255 0 0
0.364652 -0.238491 0.839537 255 0 0
0.318952 -0.29435 0.816192 255 0 0
0.431484 -0.191089 0.836263 255 0 0
0.264425 -0.320412 0.810235 255 0 0
0.343488 -0.23395 0.819635 255 0 0
0.129354 -0.238806 0.766035 255 0 0
0.133633 -0.242376 0.758159 255 0 0
0.329885 -0.231586 0.822793 255 0 0
0.203681 -0.212306 0.787713 255 0 0
0.42876 -0.193295 0.839746 255 0 0
0.428803 -0.193568 0.838631 255 0 0
0.371511 -0.254094 0.851531 255 0 0
0.165638 -0.360164 0.772382 255 0 0
0.164572 -0.360913 0.772869 255 0 0
0.417764 -0.199688 0.839791 255 0 0
0.417698 -0.198578 0.84042 255 0 0
0.323475 -0.221949 0.818486 255 0 0
0.40641 -0.202405 0.844435 255 0 0
0.40674 -0.208927 0.842381 255 0 0
0.405206 -0.209358 0.843075 255 0 0
0.305254 -0.223749 0.820117 255 0 0
0.4186 -0.194333 0.836089 255 0 0
0.410094 -0.203257 0.84041 255 0 0
0.410246 -0.20264 0.841569 255 0 0
0.408933 -0.201769 0.840728 255 0 0
0.173045 -0.375235 0.776478 255 0 0
0.370913 -0.243662 0.851097 255 0 0
0.165779 -0.372804 0.774699 255 0 0
0.311473 -0.270154 0.810674 255 0 0
0.308059 -0.268693 0.816277 255 0 0
0.173008 -0.374626 0.779292 255 0 0
0.317742 -0.296697 0.825353 255 0 0
0.250065 -0.331735 0.792599 255 0 0
0.365537 -0.237533 0.829947 255 0 0
0.246833 -0.279035 0.799622 255 0 0
0.232117 -0.361332 0.798585 255 0 0
0.192963 -0.275184 0.802458 255 0 0
0.364902 -0.23875 0.838597 255 0 0
0.178152 -0.376969 0.784866 255 0 0
0.179711 -0.375343 0.780576 255 0 0
0.138533 -0.295616 0.803294 255 0 0
0.224796 -0.285414 0.808259 255 0 0
0.199087 -0.278653 0.800992 255 0 0
0.0933916 -0.176857 0.676757 255 0 0
0.271097 -0.318964 0.787363 255 0 0
0.303464 -0.241924 0.812429 255 0 0
0.214481 -0.209434 0.777048 255 0 0
0.18791 -0.206024 0.784705 255 0 0
0.186609 -0.203878 0.78497 255 0 0
0.179832 -0.249558 0.776443 255 0 0
0.207182 -0.208967 0.790548 255 0 0
0.300391 -0.256791 0.819616 255 0 0
0.240874 -0.280203 0.806065 255 0 0
0.451319 -0.258729 0.869873 255 0 0
0.140895 -0.232806 0.597219 255 0 0
0.139001 -0.232096 0.599387 255 0 0
0.112108 -0.0187677 0.462182 255 0 0
0.112116 -0.0186198 0.463261 255 0 0
0.152444 -0.129874 0.677311 255 0 0
0.145336 -0.137354 0.670429 255 0 0
0.143236 -0.137285 0.673416 255 0 0
0.141695 -0.136977 0.676178 255 0 0
-0.164943 -0.254391 0.626639 255 0 0
-0.167655 -0.254769 0.641064 255 0 0
-0.130449 -0.241127 0.642213 255 0 0
-0.0957304 -0.222507 0.627891 255 0 0
0.0619576 -0.0219082 0.474597 255 0 0
0.106464 -0.0383623 0.483571 255 0 0
-0.00250694 -0.0185225 0.491431 255 0 0
0.00868122 -0.0229012 0.478039 255 0 0
0.030078 -0.0346224 0.502323 255 0 0
0.0353666 -0.033079 0.503136 255 0 0
0.0383727 -0.0355998 0.506553 255 0 0
0.0377576 -0.0353962 0.506674 255 0 0
0.0382917 -0.0359647 0.506193 255 0 0
0.187553 -0.129398 0.61125 255 0 0
0.186498 -0.128736 0.608158 255 0 0
0.179407 -0.113303 0.603923 255 0 0
0.190353 -0.134522 0.611313 255 0 0
0.187319 -0.129548 0.607255 255 0 0
0.183602 -0.123237 0.619656 255 0 0
0.191162 -0.13803 0.618814 255 0 0
0.0731696 -0.07001 0.629154 255 0 0
0.179378 -0.121939 0.629609 255 0 0
0.17299 -0.121479 0.629905 255 0 0
0.112593 -0.189373 0.646772 255 0 0
0.304372 -0.0923295 0.43672 255 0 0
0.23438 -0.117381 0.510791 255 0 0
0.0518727 -0.0359119 0.517469 255 0 0
0.0521277 -0.0359716 0.51695 255 0 0
0.196714 -0.098359 0.54776 255 0 0
0.198173 -0.098875 0.553479 255 0 0
0.198948 -0.100113 0.552047 255 0 0
-0.0364496 -0.245915 0.533295 255 0 0
-0.0363034 -0.245772 0.532768 255 0 0
-0.0355248 -0.2454 0.532865 255 0 0
0.0695682 -0.0593041 0.618242 255 0 0
0.324971 -0.222088 0.814549 255 0 0
0.325231 -0.237447 0.826372 255 0 0
0.292981 -0.270439 0.816542 255 0 0
0.300261 -0.308998 0.827091 255 0 0
0.325057 -0.302843 0.825742 255 0 0
-0.008459 -0.0264763 0.492867 255 0 0
0.100329 -0.047329 0.502355 255 0 0
-0.0370321 -0.027476 0.510488 255 0 0
0.0487695 -0.153282 0.698585 255 0 0
0.0399863 -0.168662 0.698549 255 0 0
0.0164918 -0.174641 0.70019 255 0 0
0.0145498 -0.176028 0.702344 255 0 0
0.113716 -0.115514 0.708601 255 0 0
0.239695 -0.248931 0.770238 255 0 0
0.237377 -0.251855 0.772869 255 0 0
0.239645 -0.250502 0.770383 255 0 0
0.236553 -0.249432 0.760531 255 0 0
0.237479 -0.24992 0.761222 255 0 0
0.186059 -0.203618 0.77396 255 0 0
-0.0805343 -0.0109968 0.803697 255 0 0
-0.0761056 -0.0293766 0.816431 255 0 0
-0.0988065 -0.0202138 0.813847 255 0 0
0.224904 -0.253644 0.797736 255 0 0
0.222007 -0.277908 0.793606 255 0 0
0.226175 -0.290764 0.810935 255 0 0
0.227129 -0.288583 0.813076 255 0 0
0.167648 -0.371692 0.781562 255 0 0
0.158661 -0.291432 0.784905 255 0 0
0.199681 -0.276315 0.80193 255 0 0
0.16434 -0.315081 0.802182 255 0 0
0.163639 -0.314834 0.80058 255 0 0
0.236294 -0.286166 0.84968 255 0 0
0.200537 -0.285333 0.802449 255 0 0
0.200792 -0.285555 0.803886 255 0 0
0.200689 -0.282741 0.799914 255 0 0
0.150049 -0.29056 0.810971 255 0 0
0.214861 -0.371967 0.793765 255 0 0
0.238153 -0.284017 0.818394 255 0 0
0.213407 -0.374139 0.796859 255 0 0
0.161089 -0.285032 0.778174 255 0 0
0.114537 -0.310469 0.796545 255 0 0
0.160955 -0.281204 0.75992 255 0 0
0.115495 -0.310736 0.794557 255 0 0
0.113462 -0.312021 0.797515 255 0 0
0.217002 -0.311875 0.802463 255 0 0
0.114355 -0.310698 0.796061 255 0 0
0.221617 -0.33278 0.801155 255 0 0
0.142953 -0.296064 0.777885 255 0 0
0.219348 -0.33456 0.799326 255 0 0
0.216544 -0.336339 0.805732 255 0 0
0.1406 -0.286297 0.78622 255 0 0
0.145512 -0.300074 0.820939 255 0 0
0.134686 -0.295057 0.802159 255 0 0
0.0143781 -0.316138 0.790447 255 0 0
0.29113 -0.245304 0.819745 255 0 0
-0.00350746 -0.345383 0.786058 255 0 0
0.0218498 -0.30961 0.791458 255 0 0
0.00180977 -0.332469 0.79626 255 0 0
0.267571 -0.362245 0.857194 255 0 0
0.334549 -0.390199 0.96002 255 0 0
0.338311 -0.397546 0.966171 255 0 0
0.220623 -0.207886 0.770906 255 0 0
0.219034 -0.208652 0.783271 255 0 0
0.17078 -0.214018 0.782231 255 0 0
0.147867 -0.275766 0.766335 255 0 0
0.171791 -0.272465 0.790885 255 0 0
0.220124 -0.248862 0.788433 255 0 0
0.218842 -0.250998 0.801318 255 0 0
0.217407 -0.246082 0.785609 255 0 0
0.219763 -0.249382 0.803752 255 0 0
0.220466 -0.248035 0.781968 255 0 0
0.224386 -0.249049 0.768617 255 0 0
0.310764 -0.266436 0.795428 255 0 0
0.31461 -0.271588 0.810351 255 0 0
0.311876 -0.28613 0.809635 255 0 0
0.230679 -0.146506 0.595459 255 0 0
0.0543215 -0.206122 0.63396 255 0 0
0.0536911 -0.205955 0.635659 255 0 0
0.0607685 -0.20338 0.638321 255 0 0
-0.0955758 -0.222673 0.628751 255 0 0
0.100155 -0.17798 0.659081 255 0 0
0.136895 -0.149905 0.672232 255 0 0
0.145039 -0.137577 0.672528 255 0 0
0.233557 -0.117931 0.509613 255 0 0
0.198516 -0.0989332 0.54929 255 0 0
0.198069 -0.101155 0.556953 255 0 0
0.131718 -0.0463925 0.553075 255 0 0
0.0916348 -0.0503319 0.530425 255 0 0
0.0905512 -0.0493865 0.539536 255 0 0
0.0431807 -0.0527512 0.54913 255 0 0
0.0331951 -0.21687 0.604874 255 0 0
0.0340752 -0.0566826 0.629271 255 0 0
0.0193764 -0.0559239 0.638782 255 0 0
0.0534774 -0.206214 0.635747 255 0 0
0.0257389 -0.202408 0.636288 255 0 0
0.0198742 -0.203937 0.640498 255 0 0
0.0217981 -0.203702 0.63755 255 0 0
0.0201265 -0.204201 0.641971 255 0 0
0.0210037 -0.203699 0.63716 255 0 0
0.020227 -0.20527 0.649467 255 0 0
-0.101186 -0.21577 0.650085 255 0 0
-0.101344 -0.216639 0.645434 255 0 0
-0.113239 -0.179997 0.639384 255 0 0
-0.12169 -0.18309 0.664858 255 0 0
0.0806773 -0.132986 0.713428 255 0 0
-0.10415 -0.0525647 0.689466 255 0 0
0.0708469 -0.12106 0.71114 255 0 0
0.0092218 -0.18079 0.691941 255 0 0
-0.0847637 -0.175455 0.676604 255 0 0
-0.0898262 -0.176931 0.683054 255 0 0
-0.0957026 -0.177168 0.692749 255 0 0
-0.0963461 -0.176584 0.696661 255 0 0
-0.0925525 -0.174053 0.683283 255 0 0
0.0161608 -0.175289 0.697801 255 0 0
-0.171886 -0.129359 0.729215 255 0 0
0.170279 -0.238045 0.770057 255 0 0
0.169987 -0.236013 0.765174 255 0 0
0.171139 -0.240083 0.769801 255 0 0
0.186466 -0.205301 0.792535 255 0 0
0.187696 -0.20494 0.786316 255 0 0
0.18723 -0.205484 0.782697 255 0 0
-0.0557925 -0.0491172 0.781104 255 0 0
0.200422 -0.243128 0.800038 255 0 0
0.20034 -0.244142 0.799807 255 0 0
0.200573 -0.245014 0.796245 255 0 0
0.200304 -0.247242 0.800795 255 0 0
0.167337 -0.370407 0.772886 255 0 0
0.458735 -0.0282426 0.737874 255 0 0
0.468286 -0.0279388 0.762644 255 0 0
0.477843 -0.0290957 0.770316 255 0 0
0.467894 -0.0295604 0.767418 255 0 0
0.468964 -0.0290735 0.76705 255 0 0
0.462958 -0.0276732 0.767538 255 0 0
0.520334 -0.131708 0.644451 255 0 0
0.518142 -0.131544 0.645713 255 0 0
0.515329 -0.131144 0.650976 255 0 0
0.590532 -0.155998 0.706055 255 0 0
0.577879 -0.155724 0.691369 255 0 0
0.575678 -0.156198 0.692968 255 0 0
0.527718 -0.160749 0.705037 255 0 0
0.612064 -0.164295 0.752533 255 0 0
0.549065 -0.193483 0.74451 255 0 0
0.542781 -0.193214 0.746202 255 0 0
0.489094 -0.0318819 0.783446 255 0 0
0.519304 -0.130728 0.64529 255 0 0
0.595369 -0.155977 0.696686 255 0 0
0.596182 -0.156414 0.694306 255 0 0
0.594333 -0.156329 0.695875 255 0 0
0.593138 -0.156575 0.696406 255 0 0
0.593216 -0.156446 0.69643 255 0 0
0.589804 -0.157195 0.698888 255 0 0
0.576585 -0.157275 0.700433 255 0 0
0.577305 -0.157513 0.698943 255 0 0
0.573723 -0.157873 0.700379 255 0 0
0.57676 -0.160932 0.708936 255 0 0
0.394188 -0.364968 0.903654 255 0 0
0.380819 -0.337967 0.906774 255 0 0
0.48921 -0.257277 0.970468 255 0 0
0.267779 -0.362025 0.852809 255 0 0
0.478502 -0.257965 0.966395 255 0 0
0.473064 -0.2603 0.976609 255 0 0
0.33 -0.357147 0.924842 255 0 0
0.0805717 -0.180193 0.840268 255 0 0
0.338759 -0.125556 0.727117 255 0 0
0.608443 -0.189793 0.89813 255 0 0
0.423462 -0.212203 0.846343 255 0 0
0.424198 -0.212396 0.845072 255 0 0
0.421445 -0.212454 0.848194 255 0 0
0.425346 -0.21199 0.843206 255 0 0
0.668764 -0.0655095 0.631512 255 0 0
0.664127 -0.0639974 0.628078 255 0 0
0.664038 -0.0642033 0.628459 255 0 0
0.661187 -0.0640296 0.627906 255 0 0
0.665405 -0.0660734 0.629714 255 0 0
0.66171 -0.0655517 0.629236 255 0 0
0.661496 -0.0655796 0.628947 255 0 0
0.659234 -0.0652207 0.6302 255 0 0
0.661024 -0.0674241 0.629513 255 0 0
0.660816 -0.0668285 0.630082 255 0 0
0.254551 -0.090363 0.751246 255 0 0
0.265422 -0.276057 0.820793 255 0 0
0.176825 -0.378548 0.78965 255 0 0
0.178215 -0.378482 0.788419 255 0 0
0.182634 -0.29021 0.800211 255 0 0
0.334564 -0.309978 0.844496 255 0 0
0.33578 -0.309152 0.839837 255 0 0
0.225377 -0.287521 0.809204 255 0 0
0.132839 -0.388864 0.76807 255 0 0
0.211688 -0.310365 0.807629 255 0 0
0.0906621 -0.22852 0.757054 255 0 0
0.171781 -0.264954 0.777347 255 0 0
0.225685 -0.290839 0.809303 255 0 0
0.228635 -0.290022 0.804977 255 0 0
0.226591 -0.293041 0.810789 255 0 0
0.218348 -0.313112 0.802017 255 0 0
0.110353 -0.249752 0.773968 255 0 0
0.22019 -0.289861 0.832697 255 0 0
0.484916 -0.278183 0.870784 255 0 0
0.477223 -0.277319 0.895783 255 0 0
0.484232 -0.282294 0.894959 255 0 0
0.313016 -0.324237 0.844084 255 0 0
0.177867 -0.351457 0.804522 255 0 0
0.358691 -0.304768 0.862166 255 0 0
0.345424 -0.314338 0.862661 255 0 0
0.353884 -0.312011 0.867296 255 0 0
0.300023 -0.153382 0.551483 255 0 0
0.0878466 -0.138995 0.697761 255 0 0
0.235049 -0.118209 0.508244 255 0 0
0.371291 -0.252831 0.83492 255 0 0
0.370886 -0.253133 0.835466 255 0 0
0.148635 -0.277489 0.789044 255 0 0
0.370899 -0.258058 0.820904 255 0 0
0.24325 -0.280234 0.802119 255 0 0
0.343082 -0.25547 0.824556 255 0 0
0.356984 -0.240458 0.827006 255 0 0
0.370553 -0.252044 0.834155 255 0 0
0.150834 -0.272088 0.787478 255 0 0
0.150091 -0.270366 0.782836 255 0 0
0.141162 -0.285915 0.790749 255 0 0
0.384473 -0.266499 0.830615 255 0 0
0.364332 -0.244267 0.859245 255 0 0
0.372163 -0.25016 0.854549 255 0 0
0.364194 -0.242417 0.840496 255 0 0
0.17558 -0.271584 0.78434 255 0 0
0.367499 -0.249492 0.836334 255 0 0
0.228597 -0.353973 0.798535 255 0 0
0.179026 -0.296476 0.796877 255 0 0
0.162041 -0.313646 0.795265 255 0 0
0.308461 -0.267418 0.830541 255 0 0
0.36485 -0.238532 0.834436 255 0 0
0.179372 -0.29671 0.798141 255 0 0
0.20057 -0.286498 0.807976 255 0 0
0.275931 0.0280974 0.82872 255 0 0
0.178151 -0.296436 0.797213 255 0 0
0.337039 -0.256803 0.848791 255 0 0
0.320373 -0.293012 0.813744 255 0 0
0.300797 -0.308433 0.822495 255 0 0
0.285337 0.034374 0.829934 255 0 0
0.285654 0.0346817 0.833713 255 0 0
0.285759 0.0352539 0.834244 255 0 0
0.176601 -0.312111 0.789102 255 0 0
0.31579 -0.317101 0.836459 255 0 0
0.314909 -0.322395 0.864003 255 0 0
0.326767 -0.310393 0.835193 255 0 0
0.310473 -0.32564 0.855808 255 0 0
0.307629 -0.327453 0.857553 255 0 0
0.324189 -0.320085 0.84689 255 0 0
-0.0104567 -0.346553 0.807166 255 0 0
0.395438 -0.353869 0.902691 255 0 0
0.397283 -0.358579 0.902781 255 0 0
0.396587 -0.359729 0.902418 255 0 0
0.337903 -0.347807 0.906594 255 0 0
0.376486 -0.357226 0.907879 255 0 0
0.37527 -0.357534 0.90921 255 0 0
0.372213 -0.356174 0.906356 255 0 0
0.373291 -0.357201 0.909041 255 0 0
0.0529695 -0.206304 0.638518 255 0 0
0.0477813 -0.205433 0.651934 255 0 0
0.346876 -0.0605619 0.701249 255 0 0
0.0194795 -0.203825 0.639277 255 0 0
0.0191805 -0.204097 0.642493 255 0 0
0.0761003 -0.194105 0.647549 255 0 0
0.090876 -0.182802 0.657715 255 0 0
0.215925 -0.102422 0.538446 255 0 0
0.0642653 -0.0470629 0.538814 255 0 0
0.13877 -0.0607476 0.557788 255 0 0
-0.0353998 -0.245399 0.530695 255 0 0
0.227312 -0.0397252 0.599626 255 0 0
0.226584 -0.0397704 0.60189 255 0 0
0.159001 -0.0981263 0.602959 255 0 0
0.069976 -0.0446421 0.540144 255 0 0
0.19863 -0.102729 0.56329 255 0 0
0.276507 -0.26774 0.822728 255 0 0
0.325166 -0.303392 0.824649 255 0 0
0.214819 -0.308984 0.803679 255 0 0
0.226611 -0.291178 0.810402 255 0 0
0.140826 -0.294683 0.806608 255 0 0
0.143911 -0.292474 0.793414 255 0 0
0.300881 -0.310503 0.827279 255 0 0
0.227624 -0.29753 0.810155 255 0 0
0.0822956 -0.305986 0.787955 255 0 0
0.337198 -0.253162 0.84251 255 0 0
0.325679 -0.305354 0.824506 255 0 0
0.323046 -0.311194 0.830845 255 0 0
0.324248 -0.311259 0.834889 255 0 0
0.325432 -0.316721 0.840361 255 0 0
0.00973396 -0.185536 0.688672 255 0 0
0.0897785 -0.123147 0.730248 255 0 0
0.0893852 -0.127527 0.727999 255 0 0
0.372435 -0.272233 0.794295 255 0 0
0.197903 -0.276813 0.8055 255 0 0
0.200163 -0.275968 0.799467 255 0 0
0.14786 -0.294052 0.782731 255 0 0
0.212576 -0.294845 0.801269 255 0 0
0.125622 -0.265292 0.789124 255 0 0
0.150817 -0.322525 0.836314 255 0 0
0.26966 0.0157558 0.823749 255 0 0
0.193489 -0.297466 0.798131 255 0 0
0.301986 -0.309958 0.825907 255 0 0
0.174173 -0.314169 0.805781 255 0 0
0.174978 -0.31494 0.805144 255 0 0
0.177288 -0.315903 0.803985 255 0 0
0.13193 -0.293244 0.794589 255 0 0
0.31548 -0.320357 0.854261 255 0 0
0.140588 -0.366336 0.799546 255 0 0
0.325518 -0.31641 0.840843 255 0 0
0.325761 -0.316315 0.839795 255 0 0
0.322169 -0.322122 0.83714 255 0 0
0.304879 -0.324865 0.841935 255 0 0
0.324984 -0.322205 0.849782 255 0 0
0.321487 -0.325089 0.857714 255 0 0
0.253304 -0.373487 0.863071 255 0 0
0.335403 -0.342121 0.894199 255 0 0
0.385563 -0.32022 0.898991 255 0 0
0.379139 -0.335765 0.897776 255 0 0
0.380908 -0.339908 0.91125 255 0 0
-0.0172662 -0.347019 0.814868 255 0 0
0.395955 -0.340549 0.917267 255 0 0
0.397413 -0.340414 0.916649 255 0 0
0.318051 -0.347745 0.888264 255 0 0
0.33521 -0.192605 0.90204 255 0 0
0.57618 -0.155547 0.693477 255 0 0
0.575792 -0.155563 0.69483 255 0 0
0.581512 -0.157376 0.696401 255 0 0
0.574215 -0.156616 0.699056 255 0 0
0.574841 -0.15712 0.695694 255 0 0
0.571551 -0.155431 0.707983 255 0 0
0.576896 -0.157603 0.699713 255 0 0
0.58472 -0.159934 0.720045 255 0 0
0.56648 -0.160178 0.702946 255 0 0
0.56487 -0.159359 0.706437 255 0 0
0.354282 -0.311105 0.866176 255 0 0
0.293298 -0.342731 0.852834 255 0 0
0.204455 -0.352623 0.784497 255 0 0
0.372629 -0.321716 0.896563 255 0 0
0.324643 -0.335226 0.866312 255 0 0
0.266632 -0.362351 0.853885 255 0 0
0.480896 -0.23845 0.942164 255 0 0
0.44093 -0.298534 0.903149 255 0 0
0.381186 -0.341006 0.909693 255 0 0
0.0306902 -0.29555 0.809096 255 0 0
0.0347627 -0.294354 0.805118 255 0 0
0.243157 -0.380829 0.867691 255 0 0
0.381653 -0.339269 0.905993 255 0 0
0.24539 -0.379315 0.866443 255 0 0
0.0389928 -0.310664 0.79219 255 0 0
0.441947 -0.376934 0.922217 255 0 0
0.442438 -0.377407 0.924852 255 0 0
0.318122 -0.344104 0.886446 255 0 0
0.42791 -0.339835 0.929646 255 0 0
0.446013 -0.387799 0.930187 255 0 0
0.446788 -0.310745 0.930687 255 0 0
0.433303 -0.337662 0.932674 255 0 0
0.4343 -0.335928 0.925967 255 0 0
0.341937 -0.350998 0.898829 255 0 0
0.393207 -0.341201 0.9142 255 0 0
0.332974 -0.35651 0.920596 255 0 0
0.33446 -0.357462 0.924958 255 0 0
0.332807 -0.3662 0.917288 255 0 0
0.0095092 -0.349647 0.897482 255 0 0
0.0152224 -0.348726 0.894258 255 0 0
0.670112 -0.0428469 0.601971 255 0 0
0.670326 -0.0428381 0.602085 255 0 0
0.670202 -0.0429238 0.602693 255 0 0
0.659407 0.00291868 0.603696 255 0 0
0.658644 0.00207775 0.603433 255 0 0
0.658549 0.00254757 0.603431 255 0 0
0.659665 0.00243831 0.604239 255 0 0
0.659182 0.00172248 0.604137 255 0 0
0.659206 0.00198494 0.604176 255 0 0
0.662041 -0.00687455 0.605684 255 0 0
0.660959 -0.00689372 0.605563 255 0 0
0.660705 -0.00737495 0.605834 255 0 0
0.66095 -0.00711832 0.60599 255 0 0
0.0859122 -0.0747827 0.644412 255 0 0
-0.1623 -0.134725 0.724045 255 0 0
0.170337 -0.24142 0.774109 255 0 0
0.208775 -0.209757 0.789003 255 0 0
0.21331 -0.223679 0.784414 255 0 0
0.212085 -0.224651 0.789057 255 0 0
0.143031 -0.273873 0.772773 255 0 0
0.143512 -0.271513 0.77632 255 0 0
0.141131 -0.272206 0.773725 255 0 0
0.146903 -0.280081 0.776573 255 0 0
0.145453 -0.284425 0.776012 255 0 0
0.144571 -0.2835 0.775192 255 0 0
0.145266 -0.279382 0.790574 255 0 0
0.148112 -0.277218 0.774499 255 0 0
0.20072 -0.24433 0.797154 255 0 0
0.202061 -0.247236 0.794395 255 0 0
0.14969 -0.12126 0.736333 255 0 0
0.0856023 -0.136997 0.700756 255 0 0
0.040954 -0.172444 0.698321 255 0 0
0.0403497 -0.168417 0.694842 255 0 0
0.00743775 -0.184734 0.692066 255 0 0
0.15446 -0.131377 0.727241 255 0 0
0.0691771 -0.122278 0.720079 255 0 0
0.156929 -0.132755 0.72123 255 0 0
0.157118 -0.133026 0.721986 255 0 0
0.127248 -0.214462 0.752515 255 0 0
0.334968 -0.342157 0.896611 255 0 0
0.337089 -0.34483 0.895172 255 0 0
0.318637 -0.341539 0.879995 255 0 0
0.317268 -0.343826 0.887821 255 0 0
0.394522 -0.364267 0.905013 255 0 0
0.395421 -0.36163 0.901972 255 0 0
0.422589 -0.361205 0.912527 255 0 0
0.380081 -0.337229 0.905265 255 0 0
0.379049 -0.336044 0.901913 255 0 0
0.42379 -0.372312 0.915321 255 0 0
0.441805 -0.378037 0.923872 255 0 0
0.448033 -0.363043 0.929521 255 0 0
0.446761 -0.361392 0.919549 255 0 0
0.438227 -0.373847 0.924299 255 0 0
0.44513 -0.373032 0.920835 255 0 0
0.44726 -0.376639 0.926605 255 0 0
0.0194941 -0.347171 0.897477 255 0 0
0.0226976 -0.345614 0.888272 255 0 0
0.0172368 -0.348009 0.897789 255 0 0
0.0879965 -0.183604 0.658103 255 0 0
0.10013 -0.178299 0.661559 255 0 0
0.137095 -0.149253 0.67204 255 0 0
0.13601 -0.149755 0.673741 255 0 0
0.144138 -0.136732 0.675697 255 0 0
0.12246 -0.156946 0.671082 255 0 0
0.140311 -0.136196 0.678404 255 0 0
0.102495 -0.039516 0.569169 255 0 0
0.196024 -0.136305 0.575588 255 0 0
0.0570523 -0.034625 0.480778 255 0 0
0.286962 -0.151794 0.563842 255 0 0
0.136198 -0.149989 0.671068 255 0 0
0.134335 -0.15081 0.673207 255 0 0
0.133757 -0.150928 0.673204 255 0 0
0.192086 -0.207594 0.680093 255 0 0
0.213516 -0.295077 0.801832 255 0 0
0.143097 -0.293497 0.794239 255 0 0
0.218019 -0.335634 0.79901 255 0 0
0.189181 -0.294069 0.798679 255 0 0
0.198131 -0.30352 0.805971 255 0 0
0.299135 -0.310597 0.831113 255 0 0
0.41512 -0.233243 0.852988 255 0 0
0.417264 -0.231016 0.849671 255 0 0
0.173254 -0.296113 0.7972 255 0 0
0.170096 -0.294739 0.79979 255 0 0
0.449498 -0.258307 0.864174 255 0 0
0.445866 -0.25623 0.861532 255 0 0
0.324951 -0.317448 0.844093 255 0 0
0.357778 -0.304331 0.864092 255 0 0
0.358116 -0.303986 0.862471 255 0 0
0.323729 -0.323373 0.860263 255 0 0
0.358013 -0.30393 0.863272 255 0 0
0.30327 -0.327099 0.84764 255 0 0
0.170632 -0.365714 0.823653 255 0 0
0.0243606 -0.309329 0.785602 255 0 0
0.174351 -0.364906 0.815145 255 0 0
0.0256085 -0.308145 0.786283 255 0 0
0.0240905 -0.308349 0.787758 255 0 0
0.362886 -0.304217 0.863262 255 0 0
0.448705 -0.182744 0.891439 255 0 0
0.422093 -0.306543 0.901073 255 0 0
0.257455 -0.293816 0.844756 255 0 0
0.25927 -0.293044 0.838357 255 0 0
0.258037 -0.294057 0.847128 255 0 0
0.362364 -0.332094 0.873192 255 0 0
0.250997 -0.373374 0.875927 255 0 0
0.251963 -0.375425 0.865995 255 0 0
0.406827 -0.30299 0.904104 255 0 0
0.348339 -0.340949 0.880291 255 0 0
0.361072 -0.272775 0.849058 255 0 0
0.32686 -0.235481 0.822112 255 0 0
0.419686 -0.196088 0.849885 255 0 0
0.41697 -0.191642 0.840146 255 0 0
0.41755 -0.197312 0.840206 255 0 0
0.362173 -0.25878 0.851222 255 0 0
0.358757 -0.244642 0.828517 255 0 0
0.354309 -0.243738 0.849692 255 0 0
0.124355 -0.23691 0.772197 255 0 0
0.239193 -0.247555 0.767639 255 0 0
0.133326 -0.233208 0.750731 255 0 0
0.129474 -0.239486 0.762403 255 0 0
0.239896 -0.253127 0.772345 255 0 0
0.22051 -0.207504 0.779547 255 0 0
0.365497 -0.253217 0.819836 255 0 0
0.205595 -0.211697 0.780717 255 0 0
0.155097 -0.278261 0.756305 255 0 0
0.151426 -0.290567 0.780467 255 0 0
0.177722 -0.222061 0.774588 255 0 0
0.364032 -0.251949 0.827113 255 0 0
0.175228 -0.225311 0.795791 255 0 0
0.151393 -0.289458 0.775992 255 0 0
0.249207 -0.332697 0.809961 255 0 0
0.315716 -0.272227 0.809475 255 0 0
0.244887 -0.332258 0.79984 255 0 0
0.239835 -0.281369 0.807947 255 0 0
0.240179 -0.282395 0.811033 255 0 0
0.240615 -0.281096 0.808374 255 0 0
0.300758 -0.247357 0.819421 255 0 0
0.301135 -0.247024 0.816824 255 0 0
0.222469 -0.332029 0.800112 255 0 0
0.0409353 -0.168368 0.6953 255 0 0
0.239285 -0.248646 0.770683 255 0 0
0.171815 -0.361915 0.775869 255 0 0
0.323445 -0.301454 0.828521 255 0 0
0.239028 -0.279906 0.806434 255 0 0
0.248642 -0.280008 0.801745 255 0 0
0.169216 -0.372242 0.781031 255 0 0
0.241754 -0.339429 0.792366 255 0 0
0.241051 -0.282286 0.810437 255 0 0
0.174701 -0.367737 0.774407 255 0 0
0.23225 -0.343276 0.800752 255 0 0
0.236973 -0.340904 0.798914 255 0 0
0.237248 -0.340871 0.797888 255 0 0
0.238269 -0.340286 0.796587 255 0 0
0.228715 -0.341368 0.808464 255 0 0
0.22231 -0.34999 0.798032 255 0 0
0.223426 -0.349585 0.79798 255 0 0
0.204333 -0.249501 0.792099 255 0 0
0.231339 -0.340503 0.810077 255 0 0
0.220904 -0.348991 0.808532 255 0 0
0.212147 -0.251741 0.780322 255 0 0
0.222469 -0.332347 0.801596 255 0 0
0.269009 -0.27089 0.822134 255 0 0
0.301717 -0.309972 0.827011 255 0 0
0.16708 -0.373727 0.771619 255 0 0
0.212167 -0.253602 0.783378 255 0 0
0.339986 -0.259539 0.838861 255 0 0
0.394403 -0.169862 0.825705 255 0 0
0.391983 -0.170222 0.833785 255 0 0
0.394848 -0.17221 0.829814 255 0 0
0.39488 -0.173186 0.831917 255 0 0
0.416349 -0.19661 0.842362 255 0 0
0.423165 -0.212238 0.847598 255 0 0
0.393364 -0.277953 0.826281 255 0 0
0.423528 -0.212625 0.845834 255 0 0
0.418771 -0.220987 0.852303 255 0 0
0.418725 -0.222651 0.853435 255 0 0
0.417844 -0.225426 0.850526 255 0 0
0.417175 -0.227612 0.851597 255 0 0
0.435266 -0.240043 0.860326 255 0 0
0.320597 -0.270343 0.799976 255 0 0
0.0628791 -0.0802335 0.665327 255 0 0
0.354195 -0.0576275 0.686219 255 0 0
0.348064 -0.0585589 0.688274 255 0 0
0.538391 -0.157011 0.698109 255 0 0
0.528459 -0.15798 0.701245 255 0 0
0.496853 -0.146698 0.699298 255 0 0
0.650509 -0.0505556 0.566009 255 0 0
0.676265 -0.0195571 0.579655 255 0 0
0.679396 -0.0133046 0.571725 255 0 0
0.662373 -0.0180892 0.607512 255 0 0
0.614817 -0.0582472 0.587781 255 0 0
0.663511 -0.0534048 0.620703 255 0 0
0.687777 -0.0531845 0.631378 255 0 0
0.687212 -0.0532531 0.631742 255 0 0
0.664689 -0.0560107 0.618612 255 0 0
0.664962 -0.0567592 0.61963 255 0 0
0.664421 -0.0568576 0.619312 255 0 0
0.519206 -0.019347 0.530916 255 0 0
0.682321 -0.0343796 0.616512 255 0 0
0.488486 -0.141651 0.704196 255 0 0
0.549197 -0.192703 0.743151 255 0 0
0.549069 -0.191869 0.739058 255 0 0
0.548369 -0.192982 0.742551 255 0 0
0.546682 -0.191747 0.739383 255 0 0
0.494696 -0.141851 0.672351 255 0 0
0.458959 -0.130344 0.685036 255 0 0
0.470221 -0.138445 0.651345 255 0 0
0.522084 -0.156934 0.719048 255 0 0
0.270777 -0.270112 0.823171 255 0 0
0.170528 -0.360464 0.77645 255 0 0
0.223763 -0.348606 0.793622 255 0 0
0.147729 -0.266513 0.775753 255 0 0
0.478681 -0.208274 0.91029 255 0 0
0.223036 -0.349031 0.800082 255 0 0
0.207974 -0.374313 0.799069 255 0 0
0.399138 -0.272014 0.874136 255 0 0
0.129691 -0.269486 0.789447 255 0 0
0.166079 -0.377893 0.779808 255 0 0
0.525565 -0.298717 0.929255 255 0 0
0.525516 -0.301894 0.931507 255 0 0
0.356974 -0.303911 0.86346 255 0 0
0.520918 -0.302636 0.932414 255 0 0
0.222344 -0.333191 0.796386 255 0 0
0.220814 -0.334642 0.798041 255 0 0
0.525495 -0.295782 0.929851 255 0 0
0.177607 -0.371469 0.785708 255 0 0
0.17247 -0.373513 0.789913 255 0 0
0.174638 -0.37869 0.790121 255 0 0
0.343937 -0.318811 0.855811 255 0 0
0.1826 -0.379311 0.787186 255 0 0
0.14891 -0.268544 0.7727 255 0 0
0.183031 -0.378399 0.785581 255 0 0
0.142286 -0.3815 0.803614 255 0 0
0.204402 -0.312468 0.79524 255 0 0
0.347767 -0.31425 0.862076 255 0 0
0.353496 -0.318803 0.871137 255 0 0
0.110917 -0.396675 0.795904 255 0 0
0.405427 -0.30158 0.896843 255 0 0
0.361818 -0.31749 0.874817 255 0 0
0.363622 -0.318827 0.877769 255 0 0
0.15431 -0.285524 0.793772 255 0 0
0.518237 -0.326074 0.937142 255 0 0
0.373559 -0.322717 0.898445 255 0 0
0.155658 -0.285444 0.790548 255 0 0
0.489407 -0.343473 0.942326 255 0 0
0.317645 -0.339377 0.880308 255 0 0
0.175001 -0.361911 0.823891 255 0 0
0.397645 -0.359508 0.900686 255 0 0
0.434415 -0.368921 0.924865 255 0 0
0.43627 -0.390095 0.919311 255 0 0
0.446706 -0.310447 0.924354 255 0 0
0.42856 -0.340359 0.929603 255 0 0
0.424129 -0.339715 0.94471 255 0 0
0.365715 -0.359552 0.917764 255 0 0
0.397201 -0.339281 0.907781 255 0 0
0.246279 -0.377855 0.868883 255 0 0
0.367714 -0.354378 0.901486 255 0 0
0.243589 -0.38091 0.866031 255 0 0
0.342503 -0.375485 0.919445 255 0 0
0.0253259 -0.346907 0.887667 255 0 0
0.607245 -0.121279 0.643893 255 0 0
0.5802 -0.112157 0.634925 255 0 0
0.60497 -0.120388 0.647529 255 0 0
0.603443 -0.119708 0.649567 255 0 0
0.603883 -0.125824 0.647846 255 0 0
0.599114 -0.129007 0.653173 255 0 0
0.610226 -0.1342 0.662784 255 0 0
0.607728 -0.134939 0.666066 255 0 0
0.60658 -0.134151 0.670091 255 0 0
0.597266 -0.139076 0.665144 255 0 0
0.598735 -0.14014 0.66223 255 0 0
0.597527 -0.14 0.662178 255 0 0
0.461166 -0.1022 0.611612 255 0 0
0.50033 -0.0194508 0.541952 255 0 0
0.660984 -0.0669967 0.629915 255 0 0
0.499353 -0.0202192 0.542711 255 0 0
0.501148 -0.0219573 0.544754 255 0 0
0.500804 -0.0228017 0.545409 255 0 0
0.533618 -0.0512035 0.565554 255 0 0
0.656718 -0.070581 0.633205 255 0 0
0.50899 -0.0534233 0.593781 255 0 0
0.681674 -0.0770353 0.659409 255 0 0
0.681544 -0.0772824 0.656936 255 0 0
0.682455 -0.0774275 0.655653 255 0 0
0.645511 -0.0786081 0.636874 255 0 0
0.676638 -0.0799638 0.654651 255 0 0
0.645196 -0.0793796 0.637844 255 0 0
0.621737 -0.073312 0.485734 255 0 0
0.521927 -0.0687295 0.581305 255 0 0
0.626989 -0.0967262 0.62782 255 0 0
0.535266 -0.0697211 0.567541 255 0 0
0.646594 -0.0869012 0.641255 255 0 0
0.487571 -0.031358 0.556725 255 0 0
0.525307 -0.0768472 0.579651 255 0 0
0.646228 -0.0867463 0.643477 255 0 0
0.645631 -0.085553 0.643624 255 0 0
0.609844 0.0121854 0.632273 255 0 0
0.518789 -0.0694824 0.574623 255 0 0
0.517024 -0.0687028 0.575064 255 0 0
0.685462 -0.0819258 0.67128 255 0 0
0.660165 -0.0664293 0.63029 255 0 0
0.660726 -0.0677884 0.6303 255 0 0
0.657753 -0.071405 0.632579 255 0 0
0.655891 -0.0714964 0.633882 255 0 0
0.636002 -0.0929064 0.642655 255 0 0
0.610806 0.0124459 0.63254 255 0 0
0.627182 -0.0982146 0.636818 255 0 0
0.625729 -0.0990541 0.639997 255 0 0
0.619661 -0.100973 0.633667 255 0 0
0.656399 -0.104959 0.657379 255 0 0
0.633784 -0.0996413 0.645795 255 0 0
0.478691 -0.0936898 0.629227 255 0 0
0.627743 -0.100299 0.643898 255 0 0
0.627579 -0.103529 0.645845 255 0 0
0.657062 -0.0984142 0.660698 255 0 0
0.626984 -0.104763 0.646095 255 0 0
0.625594 -0.104416 0.648044 255 0 0
0.623982 -0.105219 0.645031 255 0 0
0.477996 -0.0463152 0.568896 255 0 0
0.47799 -0.0462113 0.568902 255 0 0
0.477228 -0.0463938 0.569373 255 0 0
0.511169 -0.100271 0.598385 255 0 0
0.612466 -0.114739 0.643473 255 0 0
0.608898 -0.114142 0.641423 255 0 0
0.608037 -0.11596 0.644393 255 0 0
0.607976 -0.116455 0.64519 255 0 0
0.627228 -0.118452 0.657801 255 0 0
0.469607 -0.0569416 0.577726 255 0 0
0.602683 -0.121525 0.64765 255 0 0
0.602179 -0.126636 0.651168 255 0 0
0.466493 -0.0614301 0.582489 255 0 0
0.629454 -0.124324 0.673143 255 0 0
0.667121 -0.0644534 0.62897 255 0 0
0.588278 -0.22109 0.935314 255 0 0
0.43576 -0.220634 0.866304 255 0 0
0.616538 -0.286212 0.951199 255 0 0
0.616438 -0.285251 0.950399 255 0 0
0.468646 -0.300066 0.881389 255 0 0
0.618488 -0.285446 0.944993 255 0 0
0.622868 -0.288032 0.944381 255 0 0
0.565857 -0.217483 0.928591 255 0 0
0.322461 -0.227733 0.814743 255 0 0
0.313133 -0.271731 0.811233 255 0 0
0.455745 -0.277738 0.914404 255 0 0
0.357403 -0.242144 0.846506 255 0 0
0.561188 -0.220759 0.925189 255 0 0
0.481948 -0.281022 0.889896 255 0 0
0.545854 -0.262188 0.932432 255 0 0
0.468306 -0.273705 0.898143 255 0 0
0.364883 -0.246379 0.844711 255 0 0
0.372592 -0.24201 0.852231 255 0 0
0.469852 -0.272354 0.896626 255 0 0
0.470894 -0.270704 0.894453 255 0 0
0.305395 -0.287435 0.818277 255 0 0
0.473299 -0.279815 0.893879 255 0 0
0.48411 -0.264897 0.905215 255 0 0
0.535775 -0.274921 0.92902 255 0 0
0.434398 -0.2562 0.864435 255 0 0
0.482392 -0.275058 0.890564 255 0 0
0.288769 -0.149303 0.828498 255 0 0
0.481757 -0.280649 0.901734 255 0 0
0.451887 -0.285087 0.920494 255 0 0
0.517825 -0.307237 0.934916 255 0 0
0.258753 -0.326284 0.801871 255 0 0
0.256632 -0.326803 0.80466 255 0 0
0.23523 -0.242061 0.793001 255 0 0
0.234823 -0.242517 0.793519 255 0 0
0.557465 -0.30907 0.942938 255 0 0
0.421012 -0.308488 0.906346 255 0 0
0.273551 -0.274523 0.822068 255 0 0
0.310098 -0.326607 0.848036 255 0 0
0.350232 -0.312395 0.870728 255 0 0
0.364747 -0.317551 0.873511 255 0 0
0.418118 -0.360105 0.913778 255 0 0
0.646679 -0.0868802 0.642489 255 0 0
0.645801 -0.0869723 0.643729 255 0 0
0.646011 -0.0870609 0.643516 255 0 0
0.644367 -0.0881723 0.645922 255 0 0
0.648916 -0.0901643 0.646464 255 0 0
0.657174 -0.100078 0.654334 255 0 0
0.656271 -0.100323 0.656137 255 0 0
0.656538 -0.101016 0.652679 255 0 0
0.647562 -0.0785459 0.632825 255 0 0
0.646761 -0.0781047 0.635481 255 0 0
0.677168 -0.0796019 0.656207 255 0 0
0.644715 -0.0806704 0.63822 255 0 0
0.425241 -0.192797 0.844383 255 0 0
0.428336 -0.195038 0.836095 255 0 0
0.393573 -0.169545 0.827732 255 0 0
0.393772 -0.169896 0.828053 255 0 0
0.409583 -0.207495 0.841385 255 0 0
0.408942 -0.207706 0.841271 255 0 0
0.356769 -0.243112 0.832517 255 0 0
0.23916 -0.246832 0.772181 255 0 0
0.225489 -0.250727 0.780463 255 0 0
0.224556 -0.251059 0.780921 255 0 0
0.312036 -0.271251 0.811077 255 0 0
0.465435 -0.272571 0.888872 255 0 0
0.465944 -0.270416 0.883508 255 0 0
0.466822 -0.277714 0.907044 255 0 0
0.568248 -0.250772 0.930246 255 0 0
0.56737 -0.250532 0.940808 255 0 0
0.567262 -0.250845 0.931758 255 0 0
0.461469 -0.275568 0.908792 255 0 0
0.470366 -0.274523 0.882973 255 0 0
0.554394 -0.228027 0.937322 255 0 0
0.553452 -0.226826 0.935559 255 0 0
0.299377 -0.245242 0.820454 255 0 0
0.364412 -0.242245 0.843256 255 0 0
0.560483 -0.266374 0.93511 255 0 0
0.472794 -0.276668 0.898573 255 0 0
0.562143 -0.265765 0.934642 255 0 0
0.473044 -0.272432 0.891837 255 0 0
0.555914 -0.268354 0.945983 255 0 0
0.554362 -0.265148 0.935476 255 0 0
0.558307 -0.267278 0.938089 255 0 0
0.440551 -0.26223 0.882408 255 0 0
0.546077 -0.26277 0.935372 255 0 0
0.435672 -0.258244 0.870986 255 0 0
0.47802 -0.276959 0.894548 255 0 0
0.368667 -0.245544 0.849288 255 0 0
0.370465 -0.244056 0.8523 255 0 0
0.479528 -0.275845 0.891841 255 0 0
0.477873 -0.285226 0.910113 255 0 0
0.539923 -0.246483 0.926439 255 0 0
0.547785 -0.23695 0.929468 255 0 0
0.54202 -0.244014 0.934335 255 0 0
0.541644 -0.244002 0.932924 255 0 0
0.551978 -0.282988 0.93834 255 0 0
0.525776 -0.296604 0.926009 255 0 0
0.52773 -0.292846 0.918521 255 0 0
0.591223 -0.355365 0.957647 255 0 0
0.316873 -0.316873 0.832686 255 0 0
0.299137 -0.309881 0.82846 255 0 0
0.299188 -0.309977 0.8265 255 0 0
0.299019 -0.310656 0.829047 255 0 0
0.183506 -0.205769 0.787768 255 0 0
0.313643 -0.315472 0.832232 255 0 0
0.395298 -0.272065 0.878143 255 0 0
0.520093 -0.302423 0.934484 255 0 0
0.521401 -0.301949 0.929861 255 0 0
0.388089 -0.285803 0.873674 255 0 0
0.310772 -0.321065 0.838085 255 0 0
0.220343 -0.350829 0.80131 255 0 0
0.414315 -0.305482 0.889958 255 0 0
0.302585 -0.321074 0.840148 255 0 0
0.39232 -0.309315 0.885598 255 0 0
0.3081 -0.320418 0.837318 255 0 0
0.227309 -0.288312 0.807569 255 0 0
0.302754 -0.321318 0.839943 255 0 0
0.302666 -0.32114 0.839128 255 0 0
0.298257 -0.32414 0.84506 255 0 0
0.230319 -0.287009 0.819951 255 0 0
0.217627 -0.334062 0.806143 255 0 0
0.301322 -0.323526 0.844294 255 0 0
0.225033 -0.333411 0.795317 255 0 0
0.215897 -0.336601 0.805144 255 0 0
0.355224 -0.311926 0.866004 255 0 0
0.358216 -0.311485 0.868014 255 0 0
0.35339 -0.312581 0.870269 255 0 0
0.354518 -0.313315 0.868655 255 0 0
0.207855 -0.275559 0.79259 255 0 0
0.163811 -0.377861 0.776847 255 0 0
0.129686 -0.276951 0.803554 255 0 0
0.151311 -0.275086 0.785462 255 0 0
0.164424 -0.376295 0.775368 255 0 0
0.359689 -0.317962 0.877486 255 0 0
0.51923 -0.325163 0.936929 255 0 0
0.358962 -0.333298 0.880097 255 0 0
0.479044 -0.238329 0.944968 255 0 0
0.368199 -0.245607 0.84679 255 0 0
0.364252 -0.240411 0.840241 255 0 0
0.304636 -0.209104 0.813799 255 0 0
0.459059 -0.277083 0.913835 255 0 0
0.381728 -0.255534 0.852665 255 0 0
0.301245 -0.252748 0.819359 255 0 0
0.453054 -0.25786 0.861933 255 0 0
0.472016 -0.277498 0.901549 255 0 0
0.324629 -0.300512 0.824766 255 0 0
0.47397 -0.273128 0.890334 255 0 0
0.167878 -0.23738 0.772572 255 0 0
0.49523 -0.287807 0.911407 255 0 0
0.486007 -0.282214 0.894107 255 0 0
0.369514 -0.282849 0.86099 255 0 0
0.518871 -0.305842 0.933643 255 0 0
0.539733 -0.326517 0.934295 255 0 0
0.178448 -0.249984 0.777194 255 0 0
0.539504 -0.325847 0.933855 255 0 0
0.539355 -0.325486 0.932792 255 0 0
0.533871 -0.272454 0.936838 255 0 0
0.53979 -0.324811 0.936231 255 0 0
0.23128 -0.343315 0.805498 255 0 0
0.628649 -0.0939313 0.637516 255 0 0
0.629213 -0.0938682 0.638375 255 0 0
0.630436 -0.0958988 0.642329 255 0 0
0.628961 -0.0941756 0.639362 255 0 0
0.628158 -0.0946558 0.641733 255 0 0
0.628455 -0.0947168 0.641186 255 0 0
0.631724 -0.0995102 0.644522 255 0 0
0.627477 -0.098772 0.643438 255 0 0
0.62763 -0.0980952 0.64288 255 0 0
0.627364 -0.0986148 0.642333 255 0 0
0.625614 -0.0990533 0.642651 255 0 0
0.631096 -0.102368 0.647414 255 0 0
0.631583 -0.102197 0.647613 255 0 0
0.631659 -0.10204 0.647084 255 0 0
0.633263 -0.103669 0.649257 255 0 0
0.613381 -0.112598 0.642985 255 0 0
0.668063 -0.066173 0.632825 255 0 0
0.668186 -0.066149 0.632893 255 0 0
0.664451 -0.0663319 0.63112 255 0 0
0.661056 -0.0669296 0.62994 255 0 0
0.660913 -0.0665493 0.629904 255 0 0
0.669571 -0.0673008 0.635783 255 0 0
0.658117 -0.0708573 0.632072 255 0 0
0.658032 -0.0701479 0.632099 255 0 0
0.657618 -0.0699401 0.631901 255 0 0
0.657711 -0.0707781 0.632319 255 0 0
0.535384 -0.0561111 0.568641 255 0 0
0.532168 -0.0551182 0.56727 255 0 0
0.657769 -0.0711906 0.632762 255 0 0
0.620095 -0.0791565 0.612875 255 0 0
0.620683 -0.0774812 0.61404 255 0 0
0.619853 -0.07978 0.613365 255 0 0
0.621031 -0.0782824 0.615052 255 0 0
0.660599 -0.0504053 0.639342 255 0 0
0.660599 -0.0504052 0.639342 255 0 0
0.660776 -0.0501787 0.639459 255 0 0
0.660669 -0.0503146 0.639389 255 0 0
0.605208 -0.0938956 0.606428 255 0 0
0.605208 -0.0938956 0.606428 255 0 0
0.605506 -0.0937294 0.606603 255 0 0
0.53317 -0.069527 0.57401 255 0 0
0.64555 -0.0775202 0.634727 255 0 0
0.528966 -0.0697929 0.574483 255 0 0
0.612494 -0.0887049 0.617415 255 0 0
0.529934 -0.0714354 0.575051 255 0 0
0.529233 -0.0740274 0.575544 255 0 0
0.528883 -0.0730996 0.575683 255 0 0
0.6141 0.00802943 0.629514 255 0 0
0.526479 -0.0704077 0.574693 255 0 0
0.528652 -0.0738129 0.575713 255 0 0
0.61337 0.0108317 0.629868 255 0 0
0.528675 -0.0760779 0.576396 255 0 0
0.6139 0.00798564 0.63054 255 0 0
0.673249 -0.0369895 0.596277 255 0 0
0.64342 0.0195292 0.586685 255 0 0
0.670878 -0.037398 0.597024 255 0 0
0.657708 0.0189626 0.596251 255 0 0
0.657702 0.0190419 0.596256 255 0 0
0.672041 -0.0395194 0.599015 255 0 0
0.656845 0.0198864 0.597024 255 0 0
0.651432 -0.0569245 0.587897 255 0 0
0.597112 -0.0689762 0.546112 255 0 0
0.643735 0.0198717 0.58666 255 0 0
0.678028 -0.0146215 0.575411 255 0 0
0.503439 -0.0938099 0.717905 255 0 0
0.632831 -0.166287 0.786654 255 0 0
0.506035 -0.092241 0.724144 255 0 0
0.618115 -0.170196 0.782058 255 0 0
0.61837 -0.169753 0.782241 255 0 0
0.619622 -0.169593 0.783203 255 0 0
0.501986 -0.0806983 0.724869 255 0 0
0.500818 -0.0814138 0.724141 255 0 0
0.496382 -0.0738192 0.725469 255 0 0
0.367109 -0.171484 0.64768 255 0 0
0.367767 -0.171729 0.648268 255 0 0
0.366901 -0.166826 0.649356 255 0 0
0.366953 -0.167667 0.649545 255 0 0
0.663847 -0.165741 0.824925 255 0 0
0.521558 -0.0120284 0.742831 255 0 0
0.663868 -0.167158 0.823785 255 0 0
0.511589 -0.0117464 0.755037 255 0 0
0.523186 -0.0171003 0.742394 255 0 0
0.485207 -0.0257855 0.761672 255 0 0
0.470298 -0.0256813 0.757301 255 0 0
0.647516 -0.18447 0.846604 255 0 0
0.647395 -0.184398 0.846932 255 0 0
0.494193 -0.0228348 0.772611 255 0 0
0.492836 -0.0236028 0.772463 255 0 0
0.492652 -0.0282265 0.772605 255 0 0
0.50926 -0.0280802 0.755215 255 0 0
0.496685 -0.0254235 0.77158 255 0 0
0.494619 -0.0237954 0.776703 255 0 0
0.489852 -0.0265692 0.769703 255 0 0
0.494692 -0.0238779 0.777432 255 0 0
0.481353 -0.0290953 0.773053 255 0 0
0.404912 -0.0824939 0.726199 255 0 0
0.489655 -0.0304143 0.779547 255 0 0
0.489147 -0.0306259 0.779238 255 0 0
0.404481 -0.0815802 0.727184 255 0 0
0.469809 -0.0291124 0.770236 255 0 0
0.503107 -0.0293058 0.788499 255 0 0
0.404184 -0.0814279 0.72772 255 0 0
0.502358 -0.0311071 0.788613 255 0 0
0.503116 -0.0301953 0.789123 255 0 0
0.487324 -0.0316488 0.78065 255 0 0
0.487706 -0.0313356 0.780896 255 0 0
0.48839 -0.0293743 0.779145 255 0 0
0.475026 -0.0304107 0.776714 255 0 0
0.475627 -0.0321576 0.778992 255 0 0
0.488041 -0.0374783 0.7882 255 0 0
0.463241 -0.0512624 0.777086 255 0 0
0.299493 -0.154315 0.6807 255 0 0
0.412702 -0.0273045 0.755604 255 0 0
0.410878 -0.0232056 0.755365 255 0 0
0.632755 -0.190256 0.901075 255 0 0
0.635136 -0.185883 0.906964 255 0 0
0.640092 -0.232111 0.908714 255 0 0
0.635344 -0.183427 0.910291 255 0 0
0.289423 -0.108892 0.738795 255 0 0
0.289751 -0.110154 0.740032 255 0 0
0.290008 -0.110149 0.74018 255 0 0
0.612927 -0.114823 0.643076 255 0 0
0.611737 -0.115553 0.644468 255 0 0
0.607913 -0.116151 0.644521 255 0 0
0.608794 -0.117789 0.643714 255 0 0
0.607871 -0.118115 0.644276 255 0 0
0.604139 -0.120642 0.647878 255 0 0
0.602616 -0.120688 0.64896 255 0 0
0.608501 -0.132279 0.665577 255 0 0
0.610445 -0.13407 0.662845 255 0 0
0.604905 -0.138004 0.669108 255 0 0
0.655367 -0.126231 0.70834 255 0 0
0.602317 -0.147967 0.688611 255 0 0
0.496035 -0.0839566 0.71934 255 0 0
0.626255 -0.168649 0.780439 255 0 0
0.503676 -0.0899792 0.724595 255 0 0
0.62679 -0.168867 0.781837 255 0 0
0.499626 -0.0861784 0.72329 255 0 0
0.626733 -0.168853 0.78249 255 0 0
0.498604 -0.0751319 0.727059 255 0 0
0.375681 -0.16313 0.662653 255 0 0
0.541661 -0.194204 0.74887 255 0 0
0.42649 0.00709977 0.710849 255 0 0
0.532435 -0.000343418 0.770602 255 0 0
0.522031 -0.00636861 0.76606 255 0 0
0.52162 -0.0059026 0.765889 255 0 0
0.521212 -0.00773871 0.766394 255 0 0
0.521817 -0.00827764 0.766888 255 0 0
0.529646 -0.00395297 0.774437 255 0 0
0.52287 -0.00792448 0.771119 255 0 0
0.512306 -0.0203447 0.764474 255 0 0
0.523149 -0.00800548 0.771486 255 0 0
0.512522 -0.0199161 0.764632 255 0 0
0.355864 0.00460205 0.68413 255 0 0
0.469043 -0.143967 0.729806 255 0 0
0.527854 -0.00511571 0.775186 255 0 0
0.494072 -0.0244079 0.755751 255 0 0
0.523073 -0.008631 0.7732 255 0 0
0.523138 -0.00861693 0.774827 255 0 0
0.495225 -0.0189119 0.760107 255 0 0
0.506632 -0.0154376 0.76924 255 0 0
0.526988 -0.0085326 0.782107 255 0 0
0.524621 -0.010164 0.780684 255 0 0
0.525011 -0.00937902 0.78188 255 0 0
0.499353 -0.0258553 0.768407 255 0 0
0.497079 -0.026842 0.768236 255 0 0
0.450099 -0.0254855 0.745047 255 0 0
0.519162 -0.0722938 0.78758 255 0 0
0.349136 0.013871 0.71538 255 0 0
0.416629 -0.0717955 0.743702 255 0 0
0.416912 -0.071799 0.744761 255 0 0
0.416912 -0.071799 0.744761 255 0 0
0.416717 -0.0717728 0.744888 255 0 0
0.462163 -0.0529094 0.776603 255 0 0
0.461438 -0.0521277 0.776526 255 0 0
0.462806 -0.0543483 0.777252 255 0 0
0.463155 -0.0539013 0.777483 255 0 0
0.449069 -0.038692 0.771793 255 0 0
0.449773 -0.0393983 0.772094 255 0 0
0.452452 -0.0412809 0.773322 255 0 0
0.451828 -0.0405448 0.773521 255 0 0
0.444471 -0.0370458 0.770431 255 0 0
0.461677 -0.0579941 0.7781 255 0 0
0.46161 -0.0570933 0.778156 255 0 0
0.471913 -0.0358745 0.786016 255 0 0
0.40391 -0.0615444 0.747323 255 0 0
0.403632 -0.0611519 0.747444 255 0 0
0.474397 -0.0363576 0.787739 255 0 0
0.473933 -0.036662 0.787916 255 0 0
0.441256 -0.0354421 0.770936 255 0 0
0.405007 -0.0618482 0.749238 255 0 0
0.446457 -0.0367187 0.774019 255 0 0
0.404895 -0.0621549 0.749375 255 0 0
0.441346 -0.0361665 0.771591 255 0 0
0.447816 -0.0368049 0.774958 255 0 0
0.440982 -0.0367082 0.771798 255 0 0
0.441158 -0.0364831 0.771914 255 0 0
0.40262 -0.0575166 0.749778 255 0 0
0.447558 -0.0373619 0.776355 255 0 0
0.441359 -0.0380017 0.773002 255 0 0
0.439895 -0.0297911 0.773292 255 0 0
0.439 -0.0364677 0.773498 255 0 0
0.448226 -0.0532146 0.777363 255 0 0
0.44698 -0.0530961 0.778305 255 0 0
0.438679 -0.0542733 0.781966 255 0 0
0.438879 -0.0551857 0.78266 255 0 0
0.406921 0.066267 0.779937 255 0 0
0.407087 0.0662551 0.780705 255 0 0
0.432503 -0.0526299 0.782494 255 0 0
0.433386 -0.0553728 0.784501 255 0 0
0.67994 -0.0149914 0.572523 255 0 0
0.508913 -0.0172756 0.538983 255 0 0
0.508126 -0.0182877 0.5396 255 0 0
0.507863 -0.0185327 0.539426 255 0 0
0.680908 -0.060989 0.630328 255 0 0
0.50468 -0.0187604 0.542303 255 0 0
0.673271 -0.0644871 0.631369 255 0 0
0.662522 -0.0634804 0.625991 255 0 0
0.667162 -0.0639813 0.629817 255 0 0
0.668749 -0.0652339 0.631256 255 0 0
0.665905 -0.0645403 0.629226 255 0 0
0.665579 -0.0653282 0.630229 255 0 0
0.639761 -0.0784273 0.613786 255 0 0
0.502573 -0.0195121 0.541619 255 0 0
0.665026 -0.0659184 0.630404 255 0 0
0.504105 -0.0206145 0.542406 255 0 0
0.665538 -0.0659373 0.630093 255 0 0
0.664804 -0.065607 0.630423 255 0 0
0.671091 -0.0666777 0.634097 255 0 0
0.289188 -0.108701 0.740528 255 0 0
0.337514 -0.0500251 0.803718 255 0 0
0.588766 -0.221763 0.93591 255 0 0
0.588476 -0.222011 0.935474 255 0 0
0.419833 -0.196841 0.839351 255 0 0
0.424261 -0.196265 0.842396 255 0 0
0.456522 -0.193027 0.805026 255 0 0
0.42384 -0.21202 0.847539 255 0 0
0.422815 -0.212619 0.847135 255 0 0
0.423508 -0.213095 0.847723 255 0 0
0.422455 -0.213905 0.847284 255 0 0
0.420822 -0.223314 0.851802 255 0 0
0.456592 -0.260302 0.872898 255 0 0
0.456835 -0.260561 0.873015 255 0 0
0.456407 -0.259479 0.874247 255 0 0
0.456877 -0.259286 0.874532 255 0 0
0.452785 -0.258366 0.872728 255 0 0
0.452198 -0.258157 0.872409 255 0 0
0.453105 -0.257874 0.872952 255 0 0
0.555907 -0.227413 0.935069 255 0 0
0.547465 -0.251813 0.928485 255 0 0
0.556265 -0.226532 0.936017 255 0 0
0.546803 -0.252565 0.929141 255 0 0
0.554473 -0.227712 0.93584 255 0 0
0.369183 -0.244142 0.82204 255 0 0
0.55209 -0.273784 0.935249 255 0 0
0.546586 -0.239221 0.93313 255 0 0
0.329978 -0.235066 0.825289 255 0 0
0.333416 -0.234702 0.822051 255 0 0
0.336669 -0.234667 0.818806 255 0 0
0.334566 -0.232206 0.819659 255 0 0
0.338871 -0.235768 0.820325 255 0 0
0.338359 -0.228769 0.825365 255 0 0
0.337682 -0.23648 0.821947 255 0 0
0.435565 -0.260509 0.877027 255 0 0
0.330555 -0.221938 0.824251 255 0 0
0.233078 -0.249151 0.768364 255 0 0
0.312636 -0.222118 0.814732 255 0 0
0.235591 -0.245033 0.758701 255 0 0
0.304784 -0.221933 0.815616 255 0 0
0.303718 -0.212393 0.815222 255 0 0
0.315021 -0.255267 0.820303 255 0 0
0.297377 -0.067899 0.834285 255 0 0
0.308879 -0.291635 0.823115 255 0 0
0.416794 0.0264224 0.911714 255 0 0
0.417396 0.0240064 0.908158 255 0 0
0.417565 0.0275407 0.912714 255 0 0
0.420919 0.0270045 0.912333 255 0 0
0.422002 0.0284427 0.912793 255 0 0
0.423775 0.0302351 0.918576 255 0 0
0.425846 0.0307981 0.919807 255 0 0
0.423241 0.0300128 0.918713 255 0 0
0.298835 -0.0723982 0.83937 255 0 0
0.232919 -0.269276 0.786792 255 0 0
0.236607 -0.262893 0.793886 255 0 0
0.384706 0.000949396 0.899993 255 0 0
0.384555 -0.0011233 0.898801 255 0 0
0.385271 0.00148858 0.901286 255 0 0
0.390187 0.00457342 0.904352 255 0 0
0.277969 -0.257705 0.830337 255 0 0
0.279538 -0.264149 0.818167 255 0 0
0.237428 -0.274984 0.797447 255 0 0
0.235632 -0.266665 0.800044 255 0 0
0.27848 -0.265507 0.823048 255 0 0
0.23588 -0.266031 0.79976 255 0 0
0.383295 -5.75724e-05 0.904184 255 0 0
0.236841 -0.269756 0.801391 255 0 0
0.237433 -0.277834 0.801141 255 0 0
0.35029 0.108831 0.898073 255 0 0
0.469916 -0.0290957 0.769248 255 0 0
0.468185 -0.0293689 0.76865 255 0 0
0.463322 -0.0303032 0.76812 255 0 0
0.461672 -0.0304356 0.770012 255 0 0
0.427937 -0.0459015 0.797855 255 0 0
0.636953 -0.0918238 0.640766 255 0 0
0.636563 -0.0918722 0.640889 255 0 0
0.630244 -0.0946278 0.638536 255 0 0
0.636768 -0.0925857 0.640131 255 0 0
0.62659 -0.0991898 0.64201 255 0 0
0.630472 -0.0994892 0.647918 255 0 0
0.630892 -0.0996973 0.646638 255 0 0
0.609866 -0.108626 0.635725 255 0 0
0.611062 -0.115795 0.641646 255 0 0
0.610576 -0.114746 0.639959 255 0 0
0.609911 -0.116985 0.646195 255 0 0
0.610192 -0.116704 0.643099 255 0 0
0.476295 -0.276792 0.899444 255 0 0
0.341337 -0.246266 0.827178 255 0 0
0.371906 -0.244779 0.8466 255 0 0
0.342626 -0.260931 0.838297 255 0 0
0.30873 -0.286363 0.814915 255 0 0
0.309854 -0.295826 0.825134 255 0 0
0.246515 -0.258867 0.786834 255 0 0
0.237165 -0.259993 0.794204 255 0 0
0.403603 -0.313651 0.89646 255 0 0
0.26372 -0.275343 0.826111 255 0 0
0.127003 -0.253818 0.776165 255 0 0
0.635924 -0.0883179 0.632382 255 0 0
0.636171 -0.0883077 0.632515 255 0 0
0.612537 0.0114171 0.630395 255 0 0
0.612372 0.0112606 0.630519 255 0 0
0.64458 -0.0803417 0.638471 255 0 0
0.660982 -0.0846784 0.647182 255 0 0
0.615178 -0.0900554 0.622338 255 0 0
0.649435 -0.083614 0.641848 255 0 0
0.536858 -0.0879832 0.581523 255 0 0
0.610731 0.00881891 0.63099 255 0 0
0.646258 -0.0839781 0.641001 255 0 0
0.646256 -0.0843675 0.640767 255 0 0
0.646271 -0.0844801 0.640991 255 0 0
0.647029 -0.0844676 0.641621 255 0 0
0.647105 -0.08437 0.641672 255 0 0
0.529216 -0.0818636 0.579029 255 0 0
0.609563 0.010599 0.632371 255 0 0
0.609586 0.0118159 0.632735 255 0 0
0.530607 -0.0870237 0.580814 255 0 0
0.613465 -0.0941946 0.62578 255 0 0
0.608596 0.0128512 0.634361 255 0 0
0.607592 0.00842122 0.633376 255 0 0
0.608069 0.00888631 0.632829 255 0 0
0.648313 -0.0907042 0.64803 255 0 0
0.526552 -0.0924964 0.584456 255 0 0
0.646309 -0.0910563 0.648522 255 0 0
0.646927 -0.091653 0.649016 255 0 0
0.635233 -0.0931375 0.642662 255 0 0
0.648226 -0.0909919 0.645225 255 0 0
0.518704 -0.092118 0.589245 255 0 0
0.630534 -0.0953035 0.641767 255 0 0
0.630257 -0.0959023 0.642695 255 0 0
0.665228 -0.0906956 0.662913 255 0 0
0.633292 -0.0986689 0.646068 255 0 0
0.670645 -0.0997769 0.666222 255 0 0
0.655361 -0.102185 0.657869 255 0 0
0.64255 -0.0990123 0.651626 255 0 0
0.654155 -0.102587 0.658553 255 0 0
0.654314 -0.102384 0.658657 255 0 0
0.657589 -0.0980824 0.661289 255 0 0
0.521829 -0.0983414 0.589979 255 0 0
0.523585 -0.100441 0.591143 255 0 0
0.631155 -0.102346 0.648651 255 0 0
0.531423 -0.104067 0.596048 255 0 0
0.596676 -0.0691143 0.546776 255 0 0
0.449591 -0.0661736 0.579054 255 0 0
0.449996 -0.0661558 0.579521 255 0 0
0.449333 -0.0659374 0.57939 255 0 0
0.607394 -0.135904 0.664163 255 0 0
0.606217 -0.136805 0.667738 255 0 0
0.590605 -0.137359 0.655582 255 0 0
0.606478 -0.1364 0.668468 255 0 0
0.608217 -0.135922 0.664847 255 0 0
0.609044 -0.135734 0.66247 255 0 0
0.471415 -0.0860189 0.601232 255 0 0
0.622101 -0.134909 0.683993 255 0 0
0.622519 -0.134738 0.684247 255 0 0
0.628973 -0.137878 0.692771 255 0 0
0.650541 -0.122256 0.706423 255 0 0
0.650063 -0.123732 0.706487 255 0 0
0.46237 -0.10445 0.614784 255 0 0
0.461036 -0.105708 0.612169 255 0 0
0.595004 -0.156205 0.695349 255 0 0
0.586766 -0.157221 0.699327 255 0 0
0.548886 -0.13007 0.68083 255 0 0
0.63233 -0.151024 0.750206 255 0 0
0.429406 -0.0501258 0.646164 255 0 0
0.431391 0.00983404 0.660108 255 0 0
0.223877 -0.279346 0.794406 255 0 0
0.26771 -0.272155 0.822629 255 0 0
0.39225 0.107327 0.924552 255 0 0
0.391721 0.10705 0.925118 255 0 0
0.18732 -0.28594 0.794237 255 0 0
0.161867 -0.25907 0.782638 255 0 0
0.196881 -0.297595 0.795627 255 0 0
0.364318 0.115233 0.936683 255 0 0
0.155007 -0.268231 0.786244 255 0 0
0.365668 0.120076 0.941792 255 0 0
0.177129 -0.282203 0.789172 255 0 0
0.362479 0.111657 0.937642 255 0 0
0.362515 0.112353 0.93772 255 0 0
0.365645 0.106597 0.936617 255 0 0
0.166967 -0.282132 0.793993 255 0 0
0.362497 0.107579 0.942004 255 0 0
0.361649 0.11206 0.938125 255 0 0
0.360946 0.110926 0.938089 255 0 0
0.156596 -0.273938 0.789673 255 0 0
0.157307 -0.273925 0.790082 255 0 0
0.354569 0.105375 0.941599 255 0 0
0.352942 0.10616 0.943825 255 0 0
0.275079 -0.199901 0.896688 255 0 0
0.271965 -0.211676 0.908248 255 0 0
0.122485 0.0186784 0.880935 255 0 0
0.115631 0.0190611 0.885351 255 0 0
0.115716 0.0190622 0.885863 255 0 0
0.316184 -0.101475 1.02342 255 0 0
0.61578 -0.107463 0.640882 255 0 0
0.615742 -0.106783 0.641159 255 0 0
0.609011 -0.109719 0.637971 255 0 0
0.510943 -0.100187 0.592431 255 0 0
0.609457 -0.116018 0.645292 255 0 0
0.607271 -0.115909 0.644371 255 0 0
0.610618 -0.116768 0.645808 255 0 0
0.609433 -0.117236 0.646519 255 0 0
0.609868 -0.117056 0.646768 255 0 0
0.609017 -0.117934 0.647363 255 0 0
0.606208 -0.119314 0.647324 255 0 0
0.606201 -0.119212 0.64733 255 0 0
0.464725 -0.0584016 0.579834 255 0 0
0.60269 -0.126143 0.651125 255 0 0
0.601478 -0.126985 0.651305 255 0 0
0.600378 -0.1281 0.652654 255 0 0
0.599596 -0.128391 0.652663 255 0 0
0.599176 -0.128181 0.652689 255 0 0
0.630035 -0.127858 0.679774 255 0 0
0.629649 -0.128298 0.679752 255 0 0
0.630195 -0.128075 0.680519 255 0 0
0.627337 -0.13049 0.681484 255 0 0
0.626577 -0.13079 0.682548 255 0 0
0.658148 -0.126919 0.698646 255 0 0
0.658466 -0.127337 0.698772 255 0 0
0.500556 -0.114572 0.616333 255 0 0
0.481801 -0.0979283 0.609961 255 0 0
0.629267 -0.137655 0.692914 255 0 0
0.629486 -0.137688 0.693254 255 0 0
0.451509 -0.0814209 0.604964 255 0 0
0.642547 -0.130632 0.701585 255 0 0
0.642169 -0.131219 0.701551 255 0 0
0.477531 -0.106903 0.616306 255 0 0
0.451368 -0.0821232 0.605497 255 0 0
0.450694 -0.0825944 0.606 255 0 0
0.650229 -0.121524 0.708181 255 0 0
0.449624 -0.0828658 0.606768 255 0 0
0.450258 -0.083649 0.607704 255 0 0
0.611397 -0.142722 0.687464 255 0 0
0.44618 -0.0870576 0.607234 255 0 0
0.445665 -0.087835 0.607334 255 0 0
0.446677 -0.0890534 0.609333 255 0 0
0.619264 -0.147647 0.69568 255 0 0
0.618721 -0.148172 0.696702 255 0 0
0.620491 -0.153087 0.698275 255 0 0
0.619155 -0.150755 0.699396 255 0 0
0.607493 -0.159127 0.702357 255 0 0
0.608724 -0.159219 0.703682 255 0 0
0.406065 -0.0606497 0.616918 255 0 0
0.565567 -0.0121514 0.732187 255 0 0
0.564757 -0.013804 0.732953 255 0 0
0.543031 -0.14434 0.719457 255 0 0
0.536988 -0.145709 0.71975 255 0 0
0.536751 -0.145349 0.720115 255 0 0
0.536964 -0.145081 0.720938 255 0 0
0.537958 -0.145078 0.721693 255 0 0
0.502327 -0.0913816 0.719645 255 0 0
0.379444 -0.174528 0.645968 255 0 0
0.379414 -0.174134 0.645993 255 0 0
0.504684 -0.094545 0.721936 255 0 0
0.504077 -0.0942031 0.722104 255 0 0
0.680934 -0.034542 0.616743 255 0 0
0.548002 -0.0192825 0.547852 255 0 0
0.54801 -0.0196878 0.548041 255 0 0
0.550373 -0.0224035 0.550141 255 0 0
0.67598 -0.0373435 0.616102 255 0 0
0.550851 -0.0243715 0.551095 255 0 0
0.551351 -0.0234437 0.551912 255 0 0
0.551004 -0.0235583 0.551717 255 0 0
0.551669 -0.0238917 0.552034 255 0 0
0.551032 -0.0239181 0.551693 255 0 0
0.551116 -0.0232648 0.552034 255 0 0
0.614538 -0.0530398 0.584636 255 0 0
0.608864 -0.0714008 0.585207 255 0 0
0.613924 -0.0545406 0.58984 255 0 0
0.613918 -0.0544554 0.589846 255 0 0
0.608777 -0.0725971 0.587311 255 0 0
0.608343 -0.0737571 0.589008 255 0 0
0.608745 -0.0742482 0.590308 255 0 0
0.608634 -0.0742527 0.590249 255 0 0
0.608426 -0.0745224 0.59102 255 0 0
0.674099 -0.0568711 0.627657 255 0 0
0.672317 -0.0595904 0.628935 255 0 0
0.608102 -0.076695 0.593127 255 0 0
0.67215 -0.0594223 0.628863 255 0 0
0.665184 -0.0639676 0.628796 255 0 0
0.663906 -0.0639817 0.628116 255 0 0
0.671692 -0.0648082 0.632616 255 0 0
0.66348 -0.0641507 0.628555 255 0 0
0.663543 -0.0648117 0.629203 255 0 0
0.659233 -0.0656121 0.62729 255 0 0
0.668019 -0.0655743 0.632181 255 0 0
0.619439 -0.0699133 0.605971 255 0 0
0.66148 -0.0659818 0.628898 255 0 0
0.666556 -0.0662261 0.631793 255 0 0
0.423119 -0.192117 0.832407 255 0 0
0.615418 -0.287434 0.953802 255 0 0
0.424464 -0.212302 0.844528 255 0 0
0.422429 -0.2188 0.848398 255 0 0
0.418518 -0.225689 0.849903 255 0 0
0.41911 -0.227006 0.848823 255 0 0
0.366179 -0.248337 0.825434 255 0 0
0.556848 -0.263069 0.932248 255 0 0
0.418232 -0.228882 0.849158 255 0 0
0.554981 -0.265186 0.934625 255 0 0
0.414582 -0.230338 0.854886 255 0 0
0.400914 -0.231813 0.847127 255 0 0
0.547321 -0.261474 0.929642 255 0 0
0.546351 -0.23889 0.934024 255 0 0
0.54598 -0.262153 0.93225 255 0 0
0.545501 -0.238804 0.934591 255 0 0
0.54984 -0.280146 0.934406 255 0 0
0.336042 -0.244563 0.812483 255 0 0
0.470948 -0.276808 0.891594 255 0 0
0.682328 -0.0343143 0.6168 255 0 0
0.650161 -0.0465572 0.564414 255 0 0
0.678631 -0.0150815 0.574775 255 0 0
0.649926 -0.0465709 0.564061 255 0 0
0.387916 -0.114535 0.76184 255 0 0
0.38773 -0.113913 0.761805 255 0 0
0.387563 -0.113919 0.761716 255 0 0
0.313173 -0.122435 0.721256 255 0 0
0.312933 -0.122445 0.721127 255 0 0
0.385393 -0.109017 0.761293 255 0 0
0.312089 -0.121781 0.720976 255 0 0
0.311335 -0.121694 0.721041 255 0 0
0.311416 -0.121659 0.721087 255 0 0
0.31354 -0.123807 0.722217 255 0 0
0.314951 -0.123789 0.723421 255 0 0
0.31501 -0.123355 0.723951 255 0 0
0.315842 -0.123968 0.725692 255 0 0
0.63839 -0.189187 0.899115 255 0 0
0.639349 -0.189778 0.901837 255 0 0
0.636728 -0.187978 0.90154 255 0 0
0.637179 -0.188006 0.903594 255 0 0
0.635117 -0.187777 0.903206 255 0 0
0.63322 -0.187983 0.90377 255 0 0
0.632719 -0.188198 0.903482 255 0 0
0.646957 -0.183659 0.913999 255 0 0
0.647107 -0.182139 0.914688 255 0 0
0.646819 -0.182151 0.914534 255 0 0
0.493354 -0.056543 0.846876 255 0 0
0.488754 -0.0564575 0.853732 255 0 0
0.470481 -0.0715636 0.854122 255 0 0
0.558847 -0.0443453 0.924458 255 0 0
0.559787 -0.0430293 0.925547 255 0 0
0.407736 -0.210124 0.836992 255 0 0
0.565257 -0.0271708 0.937342 255 0 0
0.564839 -0.0265579 0.937183 255 0 0
0.559579 -0.0338347 0.93365 255 0 0
0.563864 -0.0280953 0.936737 255 0 0
0.56079 -0.0330211 0.934603 255 0 0
0.563134 -0.0272234 0.937121 255 0 0
0.585929 -0.224029 0.935241 255 0 0
0.558022 -0.245891 0.930026 255 0 0
0.557995 -0.245532 0.930048 255 0 0
0.342149 -0.223366 0.818507 255 0 0
0.413537 -0.142235 0.866025 255 0 0
0.342254 -0.224783 0.820009 255 0 0
0.554637 -0.249555 0.930356 255 0 0
0.430502 -0.163123 0.873344 255 0 0
0.430227 -0.163134 0.873197 255 0 0
0.430227 -0.163134 0.873197 255 0 0
0.430796 -0.162363 0.873805 255 0 0
0.413581 -0.143546 0.867051 255 0 0
0.431 -0.16285 0.874318 255 0 0
0.431561 -0.163173 0.874583 255 0 0
0.430881 -0.162705 0.874497 255 0 0
0.41289 -0.143108 0.867411 255 0 0
0.550438 -0.248215 0.930085 255 0 0
0.551063 -0.248008 0.930437 255 0 0
0.232203 -0.235585 0.767333 255 0 0
0.482811 -0.154554 0.909462 255 0 0
0.364942 -0.238276 0.838725 255 0 0
0.434252 -0.258967 0.876224 255 0 0
0.229583 -0.253839 0.768607 255 0 0
0.424856 -0.146882 0.884965 255 0 0
0.228571 -0.256102 0.769428 255 0 0
0.302817 -0.21069 0.815531 255 0 0
0.302172 -0.230012 0.814809 255 0 0
0.42397 -0.14668 0.887926 255 0 0
0.424281 -0.146483 0.888111 255 0 0
0.424285 -0.146527 0.888108 255 0 0
0.424566 -0.146515 0.888258 255 0 0
0.300464 -0.234839 0.814092 255 0 0
0.299788 -0.23671 0.813542 255 0 0
0.302238 -0.250098 0.81864 255 0 0
0.307556 -0.246823 0.812451 255 0 0
0.299589 -0.252316 0.817798 255 0 0
0.292694 -0.073965 0.831632 255 0 0
0.2978 -0.257848 0.817147 255 0 0
0.299667 -0.0820226 0.836098 255 0 0
0.30044 -0.0821702 0.83786 255 0 0
0.2997 -0.0801632 0.838355 255 0 0
0.299851 -0.0799704 0.838454 255 0 0
0.300242 -0.0820197 0.839134 255 0 0
0.300317 -0.0850705 0.838862 255 0 0
0.30003 -0.0848449 0.839415 255 0 0
0.300152 -0.0839316 0.839572 255 0 0
0.300041 -0.085104 0.839622 255 0 0
0.420269 0.026478 0.91502 255 0 0
0.419924 0.0277387 0.916102 255 0 0
0.420212 0.0283124 0.916314 255 0 0
0.453845 0.114894 0.9455 255 0 0
0.454442 0.114594 0.946013 255 0 0
0.453862 0.114345 0.94568 255 0 0
0.288071 -0.251114 0.820858 255 0 0
0.288091 -0.251384 0.820841 255 0 0
0.352122 0.108634 0.899088 255 0 0
0.263896 -0.20619 0.820352 255 0 0
0.383026 0.000112257 0.905301 255 0 0
0.366482 0.119888 0.909219 255 0 0
0.381891 0.00125254 0.905953 255 0 0
0.381922 0.00201392 0.906956 255 0 0
0.382595 0.0020418 0.907316 255 0 0
0.377921 -0.00278868 0.906154 255 0 0
0.372359 0.12381 0.918646 255 0 0
0.381647 -0.00468057 0.911126 255 0 0
0.383261 -0.00517078 0.91216 255 0 0
0.383628 -0.00553913 0.912317 255 0 0
0.382679 -0.00428966 0.911941 255 0 0
0.387746 -0.00181623 0.917608 255 0 0
0.371845 0.0240533 0.914774 255 0 0
0.371846 0.0240533 0.914774 255 0 0
0.370401 0.120714 0.93434 255 0 0
0.36851 0.118747 0.935182 255 0 0
0.367532 0.116402 0.934651 255 0 0
0.367096 0.115363 0.93545 255 0 0
0.365391 0.112093 0.93512 255 0 0
0.364235 0.112483 0.935001 255 0 0
0.351201 0.103178 0.944413 255 0 0
0.402777 0.0839418 1.00799 255 0 0
0.320513 0.0957877 0.9783 255 0 0
0.320445 0.0956545 0.978704 255 0 0
0.129199 -0.257373 0.78109 255 0 0
0.254957 -0.301525 0.893786 255 0 0
0.488395 -0.28454 0.903246 255 0 0
0.217372 -0.312013 0.800178 255 0 0
0.340531 -0.26045 0.841992 255 0 0
0.553581 -0.282836 0.930625 255 0 0
0.174265 -0.373498 0.779325 255 0 0
0.421741 -0.307261 0.905188 255 0 0
0.0205179 -0.0761472 0.677508 255 0 0
0.0209061 -0.0758495 0.678497 255 0 0
0.367421 -0.24214 0.846304 255 0 0
0.0115527 -0.0147225 0.459527 255 0 0
0.0621718 -0.0829879 0.638247 255 0 0
0.364623 -0.239373 0.834802 255 0 0
0.00954223 -0.0140751 0.478186 255 0 0
0.0630997 -0.0828813 0.657594 255 0 0
0.341976 -0.294748 0.844518 255 0 0
0.0652058 -0.0838768 0.637474 255 0 0
0.311139 -0.269081 0.806799 255 0 0
0.337183 -0.258672 0.835304 255 0 0
0.334466 -0.256298 0.830864 255 0 0
-0.0726328 -0.200485 0.658658 255 0 0
0.14709 -0.285399 0.792583 255 0 0
0.264978 -0.275446 0.82019 255 0 0
-0.0739973 -0.200918 0.66183 255 0 0
0.424082 -0.212612 0.844275 255 0 0
0.456765 -0.376038 0.932717 255 0 0
0.498861 -0.164697 0.911707 255 0 0
0.483274 -0.241062 0.942024 255 0 0
0.475745 -0.282559 0.896065 255 0 0
0.38362 -0.272474 0.848862 255 0 0
0.476724 -0.27482 0.885243 255 0 0
0.0568679 0.103477 1.47838 255 0 0
0.16699 -0.222921 0.763314 255 0 0
0.361995 -0.160283 0.836829 255 0 0
0.187546 -0.315083 0.801499 255 0 0
-0.0681173 -0.202338 0.650584 255 0 0
0.181372 -0.316842 0.805822 255 0 0
0.187719 -0.315764 0.803195 255 0 0
0.303406 -0.213527 0.816935 255 0 0
0.185135 -0.315809 0.803125 255 0 0
0.174074 -0.296401 0.80009 255 0 0
0.324087 -0.239925 0.827192 255 0 0
0.159309 -0.0977824 0.610277 255 0 0
0.335958 -0.344274 0.896951 255 0 0
0.257063 -0.290699 0.835141 255 0 0
0.436576 -0.259163 0.869213 255 0 0
0.410568 -0.203431 0.840716 255 0 0
0.190287 -0.314691 0.802311 255 0 0
0.426955 -0.371692 0.92273 255 0 0
0.417687 -0.226524 0.84937 255 0 0
0.0764361 -0.306382 0.79858 255 0 0
0.257993 -0.293272 0.84101 255 0 0
0.257146 -0.29382 0.841315 255 0 0
0.281095 -0.150715 0.52412 255 0 0
0.394145 -0.261245 0.853452 255 0 0
0.0447551 -0.0601551 0.618488 255 0 0
0.0526002 -0.033632 0.491676 255 0 0
0.359972 -0.280422 0.85481 255 0 0
0.272824 -0.27024 0.822019 255 0 0
0.677247 -0.205492 0.905484 255 0 0
-0.081275 -0.199369 0.666813 255 0 0
0.376974 -0.357215 0.90843 255 0 0
0.189548 -0.314906 0.802274 255 0 0
0.149119 -0.280679 0.771491 255 0 0
-0.125961 -0.238817 0.639188 255 0 0
0.419202 -0.366015 0.912465 255 0 0
0.134951 -0.291526 0.791999 255 0 0
0.485072 -0.282606 0.893536 255 0 0
0.135099 -0.291892 0.796282 255 0 0
0.296612 -0.151916 0.819908 255 0 0
0.176483 -0.239809 0.770509 255 0 0
0.45113 -0.258684 0.869887 255 0 0
0.305786 -0.248918 0.812991 255 0 0
0.678128 -0.204655 0.895332 255 0 0
0.677832 -0.204568 0.893118 255 0 0
0.263909 -0.280242 0.838059 255 0 0
0.272598 -0.276399 0.829577 255 0 0
0.60993 -0.11663 0.646947 255 0 0
0.676986 -0.205574 0.897579 255 0 0
0.306079 -0.245969 0.813595 255 0 0
0.36125 -0.243397 0.828661 255 0 0
0.550859 -0.280498 0.934692 255 0 0
0.370819 -0.243856 0.850613 255 0 0
0.515896 -0.303683 0.930319 255 0 0
0.398363 -0.270998 0.870169 255 0 0
0.0395442 -0.311918 0.791903 255 0 0
0.0351438 -0.328363 0.837647 255 0 0
0.525797 -0.297368 0.924754 255 0 0
0.303162 -0.154839 0.546073 255 0 0
0.226044 -0.289948 0.806217 255 0 0
0.327902 -0.241212 0.831519 255 0 0
0.435653 -0.025159 0.733149 255 0 0
0.439386 -0.191125 0.799521 255 0 0
0.579855 -0.155198 0.688665 255 0 0
0.239374 -0.250991 0.78541 255 0 0
0.419233 -0.223794 0.847706 255 0 0
0.53072 -0.070538 0.564628 255 0 0
0.342704 -0.25069 0.830088 255 0 0
0.326935 -0.246161 0.839133 255 0 0
0.431118 -0.190384 0.837094 255 0 0
0.343989 -0.294008 0.841916 255 0 0
0.575532 -0.357897 0.926603 255 0 0
0.342568 -0.293462 0.84264 255 0 0
0.670382 -0.208718 0.897768 255 0 0
0.342496 -0.250739 0.83027 255 0 0
0.528408 -0.0528783 0.567343 255 0 0
0.52905 -0.0530578 0.566852 255 0 0
0.429264 -0.0300437 0.759546 255 0 0
0.428203 -0.0280171 0.736785 255 0 0
0.456609 -0.099023 0.608177 255 0 0
0.60242 -0.113131 0.591983 255 0 0
0.39828 -0.0960587 0.654915 255 0 0
0.43964 -0.191265 0.798769 255 0 0
0.542214 -0.241364 0.933019 255 0 0
0.442054 -0.0228262 0.732294 255 0 0
0.60778 -0.189885 0.900036 255 0 0
0.369224 -0.282023 0.854723 255 0 0
0.497116 -0.138995 2.60298 255 0 0
0.203633 -0.0555362 0.852219 255 0 0
0.20762 -0.247766 1.12402 255 0 0
