ply
format ascii 1.0
comment author: Gordon Liu
element vertex 2527
property double x
property double y
property double z
property uchar red
property uchar green
property uchar blue
end_header
0.0832896 -0.0472319 0.533264 255 0 0
0.132915 -0.0457435 0.548767 255 0 0
0.131624 -0.0468325 0.546037 255 0 0
0.0806414 -0.0485894 0.54887 255 0 0
0.0978045 -0.0547194 0.551924 255 0 0
0.129385 -0.0693614 0.583491 255 0 0
0.179579 -0.110875 0.589775 255 0 0
0.153092 0.0123669 0.515052 255 0 0
0.153089 0.0118924 0.515283 255 0 0
-0.0104915 -0.0317525 0.518399 255 0 0
0.000681875 -0.0323239 0.524268 255 0 0
0.00125566 -0.0344159 0.519374 255 0 0
0.0970909 -0.00193853 0.535049 255 0 0
0.0626381 0.125998 0.537203 255 0 0
0.062578 0.125565 0.537389 255 0 0
0.0787705 0.112818 0.540299 255 0 0
0.0788806 0.110975 0.539364 255 0 0
0.0943034 0.0980056 0.541204 255 0 0
0.0938064 0.102508 0.540509 255 0 0
0.0956246 0.103162 0.54236 255 0 0
0.137301 -0.052109 0.551448 255 0 0
0.137491 -0.0531812 0.550465 255 0 0
0.142359 -0.0963937 0.63703 255 0 0
0.154198 -0.105736 0.704756 255 0 0
-0.00497391 -0.184055 0.686843 255 0 0
-0.0808924 -0.162357 0.690891 255 0 0
0.122932 -0.0949362 0.694795 255 0 0
-0.0909938 -0.157857 0.701226 255 0 0
-0.0883165 -0.157386 0.694971 255 0 0
0.00709937 -0.178572 0.69702 255 0 0
-0.08877 -0.15907 0.697905 255 0 0
0.00786492 -0.176962 0.693341 255 0 0
0.00934105 -0.182821 0.690336 255 0 0
0.00903011 -0.182467 0.688683 255 0 0
0.0249654 -0.0456312 0.531086 255 0 0
0.169497 -0.0143118 0.532332 255 0 0
0.132928 -0.050234 0.558213 255 0 0
0.13693 -0.0641905 0.563398 255 0 0
0.127466 -0.0636187 0.575974 255 0 0
0.107179 -0.0605329 0.577573 255 0 0
0.0943534 -0.0691104 0.625906 255 0 0
0.101503 -0.0738738 0.648516 255 0 0
0.0977361 -0.0729042 0.629251 255 0 0
0.0982017 -0.0732281 0.633672 255 0 0
0.100269 -0.0723293 0.649699 255 0 0
0.0206121 -0.203483 0.639881 255 0 0
0.0371752 -0.0763807 0.643315 255 0 0
0.0693436 -0.20195 0.642722 255 0 0
0.0565413 -0.190628 0.663694 255 0 0
0.189775 -0.176692 0.671468 255 0 0
0.191872 -0.181104 0.685079 255 0 0
0.0915852 -0.0791612 0.623664 255 0 0
-0.0661717 -0.200036 0.647296 255 0 0
0.0539985 -0.189307 0.659463 255 0 0
0.150081 -0.0981987 0.679212 255 0 0
0.149906 -0.102127 0.682549 255 0 0
0.049838 -0.19152 0.668244 255 0 0
0.0500565 -0.191378 0.673728 255 0 0
0.0504024 -0.190256 0.660534 255 0 0
0.0536713 -0.191105 0.668062 255 0 0
0.133743 -0.15461 0.671289 255 0 0
-0.0541878 -0.174485 0.675666 255 0 0
-0.0549285 -0.176341 0.678137 255 0 0
-0.0551925 -0.17579 0.680753 255 0 0
-0.0543738 -0.175251 0.673559 255 0 0
0.105871 -0.0112296 0.458148 255 0 0
-0.0495326 -0.000659493 0.460774 255 0 0
0.109164 -0.0101042 0.455039 255 0 0
0.109316 -0.0101318 0.455196 255 0 0
0.10716 -0.0111199 0.457589 255 0 0
-0.0437789 -0.00155573 0.458656 255 0 0
-0.123872 -0.237434 0.63405 255 0 0
-0.125071 -0.237221 0.63774 255 0 0
-0.117906 -0.233963 0.631076 255 0 0
-0.111823 -0.230889 0.625683 255 0 0
-0.114354 -0.232084 0.633177 255 0 0
-0.099249 -0.224249 0.637628 255 0 0
0.0905507 -0.191141 0.666009 255 0 0
0.0906364 -0.1917 0.667241 255 0 0
0.0858134 -0.18355 0.662278 255 0 0
0.0989539 -0.178325 0.663477 255 0 0
0.0522581 -0.191434 0.665599 255 0 0
0.144893 -0.137254 0.673134 255 0 0
0.189851 -0.177403 0.682049 255 0 0
0.041002 -0.190989 0.663488 255 0 0
-0.117566 -0.181446 0.652107 255 0 0
0.0410642 -0.191431 0.668606 255 0 0
-0.0228533 -0.00796343 0.469976 255 0 0
0.0572355 -0.0328204 0.49415 255 0 0
0.0592843 -0.0342724 0.490487 255 0 0
0.0597292 -0.0349272 0.487604 255 0 0
0.0600411 -0.0350274 0.48858 255 0 0
-0.0230803 -0.00910686 0.472729 255 0 0
-0.00931119 -0.0257773 0.506195 255 0 0
0.0471964 -0.00643897 0.446091 255 0 0
0.0472232 -0.00782073 0.449015 255 0 0
0.11597 -0.00735969 0.449104 255 0 0
-0.00408592 -0.185315 0.680547 255 0 0
-0.00482853 -0.184985 0.683657 255 0 0
-0.00403033 -0.185183 0.683542 255 0 0
0.124085 -0.0942735 0.682188 255 0 0
0.121512 -0.0935506 0.68956 255 0 0
-0.104936 -0.0451572 0.692207 255 0 0
0.100243 -0.0949762 0.701744 255 0 0
0.0564787 -0.163592 0.697041 255 0 0
0.0529759 -0.165445 0.69993 255 0 0
0.0487245 -0.15316 0.698104 255 0 0
0.0155585 -0.174741 0.698176 255 0 0
0.113758 -0.115769 0.710557 255 0 0
0.104703 -0.11251 0.71443 255 0 0
0.0611893 -0.02085 0.475431 255 0 0
0.140816 0.0856186 0.487941 255 0 0
0.140996 0.0855371 0.485739 255 0 0
0.141041 0.0844765 0.483847 255 0 0
0.14135 0.0856451 0.485773 255 0 0
0.114088 -0.0129597 0.455562 255 0 0
0.113882 -0.0143598 0.461391 255 0 0
0.113401 -0.0165263 0.461824 255 0 0
0.10219 -0.019416 0.464939 255 0 0
0.0582922 -0.0188783 0.458004 255 0 0
-0.00997813 -0.00516961 0.467141 255 0 0
-0.0103629 -0.00489339 0.489529 255 0 0
0.130185 0.0418034 0.51046 255 0 0
0.147783 0.0143672 0.511981 255 0 0
0.132105 0.0380832 0.511963 255 0 0
0.131743 0.0402884 0.515024 255 0 0
0.129765 0.0398675 0.49975 255 0 0
0.145253 0.0136789 0.520915 255 0 0
0.151245 0.0126833 0.516931 255 0 0
0.151758 0.011724 0.512964 255 0 0
0.183234 -0.122901 0.618992 255 0 0
0.0608179 -0.156165 0.698059 255 0 0
0.0537049 -0.00345544 0.445191 255 0 0
-0.0154453 0.111304 0.755372 255 0 0
-0.0965295 0.116028 0.717564 255 0 0
-0.0926559 0.118018 0.72033 255 0 0
0.144518 -0.137074 0.67624 255 0 0
0.107942 -0.112645 0.719465 255 0 0
0.106181 -0.112722 0.709901 255 0 0
0.0506278 -0.145526 0.705237 255 0 0
0.0512301 -0.150778 0.701669 255 0 0
0.0566471 -0.159586 0.696671 255 0 0
0.182566 -0.11612 0.594663 255 0 0
0.128381 0.0437331 0.508434 255 0 0
0.117272 0.0417792 0.43161 255 0 0
0.0633842 -0.0780173 0.650997 255 0 0
0.0611065 -0.0786053 0.642835 255 0 0
0.0798881 -0.132239 0.718434 255 0 0
0.112563 -0.110739 0.70036 255 0 0
0.136811 -0.115949 0.681269 255 0 0
0.0439297 0.00350807 0.43147 255 0 0
0.0448987 0.00117005 0.434813 255 0 0
0.105285 -0.0255852 0.471403 255 0 0
0.181888 -0.125926 0.624891 255 0 0
-0.0626794 0.118359 0.73499 255 0 0
-0.172213 -0.111088 0.712731 255 0 0
0.0705478 -0.120876 0.708389 255 0 0
0.0457431 -0.00402576 0.443737 255 0 0
0.0285003 -0.158372 0.702394 255 0 0
0.0287007 -0.159004 0.704045 255 0 0
0.183155 -0.116727 0.595699 255 0 0
0.108897 0.0988376 0.600626 255 0 0
0.181233 -0.114736 0.600892 255 0 0
0.0747278 -0.124135 0.700491 255 0 0
0.0510934 -0.145408 0.704509 255 0 0
0.0387062 -0.15461 0.7017 255 0 0
0.128257 -0.0681526 0.580317 255 0 0
0.135892 -0.116002 0.675931 255 0 0
0.106472 -0.0373113 0.481222 255 0 0
-0.130759 0.00537211 0.809161 255 0 0
-0.062447 0.118022 0.734387 255 0 0
-0.171522 -0.112167 0.710671 255 0 0
-0.172143 -0.112419 0.711919 255 0 0
0.128405 0.0433441 0.507658 255 0 0
0.184083 -0.127238 0.595623 255 0 0
0.070992 -0.120736 0.710628 255 0 0
-0.0949666 0.113323 0.713435 255 0 0
-0.0279663 -0.0100308 0.465868 255 0 0
0.0427468 -0.0760434 0.680035 255 0 0
0.199356 -0.139469 0.643238 255 0 0
0.0772545 0.115647 0.541385 255 0 0
0.0319882 0.112696 0.565031 255 0 0
0.0327392 0.107678 0.573209 255 0 0
0.116039 0.0429233 0.429338 255 0 0
0.180833 -0.110777 0.594786 255 0 0
0.0613028 -0.0791918 0.654124 255 0 0
0.0509114 -0.146181 0.698591 255 0 0
0.043998 0.00314878 0.433031 255 0 0
0.0444768 0.00212116 0.43417 255 0 0
0.0406766 0.0137645 0.413763 255 0 0
0.0975612 -0.0012734 0.535127 255 0 0
-0.0163844 0.110264 0.755007 255 0 0
-0.162551 -0.129419 0.722 255 0 0
-0.129726 0.00485705 0.806595 255 0 0
-0.00318044 0.0669053 0.613962 255 0 0
0.143961 -0.137581 0.672864 255 0 0
0.0791114 -0.129378 0.704581 255 0 0
0.104139 -0.110748 0.699883 255 0 0
-0.0764803 0.151282 0.768654 255 0 0
-0.137662 0.0165277 0.804149 255 0 0
-0.0410754 -0.121867 0.708931 255 0 0
0.101842 -0.121696 0.734213 255 0 0
0.127638 -0.0670025 0.582698 255 0 0
0.0501478 -0.148306 0.715682 255 0 0
0.0391446 -0.074857 0.642739 255 0 0
0.0937832 -0.0897003 0.691413 255 0 0
0.0941781 0.0979447 0.54175 255 0 0
-0.1761 -0.108152 0.712838 255 0 0
-0.0404562 -0.120956 0.704453 255 0 0
-0.0756387 0.059993 0.609286 255 0 0
0.0448242 0.00205047 0.433029 255 0 0
0.143447 -0.136894 0.671269 255 0 0
0.0210448 -0.0760331 0.677284 255 0 0
0.124037 0.11855 0.752539 255 0 0
-0.167302 0.0603293 0.77489 255 0 0
-0.139476 0.0157386 0.802321 255 0 0
0.0768284 0.114442 0.538837 255 0 0
0.113392 -0.00292582 0.443548 255 0 0
-0.0752997 0.0594608 0.609883 255 0 0
-0.137801 0.0156733 0.801183 255 0 0
-0.169071 -0.128957 0.725633 255 0 0
0.00259484 0.00107395 0.422593 255 0 0
-0.0944556 0.111425 0.712476 255 0 0
0.087681 -0.026315 0.474948 255 0 0
0.0711209 -0.121808 0.712724 255 0 0
0.0318297 0.107965 0.570918 255 0 0
0.0232749 -0.0788934 0.707388 255 0 0
-0.190585 -0.083005 0.714472 255 0 0
-0.0760498 0.149044 0.765061 255 0 0
0.00325711 0.00052704 0.422649 255 0 0
-0.00273199 0.0653727 0.609771 255 0 0
-0.0871728 0.119966 0.728825 255 0 0
-0.0934862 0.110364 0.70771 255 0 0
0.089581 -0.0251748 0.477938 255 0 0
0.104007 -0.117412 0.728723 255 0 0
0.0718823 -0.121544 0.709164 255 0 0
0.116633 0.0411998 0.434565 255 0 0
0.146358 -0.101974 0.646966 255 0 0
-0.164163 0.0558891 0.770289 255 0 0
0.0628918 -0.0824559 0.659099 255 0 0
-0.0941401 0.109786 0.710133 255 0 0
-0.135961 0.00268447 0.845744 255 0 0
-0.171806 -0.115206 0.711038 255 0 0
-0.169048 -0.128726 0.721408 255 0 0
-0.00397226 0.0639568 0.609477 255 0 0
0.0873644 -0.0245899 0.472658 255 0 0
0.0392034 0.0195316 0.405226 255 0 0
0.0460521 0.000640433 0.436738 255 0 0
0.14112 0.0839382 0.485132 255 0 0
0.116507 0.0416521 0.434099 255 0 0
0.113745 -0.00168063 0.443755 255 0 0
0.0457603 0.000135758 0.437093 255 0 0
0.101771 -0.0239013 0.469822 255 0 0
0.0874047 -0.0229075 0.474448 255 0 0
0.130983 -0.0961957 0.668855 255 0 0
0.147538 -0.104616 0.648977 255 0 0
0.141434 0.0834948 0.486942 255 0 0
0.101557 -0.11451 0.70639 255 0 0
-0.191507 -0.0855801 0.719431 255 0 0
0.0303458 0.107804 0.578192 255 0 0
0.158588 -0.097227 0.597287 255 0 0
0.160455 -0.0969288 0.593912 255 0 0
0.15758 -0.0963554 0.588746 255 0 0
0.181182 -0.11274 0.596083 255 0 0
0.18017 -0.112379 0.599962 255 0 0
0.187588 -0.129311 0.611528 255 0 0
0.186453 -0.128632 0.608115 255 0 0
0.179387 -0.113215 0.604024 255 0 0
0.190641 -0.133868 0.60941 255 0 0
0.187334 -0.129475 0.607452 255 0 0
0.183606 -0.123199 0.619744 255 0 0
0.189209 -0.137616 0.611905 255 0 0
0.072722 -0.0702531 0.629441 255 0 0
0.106055 -0.0368501 0.480739 255 0 0
0.179405 -0.121896 0.629846 255 0 0
0.176435 -0.124246 0.641743 255 0 0
0.112632 -0.189345 0.647023 255 0 0
0.0760699 -0.188055 0.658137 255 0 0
0.0911438 -0.180372 0.664696 255 0 0
0.0881555 -0.184081 0.676052 255 0 0
0.13826 -0.149747 0.668552 255 0 0
0.137318 -0.151103 0.668623 255 0 0
0.048835 -0.191311 0.669358 255 0 0
0.115865 0.0434576 0.428622 255 0 0
-0.00868931 -0.00454421 0.47022 255 0 0
-0.027796 -0.0106461 0.466216 255 0 0
0.0619427 -0.0218868 0.474434 255 0 0
0.106403 -0.0383197 0.483393 255 0 0
-0.00479292 -0.0182935 0.487044 255 0 0
0.00851356 -0.0239204 0.492331 255 0 0
0.0300996 -0.0346031 0.502554 255 0 0
0.035378 -0.0330874 0.503352 255 0 0
0.038399 -0.0355599 0.50672 255 0 0
0.0379062 -0.0351661 0.507213 255 0 0
0.139156 -0.0599825 0.559802 255 0 0
0.134602 -0.0567848 0.558443 255 0 0
0.134013 -0.0583131 0.559769 255 0 0
0.137319 -0.0631195 0.562728 255 0 0
0.137378 -0.065511 0.563393 255 0 0
0.152976 -0.0911298 0.587867 255 0 0
0.150297 -0.0902427 0.578251 255 0 0
0.151791 -0.0920552 0.58454 255 0 0
0.12585 -0.0656609 0.581885 255 0 0
0.178578 -0.106808 0.567249 255 0 0
0.110503 -0.0642198 0.577123 255 0 0
0.146526 -0.138048 0.670106 255 0 0
-0.056086 -0.178382 0.684869 255 0 0
-0.105515 -0.0448922 0.693218 255 0 0
-0.105357 -0.0469532 0.695282 255 0 0
-0.0982876 -0.066914 0.717104 255 0 0
-0.0861132 -0.163877 0.695622 255 0 0
0.00826092 -0.177902 0.691473 255 0 0
0.0494442 -0.152438 0.703499 255 0 0
0.0458777 -0.154995 0.715491 255 0 0
0.0432716 -0.156458 0.721251 255 0 0
0.00968753 -0.178228 0.693733 255 0 0
-0.000589484 -0.125011 0.682765 255 0 0
0.00669553 -0.10587 0.719257 255 0 0
0.10881 -0.117176 0.719435 255 0 0
0.0704845 -0.120346 0.706432 255 0 0
0.0979785 -0.120788 0.718317 255 0 0
-0.166149 -0.129203 0.720981 255 0 0
0.0193916 -0.106522 0.741993 255 0 0
0.140165 -0.130657 0.713066 255 0 0
0.0843186 -0.12848 0.7226 255 0 0
0.210884 -0.103039 0.542265 255 0 0
0.0717676 -0.0423997 0.529305 255 0 0
0.0730047 -0.0424146 0.531518 255 0 0
0.0507246 -0.0544888 0.553023 255 0 0
0.0508817 -0.225603 0.556443 255 0 0
0.221652 -0.144268 0.568857 255 0 0
0.0352065 -0.0480025 0.586221 255 0 0
0.254629 -0.125438 0.51145 255 0 0
0.122175 -0.15726 0.671168 255 0 0
0.123291 -0.15708 0.668705 255 0 0
0.121042 -0.156642 0.675266 255 0 0
0.0996945 -0.158262 0.677385 255 0 0
0.0886787 -0.0836174 0.68786 255 0 0
0.0887685 -0.0843825 0.687321 255 0 0
0.0895499 -0.0849643 0.684729 255 0 0
0.0696603 -0.0828715 0.699988 255 0 0
0.362953 -0.251087 0.830442 255 0 0
0.239338 -0.282166 0.810657 255 0 0
0.363522 -0.244531 0.854084 255 0 0
0.303011 -0.213793 0.815708 255 0 0
0.237828 -0.280945 0.80869 255 0 0
0.357236 -0.242027 0.826034 255 0 0
-0.054803 0.00270228 0.450196 255 0 0
-0.00516911 -0.186357 0.687225 255 0 0
0.0954524 -0.165598 0.682375 255 0 0
-0.0888797 -0.161027 0.699311 255 0 0
0.039039 -0.168086 0.697296 255 0 0
0.0411285 -0.172238 0.699203 255 0 0
0.0163871 -0.176268 0.694607 255 0 0
-0.175109 -0.119179 0.731149 255 0 0
0.00608864 -0.104097 0.713701 255 0 0
0.140747 -0.132344 0.714024 255 0 0
-0.0620068 0.116936 0.733173 255 0 0
0.252133 -0.0818305 0.740662 255 0 0
0.122337 0.117765 0.761741 255 0 0
-0.0831574 -0.0105592 0.804951 255 0 0
-0.128611 0.00612455 0.803517 255 0 0
0.305464 -0.222817 0.815015 255 0 0
0.30209 -0.250604 0.815952 255 0 0
0.311834 -0.202503 0.81947 255 0 0
-0.0923671 0.0829571 0.678236 255 0 0
0.0490032 -0.19171 0.671111 255 0 0
0.136588 -0.150849 0.668381 255 0 0
0.136033 -0.152566 0.672867 255 0 0
-0.0920115 0.0816608 0.676566 255 0 0
0.189813 -0.176027 0.671714 255 0 0
0.137696 -0.149854 0.669277 255 0 0
0.12176 -0.166744 0.669495 255 0 0
0.0425255 -0.192287 0.668535 255 0 0
0.0419756 -0.190734 0.667282 255 0 0
0.143008 -0.137236 0.674984 255 0 0
0.139584 -0.134193 0.653219 255 0 0
0.0868348 -0.171952 0.671405 255 0 0
-0.066675 0.0608295 0.613803 255 0 0
0.148962 -0.0927533 0.596421 255 0 0
0.179176 -0.111407 0.596109 255 0 0
0.199827 -0.138425 0.646277 255 0 0
0.18727 -0.128537 0.609934 255 0 0
0.191351 -0.132176 0.616866 255 0 0
0.0763492 -0.0694936 0.62217 255 0 0
0.0779104 -0.0674452 0.619677 255 0 0
0.0783513 -0.0695088 0.632976 255 0 0
0.0760244 -0.0708826 0.637337 255 0 0
0.115728 0.0424626 0.428978 255 0 0
0.0066313 -0.177919 0.698802 255 0 0
0.00634199 -0.177092 0.695424 255 0 0
0.0393035 -0.168139 0.696268 255 0 0
-0.12184 0.120413 0.708343 255 0 0
-0.12232 0.120207 0.710265 255 0 0
0.0102546 -0.182499 0.687404 255 0 0
0.0396836 -0.172101 0.708054 255 0 0
0.0396634 -0.170471 0.698266 255 0 0
0.0397089 -0.170145 0.698592 255 0 0
0.00703157 -0.176599 0.693137 255 0 0
0.0415924 -0.175259 0.699062 255 0 0
0.0412872 -0.175273 0.700193 255 0 0
0.0415117 -0.175072 0.699284 255 0 0
0.0409753 -0.173929 0.698199 255 0 0
0.0402167 -0.172876 0.700132 255 0 0
0.092223 -0.0893373 0.696215 255 0 0
0.0404098 -0.155006 0.701598 255 0 0
-0.122402 0.121016 0.710296 255 0 0
0.0143866 -0.183445 0.729669 255 0 0
0.0065899 -0.123738 0.706476 255 0 0
-0.0964499 0.114474 0.716156 255 0 0
0.0781037 -0.129298 0.704665 255 0 0
0.00556841 -0.121551 0.696841 255 0 0
-0.174046 -0.108223 0.710447 255 0 0
0.0794261 -0.13052 0.71529 255 0 0
0.00193261 -0.13031 0.712484 255 0 0
-0.165232 -0.125367 0.723389 255 0 0
-0.163038 -0.127525 0.722602 255 0 0
0.127254 -0.168165 0.784111 255 0 0
0.141885 0.0780353 0.715837 255 0 0
-0.189895 -0.0823011 0.711381 255 0 0
0.110656 -0.1112 0.708137 255 0 0
-0.107609 -0.0125271 0.820888 255 0 0
-0.0762295 -0.0284977 0.817815 255 0 0
0.158584 -0.291634 0.789765 255 0 0
0.200087 -0.29831 0.806007 255 0 0
0.16201 -0.300866 0.821658 255 0 0
0.147968 -0.299571 0.803558 255 0 0
0.147093 -0.294633 0.790607 255 0 0
0.148836 -0.292019 0.785215 255 0 0
0.150673 -0.29724 0.798295 255 0 0
0.150986 -0.291916 0.787699 255 0 0
0.200902 -0.302293 0.805588 255 0 0
0.229617 -0.327228 0.799857 255 0 0
0.221666 -0.332537 0.801067 255 0 0
0.222132 -0.332471 0.801754 255 0 0
0.174913 -0.315321 0.804659 255 0 0
-0.0581799 -0.0361144 0.778502 255 0 0
0.214425 -0.308027 0.798684 255 0 0
0.337051 -0.394008 0.95917 255 0 0
0.119633 -0.0972955 0.695308 255 0 0
-0.122075 -0.18377 0.667637 255 0 0
-0.124574 -0.184101 0.671628 255 0 0
-0.105078 -0.052908 0.691628 255 0 0
0.0528335 -0.149052 0.715597 255 0 0
0.00894528 -0.181789 0.694132 255 0 0
0.0707462 -0.120824 0.709385 255 0 0
0.00829083 -0.181615 0.712749 255 0 0
0.00438086 -0.180056 0.715524 255 0 0
-0.0866401 -0.175971 0.681981 255 0 0
-0.0866725 -0.176236 0.683033 255 0 0
-0.0943078 -0.176494 0.690751 255 0 0
0.00833602 -0.17878 0.697444 255 0 0
-0.0958004 -0.176269 0.693574 255 0 0
-0.0932908 -0.176214 0.689198 255 0 0
-0.0966686 -0.175543 0.694863 255 0 0
0.0168949 -0.175791 0.676385 255 0 0
-0.169994 -0.128444 0.721655 255 0 0
0.169769 -0.235938 0.767851 255 0 0
0.170331 -0.237657 0.768585 255 0 0
0.171366 -0.239808 0.769043 255 0 0
0.0889321 -0.0995587 0.730113 255 0 0
-0.158714 -0.128543 0.705587 255 0 0
0.141584 0.0962698 0.723067 255 0 0
-0.157451 -0.134417 0.705676 255 0 0
-0.0705279 -0.0734514 0.726236 255 0 0
-0.168767 -0.130987 0.723455 255 0 0
-0.164146 -0.135045 0.726837 255 0 0
-0.167348 -0.129256 0.721565 255 0 0
-0.166374 -0.12528 0.718987 255 0 0
-0.0224944 0.103928 0.732335 255 0 0
-0.0222573 0.104659 0.734399 255 0 0
-0.164384 -0.137072 0.727765 255 0 0
0.123672 0.120724 0.740786 255 0 0
0.140593 0.099956 0.769821 255 0 0
0.138856 0.099164 0.769563 255 0 0
0.138029 0.0976056 0.769898 255 0 0
0.141967 0.0985617 0.772252 255 0 0
-0.168479 0.0629259 0.777492 255 0 0
0.134325 0.0884487 0.781042 255 0 0
0.104235 0.0673131 0.778776 255 0 0
0.107216 0.0677389 0.79496 255 0 0
0.185167 -0.202893 0.781834 255 0 0
0.185985 -0.204103 0.782313 255 0 0
0.195848 -0.21826 0.785247 255 0 0
0.212077 -0.222149 0.783631 255 0 0
0.205194 -0.213725 0.786589 255 0 0
0.210183 -0.218043 0.810268 255 0 0
0.203632 -0.227829 0.787926 255 0 0
0.204424 -0.228641 0.789299 255 0 0
0.207988 -0.209738 0.787109 255 0 0
0.207895 -0.233996 0.78812 255 0 0
-0.128025 0.00963117 0.804351 255 0 0
-0.127469 -0.00607812 0.845246 255 0 0
-0.104887 -0.0138431 0.813467 255 0 0
-0.106044 -0.0132275 0.817006 255 0 0
0.301959 -0.209982 0.81731 255 0 0
0.300664 -0.220447 0.818221 255 0 0
0.302652 -0.212062 0.817168 255 0 0
0.304974 -0.22364 0.815128 255 0 0
0.302438 -0.211237 0.817108 255 0 0
0.309229 -0.216968 0.813478 255 0 0
0.301192 -0.209663 0.819008 255 0 0
0.303243 -0.212451 0.816598 255 0 0
0.136893 -0.151154 0.673897 255 0 0
0.141819 -0.136901 0.671393 255 0 0
0.117914 -0.159747 0.669128 255 0 0
0.053626 -0.189925 0.663145 255 0 0
-0.0283853 -0.192193 0.643648 255 0 0
0.0800565 -0.0719841 0.623756 255 0 0
0.0383231 -0.0573928 0.625039 255 0 0
0.0325909 -0.0553782 0.631158 255 0 0
0.0383632 -0.057544 0.622044 255 0 0
0.181835 -0.125257 0.628104 255 0 0
0.0210241 -0.204979 0.646952 255 0 0
0.0211774 -0.203596 0.636611 255 0 0
0.0538322 -0.206186 0.634184 255 0 0
-0.0425964 -0.206789 0.643055 255 0 0
0.0877937 -0.0782296 0.650713 255 0 0
-0.0421059 -0.207363 0.642278 255 0 0
-0.0447445 -0.208929 0.644969 255 0 0
0.196414 -0.145811 0.617968 255 0 0
0.199332 -0.147112 0.622378 255 0 0
0.0686754 -0.202037 0.644086 255 0 0
0.0664558 -0.197048 0.613567 255 0 0
0.127548 -0.0211667 0.523917 255 0 0
0.12741 -0.0214493 0.525618 255 0 0
0.180366 -0.0885901 0.537227 255 0 0
0.198668 -0.0987543 0.549485 255 0 0
0.198475 -0.0994269 0.547676 255 0 0
0.198121 -0.0999956 0.556538 255 0 0
0.0920996 -0.0501296 0.531398 255 0 0
0.0426903 -0.0520116 0.552943 255 0 0
0.187693 -0.209421 0.831571 255 0 0
0.188427 -0.206522 0.785629 255 0 0
-0.0561268 -0.0493117 0.781432 255 0 0
0.200097 -0.245063 0.797325 255 0 0
0.201652 -0.250441 0.79251 255 0 0
0.174575 -0.371646 0.77515 255 0 0
0.167078 -0.371569 0.771912 255 0 0
0.167071 -0.370679 0.771672 255 0 0
0.15865 -0.292675 0.786431 255 0 0
0.199473 -0.276536 0.798764 255 0 0
0.243539 -0.280017 0.801223 255 0 0
0.164172 -0.314552 0.801051 255 0 0
0.164733 -0.309147 0.78161 255 0 0
0.248242 -0.329442 0.802786 255 0 0
0.200216 -0.285985 0.803175 255 0 0
0.200584 -0.285568 0.803684 255 0 0
0.200775 -0.2836 0.79871 255 0 0
0.213962 -0.373904 0.794955 255 0 0
0.238317 -0.282097 0.812605 255 0 0
0.213364 -0.374545 0.79752 255 0 0
0.161464 -0.285056 0.765926 255 0 0
0.111329 -0.297742 0.79685 255 0 0
0.115286 -0.309744 0.793408 255 0 0
0.160931 -0.282593 0.763999 255 0 0
0.114117 -0.310386 0.798122 255 0 0
0.215421 -0.308959 0.800085 255 0 0
0.114364 -0.311161 0.794882 255 0 0
0.22033 -0.331288 0.791752 255 0 0
0.211973 -0.306938 0.8037 255 0 0
0.219018 -0.332779 0.793963 255 0 0
0.218439 -0.335514 0.800679 255 0 0
0.216841 -0.337234 0.807552 255 0 0
0.212479 -0.33153 0.78162 255 0 0
0.140182 -0.293622 0.800975 255 0 0
-0.00227274 -0.343389 0.782257 255 0 0
-0.0022026 -0.343771 0.781954 255 0 0
0.0147495 -0.315101 0.78702 255 0 0
0.291005 -0.245062 0.819871 255 0 0
-0.0041037 -0.346059 0.788766 255 0 0
0.300019 -0.310776 0.828102 255 0 0
0.00153774 -0.332412 0.796585 255 0 0
0.0531379 -0.0354652 0.513056 255 0 0
0.0549824 -0.0363399 0.511039 255 0 0
0.12225 -0.0212796 0.528208 255 0 0
-0.0381634 -0.0252472 0.509704 255 0 0
0.234142 -0.117784 0.510965 255 0 0
0.234321 -0.118433 0.508112 255 0 0
0.234021 -0.118842 0.509915 255 0 0
0.196592 -0.0185248 0.515425 255 0 0
0.232299 -0.118581 0.514921 255 0 0
0.196199 -0.0937782 0.542487 255 0 0
0.19833 -0.0981028 0.55328 255 0 0
0.198776 -0.0991462 0.556 255 0 0
0.0992263 -0.0479039 0.498833 255 0 0
0.0989767 -0.0485782 0.505169 255 0 0
-0.0367329 -0.0265111 0.512545 255 0 0
0.0511069 -0.0349378 0.525265 255 0 0
0.234387 -0.252193 0.76169 255 0 0
0.218104 -0.207776 0.776466 255 0 0
0.186283 -0.204683 0.783808 255 0 0
0.137145 -0.26541 0.789353 255 0 0
0.116167 -0.253238 0.762985 255 0 0
-0.0618487 -0.0483327 0.795443 255 0 0
-0.080752 -0.0123251 0.803689 255 0 0
0.159877 -0.307309 0.783507 255 0 0
0.153186 -0.305914 0.784409 255 0 0
0.152146 -0.305484 0.779074 255 0 0
0.154212 -0.306871 0.789391 255 0 0
0.195026 -0.297927 0.797867 255 0 0
0.194836 -0.297323 0.795767 255 0 0
0.194442 -0.297114 0.795947 255 0 0
0.154873 -0.297763 0.784251 255 0 0
0.0943797 -0.0913791 0.701551 255 0 0
0.0941161 -0.0917728 0.701696 255 0 0
0.152959 -0.123258 0.714179 255 0 0
0.0903118 -0.124134 0.726317 255 0 0
0.419396 -0.219745 0.853137 255 0 0
0.132734 -0.233001 0.756117 255 0 0
0.417362 -0.227988 0.849998 255 0 0
0.415159 -0.228387 0.855515 255 0 0
0.415285 -0.229555 0.852721 255 0 0
0.415734 -0.233871 0.853264 255 0 0
0.322686 -0.295684 0.81183 255 0 0
0.169234 -0.235854 0.769531 255 0 0
0.170116 -0.237025 0.769008 255 0 0
0.245938 -0.387054 0.793905 255 0 0
0.0760619 -0.069074 0.63532 255 0 0
0.0772385 -0.0686709 0.627618 255 0 0
0.0848005 -0.0725763 0.641537 255 0 0
0.0865775 -0.0732875 0.633597 255 0 0
0.0895552 -0.0736519 0.620807 255 0 0
0.08798 -0.0758528 0.637622 255 0 0
0.565464 -0.161511 0.709699 255 0 0
0.568081 -0.161364 0.702997 255 0 0
0.540145 -0.158523 0.700289 255 0 0
0.489758 -0.141667 0.707886 255 0 0
0.483106 -0.138512 0.718674 255 0 0
0.497558 -0.147226 0.701696 255 0 0
0.497643 -0.147474 0.698591 255 0 0
0.491583 -0.143521 0.70264 255 0 0
0.136526 -0.230445 0.600172 255 0 0
0.347804 -0.0611235 0.680946 255 0 0
0.347289 -0.0612823 0.699294 255 0 0
0.122584 -0.164984 0.704588 255 0 0
0.0895633 -0.0521812 0.554693 255 0 0
0.0900338 -0.182496 0.657171 255 0 0
0.145634 -0.137405 0.679354 255 0 0
0.141782 -0.135651 0.678432 255 0 0
-0.174287 -0.256921 0.643486 255 0 0
-0.030317 -0.191281 0.640739 255 0 0
-0.161337 -0.251858 0.624113 255 0 0
0.0542775 -0.188298 0.65208 255 0 0
-0.129515 -0.240469 0.638566 255 0 0
-0.101857 -0.225471 0.632084 255 0 0
-0.0984105 -0.214985 0.643992 255 0 0
-0.103512 -0.217217 0.650567 255 0 0
0.100317 -0.0174087 0.466588 255 0 0
0.198605 -0.100732 0.562324 255 0 0
0.197431 -0.0963369 0.556094 255 0 0
0.021045 -0.0556063 0.635507 255 0 0
0.0527881 -0.206433 0.639887 255 0 0
0.0564294 -0.205419 0.631455 255 0 0
0.059314 -0.204561 0.629553 255 0 0
0.0606337 -0.203396 0.639257 255 0 0
0.0599334 -0.203603 0.637921 255 0 0
0.0204585 -0.203795 0.637292 255 0 0
0.179118 -0.296289 0.79635 255 0 0
0.364489 -0.23966 0.839695 255 0 0
0.285898 0.0353862 0.835913 255 0 0
0.285297 0.0356277 0.836957 255 0 0
0.286063 0.035881 0.835659 255 0 0
0.314199 -0.319151 0.839373 255 0 0
0.313826 -0.317222 0.834597 255 0 0
0.148508 -0.155199 0.822217 255 0 0
0.14631 -0.154944 0.826994 255 0 0
0.14526 -0.155616 0.826771 255 0 0
0.146524 -0.160568 0.820967 255 0 0
0.357558 -0.306027 0.865418 255 0 0
0.357573 -0.304301 0.863196 255 0 0
0.35787 -0.304518 0.86548 255 0 0
0.357978 -0.302393 0.854061 255 0 0
0.358799 -0.304115 0.861199 255 0 0
0.321511 -0.353204 0.935575 255 0 0
0.335621 -0.343425 0.890627 255 0 0
0.372079 -0.357777 0.911085 255 0 0
0.373707 -0.356052 0.903459 255 0 0
0.374948 -0.357432 0.908241 255 0 0
0.375879 -0.357424 0.907747 255 0 0
0.222665 -0.105445 0.524001 255 0 0
0.220358 -0.103948 0.531041 255 0 0
0.21907 -0.102986 0.534268 255 0 0
0.0871324 -0.0539498 0.545106 255 0 0
0.0863717 -0.0537369 0.555464 255 0 0
0.1252 -0.0623859 0.578272 255 0 0
0.240962 -0.24809 0.771076 255 0 0
0.237899 -0.255156 0.778643 255 0 0
0.238805 -0.25043 0.768601 255 0 0
0.236907 -0.249158 0.760707 255 0 0
0.236612 -0.249729 0.760711 255 0 0
-0.127762 0.00645782 0.79973 255 0 0
0.185923 -0.203484 0.773764 255 0 0
-0.0806037 -0.0110071 0.803268 255 0 0
-0.0761416 -0.0293937 0.815755 255 0 0
-0.0981208 -0.0200129 0.809346 255 0 0
0.224851 -0.253531 0.79785 255 0 0
0.225839 -0.283815 0.811102 255 0 0
0.225954 -0.288188 0.808294 255 0 0
0.226219 -0.28983 0.811738 255 0 0
0.32569 -0.222161 0.817239 255 0 0
0.326932 -0.238973 0.831982 255 0 0
0.293078 -0.270854 0.81772 255 0 0
0.324591 -0.302608 0.82469 255 0 0
0.0546789 -0.205886 0.631361 255 0 0
0.0202732 -0.204122 0.642646 255 0 0
0.0206109 -0.203864 0.639319 255 0 0
0.0206839 -0.203558 0.637242 255 0 0
0.021764 -0.203176 0.637967 255 0 0
-0.17114 -0.256421 0.634987 255 0 0
0.0249576 -0.202286 0.642763 255 0 0
-0.0412826 -0.20683 0.640709 255 0 0
-0.14343 -0.244973 0.637776 255 0 0
-0.129569 -0.23953 0.641819 255 0 0
-0.125734 -0.238658 0.640993 255 0 0
-0.00194454 -0.0268601 0.501348 255 0 0
0.000887293 -0.0272416 0.499822 255 0 0
-0.00211987 -0.0261795 0.509082 255 0 0
-0.004034 -0.0262043 0.506912 255 0 0
0.181973 -0.0873278 0.531741 255 0 0
0.0590599 -0.0337424 0.487288 255 0 0
0.0622779 -0.0346544 0.482726 255 0 0
0.0627019 -0.0347114 0.480394 255 0 0
0.127811 0.0428335 0.508416 255 0 0
0.142037 0.0137899 0.514369 255 0 0
0.14004 0.0137302 0.508598 255 0 0
0.0237543 -0.0466406 0.530026 255 0 0
0.0998635 -0.00510921 0.541191 255 0 0
-0.0156027 -0.35513 0.797954 255 0 0
0.268109 -0.364573 0.864999 255 0 0
0.335942 -0.391566 0.955727 255 0 0
0.0410437 -0.0584565 0.622899 255 0 0
0.0483865 -0.0615544 0.616721 255 0 0
0.0557308 -0.205774 0.631653 255 0 0
0.0539761 -0.206537 0.635283 255 0 0
0.0608941 -0.2047 0.627604 255 0 0
0.059781 -0.0820479 0.648386 255 0 0
0.0796687 -0.191078 0.64897 255 0 0
0.0909851 -0.182234 0.658099 255 0 0
0.0919386 -0.1846 0.646077 255 0 0
0.0828986 -0.185079 0.659815 255 0 0
0.190365 -0.208493 0.685907 255 0 0
0.190767 -0.207931 0.685123 255 0 0
0.143683 -0.136905 0.675001 255 0 0
0.156431 -0.126392 0.7121 255 0 0
0.156119 -0.129159 0.709553 255 0 0
0.156041 -0.133761 0.722755 255 0 0
0.0764994 -0.134994 0.728714 255 0 0
0.156605 -0.131716 0.723007 255 0 0
0.157164 -0.132356 0.717963 255 0 0
0.15826 -0.132249 0.71711 255 0 0
0.0717863 -0.120713 0.716253 255 0 0
0.112581 -0.0179503 0.461651 255 0 0
0.181113 -0.11059 0.590396 255 0 0
0.115969 -0.0665029 0.605684 255 0 0
0.115639 -0.0670216 0.608182 255 0 0
0.116343 -0.0673157 0.610797 255 0 0
0.115693 -0.0669377 0.598234 255 0 0
0.0701749 -0.0595163 0.588508 255 0 0
-0.0840987 -0.211359 0.61912 255 0 0
-0.115889 -0.241429 0.60671 255 0 0
-0.115129 -0.241047 0.604218 255 0 0
-0.115887 -0.241109 0.604003 255 0 0
0.192302 -0.143361 0.610561 255 0 0
0.232499 -0.144226 0.608234 255 0 0
0.216015 -0.151324 0.623943 255 0 0
0.0506543 -0.226231 0.556264 255 0 0
0.050512 -0.225497 0.558887 255 0 0
0.0665658 -0.0571919 0.606531 255 0 0
-0.0935643 -0.176817 0.690211 255 0 0
0.170789 -0.240923 0.771139 255 0 0
0.34926 -0.250823 0.806672 255 0 0
0.209134 -0.209268 0.78599 255 0 0
0.213971 -0.222218 0.777567 255 0 0
0.208887 -0.209628 0.787311 255 0 0
0.206371 -0.209183 0.782221 255 0 0
0.342066 -0.24687 0.824987 255 0 0
0.340499 -0.245363 0.815817 255 0 0
0.337585 -0.238728 0.787079 255 0 0
0.21952 -0.250521 0.793443 255 0 0
0.20023 -0.244941 0.796785 255 0 0
0.200417 -0.244421 0.795972 255 0 0
0.238885 -0.280934 0.810763 255 0 0
0.0579974 -0.0326582 0.492782 255 0 0
0.0785068 -0.0401654 0.502531 255 0 0
0.235225 -0.122593 0.527278 255 0 0
0.0313435 -0.032715 0.502787 255 0 0
0.191777 -0.0768339 0.514746 255 0 0
0.0307434 -0.0330605 0.502115 255 0 0
0.085012 -0.183988 0.661124 255 0 0
0.0864232 -0.183925 0.655367 255 0 0
0.0928028 -0.181406 0.654769 255 0 0
0.0865033 -0.183248 0.660664 255 0 0
0.143164 -0.136908 0.675623 255 0 0
0.143662 -0.136624 0.672503 255 0 0
0.0978869 -0.178539 0.665718 255 0 0
0.135776 -0.150795 0.675923 255 0 0
0.0980849 -0.158092 0.681356 255 0 0
0.0976186 -0.15978 0.675254 255 0 0
0.0930142 -0.156754 0.691047 255 0 0
0.124308 -0.0939802 0.689067 255 0 0
-0.043536 -0.192917 0.665204 255 0 0
-0.0421525 -0.193038 0.662921 255 0 0
0.0798353 -0.133787 0.715339 255 0 0
0.0655143 -0.150072 0.703958 255 0 0
0.106574 -0.120259 0.711961 255 0 0
0.0425106 -0.173428 0.69797 255 0 0
0.0433168 -0.171304 0.691618 255 0 0
0.0415666 -0.174566 0.697993 255 0 0
0.00678942 -0.178467 0.694217 255 0 0
0.00876926 -0.177217 0.691271 255 0 0
0.0177317 -0.174871 0.691367 255 0 0
0.0168116 -0.176443 0.696173 255 0 0
0.0906611 -0.125192 0.724678 255 0 0
0.0165441 -0.17865 0.696781 255 0 0
-0.171237 -0.116611 0.715551 255 0 0
0.23762 -0.253417 0.782161 255 0 0
0.240413 -0.248685 0.764576 255 0 0
0.240675 -0.250394 0.779462 255 0 0
0.213672 -0.223153 0.792887 255 0 0
0.212966 -0.224915 0.801176 255 0 0
0.224443 -0.251035 0.791777 255 0 0
0.215801 -0.245266 0.792347 255 0 0
0.219425 -0.249386 0.794693 255 0 0
0.219333 -0.250284 0.79408 255 0 0
0.218863 -0.249632 0.789614 255 0 0
0.314721 -0.272324 0.81031 255 0 0
0.31397 -0.271435 0.809225 255 0 0
0.305967 -0.222844 0.81357 255 0 0
0.143041 -0.284755 0.779599 255 0 0
0.302181 -0.211293 0.816087 255 0 0
0.308184 -0.267907 0.815011 255 0 0
0.275665 -0.313636 0.80686 255 0 0
0.309031 -0.268336 0.813692 255 0 0
0.266535 -0.320442 0.803789 255 0 0
0.305934 -0.264444 0.817222 255 0 0
0.0762375 -0.0373549 0.507108 255 0 0
-0.0375961 -0.245804 0.533162 255 0 0
-0.0361957 -0.245471 0.532561 255 0 0
-0.0359612 -0.245173 0.530604 255 0 0
-0.0355911 -0.245017 0.531676 255 0 0
-0.0366726 -0.245715 0.537584 255 0 0
0.0698496 -0.0591336 0.606948 255 0 0
0.0534718 -0.206209 0.633114 255 0 0
0.11095 -0.0785812 0.658336 255 0 0
0.0220667 -0.204219 0.636683 255 0 0
0.020508 -0.203737 0.638443 255 0 0
0.0212504 -0.20395 0.638274 255 0 0
0.347021 -0.23483 0.809278 255 0 0
0.161359 -0.361902 0.786103 255 0 0
0.138645 -0.259564 0.767508 255 0 0
0.152115 -0.289392 0.774539 255 0 0
0.208262 -0.20894 0.787705 255 0 0
0.144571 -0.274638 0.775079 255 0 0
0.145625 -0.289755 0.785918 255 0 0
0.324937 -0.223074 0.818267 255 0 0
0.370825 -0.253948 0.834255 255 0 0
0.311607 -0.269123 0.810412 255 0 0
0.370764 -0.253583 0.833465 255 0 0
0.142575 -0.276725 0.790894 255 0 0
0.315371 -0.284181 0.812924 255 0 0
0.149931 -0.287139 0.806542 255 0 0
0.231203 -0.345075 0.791365 255 0 0
0.2293 -0.345208 0.803743 255 0 0
0.200191 -0.247027 0.800035 255 0 0
0.243503 -0.332834 0.801535 255 0 0
0.152324 -0.283997 0.788836 255 0 0
0.200859 -0.249017 0.798544 255 0 0
0.227427 -0.280186 0.802767 255 0 0
0.300763 -0.246879 0.818059 255 0 0
0.298723 -0.249619 0.822685 255 0 0
0.203257 -0.253494 0.792609 255 0 0
0.160828 -0.319988 0.820135 255 0 0
0.211828 -0.295133 0.80237 255 0 0
0.126996 -0.265451 0.786229 255 0 0
0.292254 -0.269342 0.814297 255 0 0
0.244555 -0.0828125 0.500841 255 0 0
0.0911663 -0.0749727 0.637314 255 0 0
0.279303 -0.263067 0.821484 255 0 0
0.167779 -0.269122 0.790355 255 0 0
0.216112 -0.312881 0.805489 255 0 0
0.299725 -0.310727 0.828317 255 0 0
0.341313 -0.260937 0.838745 255 0 0
0.270326 0.0162081 0.828112 255 0 0
0.164289 -0.315394 0.801983 255 0 0
0.340718 -0.260609 0.839965 255 0 0
0.340076 -0.261051 0.840274 255 0 0
0.326575 -0.311313 0.835728 255 0 0
0.340385 -0.261104 0.840561 255 0 0
0.323908 -0.317076 0.843898 255 0 0
0.30363 -0.330169 0.883573 255 0 0
0.112842 -0.273813 0.793956 255 0 0
0.326245 -0.318262 0.840914 255 0 0
0.0223587 -0.308407 0.788695 255 0 0
0.0233361 -0.307725 0.788172 255 0 0
0.0219309 -0.308782 0.78837 255 0 0
0.0249637 -0.308652 0.782732 255 0 0
0.0131108 -0.315925 0.79017 255 0 0
0.0155333 -0.314546 0.786397 255 0 0
0.257088 -0.291256 0.835334 255 0 0
0.257686 -0.293927 0.842196 255 0 0
0.258707 -0.290897 0.830563 255 0 0
0.286709 -0.344739 0.845362 255 0 0
0.407129 -0.301585 0.887118 255 0 0
0.253677 -0.37237 0.85953 255 0 0
0.332471 -0.345288 0.906119 255 0 0
0.0991135 -0.0770668 0.653794 255 0 0
0.0205633 -0.203223 0.638569 255 0 0
0.0756975 -0.194295 0.647248 255 0 0
0.0872351 -0.182842 0.661037 255 0 0
0.135146 -0.149302 0.671962 255 0 0
0.137729 -0.150582 0.666546 255 0 0
0.136492 -0.151552 0.667873 255 0 0
0.142293 -0.136425 0.674174 255 0 0
0.140863 -0.13574 0.67915 255 0 0
0.130186 -0.155264 0.664191 255 0 0
0.0999265 -0.178556 0.660882 255 0 0
0.100809 -0.177941 0.660177 255 0 0
0.0905066 -0.126596 0.723967 255 0 0
0.126004 -0.235319 0.763738 255 0 0
0.378919 -0.272377 0.825829 255 0 0
0.372386 -0.275475 0.817001 255 0 0
0.132259 -0.23306 0.751268 255 0 0
0.132369 -0.23313 0.750703 255 0 0
0.133112 -0.241217 0.757771 255 0 0
0.210133 -0.224838 0.796254 255 0 0
0.14226 -0.273308 0.770534 255 0 0
0.146289 -0.284902 0.774218 255 0 0
0.150298 -0.280899 0.767104 255 0 0
0.148261 -0.283073 0.784 255 0 0
0.33828 -0.245236 0.785906 255 0 0
0.144479 -0.272582 0.77448 255 0 0
0.371697 -0.252055 0.837197 255 0 0
0.367768 -0.249719 0.831485 255 0 0
0.329911 -0.228413 0.814905 255 0 0
0.233742 -0.117345 0.511414 255 0 0
0.233488 -0.11808 0.510979 255 0 0
0.233991 -0.124608 0.520783 255 0 0
0.337018 -0.344568 0.890455 255 0 0
0.37813 -0.33915 0.911776 255 0 0
0.316276 -0.342531 0.883279 255 0 0
0.378487 -0.338015 0.909141 255 0 0
0.37887 -0.337446 0.905015 255 0 0
0.394846 -0.361734 0.90247 255 0 0
0.317372 -0.343246 0.88397 255 0 0
0.318312 -0.347865 0.887484 255 0 0
0.396546 -0.340711 0.91673 255 0 0
0.318676 -0.346761 0.88691 255 0 0
0.190487 -0.197215 0.676084 255 0 0
0.341333 -0.127773 0.730752 255 0 0
0.121586 -0.165695 0.669171 255 0 0
0.303872 -0.252449 0.812774 255 0 0
0.311389 -0.270433 0.808957 255 0 0
0.170606 -0.360832 0.778402 255 0 0
0.252849 -0.331519 0.786664 255 0 0
0.147853 -0.271833 0.762992 255 0 0
0.148812 -0.290836 0.782144 255 0 0
0.301534 -0.243252 0.81725 255 0 0
0.420099 -0.221973 0.852178 255 0 0
0.41649 -0.23236 0.847306 255 0 0
0.163286 -0.380843 0.796265 255 0 0
0.172156 -0.374983 0.779269 255 0 0
0.23236 -0.362765 0.794877 255 0 0
0.41552 -0.227445 0.858206 255 0 0
0.31958 -0.295988 0.824543 255 0 0
0.231318 -0.361898 0.797822 255 0 0
0.368802 -0.244966 0.852429 255 0 0
0.165519 -0.373342 0.772113 255 0 0
0.233972 -0.360366 0.792699 255 0 0
0.226679 -0.288031 0.806462 255 0 0
0.115171 -0.247534 0.761967 255 0 0
0.369803 -0.243882 0.852377 255 0 0
0.311496 -0.225865 0.815639 255 0 0
0.167571 -0.365275 0.779449 255 0 0
0.251855 -0.331903 0.793825 255 0 0
0.302177 -0.214461 0.817923 255 0 0
0.364524 -0.241858 0.837147 255 0 0
0.302508 -0.21209 0.817604 255 0 0
0.235785 -0.366101 0.794782 255 0 0
0.231476 -0.349764 0.783603 255 0 0
0.229236 -0.344114 0.805308 255 0 0
0.225604 -0.347567 0.797762 255 0 0
0.29076 -0.245176 0.818391 255 0 0
0.164888 -0.35954 0.772228 255 0 0
0.228312 -0.329245 0.80357 255 0 0
0.176255 -0.270737 0.780397 255 0 0
0.32964 -0.243279 0.818802 255 0 0
0.363547 -0.239216 0.84047 255 0 0
0.293898 -0.270239 0.808664 255 0 0
0.200042 -0.278343 0.798269 255 0 0
0.223181 -0.331334 0.798047 255 0 0
0.0613069 -0.0818175 0.665907 255 0 0
0.0449333 -0.172693 0.694542 255 0 0
0.243969 -0.24746 0.755086 255 0 0
0.235517 -0.252347 0.787142 255 0 0
0.241288 -0.249612 0.766925 255 0 0
0.0364855 -0.168056 0.700347 255 0 0
0.0741391 -0.123289 0.70552 255 0 0
0.237396 -0.247721 0.770118 255 0 0
0.239149 -0.24799 0.76652 255 0 0
0.23788 -0.253092 0.77491 255 0 0
0.0592457 -0.282762 0.564645 255 0 0
0.098665 -0.0619001 0.581294 255 0 0
0.0590803 -0.282579 0.565314 255 0 0
0.176182 -0.276212 0.790626 255 0 0
0.305657 -0.261469 0.797156 255 0 0
0.30708 -0.267444 0.824476 255 0 0
0.238323 -0.281561 0.809537 255 0 0
0.188642 -0.293489 0.80562 255 0 0
0.190095 -0.298714 0.81561 255 0 0
0.244264 -0.332593 0.802528 255 0 0
0.191849 -0.295979 0.799026 255 0 0
0.164423 -0.359722 0.785959 255 0 0
0.194833 -0.296641 0.794844 255 0 0
0.154812 -0.288075 0.798487 255 0 0
0.292552 -0.270961 0.819279 255 0 0
0.220713 -0.339447 0.828829 255 0 0
0.244318 -0.280623 0.802822 255 0 0
0.146491 -0.289134 0.783797 255 0 0
0.143209 -0.283558 0.768618 255 0 0
0.300055 -0.308026 0.825903 255 0 0
0.180498 -0.313562 0.800388 255 0 0
0.134269 -0.294309 0.800604 255 0 0
0.132452 -0.293974 0.799379 255 0 0
0.299753 -0.310741 0.827728 255 0 0
0.322747 -0.312902 0.832751 255 0 0
0.324394 -0.316287 0.841807 255 0 0
0.325252 -0.309475 0.831145 255 0 0
0.324185 -0.310757 0.832294 255 0 0
0.325496 -0.318877 0.844597 255 0 0
0.00222996 -0.329908 0.788751 255 0 0
0.279549 -0.348543 0.849628 255 0 0
0.279924 -0.350851 0.863374 255 0 0
-0.0486534 -0.323645 0.865825 255 0 0
-0.0402474 -0.317111 0.836707 255 0 0
0.233739 -0.11755 0.511309 255 0 0
0.281992 -0.144263 0.526296 255 0 0
0.0558605 -0.0510392 0.614657 255 0 0
0.0738591 -0.0686393 0.631696 255 0 0
0.0973146 -0.0729453 0.619408 255 0 0
0.0436503 -0.0593578 0.624801 255 0 0
0.26354 -0.0924441 0.741066 255 0 0
0.646565 -0.0636279 0.576648 255 0 0
0.647773 -0.0640823 0.577529 255 0 0
0.647327 -0.0642504 0.577495 255 0 0
0.647461 -0.0639063 0.577596 255 0 0
0.647494 -0.0643642 0.578041 255 0 0
0.647018 -0.0639033 0.577806 255 0 0
0.64687 -0.063907 0.577721 255 0 0
0.64363 -0.0716303 0.586148 255 0 0
0.662734 -0.00264664 0.605008 255 0 0
0.663128 -0.00405946 0.605588 255 0 0
0.670594 -0.0508536 0.610088 255 0 0
0.669286 -0.0534919 0.612609 255 0 0
0.668926 -0.053924 0.612604 255 0 0
0.66895 -0.0538014 0.612627 255 0 0
0.664336 -0.0307154 0.611697 255 0 0
0.669568 -0.053948 0.614349 255 0 0
0.672261 -0.0506607 0.616806 255 0 0
0.61331 -0.0669918 0.583354 255 0 0
0.613117 -0.0670217 0.583703 255 0 0
0.681565 -0.0169173 0.573405 255 0 0
0.622046 -0.0911934 0.624776 255 0 0
0.621623 -0.0912038 0.624536 255 0 0
0.663312 -0.0867928 0.648716 255 0 0
0.622127 -0.0918527 0.625465 255 0 0
0.622552 -0.0921914 0.625911 255 0 0
0.531554 -0.0783685 0.576033 255 0 0
0.531692 -0.0782754 0.576119 255 0 0
0.617492 -0.0930057 0.623445 255 0 0
0.614783 0.0110279 0.630198 255 0 0
0.64877 -0.0887017 0.643099 255 0 0
0.649161 -0.0882508 0.643583 255 0 0
0.613861 0.0105607 0.631253 255 0 0
0.622224 -0.0957707 0.628689 255 0 0
0.613072 0.0103098 0.63194 255 0 0
0.613195 0.0103129 0.63201 255 0 0
0.622001 -0.0963149 0.629444 255 0 0
0.612877 0.00956399 0.632466 255 0 0
0.6127 0.00882491 0.632312 255 0 0
0.651082 -0.0921521 0.648304 255 0 0
0.65008 -0.0927695 0.64769 255 0 0
0.621501 -0.0982853 0.63109 255 0 0
0.650198 -0.0929091 0.645334 255 0 0
0.527753 -0.0884298 0.581186 255 0 0
0.638478 -0.0943141 0.643105 255 0 0
0.668285 -0.092229 0.662885 255 0 0
0.530956 -0.0961031 0.586333 255 0 0
0.621596 -0.103309 0.637457 255 0 0
0.673623 -0.101784 0.667977 255 0 0
0.63594 -0.101525 0.646869 255 0 0
0.634601 -0.101054 0.646145 255 0 0
0.658847 -0.0994064 0.660312 255 0 0
0.620252 -0.108078 0.639112 255 0 0
0.659417 -0.0990306 0.66197 255 0 0
0.632637 -0.10223 0.646788 255 0 0
0.635794 -0.105286 0.649737 255 0 0
0.635845 -0.1063 0.649691 255 0 0
0.526772 -0.0986177 0.588613 255 0 0
0.629666 -0.105895 0.646173 255 0 0
0.520554 -0.0997542 0.589847 255 0 0
0.520846 -0.100273 0.590203 255 0 0
0.478507 -0.0494213 0.570755 255 0 0
0.51996 -0.101362 0.591462 255 0 0
0.614852 -0.116207 0.645132 255 0 0
0.612533 -0.116803 0.644004 255 0 0
0.613566 -0.116798 0.645873 255 0 0
0.608776 -0.119528 0.642137 255 0 0
0.610892 -0.11691 0.643758 255 0 0
0.609583 -0.116795 0.643255 255 0 0
0.610724 -0.117477 0.644082 255 0 0
0.614342 -0.117407 0.644851 255 0 0
0.608048 -0.119751 0.644933 255 0 0
0.607781 -0.120557 0.645184 255 0 0
0.60789 -0.120554 0.645246 255 0 0
0.475005 -0.0579387 0.576425 255 0 0
0.608509 -0.122038 0.647792 255 0 0
0.608011 -0.122376 0.648176 255 0 0
0.606619 -0.122889 0.647579 255 0 0
0.607333 -0.122843 0.646168 255 0 0
0.52938 -0.114451 0.606263 255 0 0
0.529807 -0.062567 0.613749 255 0 0
0.464813 -0.0602826 0.580841 255 0 0
0.464813 -0.0602826 0.580841 255 0 0
0.60162 -0.12993 0.652986 255 0 0
0.463248 -0.0603564 0.582252 255 0 0
0.595467 -0.137158 0.656342 255 0 0
0.610805 -0.136517 0.665082 255 0 0
0.594365 -0.137656 0.656372 255 0 0
0.593483 -0.137999 0.656538 255 0 0
0.630259 -0.131546 0.679465 255 0 0
0.627576 -0.133 0.680141 255 0 0
0.489153 -0.0967337 0.606615 255 0 0
0.487745 -0.0979605 0.606648 255 0 0
0.625543 -0.134577 0.681504 255 0 0
0.487938 -0.0960098 0.607134 255 0 0
0.486036 -0.0978582 0.607531 255 0 0
0.660133 -0.12731 0.703847 255 0 0
0.65991 -0.128413 0.7041 255 0 0
0.485259 -0.0977628 0.607559 255 0 0
0.623188 -0.136069 0.683189 255 0 0
0.624914 -0.135677 0.681195 255 0 0
0.484213 -0.0970034 0.607485 255 0 0
0.661107 -0.126595 0.705833 255 0 0
0.662864 -0.126097 0.709859 255 0 0
0.66299 -0.126007 0.710168 255 0 0
0.620809 -0.138925 0.685779 255 0 0
0.619311 -0.139847 0.687252 255 0 0
0.654463 -0.120816 0.708709 255 0 0
0.651902 -0.124737 0.709505 255 0 0
0.479435 -0.108493 0.615894 255 0 0
0.623479 -0.147718 0.696786 255 0 0
0.602186 -0.150607 0.690726 255 0 0
0.500331 -0.0310534 0.643803 255 0 0
0.600564 -0.151695 0.691801 255 0 0
0.5359 -0.146267 0.656008 255 0 0
0.535537 -0.146073 0.655817 255 0 0
0.499782 -0.0290478 0.644559 255 0 0
0.534939 -0.1457 0.657117 255 0 0
0.534577 -0.14585 0.656902 255 0 0
0.612791 -0.159427 0.70093 255 0 0
0.533656 -0.145871 0.658221 255 0 0
0.595894 -0.157974 0.696527 255 0 0
0.595888 -0.157855 0.696532 255 0 0
0.474408 -0.0213269 0.638114 255 0 0
0.430443 -0.0509467 0.646409 255 0 0
0.431386 -0.0514439 0.64569 255 0 0
0.432202 -0.0527529 0.653184 255 0 0
0.431806 -0.0529173 0.652948 255 0 0
0.431275 0.00287683 0.661396 255 0 0
0.531553 -0.169859 0.719776 255 0 0
0.539774 -0.17489 0.724989 255 0 0
0.38058 -0.182232 0.639202 255 0 0
0.428165 -0.0070517 0.680671 255 0 0
0.506031 -0.0946403 0.720249 255 0 0
0.502414 -0.0903638 0.719893 255 0 0
0.62184 -0.171902 0.782546 255 0 0
0.496502 -0.0737506 0.719598 255 0 0
0.379558 -0.178475 0.646041 255 0 0
0.378889 -0.176907 0.646009 255 0 0
0.50453 -0.0846445 0.725195 255 0 0
0.494918 -0.073654 0.72078 255 0 0
0.495261 -0.0733717 0.720996 255 0 0
0.505167 -0.0879635 0.728078 255 0 0
0.497538 -0.0708031 0.72639 255 0 0
0.4973 -0.0708061 0.726485 255 0 0
0.506432 -0.0925415 0.730534 255 0 0
0.370713 -0.168526 0.648454 255 0 0
0.504849 -0.0913487 0.730876 255 0 0
0.375311 -0.168897 0.658856 255 0 0
0.374237 -0.169059 0.66146 255 0 0
0.50351 -0.0162169 0.766703 255 0 0
0.469566 -0.143378 0.739559 255 0 0
0.494841 -0.0226451 0.766386 255 0 0
0.500266 -0.0261858 0.769202 255 0 0
0.48016 -0.025778 0.758067 255 0 0
0.502717 -0.0245568 0.771863 255 0 0
0.50012 -0.0260735 0.77051 255 0 0
0.499044 -0.0262574 0.770117 255 0 0
0.496233 -0.0279278 0.772549 255 0 0
0.472286 -0.0276667 0.761529 255 0 0
0.470453 -0.0278416 0.76255 255 0 0
0.490418 -0.0295574 0.774432 255 0 0
0.466795 -0.0277262 0.763019 255 0 0
0.495718 -0.0291614 0.78023 255 0 0
0.471079 -0.0296578 0.768301 255 0 0
0.490252 -0.0317584 0.779475 255 0 0
0.503941 -0.0312536 0.789574 255 0 0
0.487924 -0.0326303 0.782009 255 0 0
0.504051 -0.0303115 0.791779 255 0 0
0.477694 -0.0317867 0.777423 255 0 0
0.486185 -0.0338273 0.782547 255 0 0
0.486317 -0.033824 0.782622 255 0 0
0.48614 -0.0340203 0.783429 255 0 0
0.47844 -0.0330062 0.7796 255 0 0
0.324341 -0.148831 0.687687 255 0 0
0.474633 -0.0364445 0.782028 255 0 0
0.342786 -0.138114 0.700301 255 0 0
0.342573 -0.138419 0.700619 255 0 0
0.342573 -0.138419 0.700619 255 0 0
0.323248 -0.148197 0.689648 255 0 0
0.409949 -0.0538348 0.74548 255 0 0
0.408998 -0.0388161 0.74719 255 0 0
0.455026 -0.0393409 0.773929 255 0 0
0.463934 -0.0584197 0.777815 255 0 0
0.410851 -0.0572428 0.748046 255 0 0
0.551785 -0.210494 0.81673 255 0 0
0.46303 -0.0577942 0.77827 255 0 0
0.462909 -0.0579827 0.778188 255 0 0
0.345575 0.0161914 0.718389 255 0 0
0.461622 -0.0485288 0.779071 255 0 0
0.302599 -0.15285 0.68176 255 0 0
0.302443 -0.152966 0.681663 255 0 0
0.46201 -0.0579606 0.779062 255 0 0
0.345295 0.0157989 0.719352 255 0 0
0.483018 -0.0423112 0.793263 255 0 0
0.480016 -0.0408052 0.792132 255 0 0
0.343745 0.0166252 0.720147 255 0 0
0.479662 -0.0412695 0.79351 255 0 0
0.481852 -0.0425367 0.79512 255 0 0
0.479782 -0.0425119 0.795331 255 0 0
0.480555 -0.0431038 0.796418 255 0 0
0.480784 -0.0430859 0.796778 255 0 0
0.481257 -0.0430741 0.79705 255 0 0
0.401217 0.0217727 0.762178 255 0 0
0.48102 -0.0498899 0.811848 255 0 0
0.299098 -0.107386 0.705026 255 0 0
0.385315 -0.104559 0.765823 255 0 0
0.385689 -0.104558 0.766265 255 0 0
0.310364 -0.118177 0.723035 255 0 0
0.633492 -0.188831 0.902398 255 0 0
0.384194 -0.104169 0.767289 255 0 0
0.633635 -0.188827 0.902479 255 0 0
0.311486 -0.115038 0.727126 255 0 0
0.636832 -0.187315 0.907627 255 0 0
0.307091 -0.114529 0.727209 255 0 0
0.304368 -0.115319 0.727681 255 0 0
0.300657 -0.117208 0.726132 255 0 0
0.302542 -0.114086 0.728121 255 0 0
0.638637 -0.18536 0.913172 255 0 0
0.626027 -0.189876 0.908227 255 0 0
0.626019 -0.18971 0.908234 255 0 0
0.335925 -0.0992344 0.750658 255 0 0
0.29809 -0.114246 0.731115 255 0 0
0.298168 -0.113724 0.731198 255 0 0
0.298168 -0.113724 0.731198 255 0 0
0.336101 -0.105147 0.754472 255 0 0
0.335916 -0.105632 0.754332 255 0 0
0.474726 -0.0587649 0.839421 255 0 0
0.670457 -0.0542558 0.618055 255 0 0
0.670494 -0.0549032 0.61918 255 0 0
0.61223 -0.0695497 0.585089 255 0 0
0.612363 -0.0696106 0.58562 255 0 0
0.688152 -0.0583645 0.631239 255 0 0
0.669823 -0.0575752 0.620908 255 0 0
0.688413 -0.0584496 0.63138 255 0 0
0.686721 -0.0604917 0.630503 255 0 0
0.68606 -0.060613 0.63081 255 0 0
0.686045 -0.0600692 0.631072 255 0 0
0.619828 -0.0627677 0.593345 255 0 0
0.619709 -0.0631137 0.593714 255 0 0
0.689424 -0.0572846 0.633651 255 0 0
0.666623 -0.0594469 0.620801 255 0 0
0.620249 -0.0636095 0.594444 255 0 0
0.667353 -0.0599411 0.621869 255 0 0
0.677577 -0.0580749 0.6278 255 0 0
0.677324 -0.0581794 0.62788 255 0 0
0.67693 -0.0590678 0.628283 255 0 0
0.68202 -0.0620173 0.632103 255 0 0
0.675976 -0.0599121 0.629062 255 0 0
0.664745 -0.0615209 0.62304 255 0 0
0.68259 -0.0636795 0.634378 255 0 0
0.681955 -0.0637743 0.634472 255 0 0
0.681942 -0.0637573 0.635157 255 0 0
0.681322 -0.0642966 0.634766 255 0 0
0.68118 -0.0642058 0.634693 255 0 0
0.663095 -0.0641173 0.62491 255 0 0
0.665758 -0.0654453 0.627935 255 0 0
0.673334 -0.0696587 0.632151 255 0 0
0.669622 -0.0666485 0.630728 255 0 0
0.660758 -0.0650329 0.625822 255 0 0
0.666409 -0.0662691 0.628934 255 0 0
0.682522 -0.0180776 0.574554 255 0 0
0.649856 -0.0599538 0.572792 255 0 0
0.666785 -0.0737412 0.636475 255 0 0
0.658687 -0.0731802 0.632305 255 0 0
0.660354 -0.0736658 0.633285 255 0 0
0.659709 -0.0735005 0.633729 255 0 0
0.659214 -0.0733448 0.633082 255 0 0
0.503125 -0.024626 0.542472 255 0 0
0.503125 -0.0246492 0.542471 255 0 0
0.503211 -0.024771 0.542749 255 0 0
0.635005 -0.090453 0.6183 255 0 0
0.533284 -0.0520593 0.566809 255 0 0
0.54212 -0.0550088 0.563601 255 0 0
0.544339 -0.0559278 0.560289 255 0 0
0.524584 -0.0513802 0.576586 255 0 0
0.499998 -0.0261387 0.545869 255 0 0
0.535638 -0.0557912 0.565738 255 0 0
0.537592 -0.0565938 0.567096 255 0 0
0.543337 -0.0576405 0.562314 255 0 0
0.534764 -0.0565262 0.565867 255 0 0
0.529324 -0.0549263 0.574575 255 0 0
0.622335 -0.0849477 0.617283 255 0 0
0.682856 -0.0807756 0.656728 255 0 0
0.681772 -0.0813114 0.657035 255 0 0
0.679662 -0.0816846 0.656213 255 0 0
0.678028 -0.081729 0.659286 255 0 0
0.680029 -0.081574 0.656141 255 0 0
0.647599 -0.0823888 0.637967 255 0 0
0.537176 -0.0706996 0.57311 255 0 0
0.629667 -0.0977151 0.628743 255 0 0
0.649331 -0.0885742 0.643579 255 0 0
0.647983 -0.0893077 0.643329 255 0 0
0.647702 -0.0932269 0.644656 255 0 0
0.531826 -0.0762755 0.575389 255 0 0
0.532039 -0.0763866 0.575204 255 0 0
0.644591 -0.0926722 0.642472 255 0 0
0.648971 -0.0935428 0.646171 255 0 0
0.638476 -0.0944276 0.642833 255 0 0
0.656606 -0.104166 0.656895 255 0 0
0.631699 -0.0957209 0.63848 255 0 0
0.630459 -0.0940126 0.640358 255 0 0
0.628701 -0.0963937 0.648701 255 0 0
0.634509 -0.100974 0.646404 255 0 0
0.630454 -0.0999483 0.639962 255 0 0
0.629121 -0.100408 0.644501 255 0 0
0.634439 -0.103933 0.647481 255 0 0
0.672086 -0.125496 0.668594 255 0 0
0.628448 -0.103918 0.644412 255 0 0
0.636023 -0.105965 0.64911 255 0 0
0.615691 -0.113921 0.645042 255 0 0
0.671767 -0.0672072 0.631473 255 0 0
0.15069 -0.382632 0.776898 255 0 0
0.486669 -0.24351 0.95244 255 0 0
0.476923 -0.239431 0.950353 255 0 0
0.160626 -0.274309 0.776596 255 0 0
0.488184 -0.344624 0.93996 255 0 0
0.374072 -0.321559 0.89288 255 0 0
0.438713 -0.298065 0.897942 255 0 0
0.337464 -0.337448 0.877031 255 0 0
0.425847 -0.367079 0.918317 255 0 0
0.453378 -0.306485 0.906184 255 0 0
0.420995 -0.374439 0.92071 255 0 0
0.153533 -0.285625 0.79253 255 0 0
0.437733 -0.333612 0.920395 255 0 0
0.429121 -0.337783 0.934029 255 0 0
0.380069 -0.356286 0.902834 255 0 0
0.48319 -0.257805 0.971245 255 0 0
0.475143 -0.25907 0.971661 255 0 0
0.474714 -0.258935 0.972627 255 0 0
0.343012 -0.35489 0.907935 255 0 0
0.103847 -0.0837191 0.868328 255 0 0
0.238299 -0.144818 1.08018 255 0 0
0.668788 -0.067537 0.630353 255 0 0
0.612424 -0.118438 0.646445 255 0 0
0.612297 -0.118321 0.64684 255 0 0
0.613322 -0.117577 0.646432 255 0 0
0.609612 -0.117794 0.645966 255 0 0
0.610029 -0.117817 0.644687 255 0 0
0.609684 -0.117769 0.645555 255 0 0
0.60775 -0.121782 0.64961 255 0 0
0.607142 -0.122075 0.64951 255 0 0
0.606611 -0.122439 0.649324 255 0 0
0.491509 -0.0937015 0.605891 255 0 0
0.457808 -0.131783 0.689945 255 0 0
0.177731 -0.298225 0.805635 255 0 0
0.179274 -0.296109 0.794593 255 0 0
0.190381 -0.314559 0.800815 255 0 0
0.323747 -0.301339 0.82671 255 0 0
0.300046 -0.310597 0.826623 255 0 0
0.30024 -0.309291 0.823729 255 0 0
0.176521 -0.295842 0.796226 255 0 0
0.176178 -0.295781 0.792454 255 0 0
0.182035 -0.316404 0.805478 255 0 0
0.300007 -0.307212 0.829352 255 0 0
0.318293 -0.295779 0.814473 255 0 0
0.176095 -0.314941 0.801699 255 0 0
0.325168 -0.304005 0.826253 255 0 0
0.078225 -0.307484 0.797976 255 0 0
0.07841 -0.306911 0.796756 255 0 0
0.0767203 -0.305766 0.79442 255 0 0
0.312988 -0.313656 0.826236 255 0 0
0.309222 -0.322246 0.837135 255 0 0
0.323166 -0.321869 0.851232 255 0 0
0.306794 -0.322468 0.833657 255 0 0
0.342066 -0.2918 0.838761 255 0 0
0.325649 -0.315872 0.835319 255 0 0
0.000453602 -0.336693 0.781369 255 0 0
0.334475 -0.343575 0.896798 255 0 0
0.394833 -0.357451 0.904868 255 0 0
0.396588 -0.359244 0.901297 255 0 0
0.396679 -0.358958 0.902208 255 0 0
0.396777 -0.34036 0.915665 255 0 0
0.302986 -0.12241 0.4711 255 0 0
0.234012 -0.117239 0.510895 255 0 0
0.117475 -0.0680042 0.605422 255 0 0
0.0797282 -0.0708967 0.630695 255 0 0
0.0855055 -0.0725443 0.638309 255 0 0
0.054772 -0.205616 0.633212 255 0 0
0.0252113 -0.201618 0.64433 255 0 0
0.369501 -0.254665 0.850124 255 0 0
0.343112 -0.23341 0.820631 255 0 0
0.343646 -0.232916 0.816079 255 0 0
0.324664 -0.222992 0.817074 255 0 0
0.187505 -0.205959 0.781723 255 0 0
0.324184 -0.222681 0.816188 255 0 0
0.184781 -0.204051 0.78446 255 0 0
0.417139 -0.199665 0.841003 255 0 0
0.162648 -0.355637 0.780381 255 0 0
0.426512 -0.196437 0.830479 255 0 0
0.407081 -0.209687 0.841827 255 0 0
0.24654 -0.0828221 0.496907 255 0 0
0.246575 -0.0823162 0.49757 255 0 0
0.403098 -0.0723133 0.650542 255 0 0
0.486341 -0.282702 0.890908 255 0 0
0.487411 -0.28455 0.904753 255 0 0
0.227388 -0.292784 0.807685 255 0 0
0.308205 -0.325805 0.844336 255 0 0
0.179304 -0.296429 0.796466 255 0 0
0.164673 -0.291409 0.796041 255 0 0
0.334512 -0.321913 0.81436 255 0 0
0.357568 -0.3044 0.86316 255 0 0
0.354085 -0.31414 0.870173 255 0 0
0.353792 -0.311705 0.865104 255 0 0
0.353712 -0.311302 0.863988 255 0 0
0.357068 -0.30511 0.86415 255 0 0
0.347399 -0.313642 0.858103 255 0 0
0.404982 -0.301823 0.895101 255 0 0
0.359403 -0.318414 0.877926 255 0 0
0.150036 -0.157302 0.810838 255 0 0
0.275508 -0.348143 0.851384 255 0 0
0.407744 -0.302213 0.897323 255 0 0
0.372988 -0.321441 0.891743 255 0 0
0.386008 -0.318012 0.894579 255 0 0
0.0809288 -0.303852 0.78462 255 0 0
0.174936 -0.362167 0.823674 255 0 0
0.176141 -0.361718 0.821128 255 0 0
0.266506 -0.362203 0.852388 255 0 0
0.265763 -0.362357 0.850402 255 0 0
0.49539 -0.23986 0.94389 255 0 0
0.395535 -0.361647 0.905111 255 0 0
0.435335 -0.366953 0.916788 255 0 0
0.433003 -0.400857 0.924836 255 0 0
0.243966 -0.379716 0.864598 255 0 0
0.243785 -0.379988 0.86426 255 0 0
0.44579 -0.372803 0.924486 255 0 0
0.433363 -0.336286 0.927012 255 0 0
0.428055 -0.339676 0.924723 255 0 0
0.441696 -0.377862 0.923235 255 0 0
0.218136 -0.372233 0.815358 255 0 0
0.33446 -0.356725 0.918563 255 0 0
0.036784 -0.326312 0.834616 255 0 0
0.017582 -0.335478 0.865083 255 0 0
0.0100679 -0.349155 0.896906 255 0 0
0.0215703 -0.345659 0.881891 255 0 0
0.0180031 -0.347055 0.894509 255 0 0
0.0164599 -0.348214 0.898864 255 0 0
0.0189952 -0.347166 0.890333 255 0 0
0.674454 -0.0665813 0.633702 255 0 0
0.661798 -0.0655177 0.626837 255 0 0
0.670688 -0.0684463 0.631892 255 0 0
0.548311 -0.0539766 0.563862 255 0 0
0.67044 -0.068766 0.631728 255 0 0
0.666617 -0.0670158 0.629552 255 0 0
0.548188 -0.0548047 0.563961 255 0 0
0.667785 -0.0669231 0.630588 255 0 0
0.664096 -0.0668231 0.628504 255 0 0
0.665775 -0.0669684 0.629676 255 0 0
0.666051 -0.0669616 0.629833 255 0 0
0.66622 -0.0679114 0.633753 255 0 0
0.664133 -0.0681245 0.629813 255 0 0
0.66729 -0.068505 0.631804 255 0 0
0.667956 -0.0682704 0.631027 255 0 0
0.674011 -0.0686552 0.635603 255 0 0
0.548121 -0.0555891 0.565705 255 0 0
0.663948 -0.0690428 0.630331 255 0 0
0.547661 -0.0562534 0.565625 255 0 0
0.673711 -0.0688483 0.63588 255 0 0
0.547409 -0.0570351 0.565884 255 0 0
0.663282 -0.0699738 0.630808 255 0 0
0.547766 -0.0565798 0.566811 255 0 0
0.607955 -0.0875733 0.599317 255 0 0
0.546467 -0.0585828 0.566846 255 0 0
0.621612 -0.0739559 0.608743 255 0 0
0.62158 -0.0760138 0.609496 255 0 0
0.621113 -0.0762059 0.609678 255 0 0
0.609594 -0.0905072 0.602105 255 0 0
0.539207 -0.055157 0.566451 255 0 0
0.534189 -0.0546721 0.563651 255 0 0
0.538217 -0.0546994 0.566156 255 0 0
0.659905 -0.0729424 0.633975 255 0 0
0.534267 -0.0548758 0.564831 255 0 0
0.621836 -0.0792644 0.612398 255 0 0
0.621423 -0.0773365 0.612535 255 0 0
0.659566 -0.0735793 0.634428 255 0 0
0.659659 -0.0734642 0.634488 255 0 0
0.62113 -0.0776613 0.612575 255 0 0
0.658087 -0.0735023 0.634055 255 0 0
0.621353 -0.0776591 0.613163 255 0 0
0.607946 -0.0946129 0.604787 255 0 0
0.658586 -0.0738152 0.635006 255 0 0
0.621267 -0.0784836 0.613975 255 0 0
0.534192 -0.0568036 0.566715 255 0 0
0.534317 -0.0569367 0.566776 255 0 0
0.648343 -0.0792547 0.635254 255 0 0
0.680201 -0.0812464 0.653855 255 0 0
0.648586 -0.0800385 0.636486 255 0 0
0.665285 -0.0836261 0.646149 255 0 0
0.68068 -0.0812618 0.655508 255 0 0
0.647885 -0.0812426 0.637383 255 0 0
0.61386 -0.09092 0.617622 255 0 0
0.648223 -0.0817578 0.636455 255 0 0
0.647644 -0.0822739 0.638092 255 0 0
0.652791 -0.0841776 0.640871 255 0 0
0.679267 -0.0817245 0.656055 255 0 0
0.532138 -0.0715666 0.574112 255 0 0
0.533065 -0.0731901 0.574515 255 0 0
0.53107 -0.0715765 0.574428 255 0 0
0.684923 -0.0365502 0.617667 255 0 0
0.492076 -0.146339 0.705047 255 0 0
0.551596 -0.194451 0.745109 255 0 0
0.553375 -0.194301 0.740507 255 0 0
0.550269 -0.194238 0.745464 255 0 0
0.550705 -0.193606 0.738838 255 0 0
0.550568 -0.19399 0.739653 255 0 0
0.545361 -0.193584 0.745857 255 0 0
0.392563 -0.169406 0.82839 255 0 0
0.416742 -0.195441 0.840191 255 0 0
0.421214 -0.224466 0.848661 255 0 0
0.387108 -0.27957 0.835963 255 0 0
0.388621 -0.278511 0.831234 255 0 0
0.403554 -0.231821 0.843847 255 0 0
0.22951 -0.252568 0.768458 255 0 0
0.500842 -0.147277 0.698403 255 0 0
0.525631 -0.161015 0.715198 255 0 0
0.428682 -0.0882023 0.643249 255 0 0
0.426886 -0.0872877 0.652288 255 0 0
0.266751 -0.0927437 0.736298 255 0 0
0.103422 -0.188192 0.691891 255 0 0
0.12427 -0.164942 0.702816 255 0 0
0.390314 -0.169527 0.843491 255 0 0
0.393009 -0.169312 0.829221 255 0 0
0.394518 -0.171066 0.828199 255 0 0
0.393652 -0.169562 0.829899 255 0 0
0.396529 -0.175 0.82682 255 0 0
0.394478 -0.175264 0.832478 255 0 0
0.417568 -0.196826 0.839586 255 0 0
0.367467 -0.255915 0.856805 255 0 0
0.416341 -0.19326 0.839843 255 0 0
0.417444 -0.197944 0.842035 255 0 0
0.360639 -0.260258 0.853828 255 0 0
0.312616 -0.27088 0.808839 255 0 0
0.36725 -0.245562 0.848357 255 0 0
0.611367 -0.0771537 0.590684 255 0 0
0.610518 -0.0769395 0.592347 255 0 0
0.67086 -0.0670513 0.63064 255 0 0
0.664882 -0.0660684 0.627174 255 0 0
0.666678 -0.0664051 0.628814 255 0 0
0.665945 -0.0666267 0.628575 255 0 0
0.672767 -0.0693999 0.634043 255 0 0
0.66324 -0.0684159 0.630641 255 0 0
0.662861 -0.0698433 0.631331 255 0 0
0.62332 -0.0753134 0.606761 255 0 0
0.471846 -0.0107951 0.569896 255 0 0
0.605689 -0.12342 0.647834 255 0 0
0.596003 -0.121215 0.662746 255 0 0
0.605129 -0.128151 0.649958 255 0 0
0.6048 -0.12793 0.651081 255 0 0
0.597177 -0.142456 0.668114 255 0 0
0.60223 -0.150134 0.693096 255 0 0
0.602322 -0.150626 0.690142 255 0 0
0.6029 -0.150567 0.69019 255 0 0
0.59285 -0.157652 0.697553 255 0 0
0.595069 -0.158739 0.698082 255 0 0
0.59204 -0.158707 0.699249 255 0 0
0.591991 -0.157916 0.697255 255 0 0
0.591555 -0.158061 0.697356 255 0 0
0.594607 -0.158298 0.698986 255 0 0
0.499208 -0.132385 0.658791 255 0 0
0.557966 -0.155948 0.692015 255 0 0
0.526115 -0.134526 0.685825 255 0 0
0.601995 -0.139911 0.660822 255 0 0
0.522316 -0.124233 0.623534 255 0 0
0.609213 -0.135508 0.66957 255 0 0
0.606795 -0.139036 0.670284 255 0 0
0.464921 -0.109707 0.617168 255 0 0
0.517649 -0.134187 0.651806 255 0 0
0.518734 -0.133975 0.650375 255 0 0
0.517276 -0.133607 0.652351 255 0 0
0.599803 -0.152098 0.692225 255 0 0
0.596184 -0.158568 0.699135 255 0 0
0.594625 -0.159698 0.69944 255 0 0
0.578996 -0.157121 0.689998 255 0 0
0.576413 -0.157969 0.692517 255 0 0
0.580022 -0.157653 0.699169 255 0 0
0.464651 -0.276891 0.911124 255 0 0
0.245371 -0.331877 0.795611 255 0 0
0.243369 -0.278081 0.798051 255 0 0
0.443067 -0.256376 0.853927 255 0 0
0.239937 -0.338855 0.79543 255 0 0
0.164751 -0.326139 0.773628 255 0 0
0.23697 -0.341394 0.796794 255 0 0
0.233849 -0.341951 0.802565 255 0 0
0.130171 -0.256733 0.776515 255 0 0
0.337912 -0.25905 0.839549 255 0 0
0.227905 -0.342133 0.813141 255 0 0
0.200318 -0.248678 0.799617 255 0 0
0.240862 -0.28143 0.807147 255 0 0
0.4403 -0.261755 0.875782 255 0 0
0.171126 -0.371812 0.775057 255 0 0
0.245341 -0.279965 0.803802 255 0 0
0.13966 -0.232176 0.5975 255 0 0
0.345838 -0.0581084 0.696773 255 0 0
0.155825 -0.264022 0.787053 255 0 0
0.171468 -0.369864 0.780391 255 0 0
0.175919 -0.368454 0.772626 255 0 0
0.264929 -0.27076 0.829427 255 0 0
0.194442 -0.274158 0.798584 255 0 0
0.446701 -0.258927 0.870832 255 0 0
0.476753 -0.277718 0.892987 255 0 0
0.147745 -0.262665 0.77717 255 0 0
0.157325 -0.265203 0.78593 255 0 0
0.175739 -0.37883 0.789275 255 0 0
0.224873 -0.288992 0.80912 255 0 0
0.146366 -0.261771 0.778368 255 0 0
0.198024 -0.284353 0.804228 255 0 0
0.215096 -0.335872 0.808049 255 0 0
0.483217 -0.284611 0.903385 255 0 0
0.226992 -0.29071 0.807997 255 0 0
0.214153 -0.337017 0.805262 255 0 0
0.214534 -0.336122 0.805225 255 0 0
0.192104 -0.347437 0.84583 255 0 0
0.00814674 -0.34981 0.90169 255 0 0
0.656813 -0.0743347 0.639521 255 0 0
0.501615 -0.130278 0.647004 255 0 0
0.499569 -0.129319 0.651886 255 0 0
0.5035 -0.132167 0.645988 255 0 0
0.633648 -0.0969202 0.641858 255 0 0
0.633304 -0.0969844 0.642191 255 0 0
0.632317 -0.101873 0.647344 255 0 0
0.633647 -0.101973 0.645736 255 0 0
0.63304 -0.102357 0.645682 255 0 0
0.626783 -0.101325 0.643317 255 0 0
0.629215 -0.10005 0.644901 255 0 0
0.629751 -0.10061 0.643286 255 0 0
0.628366 -0.100658 0.642902 255 0 0
0.633763 -0.103869 0.647483 255 0 0
0.627173 -0.107251 0.64404 255 0 0
0.613561 -0.116345 0.643529 255 0 0
0.609996 -0.118146 0.64552 255 0 0
0.608474 -0.117216 0.645238 255 0 0
0.305824 -0.288656 0.816411 255 0 0
0.355828 -0.277178 0.844587 255 0 0
0.309976 -0.290683 0.821599 255 0 0
0.241955 -0.263586 0.79276 255 0 0
0.310165 -0.294577 0.824208 255 0 0
0.30798 -0.291541 0.823144 255 0 0
0.385936 -0.286749 0.877565 255 0 0
0.372095 -0.297569 0.865349 255 0 0
0.229542 -0.24308 0.796089 255 0 0
0.278784 -0.265199 0.816625 255 0 0
0.279454 -0.263653 0.817568 255 0 0
0.314057 -0.324377 0.842237 255 0 0
0.310819 -0.325354 0.846208 255 0 0
0.269074 -0.276277 0.824681 255 0 0
0.241561 -0.28009 0.804673 255 0 0
0.236734 -0.282097 0.808311 255 0 0
0.150221 -0.274554 0.783469 255 0 0
0.649979 -0.0598899 0.572406 255 0 0
0.68522 -0.0366498 0.617178 255 0 0
0.685135 -0.0281772 0.612921 255 0 0
0.504702 -0.105626 0.606262 255 0 0
0.343028 -0.288687 0.825198 255 0 0
0.423392 -0.212646 0.846209 255 0 0
0.425083 -0.213127 0.844388 255 0 0
0.424529 -0.212832 0.844694 255 0 0
0.422972 -0.213787 0.847425 255 0 0
0.235935 -0.249701 0.775139 255 0 0
0.417536 -0.225974 0.850164 255 0 0
0.416605 -0.226074 0.851631 255 0 0
0.415434 -0.229067 0.853972 255 0 0
0.304802 -0.21389 0.814517 255 0 0
0.447983 -0.257266 0.86245 255 0 0
0.301509 -0.210259 0.816263 255 0 0
0.466981 -0.273125 0.884634 255 0 0
0.298923 -0.207703 0.819085 255 0 0
0.47606 -0.274914 0.886549 255 0 0
0.449381 -0.258619 0.871869 255 0 0
0.444359 -0.26043 0.884197 255 0 0
0.321141 -0.303996 0.834625 255 0 0
0.427815 -0.146422 0.88507 255 0 0
0.577189 -0.158068 0.694301 255 0 0
0.574583 -0.158456 0.697894 255 0 0
0.582442 -0.158993 0.701039 255 0 0
0.578638 -0.159618 0.699973 255 0 0
0.57666 -0.158461 0.696029 255 0 0
0.577145 -0.158621 0.703305 255 0 0
0.575179 -0.159433 0.694882 255 0 0
0.578027 -0.159045 0.69958 255 0 0
0.570854 -0.159421 0.699364 255 0 0
0.566672 -0.159229 0.70123 255 0 0
0.567279 -0.159054 0.700957 255 0 0
0.528597 -0.160369 0.703747 255 0 0
0.527853 -0.15974 0.702684 255 0 0
0.493991 -0.141426 0.701245 255 0 0
0.549927 -0.194585 0.747516 255 0 0
0.471089 -0.277957 0.90288 255 0 0
0.472412 -0.274527 0.893686 255 0 0
0.472626 -0.27376 0.892362 255 0 0
0.481898 -0.282981 0.896969 255 0 0
0.493062 -0.288537 0.914539 255 0 0
0.241551 -0.338799 0.796412 255 0 0
0.233254 -0.342043 0.801904 255 0 0
0.224187 -0.348822 0.796548 255 0 0
0.223465 -0.349807 0.794535 255 0 0
0.225005 -0.347969 0.79194 255 0 0
0.170011 -0.360547 0.775237 255 0 0
0.39196 -0.273164 0.88025 255 0 0
0.396368 -0.272095 0.871599 255 0 0
0.394503 -0.27245 0.874867 255 0 0
0.396255 -0.27208 0.872847 255 0 0
0.225081 -0.286876 0.807255 255 0 0
0.366475 -0.298667 0.867859 255 0 0
0.367446 -0.298647 0.870368 255 0 0
0.359485 -0.305095 0.867326 255 0 0
0.162083 -0.37829 0.78365 255 0 0
0.19949 -0.276752 0.800097 255 0 0
0.211881 -0.294537 0.802302 255 0 0
0.217067 -0.303186 0.798305 255 0 0
0.143372 -0.286151 0.793528 255 0 0
0.510388 -0.310029 0.921837 255 0 0
0.363545 -0.306289 0.871175 255 0 0
0.525844 -0.296596 0.923964 255 0 0
0.525477 -0.297563 0.925297 255 0 0
0.211872 -0.308747 0.80463 255 0 0
0.184641 -0.376939 0.781826 255 0 0
0.181128 -0.378861 0.784546 255 0 0
0.17208 -0.379135 0.792118 255 0 0
0.520453 -0.302932 0.929436 255 0 0
0.195109 -0.29803 0.796681 255 0 0
0.14416 -0.265902 0.774937 255 0 0
0.196686 -0.296193 0.79371 255 0 0
0.224431 -0.306119 0.811684 255 0 0
0.140424 -0.398618 0.773171 255 0 0
0.520547 -0.301466 0.930497 255 0 0
0.306772 -0.322198 0.840317 255 0 0
0.302769 -0.325502 0.84947 255 0 0
0.157612 -0.262903 0.783846 255 0 0
0.154992 -0.265871 0.787412 255 0 0
0.0600059 -0.220511 0.775779 255 0 0
0.130364 -0.389653 0.770487 255 0 0
0.179439 -0.296728 0.79575 255 0 0
0.0808492 -0.223759 0.759891 255 0 0
0.421213 -0.307638 0.904031 255 0 0
0.118763 -0.393673 0.771454 255 0 0
0.122285 -0.391913 0.767477 255 0 0
0.292772 -0.341907 0.84988 255 0 0
0.296029 -0.340815 0.846439 255 0 0
0.517916 -0.325933 0.941615 255 0 0
0.506902 -0.317314 0.932621 255 0 0
0.321888 -0.337167 0.871802 255 0 0
0.488417 -0.343782 0.942703 255 0 0
0.421022 -0.361362 0.913713 255 0 0
0.388681 -0.368232 0.914643 255 0 0
0.391117 -0.366515 0.905037 255 0 0
0.39041 -0.360066 0.910534 255 0 0
0.266085 -0.361792 0.851563 255 0 0
0.37878 -0.341402 0.916705 255 0 0
0.390019 -0.342743 0.919846 255 0 0
0.369682 -0.357653 0.912525 255 0 0
0.368492 -0.355359 0.902776 255 0 0
0.363489 -0.358104 0.912716 255 0 0
0.336059 -0.348627 0.905203 255 0 0
0.241622 -0.381423 0.870177 255 0 0
0.535491 -0.360006 0.991047 255 0 0
0.333417 -0.356683 0.921099 255 0 0
0.0361963 -0.312591 0.794774 255 0 0
0.337612 -0.392798 0.956449 255 0 0
0.180533 -0.372915 0.775284 255 0 0
0.17964 -0.375317 0.780349 255 0 0
0.17805 -0.377882 0.787204 255 0 0
0.146367 -0.38378 0.771112 255 0 0
0.370675 -0.243974 0.851282 255 0 0
0.340568 -0.260981 0.838402 255 0 0
0.172503 -0.268431 0.783392 255 0 0
0.216441 -0.336888 0.808846 255 0 0
0.169088 -0.267173 0.784517 255 0 0
0.186869 -0.294072 0.801614 255 0 0
0.263996 -0.277182 0.821622 255 0 0
0.33308 -0.260734 0.857029 255 0 0
0.45129 -0.259445 0.870381 255 0 0
0.451064 -0.259552 0.870646 255 0 0
0.168734 -0.295448 0.800423 255 0 0
0.449316 -0.259582 0.87664 255 0 0
0.169355 -0.296546 0.802192 255 0 0
0.449933 -0.259379 0.874523 255 0 0
0.442494 -0.257987 0.874353 255 0 0
0.179169 -0.350502 0.801501 255 0 0
0.138374 -0.299429 0.787957 255 0 0
0.314089 -0.339747 0.919904 255 0 0
0.14025 -0.363952 0.792712 255 0 0
0.298678 -0.32911 0.856953 255 0 0
0.173207 -0.364218 0.822248 255 0 0
0.160404 -0.373652 0.85867 255 0 0
0.186096 -0.361628 0.830679 255 0 0
0.183267 -0.363297 0.828438 255 0 0
0.193165 -0.356319 0.80588 255 0 0
0.0347903 -0.294528 0.803094 255 0 0
0.0367899 -0.31091 0.793577 255 0 0
0.257713 -0.294216 0.844542 255 0 0
0.0365198 -0.309947 0.793794 255 0 0
0.36025 -0.317974 0.875371 255 0 0
0.265569 -0.362494 0.854518 255 0 0
0.254308 -0.37251 0.856154 255 0 0
0.257019 -0.371278 0.847472 255 0 0
0.253045 -0.373061 0.861447 255 0 0
0.375131 -0.322763 0.897128 255 0 0
0.350969 -0.3447 0.890246 255 0 0
0.481218 -0.237943 0.933374 255 0 0
0.335855 -0.340435 0.883819 255 0 0
0.395101 -0.363653 0.900579 255 0 0
0.381618 -0.339837 0.908243 255 0 0
0.379705 -0.341657 0.914962 255 0 0
0.333153 -0.351668 0.917607 255 0 0
0.424291 -0.343454 0.924347 255 0 0
0.439726 -0.370011 0.921572 255 0 0
0.426952 -0.341969 0.923097 255 0 0
0.435598 -0.374437 0.919899 255 0 0
0.425393 -0.337819 0.920127 255 0 0
0.434688 -0.389741 0.921883 255 0 0
0.442293 -0.376469 0.927407 255 0 0
0.334859 -0.380075 0.935499 255 0 0
0.393571 -0.34178 0.917028 255 0 0
0.447212 -0.362895 0.92946 255 0 0
0.463425 -0.359608 0.943137 255 0 0
0.444857 -0.384347 0.92395 255 0 0
0.445484 -0.311651 0.934963 255 0 0
0.447491 -0.389792 0.927573 255 0 0
0.447012 -0.310754 0.934334 255 0 0
0.455778 -0.377363 0.937549 255 0 0
0.45648 -0.377114 0.936059 255 0 0
-0.0399341 -0.317443 0.834883 255 0 0
-0.0453596 -0.318983 0.839637 255 0 0
0.0218524 -0.345906 0.887384 255 0 0
0.0212817 -0.346209 0.892682 255 0 0
0.640666 -0.079305 0.593844 255 0 0
0.55763 -0.0223129 0.541471 255 0 0
0.547803 -0.0196598 0.550824 255 0 0
0.555986 -0.0222587 0.542913 255 0 0
0.666853 -0.0685623 0.63203 255 0 0
0.663407 -0.0685525 0.630699 255 0 0
0.469281 -0.299919 0.878884 255 0 0
0.237789 -0.251251 0.7844 255 0 0
0.315646 -0.270582 0.808112 255 0 0
0.314406 -0.272353 0.809798 255 0 0
0.574379 -0.361697 0.92706 255 0 0
0.469451 -0.275856 0.897414 255 0 0
0.31655 -0.269073 0.80521 255 0 0
0.567233 -0.251123 0.931246 255 0 0
0.308665 -0.254084 0.814129 255 0 0
0.306125 -0.248508 0.812403 255 0 0
0.302846 -0.247098 0.818276 255 0 0
0.284424 -0.255159 0.822007 255 0 0
0.303153 -0.248673 0.816324 255 0 0
0.540305 -0.327976 0.916276 255 0 0
0.302122 -0.249426 0.816012 255 0 0
0.561176 -0.265967 0.934782 255 0 0
0.554887 -0.265344 0.936457 255 0 0
0.483844 -0.282824 0.89819 255 0 0
0.563224 -0.266387 0.931327 255 0 0
0.560382 -0.266336 0.934872 255 0 0
0.557732 -0.267487 0.940858 255 0 0
0.543169 -0.235683 0.950865 255 0 0
0.578273 -0.349132 0.937779 255 0 0
0.57834 -0.349342 0.937439 255 0 0
0.546612 -0.262438 0.92996 255 0 0
0.545338 -0.239915 0.93539 255 0 0
0.537802 -0.326079 0.934468 255 0 0
0.541206 -0.244535 0.935594 255 0 0
0.541132 -0.244747 0.93285 255 0 0
0.553265 -0.284661 0.940198 255 0 0
0.43279 -0.261709 0.884173 255 0 0
0.589506 -0.218734 0.934009 255 0 0
0.360081 -0.243952 0.828628 255 0 0
0.61596 -0.286773 0.950837 255 0 0
0.614995 -0.292111 0.969717 255 0 0
0.568783 -0.250082 0.930013 255 0 0
0.566474 -0.250915 0.939871 255 0 0
0.618735 -0.288309 0.943156 255 0 0
0.569764 -0.24956 0.926389 255 0 0
0.612981 -0.291848 0.967353 255 0 0
0.4681 -0.272642 0.882363 255 0 0
0.560691 -0.221569 0.929231 255 0 0
0.307381 -0.254206 0.814977 255 0 0
0.473219 -0.279121 0.885734 255 0 0
0.364613 -0.238417 0.839131 255 0 0
0.362496 -0.24104 0.841777 255 0 0
0.365978 -0.2419 0.836164 255 0 0
0.364074 -0.240405 0.842477 255 0 0
0.555528 -0.263778 0.934682 255 0 0
0.373358 -0.242841 0.854055 255 0 0
0.482614 -0.28269 0.894786 255 0 0
0.477285 -0.276958 0.886921 255 0 0
0.480575 -0.282317 0.894825 255 0 0
0.47082 -0.273977 0.896636 255 0 0
0.472714 -0.272803 0.893085 255 0 0
0.372005 -0.244433 0.84947 255 0 0
0.55331 -0.273893 0.934889 255 0 0
0.48152 -0.285894 0.911977 255 0 0
0.227901 -0.243912 0.797503 255 0 0
0.238616 -0.330061 0.826813 255 0 0
0.260642 -0.325707 0.799543 255 0 0
0.240849 -0.330097 0.824506 255 0 0
0.230927 -0.24241 0.795802 255 0 0
0.253321 -0.332014 0.796119 255 0 0
0.311594 -0.295776 0.82275 255 0 0
0.300709 -0.310559 0.826536 255 0 0
0.303941 -0.308493 0.823013 255 0 0
0.309822 -0.295044 0.824357 255 0 0
0.236903 -0.216059 0.811259 255 0 0
0.235739 -0.242162 0.792345 255 0 0
0.233058 -0.342434 0.800057 255 0 0
0.394486 -0.272796 0.872919 255 0 0
0.404617 -0.271268 0.864668 255 0 0
0.356353 -0.304121 0.863412 255 0 0
0.317829 -0.316448 0.825633 255 0 0
0.355656 -0.307024 0.86623 255 0 0
0.55572 -0.311169 0.950047 255 0 0
0.324696 -0.316711 0.841212 255 0 0
0.311704 -0.321671 0.836708 255 0 0
0.323912 -0.31725 0.842606 255 0 0
0.389228 -0.286018 0.874945 255 0 0
0.557197 -0.310607 0.947216 255 0 0
0.311804 -0.325113 0.842982 255 0 0
0.554677 -0.311998 0.968409 255 0 0
0.323287 -0.31843 0.845727 255 0 0
0.34466 -0.314123 0.86229 255 0 0
0.309 -0.319761 0.835775 255 0 0
0.310775 -0.319581 0.83049 255 0 0
0.311079 -0.316312 0.833353 255 0 0
0.348204 -0.315374 0.865029 255 0 0
0.356636 -0.312287 0.865392 255 0 0
0.219333 -0.333819 0.801317 255 0 0
0.328043 -0.32268 0.846645 255 0 0
0.220074 -0.333507 0.80118 255 0 0
0.312249 -0.332628 0.854771 255 0 0
0.357069 -0.31787 0.877707 255 0 0
0.559838 -0.309011 0.96903 255 0 0
0.522494 -0.324226 0.928159 255 0 0
0.362385 -0.318513 0.876359 255 0 0
0.483859 -0.245012 0.949617 255 0 0
0.146922 -0.286051 0.793328 255 0 0
0.36425 -0.319004 0.876876 255 0 0
0.237583 -0.339534 0.801769 255 0 0
0.39114 -0.274091 0.88316 255 0 0
0.23484 -0.342117 0.798637 255 0 0
0.388599 -0.285548 0.872295 255 0 0
0.388001 -0.28629 0.874396 255 0 0
0.320382 -0.319021 0.847803 255 0 0
0.382926 -0.289458 0.883362 255 0 0
0.382366 -0.289019 0.883238 255 0 0
0.324235 -0.318151 0.844027 255 0 0
0.31359 -0.324865 0.84439 255 0 0
0.264389 -0.281056 0.820877 255 0 0
0.357228 -0.309886 0.866666 255 0 0
0.21463 -0.335958 0.80715 255 0 0
0.297688 -0.323561 0.845994 255 0 0
0.35809 -0.310872 0.862893 255 0 0
0.356675 -0.312137 0.867098 255 0 0
0.561022 -0.308102 0.968828 255 0 0
0.232406 -0.302161 0.819485 255 0 0
0.471136 -0.236875 0.9351 255 0 0
0.415174 -0.308667 0.917661 255 0 0
0.419688 -0.308148 0.906734 255 0 0
0.477424 -0.348251 0.935804 255 0 0
0.479695 -0.348446 0.928243 255 0 0
0.417065 -0.310043 0.912789 255 0 0
0.41764 -0.363933 0.918458 255 0 0
0.367003 -0.344871 0.901628 255 0 0
0.483209 -0.244889 0.954564 255 0 0
0.486948 -0.252714 0.962526 255 0 0
0.479118 -0.244778 0.959496 255 0 0
0.397654 -0.340627 0.916782 255 0 0
0.240916 -0.381627 0.867457 255 0 0
0.530925 -0.161161 0.705766 255 0 0
0.530156 -0.162134 0.707702 255 0 0
0.529611 -0.163602 0.709849 255 0 0
0.5441 -0.19586 0.753319 255 0 0
0.470744 -0.028278 0.761698 255 0 0
0.492636 -0.0317762 0.776416 255 0 0
0.470326 -0.0299727 0.767514 255 0 0
0.469131 -0.0293347 0.771473 255 0 0
0.47178 -0.0303116 0.768737 255 0 0
0.477774 -0.0312298 0.776612 255 0 0
0.469899 -0.0297053 0.769282 255 0 0
0.490663 -0.0329474 0.782907 255 0 0
0.663829 -0.0694648 0.630142 255 0 0
0.663469 -0.0690549 0.631039 255 0 0
0.65962 -0.0738289 0.634047 255 0 0
0.636777 -0.228044 0.911291 255 0 0
0.377494 -0.272469 0.789246 255 0 0
0.615745 -0.286229 0.951905 255 0 0
0.564879 -0.218918 0.930056 255 0 0
0.41659 -0.225769 0.851953 255 0 0
0.417187 -0.226458 0.85135 255 0 0
0.339438 -0.243207 0.808565 255 0 0
0.464471 -0.274365 0.888855 255 0 0
0.470627 -0.281809 0.896463 255 0 0
0.535398 -0.275128 0.929958 255 0 0
0.469832 -0.273674 0.895256 255 0 0
0.470974 -0.272659 0.8943 255 0 0
0.312784 -0.271361 0.808728 255 0 0
0.522653 -0.294692 0.927417 255 0 0
0.340939 -0.260455 0.839186 255 0 0
0.477012 -0.277734 0.899259 255 0 0
0.341877 -0.259556 0.837274 255 0 0
0.477221 -0.276513 0.895252 255 0 0
0.473164 -0.270778 0.890668 255 0 0
0.321331 -0.228035 0.815103 255 0 0
0.23503 -0.25013 0.769253 255 0 0
0.366632 -0.240721 0.840185 255 0 0
0.367812 -0.245678 0.840685 255 0 0
0.374312 -0.244533 0.843357 255 0 0
0.365226 -0.25758 0.847912 255 0 0
0.309926 -0.285659 0.812684 255 0 0
0.306619 -0.26206 0.814444 255 0 0
0.305288 -0.287804 0.817027 255 0 0
0.305277 -0.288627 0.815019 255 0 0
0.648308 -0.0933833 0.645164 255 0 0
0.649539 -0.0879557 0.642158 255 0 0
0.647773 -0.0885622 0.644288 255 0 0
0.648282 -0.0887395 0.64368 255 0 0
0.652943 -0.0919091 0.645805 255 0 0
0.652387 -0.0926751 0.644625 255 0 0
0.632848 -0.0958818 0.637662 255 0 0
0.632122 -0.0960694 0.638749 255 0 0
0.657814 -0.102532 0.655523 255 0 0
0.560207 -0.114132 0.595483 255 0 0
0.630988 -0.0957137 0.639278 255 0 0
0.639081 -0.0939296 0.64243 255 0 0
0.638928 -0.0942874 0.641952 255 0 0
0.638675 -0.0942163 0.641801 255 0 0
0.622316 -0.177382 0.864911 255 0 0
0.619837 -0.179144 0.864117 255 0 0
0.621903 -0.178363 0.860996 255 0 0
0.429629 -0.192013 0.839398 255 0 0
0.431763 -0.19089 0.836855 255 0 0
0.588478 -0.199806 0.916407 255 0 0
0.417651 -0.199519 0.839713 255 0 0
0.4251 -0.212977 0.845407 255 0 0
0.422451 -0.218149 0.848305 255 0 0
0.601816 -0.0716694 0.536847 255 0 0
0.609743 -0.117629 0.644413 255 0 0
0.639895 -0.119084 0.667278 255 0 0
0.60787 -0.122241 0.649083 255 0 0
0.606542 -0.122635 0.647834 255 0 0
0.604425 -0.123202 0.651152 255 0 0
0.603434 -0.128463 0.652447 255 0 0
0.603481 -0.128253 0.651686 255 0 0
0.468376 -0.0611954 0.580968 255 0 0
0.608733 -0.13648 0.667672 255 0 0
0.590348 -0.137168 0.657455 255 0 0
0.505332 -0.0827586 0.558651 255 0 0
0.618753 -0.140952 0.684203 255 0 0
0.603399 -0.149793 0.690438 255 0 0
0.602045 -0.151246 0.691546 255 0 0
0.440601 -0.102354 0.627508 255 0 0
0.614789 -0.15533 0.699721 255 0 0
0.470703 -0.105027 0.609387 255 0 0
0.464168 -0.105386 0.614213 255 0 0
0.468025 -0.104568 0.609263 255 0 0
0.462372 -0.10466 0.614254 255 0 0
0.441663 -0.0399099 0.589942 255 0 0
0.422876 -0.0386084 0.601607 255 0 0
0.426959 -0.0413112 0.600214 255 0 0
0.608968 -0.161363 0.702849 255 0 0
0.421058 -0.0485382 0.597146 255 0 0
0.596049 -0.157778 0.695942 255 0 0
0.595728 -0.158123 0.696195 255 0 0
0.460528 -0.107884 0.615736 255 0 0
0.595127 -0.15863 0.696034 255 0 0
0.61032 -0.161501 0.705064 255 0 0
0.596074 -0.158805 0.698668 255 0 0
0.553495 -0.131025 0.67678 255 0 0
0.417765 -0.0532542 0.603517 255 0 0
0.417762 -0.0531304 0.603523 255 0 0
0.548779 -0.132609 0.680357 255 0 0
0.412819 -0.0564058 0.607118 255 0 0
0.581601 -0.161197 0.704541 255 0 0
0.582783 -0.160845 0.705514 255 0 0
0.533029 -0.133307 0.681508 255 0 0
0.527874 -0.15913 0.701851 255 0 0
0.528553 -0.161811 0.706547 255 0 0
0.528782 -0.161812 0.706686 255 0 0
0.528817 -0.162385 0.707843 255 0 0
0.530007 -0.162387 0.708565 255 0 0
0.427732 -0.0571201 0.6615 255 0 0
0.551039 -0.178072 0.726435 255 0 0
0.547618 -0.179747 0.729413 255 0 0
0.376255 -0.178571 0.635708 255 0 0
0.373127 -0.251433 0.822543 255 0 0
0.382168 -0.266468 0.828346 255 0 0
0.405622 -0.229667 0.845677 255 0 0
0.546594 -0.252944 0.932266 255 0 0
0.455337 -0.260868 0.876695 255 0 0
0.456226 -0.261132 0.874879 255 0 0
0.430851 -0.240223 0.86126 255 0 0
0.456627 -0.2616 0.875795 255 0 0
0.452053 -0.259572 0.873884 255 0 0
0.41613 -0.233673 0.853443 255 0 0
0.4519 -0.259256 0.873778 255 0 0
0.383038 -0.270038 0.831389 255 0 0
0.545747 -0.262883 0.93114 255 0 0
0.54555 -0.263043 0.932874 255 0 0
0.380073 -0.268471 0.831561 255 0 0
0.467526 -0.277977 0.884674 255 0 0
0.468294 -0.278622 0.886036 255 0 0
0.468546 -0.27447 0.886678 255 0 0
0.363973 -0.254974 0.825208 255 0 0
0.551051 -0.282511 0.937819 255 0 0
0.539285 -0.246284 0.935373 255 0 0
0.510212 -0.296826 0.913833 255 0 0
0.531585 -0.277217 0.938814 255 0 0
0.356489 -0.246057 0.833409 255 0 0
0.502245 -0.28748 0.910515 255 0 0
0.506382 -0.296264 0.913185 255 0 0
0.507004 -0.295515 0.913609 255 0 0
0.494795 -0.287882 0.907849 255 0 0
0.351133 -0.242653 0.8375 255 0 0
0.362977 -0.253958 0.823164 255 0 0
0.477573 -0.276934 0.902439 255 0 0
0.470117 -0.281555 0.896562 255 0 0
0.470342 -0.281284 0.896716 255 0 0
0.469872 -0.274137 0.897825 255 0 0
0.469809 -0.273459 0.897106 255 0 0
0.468669 -0.278121 0.896365 255 0 0
0.476125 -0.27783 0.902948 255 0 0
0.312154 -0.252551 0.809968 255 0 0
0.313247 -0.253112 0.809476 255 0 0
0.436294 -0.260897 0.878384 255 0 0
0.38508 -0.258585 0.8554 255 0 0
0.383961 -0.255292 0.848445 255 0 0
0.422333 -0.256899 0.874044 255 0 0
0.430097 -0.260107 0.879249 255 0 0
0.475278 -0.233934 0.902324 255 0 0
0.336109 -0.227092 0.825256 255 0 0
0.435443 -0.261616 0.879396 255 0 0
0.43735 -0.259693 0.874379 255 0 0
0.312937 -0.271979 0.809632 255 0 0
0.469721 -0.236316 0.906279 255 0 0
0.468489 -0.236897 0.907917 255 0 0
0.335052 -0.227751 0.827854 255 0 0
0.363231 -0.248986 0.844096 255 0 0
0.316703 -0.28244 0.815019 255 0 0
0.303237 -0.24901 0.814446 255 0 0
0.304727 -0.247533 0.813517 255 0 0
0.300488 -0.24444 0.815018 255 0 0
0.297225 -0.162506 0.819006 255 0 0
0.232721 -0.247069 0.77871 255 0 0
0.40689 -0.269327 0.883119 255 0 0
0.393207 -0.273119 0.876234 255 0 0
0.397921 -0.277269 0.874643 255 0 0
0.365595 -0.296746 0.860395 255 0 0
0.420925 0.0467026 0.916178 255 0 0
0.369969 -0.2981 0.868114 255 0 0
0.241424 -0.263753 0.792796 255 0 0
0.239664 -0.265079 0.795373 255 0 0
0.235128 -0.26148 0.79474 255 0 0
0.476785 -0.238213 0.930541 255 0 0
0.161429 -0.225531 0.760758 255 0 0
0.170788 -0.235841 0.76671 255 0 0
0.492808 -0.257767 0.96206 255 0 0
0.134532 -0.21345 0.827173 255 0 0
0.185537 -0.203726 0.78272 255 0 0
0.188087 -0.203031 0.780361 255 0 0
0.228559 -0.288385 0.805501 255 0 0
0.204015 -0.227102 0.794622 255 0 0
0.217738 -0.300633 0.802642 255 0 0
0.170982 -0.257114 0.777673 255 0 0
0.220263 -0.303728 0.804216 255 0 0
0.202201 -0.225203 0.800665 255 0 0
0.183892 -0.278532 0.789993 255 0 0
0.187181 -0.284766 0.792124 255 0 0
0.142312 -0.272007 0.767145 255 0 0
0.136468 -0.292768 0.817156 255 0 0
0.144349 -0.25997 0.778478 255 0 0
0.130856 -0.252903 0.771931 255 0 0
0.149995 -0.275987 0.793384 255 0 0
0.132312 -0.260864 0.776528 255 0 0
0.136192 -0.258906 0.779696 255 0 0
0.131348 -0.257936 0.777296 255 0 0
0.358706 0.106576 0.936933 255 0 0
0.160207 -0.286952 0.794108 255 0 0
0.149828 -0.310196 0.789671 255 0 0
0.347547 0.099641 0.944125 255 0 0
0.35018 0.0980002 0.940695 255 0 0
0.350169 0.098561 0.940415 255 0 0
0.349624 0.0991529 0.941161 255 0 0
0.144002 -0.291053 0.79541 255 0 0
0.138731 -0.308419 0.794537 255 0 0
0.133505 -0.311881 0.793036 255 0 0
0.317225 -0.0979699 1.01388 255 0 0
0.264787 -0.121058 1.11874 255 0 0
0.648333 -0.0642456 0.577374 255 0 0
0.683338 -0.016729 0.572811 255 0 0
0.682266 -0.0177583 0.574202 255 0 0
0.430828 -0.00556011 0.683612 255 0 0
0.666811 -0.164436 0.821314 255 0 0
0.665696 -0.166415 0.823362 255 0 0
0.666203 -0.165102 0.825543 255 0 0
0.337719 -0.0200061 0.644204 255 0 0
0.337872 -0.0201795 0.644286 255 0 0
0.513918 -0.0221285 0.757807 255 0 0
0.510067 -0.0179203 0.766935 255 0 0
0.500217 -0.0150293 0.762548 255 0 0
0.405752 -0.130343 0.70783 255 0 0
0.404235 -0.13266 0.708174 255 0 0
0.411635 -0.136154 0.702202 255 0 0
0.401787 -0.134974 0.709828 255 0 0
0.469179 -0.0263052 0.757565 255 0 0
0.408032 -0.13689 0.706705 255 0 0
0.401774 -0.13741 0.711778 255 0 0
0.402166 -0.136793 0.712053 255 0 0
0.646052 -0.186424 0.850713 255 0 0
0.643956 -0.187463 0.855694 255 0 0
0.55872 -0.196961 0.803932 255 0 0
0.466451 -0.0279846 0.759791 255 0 0
0.321031 -0.163652 0.664088 255 0 0
0.319124 -0.16315 0.666919 255 0 0
0.397577 -0.135622 0.712623 255 0 0
0.466572 -0.0283168 0.762671 255 0 0
0.558643 -0.196566 0.806719 255 0 0
0.502797 -0.029006 0.784328 255 0 0
0.509066 -0.0364534 0.789312 255 0 0
0.47902 -0.0271356 0.772143 255 0 0
0.558368 -0.197372 0.810249 255 0 0
0.501292 -0.0307715 0.786121 255 0 0
0.55894 -0.197496 0.811524 255 0 0
0.46876 -0.0301917 0.768548 255 0 0
0.32008 -0.158531 0.671545 255 0 0
0.471647 -0.0290478 0.770603 255 0 0
0.296789 -0.130379 0.659457 255 0 0
0.55736 -0.197181 0.813865 255 0 0
0.557622 -0.197026 0.814033 255 0 0
0.280287 -0.0858153 0.672348 255 0 0
0.279608 -0.0850461 0.671985 255 0 0
0.405535 -0.0349628 0.752892 255 0 0
0.404214 -0.0323004 0.753894 255 0 0
0.434931 -0.0297105 0.773838 255 0 0
0.4007 -0.0325743 0.75409 255 0 0
0.411347 0.0553034 0.7753 255 0 0
0.34322 -0.12828 0.728609 255 0 0
0.286894 -0.143469 0.694526 255 0 0
0.339985 -0.127093 0.726956 255 0 0
0.300524 -0.0928561 0.708918 255 0 0
0.335957 -0.123602 0.729178 255 0 0
0.335953 -0.122809 0.729459 255 0 0
0.338875 -0.12361 0.73118 255 0 0
0.298826 -0.0947906 0.709644 255 0 0
0.638262 -0.227055 0.907189 255 0 0
0.339738 -0.124843 0.733501 255 0 0
0.299228 -0.0920981 0.712859 255 0 0
0.489208 -0.0552085 0.855187 255 0 0
0.292172 -0.095044 0.739524 255 0 0
0.292663 -0.0952907 0.740041 255 0 0
0.376468 -0.273061 0.789987 255 0 0
0.305263 -0.0911505 0.68242 255 0 0
0.245793 -0.0892855 0.729166 255 0 0
0.578743 -0.206056 0.922562 255 0 0
0.578957 -0.20596 0.923129 255 0 0
0.248697 -0.0877565 0.731014 255 0 0
0.340412 -0.0642283 0.808794 255 0 0
0.423486 -0.19901 0.842227 255 0 0
0.415176 -0.196123 0.839943 255 0 0
0.422467 -0.196237 0.845291 255 0 0
0.42444 -0.212137 0.845388 255 0 0
0.406337 -0.209197 0.845534 255 0 0
0.41065 -0.207702 0.840187 255 0 0
0.41943 -0.22302 0.84729 255 0 0
0.55804 -0.226371 0.930515 255 0 0
0.37135 -0.247743 0.819584 255 0 0
0.371739 -0.248185 0.819794 255 0 0
0.685309 -0.0368682 0.617302 255 0 0
0.474315 -0.0595432 0.840513 255 0 0
0.471815 -0.0617539 0.839863 255 0 0
0.471541 -0.0601413 0.8465 255 0 0
0.422702 -0.213097 0.846579 255 0 0
0.422703 -0.213304 0.846566 255 0 0
0.422702 -0.213304 0.846567 255 0 0
0.422913 -0.21334 0.846912 255 0 0
0.423624 -0.213673 0.84752 255 0 0
0.420454 -0.220065 0.85136 255 0 0
0.341542 -0.242712 0.806429 255 0 0
0.41942 -0.222332 0.852107 255 0 0
0.556654 -0.227211 0.931142 255 0 0
0.556203 -0.227268 0.931112 255 0 0
0.405979 -0.228822 0.846088 255 0 0
0.455764 -0.259291 0.875534 255 0 0
0.400784 -0.234489 0.846416 255 0 0
0.547675 -0.259629 0.930826 255 0 0
0.33179 -0.234435 0.823194 255 0 0
0.335584 -0.234278 0.818873 255 0 0
0.339305 -0.232158 0.815429 255 0 0
0.338178 -0.230139 0.815166 255 0 0
0.415637 -0.149508 0.866568 255 0 0
0.405077 -0.242595 0.853785 255 0 0
0.425674 -0.146544 0.872934 255 0 0
0.228256 -0.251184 0.767283 255 0 0
0.238559 -0.240291 0.768902 255 0 0
0.313557 -0.249725 0.811299 255 0 0
0.237627 -0.245865 0.757269 255 0 0
0.483935 -0.264564 0.904852 255 0 0
0.48274 -0.26441 0.907035 255 0 0
0.308199 -0.245592 0.811329 255 0 0
0.301607 -0.234544 0.815253 255 0 0
0.308104 -0.245732 0.811394 255 0 0
0.300362 -0.0607777 0.824761 255 0 0
0.316086 -0.266038 0.821908 255 0 0
0.422601 -0.14704 0.891196 255 0 0
0.422983 -0.146805 0.891431 255 0 0
0.296993 -0.189363 0.817377 255 0 0
0.315323 -0.257031 0.823976 255 0 0
0.29624 -0.0663199 0.827087 255 0 0
0.296008 -0.0656448 0.827006 255 0 0
0.297227 -0.0683632 0.828189 255 0 0
0.297751 -0.0685355 0.828703 255 0 0
0.237082 -0.259101 0.781872 255 0 0
0.295077 -0.070505 0.83027 255 0 0
0.41944 0.0183192 0.910235 255 0 0
0.419754 0.0177339 0.910374 255 0 0
0.30183 -0.0735874 0.837097 255 0 0
0.301496 -0.0726003 0.837441 255 0 0
0.415988 0.0244979 0.909881 255 0 0
0.416292 0.0250787 0.910096 255 0 0
0.422048 0.0298059 0.913703 255 0 0
0.421278 0.0284114 0.913166 255 0 0
0.420465 0.027401 0.912633 255 0 0
0.422079 0.0295187 0.914391 255 0 0
0.295158 -0.0604158 0.83612 255 0 0
0.425493 0.0220281 0.91601 255 0 0
0.236595 -0.262197 0.793111 255 0 0
0.237127 -0.264078 0.793655 255 0 0
0.240564 -0.267457 0.79789 255 0 0
0.274509 -0.266114 0.825914 255 0 0
0.380538 0.121988 0.908196 255 0 0
0.377468 0.12123 0.907552 255 0 0
0.384948 0.00306624 0.903393 255 0 0
0.38459 0.000735835 0.903251 255 0 0
0.222676 -0.252543 0.794008 255 0 0
0.382114 9.56399e-05 0.902724 255 0 0
0.382153 -0.000709311 0.902689 255 0 0
0.388278 -0.0012535 0.906808 255 0 0
0.345792 0.104484 0.89068 255 0 0
0.34646 0.104695 0.891074 255 0 0
0.396258 0.105451 0.919354 255 0 0
0.346279 0.104224 0.890938 255 0 0
0.346279 0.104224 0.890939 255 0 0
0.347848 0.10644 0.892682 255 0 0
0.385428 -0.00245825 0.906256 255 0 0
0.347929 0.106111 0.892932 255 0 0
0.382334 0.125132 0.91405 255 0 0
0.368894 0.119987 0.906288 255 0 0
0.36802 0.119108 0.905729 255 0 0
0.357381 0.111829 0.899168 255 0 0
0.353993 0.109928 0.897338 255 0 0
0.378714 -0.00197761 0.903417 255 0 0
0.378202 -0.00198928 0.903135 255 0 0
0.376186 0.124931 0.930131 255 0 0
0.375917 0.124582 0.930184 255 0 0
0.375316 0.124088 0.929808 255 0 0
0.372158 0.121061 0.932634 255 0 0
0.37411 0.115994 0.933372 255 0 0
0.375276 0.116184 0.934737 255 0 0
0.372771 0.117278 0.933626 255 0 0
0.369581 0.118451 0.933287 255 0 0
0.369847 0.118168 0.933418 255 0 0
0.367535 0.115932 0.933786 255 0 0
0.367346 0.115163 0.934084 255 0 0
0.364954 0.112089 0.934577 255 0 0
0.353268 0.10454 0.942376 255 0 0
0.352647 0.104526 0.942025 255 0 0
0.352709 0.103247 0.941971 255 0 0
0.349055 0.0994766 0.942843 255 0 0
0.346976 0.0991695 0.942793 255 0 0
0.313148 -0.213582 0.902163 255 0 0
0.317988 -0.0993689 1.01601 255 0 0
0.201132 -0.107383 0.986263 255 0 0
0.682294 -0.0172066 0.573336 255 0 0
0.682701 -0.018186 0.574417 255 0 0
0.649895 -0.0598919 0.572358 255 0 0
0.0778336 -0.306068 0.793207 255 0 0
0.364941 -0.241152 0.838622 255 0 0
0.0593291 -0.0341138 0.491359 255 0 0
0.447565 -0.258605 0.875087 255 0 0
0.440637 -0.259196 0.879621 255 0 0
0.416884 -0.229974 0.847281 255 0 0
0.326874 -0.240803 0.828831 255 0 0
0.000578805 0.00249549 0.419292 255 0 0
0.187756 -0.315422 0.800863 255 0 0
0.192932 -0.176791 0.664107 255 0 0
0.427202 -0.36837 0.91518 255 0 0
0.678513 -0.205514 0.891363 255 0 0
0.271977 -0.276401 0.82904 255 0 0
0.277686 -0.260774 0.826997 255 0 0
0.101201 -0.241608 0.774085 255 0 0
0.277554 -0.267136 0.812878 255 0 0
0.185353 0.0351748 1.08041 255 0 0
0.464175 -0.0315317 0.767925 255 0 0
0.0209157 -0.0756554 0.67776 255 0 0
0.364487 -0.240064 0.8365 255 0 0
0.0622499 -0.0832315 0.640203 255 0 0
0.062611 -0.082294 0.648308 255 0 0
0.197848 -0.36746 0.805228 255 0 0
0.4176 -0.22852 0.850423 255 0 0
0.441556 -0.378138 0.923966 255 0 0
0.24184 -0.197924 0.751823 255 0 0
0.381916 -0.281069 0.843527 255 0 0
0.338027 -0.354391 0.922311 255 0 0
0.437673 -0.373233 0.920911 255 0 0
0.441379 -0.378164 0.922278 255 0 0
0.342057 -0.290274 0.843347 255 0 0
0.376118 -0.357566 0.908044 255 0 0
0.419641 -0.365455 0.912323 255 0 0
0.188905 -0.315003 0.801462 255 0 0
0.149241 -0.281766 0.775632 255 0 0
-0.112436 -0.23168 0.633759 255 0 0
0.184875 -0.315947 0.802441 255 0 0
0.193624 -0.27236 0.799133 255 0 0
0.629013 -0.132857 0.683201 255 0 0
0.408913 -0.208626 0.8415 255 0 0
0.425214 -0.158778 1.23906 255 0 0
0.233148 -0.318848 0.869206 255 0 0
0.678527 -0.205525 0.895523 255 0 0
0.248877 -0.314199 0.85068 255 0 0
0.678916 -0.205507 0.890825 255 0 0
0.359446 -0.276406 0.841661 255 0 0
0.415422 -0.229185 0.844886 255 0 0
0.196309 -0.274397 0.799478 255 0 0
-0.0882701 -0.199948 0.666584 255 0 0
0.327573 -0.242983 0.83812 255 0 0
-0.00160112 -0.0182781 0.491 255 0 0
0.104977 -0.252109 0.77227 255 0 0
0.4701 -0.278304 0.912157 255 0 0
0.265813 -0.276046 0.823235 255 0 0
-0.0743932 -0.20132 0.663887 255 0 0
-0.105957 -0.211101 0.645697 255 0 0
0.0646298 -0.0833945 0.639691 255 0 0
0.312054 -0.270098 0.809049 255 0 0
-0.0804586 -0.203847 0.654719 255 0 0
0.0667195 -0.0839284 0.659824 255 0 0
0.337759 -0.259615 0.837884 255 0 0
0.341865 -0.261792 0.857341 255 0 0
0.0108929 -0.0135853 0.459271 255 0 0
0.0204778 -0.0759685 0.676148 255 0 0
0.342509 -0.294089 0.842965 255 0 0
0.423404 -0.371364 0.916357 255 0 0
0.409922 -0.203718 0.841378 255 0 0
0.256835 -0.292805 0.841114 255 0 0
0.304101 -0.225081 0.816026 255 0 0
0.00106348 -0.0268366 0.509786 255 0 0
0.397782 -0.316684 0.911674 255 0 0
0.267034 -0.277868 0.83403 255 0 0
0.271829 -0.270676 0.817836 255 0 0
0.271569 -0.27071 0.818266 255 0 0
0.408255 -0.203338 0.845848 255 0 0
0.526542 -0.313183 0.940202 255 0 0
0.342458 -0.294988 0.8432 255 0 0
0.201327 -0.312582 0.797707 255 0 0
0.129342 -0.257153 0.77867 255 0 0
0.0526055 -0.0332239 0.490894 255 0 0
0.0704503 -0.056755 0.568122 255 0 0
0.589848 -0.218365 0.932126 255 0 0
0.525414 -0.301137 0.929277 255 0 0
0.539679 -0.327315 0.940629 255 0 0
0.554042 -0.267416 0.933792 255 0 0
0.407135 -0.210069 0.840582 255 0 0
0.549336 -0.280908 0.935287 255 0 0
0.199929 -0.312504 0.799347 255 0 0
0.538523 -0.326084 0.943994 255 0 0
0.550342 -0.282319 0.937542 255 0 0
0.0373547 -0.312573 0.795831 255 0 0
0.548505 -0.280736 0.918503 255 0 0
0.518162 -0.306054 0.930694 255 0 0
0.589912 -0.353829 0.948503 255 0 0
0.536951 -0.156926 0.710227 255 0 0
0.550723 -0.282879 0.939089 255 0 0
0.557405 -0.310455 0.968541 255 0 0
0.396827 -0.316873 0.912185 255 0 0
0.431877 -0.19158 0.834996 255 0 0
0.427058 -0.194345 0.840323 255 0 0
0.369156 -0.282951 0.858312 255 0 0
0.554502 -0.362944 1.00904 255 0 0
0.529529 -0.334869 0.938537 255 0 0
0.246174 -0.280728 0.804233 255 0 0
0.179389 -0.25014 0.776396 255 0 0
0.563345 -0.265747 0.930562 255 0 0
0.554986 -0.266573 0.933732 255 0 0
0.408598 -0.202579 0.8433 255 0 0
0.408694 -0.202606 0.842254 255 0 0
0.678063 -0.205706 0.898045 255 0 0
-0.128514 -0.0346146 1.06519 255 0 0
0.341659 -0.260008 0.839225 255 0 0
0.400084 -0.233579 0.847822 255 0 0
0.678025 -0.205715 0.898899 255 0 0
-0.153219 -0.0666055 1.08457 255 0 0
0.408743 -0.0925673 0.645927 255 0 0
