11784.337489 0.0000000 0.0000000 0.0000000 0.0000000 0.0000000 0.0000000 1.0000000
11784.669260 -0.0894223 0.0096229 0.0129876 0.0106188 0.0334165 0.0511221 0.9980767
11784.706124 -0.0990121 0.0134523 0.0144209 0.0094568 0.0347732 0.0553259 0.9978178
11784.927305 -0.1474487 0.0199045 0.0150113 0.0093295 0.0434207 0.0595086 0.9972394
11786.401844 -0.2691493 -0.0397655 0.1056960 0.0140924 0.1441023 0.1630479 0.9759361
11786.807343 -0.3264047 -0.0422028 0.1348228 0.0040853 0.1603972 0.2024958 0.9660494
11787.728930 -0.4154292 -0.1301176 0.2172434 0.0136056 0.2126368 0.2530065 0.9437098
11788.429336 -0.5148035 -0.1563174 0.2480630 0.0407845 0.2803542 0.3446431 0.8949633
11788.687380 -0.5073235 -0.1870146 0.2939869 0.0421363 0.2943497 0.3800457 0.8758699
11788.908561 -0.5014675 -0.2210941 0.3174964 0.0406911 0.3024879 0.4008165 0.8638238
11789.129742 -0.5103555 -0.2541764 0.3312279 0.0468457 0.3168994 0.4050532 0.8563365
11789.608968 -0.6012682 -0.3084391 0.3932319 0.0467712 0.3769652 0.4697718 0.7968840
11789.793285 -0.6506073 -0.3285322 0.4066653 0.0519155 0.4018769 0.4864976 0.7740283
11790.051329 -0.6720133 -0.3596994 0.4207345 0.0600196 0.4349516 0.5108733 0.7390692
11790.272510 -0.6535318 -0.3856291 0.4575813 0.0722603 0.4477749 0.5373076 0.7110391
11790.493691 -0.6265721 -0.4196656 0.4869002 0.0822985 0.4554152 0.5695263 0.6793113
11791.304688 -0.6310285 -0.5779938 0.6025784 0.1052281 0.5299803 0.6641062 0.5167308
11791.599596 -0.6086953 -0.6305273 0.6403255 0.0958548 0.5491772 0.6844673 0.4698092
11792.115685 -0.4806671 -0.6719354 0.6793605 0.1011559 0.5669877 0.7282594 0.3713902
11792.373729 -0.4402031 -0.7002039 0.6855389 0.0927775 0.5768694 0.7443827 0.3232778
11792.631773 -0.3886592 -0.7463142 0.7144328 0.0952082 0.5901780 0.7616985 0.2498812
11792.889818 -0.3353424 -0.8072870 0.7480313 0.1013075 0.5920977 0.7745442 0.1980867
11793.258453 -0.2578838 -0.8098321 0.7588682 0.0906887 0.5938939 0.7915711 0.1117176
11793.553361 -0.1993197 -0.7894912 0.7409071 0.1030743 0.5870742 0.8018885 0.0411646
11794.069449 -0.1115638 -0.8181365 0.7386459 0.1035923 0.5811511 0.8009807 -0.0998096
11794.401221 -0.0300352 -0.8620375 0.7485796 0.1032328 0.5703883 0.7918373 -0.1923379
11794.843582 0.0200309 -0.8132335 0.7233575 0.0951035 0.5394636 0.7755863 -0.3136879
11795.138490 0.0581269 -0.7589250 0.6708078 0.1077021 0.5285873 0.7724922 -0.3350394
11795.728306 0.2088093 -0.7245964 0.6037948 0.0949533 0.4946868 0.7415749 -0.4430976
11796.096941 0.2658243 -0.7121401 0.5740438 -0.0792848 -0.4647497 -0.7093479 0.5239725
11796.354985 0.2562431 -0.6443876 0.5461765 -0.1002838 -0.4482214 -0.6878067 0.5621056
11797.018528 0.2987825 -0.5553001 0.4576468 -0.0885523 -0.3851707 -0.6224859 0.6755097
11797.313436 0.3691644 -0.5198927 0.3967733 -0.0799213 -0.3541634 -0.5636807 0.7419198
11797.682071 0.3528252 -0.4441943 0.3533639 -0.0857052 -0.3188447 -0.5203778 0.7875276
11797.976979 0.2940744 -0.3877890 0.3130143 -0.0837998 -0.2993332 -0.4855586 0.8170741
11798.308750 0.2521349 -0.3399817 0.2685519 -0.0798794 -0.2666284 -0.4480969 0.8495515
11798.640522 0.2315004 -0.2607536 0.1985136 -0.0619626 -0.1961628 -0.3675147 0.9069806
11798.972293 0.2033562 -0.2020177 0.1708881 -0.0698246 -0.1376530 -0.3008200 0.9411076
11799.304065 0.1119205 -0.1614308 0.1874382 -0.0697592 -0.0972193 -0.2199855 0.9681365
11799.672699 0.0180627 -0.1389544 0.1701009 -0.0638791 -0.0317538 -0.1613993 0.9843076
11800.668014 -0.2357203 -0.0856365 0.2003538 -0.0470332 0.1275829 0.0737285 0.9879649
11800.999785 -0.3137233 -0.1263294 0.2354013 -0.0511974 0.1653150 0.1175766 0.9778678
11802.953550 -0.5550402 -0.4427522 0.5161723 -0.0011399 0.4403911 0.5058243 0.7417520
11803.653956 -0.4181557 -0.5434176 0.5914828 -0.0000510 0.5029541 0.6276486 0.5942175
11806.197537 -0.0492070 -0.7111534 0.6932421 0.0798365 0.5348340 0.8206381 -0.1847482
11806.639899 0.0235651 -0.6818841 0.6473632 0.0757023 0.5001827 0.8001235 -0.3223178
11807.155987 0.1509919 -0.6475764 0.6015569 0.0775523 0.4394596 0.7584584 -0.4749756
11807.524622 0.1685668 -0.5771717 0.5533904 -0.0961127 -0.3966170 -0.7141778 0.5686891
11807.893257 0.2081869 -0.5256431 0.4922210 -0.0931845 -0.3423508 -0.6616548 0.6605495
11808.335619 0.2966360 -0.4400044 0.4028843 -0.1074035 -0.2799467 -0.5635527 0.7697420
11808.704254 0.2505921 -0.3611936 0.3621523 -0.1031877 -0.2236781 -0.4822919 0.8406634
11809.109752 0.1839764 -0.2850347 0.3239512 -0.1227066 -0.1785532 -0.4231144 0.8797932
11809.515250 0.1583868 -0.1651023 0.2994143 -0.1505313 -0.1024311 -0.3111946 0.9327412
11809.920749 0.1173013 -0.1066833 0.3137020 -0.1597004 -0.0235883 -0.2148702 0.9632083
11810.473701 -0.0343791 -0.0739210 0.3519662 -0.1885444 0.0235472 -0.1056551 0.9760807
11811.395288 -0.2747426 -0.0719722 0.3671951 -0.1603382 0.1454184 0.1212891 0.9687281
11811.763923 -0.3401537 -0.0980843 0.4115018 -0.1628657 0.1807671 0.2091267 0.9471347
11812.095695 -0.4198350 -0.1290092 0.4414091 -0.1357443 0.2283593 0.2964289 0.9173633
11812.464329 -0.4696847 -0.1608611 0.4801657 -0.1440328 0.2782943 0.3800802 0.8702562
11812.796101 -0.4854768 -0.2302850 0.5424576 -0.1225030 0.3096281 0.4370303 0.8355405
11813.238463 -0.4784660 -0.3406133 0.6047910 -0.1178028 0.3474503 0.4922453 0.7893639
11813.643961 -0.5184623 -0.4016810 0.6540118 -0.0905409 0.3997522 0.5760443 0.7072294
11814.012596 -0.4910880 -0.4183416 0.6824946 -0.0751231 0.4306490 0.6582566 0.6128591
11814.307504 -0.4314677 -0.4511788 0.7067516 -0.0572017 0.4200415 0.7097202 0.5626637
11815.007910 -0.3861160 -0.5849867 0.7849166 -0.0127636 0.4700327 0.7899104 0.3936342
11815.450272 -0.3212081 -0.6218809 0.8010814 0.0053194 0.4891749 0.8300058 0.2678992
11815.855770 -0.2325928 -0.6295995 0.8010741 0.0260504 0.4742661 0.8587314 0.1922848
11816.150678 -0.1692946 -0.6501486 0.8037035 0.0350905 0.4801908 0.8691633 0.1128740
11816.445586 -0.0952139 -0.6906787 0.8137610 0.0779294 0.4773059 0.8745592 0.0353875
11816.887948 -0.0148517 -0.6615698 0.7916109 0.0879416 0.4623785 0.8775809 -0.0912363
11817.293446 0.0422003 -0.6214690 0.7363902 0.1185888 0.4439119 0.8674959 -0.1906039
11817.698944 0.1284485 -0.5839900 0.6928333 0.1251656 0.4225382 0.8419055 -0.3114325
11818.104443 0.1996042 -0.5413314 0.6637099 0.1461869 0.3796806 0.8134028 -0.4157499
11818.509941 0.1955953 -0.4587465 0.6135501 -0.1828483 -0.3393585 -0.7603119 0.5228078
11819.026030 0.2340212 -0.3578375 0.5196536 -0.1804715 -0.3024997 -0.6852562 0.6374543
11819.136621 0.2475961 -0.3364260 0.4885244 -0.1868232 -0.2906695 -0.6683446 0.6587289
11819.357801 0.2599554 -0.2985683 0.4487404 -0.1944545 -0.2739184 -0.6345237 0.6960860
11819.394665 0.2558829 -0.2906888 0.4439799 -0.1938787 -0.2688288 -0.6298364 0.7024587
11819.505255 0.2381614 -0.2611553 0.4316757 -0.1871128 -0.2533677 -0.6148628 0.7230058
11819.542119 0.2302451 -0.2515225 0.4290878 -0.1840101 -0.2510651 -0.6086136 0.7298603
11819.615846 0.2146455 -0.2353652 0.4246537 -0.1807633 -0.2489755 -0.5915683 0.7452401
11819.652709 0.2048570 -0.2273343 0.4206064 -0.1830991 -0.2431927 -0.5829477 0.7533287
11819.763300 0.1848978 -0.2161379 0.4124613 -0.1965136 -0.2359817 -0.5539684 0.7738307
11820.058208 0.1413523 -0.2011416 0.3823751 -0.1905003 -0.1884748 -0.4922549 0.8281739
11820.500570 0.1032516 -0.1159153 0.3298725 -0.2040105 -0.1106847 -0.3545183 0.9057844
11820.832341 0.0493716 -0.0829823 0.3153563 -0.1874351 -0.0536244 -0.2662634 0.9439790
11821.237839 -0.0728330 -0.0712897 0.3318101 -0.1938733 -0.0304301 -0.1696454 0.9657679
11821.606474 -0.1609864 -0.0408490 0.3208522 -0.1822695 0.0487058 -0.0608689 0.9801533
11821.975109 -0.2376195 -0.0144577 0.3047018 -0.1730444 0.0934010 0.0522751 0.9790808
11823.670830 -0.4377781 -0.2552943 0.5215412 -0.0792088 0.3274041 0.4886309 0.8048430
11824.002601 -0.4233987 -0.3230189 0.5504116 -0.0580846 0.3587078 0.5563377 0.7472907
11824.371236 -0.4377913 -0.3830490 0.6194587 -0.0268481 0.4082157 0.6431889 0.6472613
11824.739871 -0.4514665 -0.4640170 0.6755723 -0.0112905 0.4362259 0.7104756 0.5520905
11825.108505 -0.3682584 -0.5023658 0.7173291 0.0138176 0.4469568 0.7692634 0.4563688
11825.477140 -0.2883933 -0.5539014 0.7174574 0.0281139 0.4712493 0.7863057 0.3985687
11825.919502 -0.2098952 -0.6238521 0.7679352 0.0515724 0.4915958 0.8329675 0.2486745
11826.656772 -0.1519990 -0.5796469 0.7190602 0.0804311 0.4939202 0.8657241 -0.0097653
11827.099134 -0.1238742 -0.5419619 0.6598226 0.0601083 0.4907516 0.8614749 -0.1158057
11827.615223 0.0506931 -0.6311499 0.6861094 0.0928282 0.4742371 0.8354161 -0.2618434
