11873.252219 0.000000000 0.000000000 0.000000000 0.000000000 0.000000000 0.000000000 1.000000000
11873.289083 0.006819658 -0.023322327 0.042709939 -0.001252344 0.001329920 0.001371025 0.999997377
11873.325947 0.020886220 -0.052670643 0.084675238 -0.006778689 0.002617062 0.001814907 0.999971926
11873.362810 0.029233314 -0.085358538 0.122224703 -0.012956724 0.007349113 0.001458022 0.999888003
11873.399673 0.031572256 -0.111789763 0.161915421 -0.019328317 0.014140364 0.002651616 0.999709666
11873.436537 0.041597933 -0.140485778 0.207226098 -0.027399994 0.019134101 0.006177927 0.999422312
11873.473400 0.044174355 -0.167255983 0.249903694 -0.034170419 0.027527466 0.014427578 0.998932660
11873.510264 0.043065049 -0.185715050 0.287132591 -0.040171307 0.035517462 0.025163293 0.998244226
11873.547127 0.041199818 -0.211957544 0.329256833 -0.052101400 0.041558664 0.033137001 0.997226298
11873.583991 0.039656419 -0.233786583 0.375163883 -0.060866673 0.047386255 0.040540203 0.996195912
11873.620854 0.034658939 -0.256165981 0.418188810 -0.066795833 0.055628739 0.046440866 0.995131612
11873.657718 0.033982687 -0.275913119 0.468033403 -0.071494967 0.062607788 0.053828299 0.994017720
11873.694581 0.030673288 -0.295600384 0.519544303 -0.075900480 0.070049874 0.060446177 0.992813349
11873.731445 0.022005659 -0.311035693 0.563881814 -0.078289449 0.079242654 0.069357067 0.991353095
11873.768308 0.016735405 -0.328558385 0.618949771 -0.082596622 0.084789127 0.078409322 0.989868999
11873.805172 0.001274794 -0.343301266 0.665090084 -0.085389465 0.092104152 0.089320585 0.988052249
11873.842035 -0.008659206 -0.362581789 0.716890454 -0.090906188 0.092570722 0.100654952 0.986425519
11873.878899 -0.011587232 -0.374119878 0.772674680 -0.093123928 0.083806418 0.108944900 0.986121416
11873.915762 -0.029563725 -0.387254477 0.813759804 -0.101429358 0.082234897 0.118577354 0.984321535
11873.952626 -0.042535067 -0.399475038 0.855875850 -0.109739788 0.080946274 0.134904847 0.981430352
11873.989489 -0.066459753 -0.407126844 0.891482472 -0.119054444 0.085806295 0.144500017 0.978561759
11874.026353 -0.089959040 -0.414129436 0.927687645 -0.134579003 0.089401223 0.147731483 0.975741446
11874.063216 -0.096906915 -0.427239060 0.970052421 -0.155066162 0.087393157 0.151420504 0.972311080
11874.100080 -0.110705964 -0.424442172 0.999247968 -0.157610938 0.095133878 0.156605721 0.970351994
11874.136943 -0.130165339 -0.427143037 1.031517148 -0.164432704 0.110189006 0.164096445 0.966381192
11874.173807 -0.144261152 -0.427815199 1.055534840 -0.165728822 0.119812660 0.174556345 0.963176489
11874.210670 -0.162674218 -0.430621088 1.079410195 -0.161580712 0.128701031 0.179111972 0.961897433
11874.247534 -0.176308960 -0.435912043 1.102664471 -0.159179837 0.128665417 0.183073133 0.961556673
11874.284397 -0.196075484 -0.442903519 1.120180488 -0.151186079 0.129085988 0.186770335 0.962079227
11874.321261 -0.215288639 -0.456500351 1.135995865 -0.148680314 0.125702038 0.194757089 0.961333871
11874.358124 -0.234229133 -0.460635066 1.147868752 -0.137325630 0.115353025 0.202034205 0.962817490
11874.394988 -0.248925298 -0.469974548 1.156318069 -0.129918516 0.102318600 0.215463549 0.962407172
11874.431851 -0.261810422 -0.474939108 1.161252141 -0.121785954 0.088861696 0.232244074 0.960902929
11874.468714 -0.274045676 -0.482098907 1.160745025 -0.120240681 0.078400873 0.254340172 0.956402898
11874.505578 -0.278316528 -0.488551080 1.161290526 -0.124195643 0.067590848 0.279197276 0.949766159
11874.542442 -0.282944262 -0.495089799 1.159829617 -0.128175929 0.061619282 0.303945839 0.942014277
11874.579305 -0.283158034 -0.499849766 1.162299275 -0.132164747 0.056587510 0.325995564 0.934375346
11874.616168 -0.281807810 -0.511549830 1.159947634 -0.139780283 0.053549595 0.342936754 0.927355528
11874.653032 -0.284806103 -0.518770516 1.156519175 -0.144207940 0.055246469 0.355720460 0.921745539
11874.689895 -0.285066426 -0.522420287 1.153967619 -0.144012928 0.057952911 0.368083209 0.916742325
11874.726759 -0.286849886 -0.525283277 1.151778221 -0.139873549 0.062848240 0.375423908 0.914080083
11874.763623 -0.284762710 -0.518819332 1.156708956 -0.129415691 0.067172430 0.386574715 0.910658777
11874.800486 -0.283230811 -0.539258778 1.142816782 -0.127528235 0.080254376 0.402404308 0.902976513
11874.837349 -0.283655822 -0.537888765 1.141132355 -0.114751697 0.089340158 0.416541606 0.897409320
11874.874213 -0.275456846 -0.532597899 1.140971184 -0.099140435 0.093826018 0.434288800 0.890371323
11874.911076 -0.270128787 -0.556185305 1.139501572 -0.098124921 0.109811567 0.457707465 0.876821995
11874.947940 -0.274195582 -0.557379365 1.134375691 -0.083795212 0.120457999 0.474836648 0.867754817
11874.984803 -0.272549689 -0.558109581 1.133089066 -0.073588550 0.128211081 0.496192008 0.855535030
11875.021667 -0.270276070 -0.558592558 1.132534504 -0.069965638 0.130435154 0.516106546 0.843638241
11875.058530 -0.269937247 -0.560915351 1.130169392 -0.074693285 0.130108029 0.537937403 0.829527676
11875.095394 -0.267609537 -0.561085045 1.130220056 -0.082777157 0.126188040 0.560914397 0.814002216
11875.132257 -0.266566753 -0.562009692 1.128933191 -0.088743687 0.121993080 0.578133702 0.801875114
11875.169121 -0.264999092 -0.562443972 1.127232671 -0.097029440 0.111829333 0.586376727 0.796392977
11875.205984 -0.264319271 -0.563622236 1.125512004 -0.100137986 0.107801288 0.595059216 0.790098608
11875.242848 -0.262379646 -0.565267682 1.122095346 -0.102080524 0.104540028 0.606125772 0.781832814
11875.279711 -0.261697114 -0.567991197 1.111479044 -0.101480708 0.103162110 0.617601931 0.773063481
11875.316575 -0.260843515 -0.571599960 1.103425860 -0.101303622 0.106067047 0.631734431 0.761182606
11875.353438 -0.259900689 -0.575045109 1.093447208 -0.101031482 0.109152414 0.648594141 0.746460974
11875.390302 -0.257782191 -0.577601910 1.081733346 -0.099939890 0.112727113 0.663641512 0.732724071
11875.427165 -0.255682081 -0.581780434 1.073420525 -0.100733496 0.120509699 0.678586662 0.717530668
11875.464029 -0.251910239 -0.587283492 1.063857913 -0.105058402 0.128686771 0.695323229 0.699233949
11875.500892 -0.250105649 -0.592033625 1.053170919 -0.109209664 0.138915375 0.713319302 0.678197145
11875.537756 -0.246962234 -0.593882442 1.042421579 -0.115643255 0.144215420 0.730294406 0.657646298
11875.574619 -0.246733800 -0.600639105 1.026186228 -0.124463215 0.152081147 0.747592092 0.634418070
11875.611483 -0.243505791 -0.606389403 1.009655476 -0.132761821 0.159597293 0.763776541 0.611185968
11875.648346 -0.239873305 -0.611055493 0.995323122 -0.142359167 0.161103830 0.778409541 0.589794815
11875.685210 -0.243078530 -0.619961143 0.975245118 -0.146046981 0.163139418 0.796304762 0.563874662
11875.722073 -0.242570341 -0.624748468 0.957787752 -0.147807077 0.158645868 0.808205783 0.547529042
11875.758937 -0.241788194 -0.626889646 0.935261607 -0.140729830 0.154903755 0.814367771 0.541299462
11875.795800 -0.236298203 -0.631974936 0.919066310 -0.136170655 0.152253717 0.817033350 0.539196551
11875.832664 -0.237751573 -0.635100961 0.905550599 -0.128525063 0.152114168 0.821862400 0.533746004
11875.869527 -0.237561762 -0.638434172 0.890960336 -0.120745808 0.157699674 0.825935483 0.527618945
11875.906390 -0.235131532 -0.640939951 0.881000280 -0.115371838 0.167020798 0.828931451 0.521215856
11875.943254 -0.232410848 -0.641755581 0.873082638 -0.110729940 0.175189972 0.831063747 0.516120613
11875.980118 -0.228917897 -0.640688717 0.867448688 -0.107571162 0.182665944 0.831701159 0.513161659
11876.016981 -0.227411628 -0.642755210 0.860844970 -0.105295770 0.192007840 0.831926227 0.509847522
11876.053844 -0.223456562 -0.641403437 0.856474757 -0.104808837 0.195387110 0.834209800 0.504908919
11876.090708 -0.220877498 -0.640986264 0.850116491 -0.102509484 0.198378280 0.837765336 0.498284131
11876.127571 -0.217005923 -0.640381813 0.848269105 -0.101208903 0.198857203 0.843920648 0.487863094
11876.164435 -0.214473099 -0.634747446 0.848714948 -0.097900257 0.193161637 0.850252390 0.479765624
11876.201298 -0.212542191 -0.630903244 0.847507775 -0.094710879 0.185106158 0.856011093 0.473297507
11876.238162 -0.208689451 -0.628237009 0.846240342 -0.097072549 0.167593583 0.864405632 0.463995904
11876.275026 -0.211392105 -0.626908541 0.847093523 -0.094417848 0.152517632 0.874233067 0.451154292
11876.311889 -0.209585950 -0.626477122 0.841818690 -0.090344600 0.138462573 0.879005432 0.447230816
11876.348752 -0.208307579 -0.623884082 0.839439511 -0.083578832 0.124597445 0.879034460 0.452535599
11876.385616 -0.210440949 -0.623706698 0.836333752 -0.077533536 0.117014222 0.881054282 0.451707274
11876.422479 -0.207388654 -0.624747217 0.833401203 -0.079134926 0.110345282 0.884540677 0.446261495
11876.459343 -0.204873651 -0.625024080 0.821123242 -0.080232382 0.106374256 0.888795137 0.438509375
11876.496207 -0.202775896 -0.625622749 0.815350950 -0.082994141 0.106121354 0.894296467 0.426713079
11876.533070 -0.199822366 -0.628804862 0.804364681 -0.085592277 0.109542608 0.899900854 0.413343549
11876.569933 -0.196713895 -0.629022598 0.790247738 -0.087753907 0.111791469 0.903316617 0.404748052
11876.606797 -0.193486154 -0.630033195 0.775616288 -0.091716945 0.112658590 0.907395005 0.394373327
11876.643660 -0.190865830 -0.633252800 0.757508397 -0.096856982 0.116436750 0.914035141 0.376299024
11876.680524 -0.187737927 -0.632528067 0.729938328 -0.102078736 0.116077371 0.920509696 0.358842432
11876.717387 -0.187133387 -0.630029798 0.715321660 -0.108227052 0.113980137 0.923275471 0.350510955
11876.754251 -0.187835515 -0.632952869 0.697860956 -0.116167560 0.111298837 0.928314805 0.335185468
11876.791114 -0.187043101 -0.634078741 0.668944001 -0.126113281 0.104596406 0.933839917 0.317959130
11876.827978 -0.187592924 -0.635128796 0.638681114 -0.135110661 0.100450300 0.937805772 0.303603709
