11873.252219 0.000000000 0.000000000 0.000000000 0.000000000 0.000000000 0.000000000 1.000000000
11873.289083 0.006419297 -0.023438301 0.042474926 -0.001279132 0.001434073 0.001365822 0.999997199
11873.325947 0.021278169 -0.052734900 0.084681943 -0.006790719 0.002495592 0.001886579 0.999972045
11873.362810 0.029004285 -0.084907793 0.121685907 -0.012830552 0.007458324 0.001594802 0.999888599
11873.399673 0.031815451 -0.112113826 0.161866650 -0.019414004 0.014064431 0.002705643 0.999708951
11873.436537 0.041170701 -0.141262174 0.206284791 -0.027638892 0.019337356 0.006614738 0.999409020
11873.473400 0.036215726 -0.166798651 0.249192089 -0.034069005 0.030124413 0.016272735 0.998832822
11873.510264 0.049163342 -0.193171397 0.289363235 -0.042384814 0.033487115 0.023629455 0.998260379
11873.547127 0.047933802 -0.218494996 0.333089948 -0.054187320 0.039190918 0.032468390 0.997232974
11873.583991 0.043650232 -0.241411075 0.377944887 -0.063203231 0.045945071 0.039003912 0.996179223
11873.620854 0.039865039 -0.266308635 0.423125386 -0.070270337 0.053760909 0.045457810 0.995040417
11873.657718 0.034931399 -0.286191642 0.469606757 -0.075250976 0.062215578 0.052923966 0.993813694
11873.694581 0.032526121 -0.307347685 0.520873189 -0.080477290 0.069531947 0.059128132 0.992568672
11873.731445 0.027706761 -0.322071165 0.573923767 -0.082468227 0.076660179 0.066149831 0.991436541
11873.768308 0.024823256 -0.344833672 0.625663936 -0.089775786 0.081372239 0.075652413 0.989745200
11873.805172 0.017869331 -0.357540995 0.676919937 -0.092841558 0.084221847 0.087276980 0.988266110
11873.842035 0.003815547 -0.374664068 0.733138263 -0.097403683 0.086173005 0.097212389 0.986730218
11873.878899 -0.005301386 -0.389492214 0.781326532 -0.101238973 0.081142381 0.104711793 0.986003101
11873.915762 -0.022488460 -0.408356011 0.827435493 -0.113453515 0.079333849 0.114377491 0.983743966
11873.952626 -0.039953113 -0.417971402 0.869013846 -0.120367125 0.080735102 0.129259333 0.980961561
11873.989489 -0.058114275 -0.433970243 0.908071160 -0.137033328 0.083183132 0.143845960 0.976529956
11874.026353 -0.071433678 -0.442906737 0.947992802 -0.156909138 0.080831341 0.150377601 0.972744763
11874.063216 -0.085853279 -0.456257790 0.988042593 -0.177226141 0.083744720 0.152838990 0.968616486
11874.100080 -0.099069908 -0.462226897 1.023144603 -0.187927157 0.092021264 0.157913908 0.965027809
11874.136943 -0.116184250 -0.470212132 1.053075910 -0.200638890 0.106469132 0.166407779 0.959539890
11874.173807 -0.138196737 -0.472464532 1.085621715 -0.204353467 0.122145273 0.172682986 0.955772340
11874.210670 -0.157442451 -0.476824343 1.109811425 -0.202774629 0.132742077 0.178109348 0.953697562
11874.247534 -0.182836950 -0.481882006 1.135177732 -0.200009197 0.143181980 0.178930402 0.952617049
11874.284397 -0.211475357 -0.489718795 1.157506585 -0.193703234 0.152430892 0.181447566 0.952008724
11874.321261 -0.231595963 -0.500512838 1.176624537 -0.190571234 0.151425019 0.190224454 0.951087654
11874.358124 -0.255989254 -0.507319748 1.192584157 -0.181691304 0.148518398 0.198142126 0.951667070
11874.394988 -0.276974380 -0.511718154 1.202326655 -0.170076236 0.141922995 0.208858952 0.952528119
11874.431851 -0.294123054 -0.516605973 1.208775401 -0.161268815 0.134367421 0.225729480 0.951306462
11874.468714 -0.311939806 -0.528773010 1.210005045 -0.161699936 0.131414652 0.244748399 0.946932673
11874.505578 -0.323030829 -0.537671208 1.211102962 -0.164921910 0.127212301 0.265899479 0.941230714
11874.542442 -0.327757329 -0.547372222 1.211585879 -0.170285970 0.123295270 0.290167481 0.933597267
11874.579305 -0.336380035 -0.553068399 1.213631749 -0.171823144 0.124389224 0.306008160 0.928096473
11874.616168 -0.337916225 -0.560814381 1.214343548 -0.176456958 0.123126842 0.321813881 0.922029555
11874.653032 -0.341886282 -0.567580044 1.214697957 -0.180419371 0.126284957 0.332408339 0.917063594
11874.689895 -0.346271455 -0.573865294 1.213432670 -0.180525854 0.130959839 0.340292960 0.913488150
11874.726759 -0.348153412 -0.578848243 1.212103128 -0.177093729 0.136714995 0.348189861 0.910335422
11874.763623 -0.347927094 -0.583026528 1.207438707 -0.168668628 0.143716052 0.357086718 0.907405972
11874.800486 -0.348845720 -0.588838816 1.204311728 -0.159308180 0.154441357 0.368964493 0.902570784
11874.837349 -0.348167151 -0.593339801 1.201348662 -0.148505718 0.164467156 0.384604394 0.896089315
11874.874213 -0.348168105 -0.596285939 1.199049950 -0.132675543 0.176162690 0.400323004 0.889441073
11874.911076 -0.347522378 -0.599635601 1.196732640 -0.118515611 0.186275214 0.417935312 0.881241024
11874.947940 -0.346671879 -0.601493716 1.196471691 -0.105345204 0.196176827 0.438688338 0.870614469
11874.984803 -0.346396804 -0.604299903 1.194540501 -0.094131276 0.205348313 0.459892899 0.858760655
11875.021667 -0.348134339 -0.607516170 1.191165566 -0.086440951 0.210919261 0.478698313 0.847873211
11875.058530 -0.344765007 -0.606913805 1.195022225 -0.089325666 0.209907636 0.504996955 0.832428873
11875.095394 -0.343213916 -0.606969297 1.193906784 -0.093858942 0.207578659 0.531107128 0.816104650
11875.132257 -0.340681732 -0.607737243 1.192739248 -0.098999128 0.202121124 0.548176169 0.805511713
11875.169121 -0.341529071 -0.610093176 1.189941883 -0.106060952 0.195280597 0.557125628 0.800142229
11875.205984 -0.343115330 -0.611454308 1.186938286 -0.107543953 0.191722214 0.565096676 0.795199752
11875.242848 -0.343682557 -0.615496397 1.181202173 -0.108349949 0.190309092 0.575839221 0.787687719
11875.279711 -0.342713594 -0.621066213 1.171468735 -0.108417936 0.189793319 0.588399470 0.778466523
11875.316575 -0.343072683 -0.625054955 1.162922382 -0.106374122 0.191889673 0.602880001 0.767071426
11875.353438 -0.343399107 -0.630843878 1.151322365 -0.103203066 0.195262417 0.620695174 0.752302647
11875.390302 -0.344339758 -0.636041343 1.143311739 -0.100727357 0.201870129 0.636986673 0.737123072
11875.427165 -0.345545441 -0.642935693 1.131946087 -0.097908258 0.211042151 0.652721226 0.720992506
11875.464029 -0.346753955 -0.648488998 1.118790388 -0.096132942 0.219077662 0.667758942 0.704883993
11875.500892 -0.347223163 -0.656349301 1.106155157 -0.096926399 0.229084015 0.685289323 0.684473753
11875.537756 -0.343664825 -0.665543318 1.093014240 -0.104090407 0.236539602 0.705668330 0.659732044
11875.574619 -0.337714225 -0.672218978 1.081988811 -0.114111386 0.240958586 0.725961983 0.633953273
11875.611483 -0.333480179 -0.682124376 1.065084457 -0.122461714 0.246910259 0.742629588 0.610360324
11875.648346 -0.331093431 -0.687518597 1.045621634 -0.128385499 0.246200711 0.758141816 0.590019763
11875.685210 -0.325323552 -0.696162462 1.029823899 -0.137761280 0.241783485 0.775623858 0.566542447
11875.722073 -0.321758389 -0.699772835 1.015402794 -0.139740944 0.233940363 0.787115097 0.553348184
11875.758937 -0.324042022 -0.702297688 0.996559978 -0.131773129 0.230816349 0.793289721 0.547769070
11875.795800 -0.324029654 -0.703029037 0.977592707 -0.122306094 0.225939691 0.798490167 0.544431686
11875.832664 -0.324340582 -0.713536978 0.965376616 -0.117537461 0.226744816 0.800624549 0.542007565
11875.869527 -0.324890524 -0.721883655 0.947922111 -0.110062368 0.231748238 0.802964211 0.537984610
11875.906390 -0.323636293 -0.725020289 0.935621381 -0.103083082 0.239971891 0.806277990 0.530757189
11875.943254 -0.322438002 -0.728356242 0.923398614 -0.096572764 0.248609304 0.808851242 0.524048507
11875.980118 -0.314148337 -0.733051121 0.911947072 -0.095728248 0.255990118 0.811014652 0.517262280
11876.016981 -0.313382357 -0.733379722 0.905209780 -0.092165813 0.263516247 0.811188400 0.513846219
11876.053844 -0.305303812 -0.736297846 0.894825459 -0.092398733 0.267625183 0.816237628 0.503582537
11876.090708 -0.304657340 -0.739233673 0.882618785 -0.088561364 0.271279395 0.817679346 0.499964803
11876.127571 -0.299189031 -0.734004915 0.885150671 -0.086922005 0.269974679 0.821418703 0.494802535
11876.164435 -0.290548712 -0.733164847 0.878212512 -0.085698187 0.265322894 0.830757558 0.481769115
11876.201298 -0.291008651 -0.732850790 0.879427671 -0.081629604 0.261470139 0.837334514 0.473118335
11876.238162 -0.287774175 -0.722645879 0.882664442 -0.081316769 0.243446112 0.848708391 0.462402016
11876.275026 -0.292787194 -0.732197225 0.877740681 -0.081270255 0.230579346 0.851861537 0.463206530
11876.311889 -0.291070908 -0.734316111 0.867654741 -0.075614236 0.217296556 0.859116912 0.457146436
11876.348752 -0.289214134 -0.734425962 0.868588805 -0.071428567 0.204804197 0.858903110 0.463938147
11876.385616 -0.289780915 -0.742579520 0.859064579 -0.067538843 0.198271096 0.859709620 0.465860933
11876.422479 -0.288797647 -0.743256092 0.848776758 -0.065951735 0.191024363 0.865193427 0.458912134
11876.459343 -0.284608632 -0.749544024 0.830375016 -0.067360416 0.188013673 0.870679796 0.449477524
11876.496207 -0.281924039 -0.749175012 0.817559004 -0.067764334 0.186819777 0.878104329 0.435246050
11876.533070 -0.285135418 -0.751785219 0.804461598 -0.066982895 0.188265532 0.882436216 0.425882250
11876.569933 -0.286881298 -0.761902213 0.782919168 -0.067606628 0.194071651 0.886372983 0.414859504
11876.606797 -0.286301136 -0.770350456 0.760919452 -0.069782287 0.197520480 0.891139984 0.402474374
11876.643660 -0.285746694 -0.778045654 0.744804204 -0.074147843 0.201688319 0.896410465 0.387649596
11876.680524 -0.288766384 -0.782719612 0.721193910 -0.076511048 0.203687593 0.904158950 0.367632866
11876.717387 -0.293194741 -0.793276787 0.700119019 -0.081301920 0.206225142 0.908396721 0.354508907
11876.754251 -0.294408947 -0.800832331 0.675716043 -0.088082008 0.203353778 0.914910018 0.337384701
11876.791114 -0.290009469 -0.810649276 0.642981410 -0.098443002 0.196580619 0.923363805 0.314744949
11876.827978 -0.302770883 -0.816437662 0.613090158 -0.101261921 0.193758637 0.931266189 0.291456491
