11873.252219 0.000000000 0.000000000 0.000000000 0.000000000 0.000000000 0.000000000 1.000000000
11873.289083 0.007210713 -0.023474634 0.042599253 -0.001297885 0.001230320 0.001380416 0.999997437
11873.325947 0.021552525 -0.052905027 0.085137859 -0.006809508 0.002424073 0.001806666 0.999972224
11873.362810 0.029917648 -0.084709473 0.122287802 -0.012726932 0.007153798 0.001249459 0.999892652
11873.399673 0.031150289 -0.112679183 0.161995769 -0.019584941 0.014269796 0.002778908 0.999702454
11873.436537 0.042415880 -0.142395839 0.208873734 -0.027961856 0.019033786 0.005094948 0.999414802
11873.473400 0.039946143 -0.167559087 0.250856578 -0.034182169 0.028959371 0.014041644 0.998897254
11873.510264 0.043404207 -0.191036284 0.290169030 -0.041906197 0.035400480 0.023813294 0.998210192
11873.547127 0.042470425 -0.216676265 0.331678063 -0.053664882 0.041266020 0.031680409 0.997202873
11873.583991 0.043062866 -0.241557658 0.378287822 -0.063585043 0.046160843 0.038124532 0.996179044
11873.620854 0.037705749 -0.262392789 0.422688037 -0.069161147 0.054461773 0.044782002 0.995110631
11873.657718 0.036829881 -0.282371014 0.468479365 -0.074029312 0.061562303 0.051153503 0.994038761
11873.694581 0.033191666 -0.300685555 0.518728971 -0.077854082 0.069155805 0.057932202 0.992874622
11873.731445 0.028168399 -0.319188774 0.568983793 -0.081830144 0.076533161 0.066238701 0.991493285
11873.768308 0.019262999 -0.337429762 0.620669007 -0.086571120 0.083833940 0.075878523 0.989807963
11873.805172 0.008162931 -0.350947440 0.670092165 -0.089404948 0.088945366 0.085871637 0.988292217
11873.842035 0.000967413 -0.366449416 0.724042952 -0.093506187 0.087734275 0.096338682 0.987055302
11873.878899 -0.014417127 -0.379501462 0.771416366 -0.095773555 0.085648984 0.103380799 0.986308336
11873.915762 -0.028781615 -0.390196383 0.818590403 -0.103313200 0.081743240 0.113213614 0.984798014
11873.952626 -0.042856626 -0.401741564 0.857313752 -0.111147709 0.081393041 0.128798530 0.982055128
11873.989489 -0.064758956 -0.405442238 0.895405471 -0.118760809 0.084959671 0.138523206 0.979535103
11874.026353 -0.086323187 -0.408904672 0.932200670 -0.132356241 0.087090388 0.139747307 0.977429152
11874.063216 -0.094013356 -0.430129558 0.975353956 -0.158426210 0.086532474 0.147018492 0.972521901
11874.100080 -0.108990960 -0.422670573 1.005033970 -0.157839194 0.094893679 0.146591410 0.971901715
11874.136943 -0.118236594 -0.427107275 1.035570860 -0.168387935 0.102301396 0.156850770 0.967769444
11874.173807 -0.137118474 -0.429363877 1.058750033 -0.169477284 0.116026729 0.165231258 0.964631498
11874.210670 -0.157137096 -0.429171324 1.082783222 -0.163120046 0.125755563 0.167973593 0.964034379
11874.247534 -0.172496766 -0.436857194 1.106367826 -0.162788317 0.127454266 0.172867343 0.963001728
11874.284397 -0.177309453 -0.439869374 1.121463656 -0.155196965 0.115165293 0.180519834 0.964397967
11874.321261 -0.191465825 -0.451870292 1.136143804 -0.152471304 0.107614309 0.192571789 0.963373125
11874.358124 -0.202112004 -0.459152400 1.145152330 -0.144489631 0.090774775 0.204791039 0.963817060
11874.394988 -0.217762262 -0.464769661 1.152744651 -0.134414747 0.077784985 0.216900766 0.963761508
11874.431851 -0.220752314 -0.473458618 1.157200098 -0.131298959 0.058042303 0.241795883 0.959649086
11874.468714 -0.231325030 -0.472724944 1.159514904 -0.126029909 0.044103798 0.261649877 0.955882132
11874.505578 -0.236495614 -0.477282107 1.156801820 -0.128420904 0.033294823 0.285205483 0.949240386
11874.542442 -0.239372328 -0.482597977 1.155945778 -0.132628366 0.026488574 0.310314834 0.940963745
11874.579305 -0.240495265 -0.485440314 1.157373667 -0.135247320 0.020965412 0.329786658 0.934082091
11874.616168 -0.240139216 -0.490778923 1.156046867 -0.139854044 0.017526751 0.346879989 0.927258313
11874.653032 -0.240929216 -0.493780941 1.154954791 -0.143226206 0.017017893 0.359315902 0.922002554
11874.689895 -0.239739761 -0.497876227 1.150738478 -0.143682182 0.019241935 0.373259783 0.916330934
11874.726759 -0.238955885 -0.501560271 1.148022652 -0.140671685 0.023478296 0.383709401 0.912374556
11874.763623 -0.238508523 -0.500776291 1.147655964 -0.133127451 0.029940723 0.394618094 0.908656776
11874.800486 -0.238530949 -0.505952358 1.140170693 -0.124199606 0.039955501 0.407334119 0.903912008
11874.837349 -0.237940237 -0.505410969 1.138064146 -0.112777360 0.049067449 0.423125267 0.897685170
11874.874213 -0.236467153 -0.506809890 1.136706710 -0.099895664 0.059333719 0.440640628 0.890132666
11874.911076 -0.236562252 -0.507547736 1.135803580 -0.086420350 0.069868974 0.458458394 0.881740212
11874.947940 -0.236886263 -0.508208036 1.135105014 -0.075391859 0.079670474 0.478890717 0.870995045
11874.984803 -0.235626489 -0.508329511 1.135585785 -0.066069134 0.087293826 0.501741767 0.858061731
11875.021667 -0.235164821 -0.508725762 1.134297371 -0.062209018 0.090570502 0.521554828 0.846113205
11875.058530 -0.233651727 -0.509120822 1.134809017 -0.067591563 0.088601261 0.544583738 0.831269979
11875.095394 -0.232935756 -0.509824574 1.133051395 -0.076295204 0.085477665 0.567691267 0.815229535
11875.132257 -0.232257485 -0.510347188 1.132804155 -0.082907580 0.081646957 0.584112942 0.803288341
11875.169121 -0.231026202 -0.510371983 1.133507013 -0.091646492 0.071576156 0.590805054 0.798390329
11875.205984 -0.230469480 -0.510652184 1.132014513 -0.094881706 0.066992842 0.598546624 0.792623103
11875.242848 -0.229661003 -0.511261821 1.129382253 -0.096254267 0.063712694 0.607360542 0.785995543
11875.279711 -0.227187559 -0.512909353 1.124133110 -0.098417707 0.061740149 0.619886577 0.776042998
11875.316575 -0.225895137 -0.514926434 1.119379640 -0.099227868 0.064386815 0.635206521 0.763230562
11875.353438 -0.224257991 -0.517130494 1.115223408 -0.101357400 0.067600422 0.652417481 0.748002887
11875.390302 -0.222189888 -0.519124627 1.109730482 -0.102818772 0.072136886 0.667605698 0.733844101
11875.427165 -0.220242798 -0.521840990 1.104318261 -0.104762375 0.080174565 0.683719516 0.717721701
11875.464029 -0.217826366 -0.524224043 1.098172069 -0.109136805 0.087676346 0.698938191 0.701346874
11875.500892 -0.215876296 -0.526673317 1.090345979 -0.114308700 0.097799122 0.717751503 0.679854155
11875.537756 -0.212867022 -0.528561354 1.085129261 -0.123915233 0.104466230 0.735162079 0.658231378
11875.574619 -0.209792107 -0.531554520 1.078224897 -0.136234954 0.111454241 0.752639890 0.634469211
11875.611483 -0.206023902 -0.534801722 1.069949389 -0.147507623 0.118896678 0.767371595 0.612573147
11875.648346 -0.200974345 -0.537136078 1.062316060 -0.159581378 0.119950294 0.782139540 0.590257049
11875.685210 -0.197563574 -0.539536119 1.054803967 -0.170460165 0.114626653 0.791822076 0.575171173
11875.722073 -0.192797616 -0.542205572 1.040075183 -0.174420714 0.109219424 0.803918839 0.557999134
11875.758937 -0.190219581 -0.542875767 1.026786566 -0.169126078 0.106179319 0.810191512 0.551100731
11875.795800 -0.187651664 -0.544983506 1.000981569 -0.158925936 0.102557071 0.813812912 0.549484432
11875.832664 -0.191444322 -0.548109174 0.973229527 -0.146047130 0.103157096 0.819600463 0.544319689
11875.869527 -0.195025384 -0.550425112 0.950143635 -0.134214863 0.110281818 0.825800776 0.536541939
11875.906390 -0.194296554 -0.553091168 0.932677150 -0.126171798 0.120166823 0.831007123 0.528268635
11875.943254 -0.190515667 -0.557712913 0.920623183 -0.122600242 0.131030679 0.834986448 0.520190001
11875.980118 -0.187385857 -0.558427334 0.912315369 -0.119381130 0.140181005 0.837156773 0.515039623
11876.016981 -0.184266508 -0.561541796 0.901732206 -0.117847778 0.149504498 0.839656711 0.508661926
11876.053844 -0.180008620 -0.562774062 0.894621611 -0.117892168 0.155935198 0.844760835 0.498161376
11876.090708 -0.176938176 -0.564220309 0.886602283 -0.116596304 0.159646973 0.848024666 0.491703510
11876.127571 -0.175047249 -0.564733624 0.881958544 -0.113765903 0.160645351 0.851205051 0.486518621
11876.164435 -0.173449785 -0.565960288 0.879700243 -0.111895576 0.158900082 0.855630994 0.479714274
11876.201298 -0.172397777 -0.563161433 0.880989313 -0.109207705 0.152186230 0.864024043 0.467306614
11876.238162 -0.173588216 -0.564224005 0.881515682 -0.109756567 0.139455393 0.870051920 0.459907919
11876.275026 -0.174436212 -0.564199030 0.880695641 -0.109300643 0.124714486 0.880533814 0.444026947
11876.311889 -0.172865629 -0.563288629 0.878374815 -0.104741096 0.110664308 0.885184288 0.439580977
11876.348752 -0.173369020 -0.564015150 0.878302157 -0.098636664 0.099833094 0.883653760 0.446609586
11876.385616 -0.172902614 -0.563638866 0.877817929 -0.094237216 0.092171341 0.886404812 0.443745822
11876.422479 -0.172491625 -0.563279927 0.877085090 -0.094437748 0.085784562 0.889892697 0.437965274
11876.459343 -0.171714127 -0.563704491 0.874521434 -0.096416473 0.083310224 0.894176602 0.429198623
11876.496207 -0.171613172 -0.563662648 0.873166025 -0.098085895 0.083531454 0.898696125 0.419221878
11876.533070 -0.170865834 -0.563928246 0.870599031 -0.100365244 0.084518462 0.901085913 0.413313001
11876.569933 -0.170795292 -0.564258397 0.868952334 -0.101853922 0.090117104 0.904758692 0.403628945
11876.606797 -0.169959128 -0.564458311 0.866395593 -0.106523685 0.093094483 0.909762502 0.390279710
11876.643660 -0.169051021 -0.565351129 0.863521278 -0.113607541 0.097917408 0.914952695 0.374655902
11876.680524 -0.168652385 -0.565204144 0.862088859 -0.120366693 0.100095667 0.919165432 0.361424506
11876.717387 -0.167389184 -0.566194177 0.858306527 -0.130708665 0.101299249 0.923954606 0.344908088
11876.754251 -0.166746572 -0.565907300 0.854992568 -0.139562160 0.094988242 0.925440013 0.339205593
11876.791114 -0.165740281 -0.566700339 0.850645900 -0.151314035 0.090859242 0.932158947 0.316114604
11876.827978 -0.164878607 -0.567750156 0.846388400 -0.163511187 0.089923874 0.935467780 0.300129622
