11873.252219 0.0000000 0.0000000 0.0000000 0.0000000 0.0000000 0.0000000 1.0000000
11873.399673 0.0311503 -0.1126792 0.1619958 -0.0195849 0.0142698 0.0027789 0.9997025
11873.436537 0.0424159 -0.1423959 0.2088738 -0.0279619 0.0190338 0.0050949 0.9994148
11873.510264 0.0434042 -0.1910363 0.2901691 -0.0419062 0.0354005 0.0238133 0.9982102
11873.583991 0.0430629 -0.2415577 0.3782879 -0.0635851 0.0461608 0.0381245 0.9961790
11873.657718 0.0368299 -0.2823709 0.4684793 -0.0740293 0.0615623 0.0511535 0.9940388
11873.731445 0.0281684 -0.3191888 0.5689837 -0.0818301 0.0765332 0.0662387 0.9914933
11873.805172 0.0081629 -0.3509474 0.6700922 -0.0894050 0.0889454 0.0858716 0.9882922
11873.878899 -0.0144171 -0.3795015 0.7714164 -0.0957736 0.0856490 0.1033808 0.9863083
11873.952626 -0.0428566 -0.4017414 0.8573137 -0.1111477 0.0813930 0.1287985 0.9820551
11874.026353 -0.0863232 -0.4089047 0.9322006 -0.1323562 0.0870904 0.1397473 0.9774292
11874.100080 -0.1089909 -0.4226706 1.0050340 -0.1578392 0.0948937 0.1465914 0.9719017
11874.173807 -0.1371184 -0.4293639 1.0587500 -0.1694773 0.1160267 0.1652313 0.9646315
11874.210670 -0.1571370 -0.4291713 1.0827832 -0.1631200 0.1257556 0.1679736 0.9640344
11874.284397 -0.1773094 -0.4398694 1.1214637 -0.1551970 0.1151653 0.1805198 0.9643980
11874.321261 -0.1914659 -0.4518704 1.1361438 -0.1524713 0.1076143 0.1925718 0.9633731
11874.358124 -0.2021120 -0.4591525 1.1451526 -0.1444896 0.0907748 0.2047910 0.9638171
11874.394988 -0.2177622 -0.4647697 1.1527448 -0.1344147 0.0777850 0.2169008 0.9637615
11874.431851 -0.2207523 -0.4734587 1.1572001 -0.1312990 0.0580423 0.2417959 0.9596491
11874.468714 -0.2313251 -0.4727248 1.1595150 -0.1260299 0.0441038 0.2616499 0.9558821
11874.505578 -0.2364956 -0.4772822 1.1568018 -0.1284209 0.0332948 0.2852055 0.9492404
11874.542442 -0.2393724 -0.4825979 1.1559458 -0.1326284 0.0264886 0.3103148 0.9409637
11874.579305 -0.2404953 -0.4854404 1.1573737 -0.1352473 0.0209654 0.3297867 0.9340821
11874.616168 -0.2401391 -0.4907789 1.1560469 -0.1398541 0.0175267 0.3468800 0.9272583
11874.689895 -0.2397398 -0.4978761 1.1507385 -0.1436822 0.0192419 0.3732598 0.9163309
11874.763623 -0.2385086 -0.5007763 1.1476560 -0.1331274 0.0299407 0.3946181 0.9086568
11874.837349 -0.2379402 -0.5054110 1.1380643 -0.1127774 0.0490674 0.4231253 0.8976852
11874.874213 -0.2364671 -0.5068099 1.1367067 -0.0998957 0.0593337 0.4406406 0.8901327
11874.947940 -0.2368863 -0.5082080 1.1351051 -0.0753919 0.0796705 0.4788907 0.8709950
11874.984803 -0.2356264 -0.5083293 1.1355858 -0.0660691 0.0872938 0.5017418 0.8580617
11875.021667 -0.2351649 -0.5087258 1.1342975 -0.0622090 0.0905705 0.5215548 0.8461132
11875.058530 -0.2336517 -0.5091209 1.1348089 -0.0675916 0.0886013 0.5445837 0.8312700
11875.095394 -0.2329358 -0.5098247 1.1330515 -0.0762952 0.0854777 0.5676913 0.8152295
11875.132257 -0.2322575 -0.5103472 1.1328042 -0.0829076 0.0816470 0.5841129 0.8032883
11875.169121 -0.2310262 -0.5103720 1.1335070 -0.0916465 0.0715762 0.5908051 0.7983904
11875.242848 -0.2296610 -0.5112619 1.1293825 -0.0962543 0.0637127 0.6073605 0.7859955
11875.279711 -0.2271876 -0.5129094 1.1241332 -0.0984177 0.0617401 0.6198866 0.7760430
11875.316575 -0.2258952 -0.5149266 1.1193798 -0.0992279 0.0643868 0.6352065 0.7632306
11875.353438 -0.2242579 -0.5171305 1.1152235 -0.1013574 0.0676004 0.6524175 0.7480029
11875.390302 -0.2221899 -0.5191247 1.1097305 -0.1028188 0.0721369 0.6676058 0.7338441
11875.427165 -0.2202428 -0.5218409 1.1043184 -0.1047624 0.0801746 0.6837196 0.7177217
11875.464029 -0.2178264 -0.5242242 1.0981721 -0.1091368 0.0876763 0.6989382 0.7013469
11875.500892 -0.2158763 -0.5266732 1.0903460 -0.1143087 0.0977991 0.7177515 0.6798542
11875.537756 -0.2128670 -0.5285613 1.0851295 -0.1239152 0.1044662 0.7351621 0.6582314
11875.574619 -0.2097921 -0.5315545 1.0782249 -0.1362350 0.1114542 0.7526399 0.6344692
11875.611483 -0.2060239 -0.5348017 1.0699494 -0.1475076 0.1188967 0.7673716 0.6125731
11875.648346 -0.2009744 -0.5371361 1.0623162 -0.1595814 0.1199503 0.7821396 0.5902570
11875.685210 -0.1975636 -0.5395361 1.0548041 -0.1704601 0.1146267 0.7918221 0.5751712
11875.722073 -0.1927976 -0.5422056 1.0400752 -0.1744207 0.1092194 0.8039188 0.5579991
11875.758937 -0.1902196 -0.5428759 1.0267866 -0.1691261 0.1061793 0.8101915 0.5511007
11875.795800 -0.1876517 -0.5449835 1.0009816 -0.1589259 0.1025571 0.8138129 0.5494844
11875.832664 -0.1914444 -0.5481092 0.9732295 -0.1460471 0.1031571 0.8196005 0.5443197
11875.869527 -0.1950254 -0.5504252 0.9501437 -0.1342149 0.1102818 0.8258008 0.5365419
11875.906390 -0.1942966 -0.5530912 0.9326771 -0.1261718 0.1201668 0.8310071 0.5282686
11875.943254 -0.1905156 -0.5577132 0.9206232 -0.1226002 0.1310307 0.8349865 0.5201900
11875.980118 -0.1873859 -0.5584275 0.9123154 -0.1193812 0.1401810 0.8371568 0.5150396
11876.016981 -0.1842665 -0.5615417 0.9017322 -0.1178478 0.1495045 0.8396567 0.5086619
11876.053844 -0.1800086 -0.5627741 0.8946216 -0.1178922 0.1559352 0.8447608 0.4981614
11876.090708 -0.1769382 -0.5642203 0.8866023 -0.1165963 0.1596470 0.8480247 0.4917035
11876.127571 -0.1750471 -0.5647336 0.8819585 -0.1137659 0.1606454 0.8512051 0.4865186
11876.164435 -0.1734498 -0.5659603 0.8797003 -0.1118956 0.1589001 0.8556310 0.4797143
11876.201298 -0.1723977 -0.5631616 0.8809895 -0.1092077 0.1521862 0.8640240 0.4673066
11876.238162 -0.1735882 -0.5642240 0.8815157 -0.1097566 0.1394554 0.8700519 0.4599079
11876.275026 -0.1744361 -0.5641990 0.8806956 -0.1093006 0.1247145 0.8805338 0.4440269
11876.311889 -0.1728656 -0.5632887 0.8783749 -0.1047411 0.1106643 0.8851843 0.4395810
11876.348752 -0.1733691 -0.5640150 0.8783023 -0.0986367 0.0998331 0.8836538 0.4466096
11876.385616 -0.1729027 -0.5636390 0.8778181 -0.0942372 0.0921713 0.8864048 0.4437458
11876.422479 -0.1724917 -0.5632800 0.8770850 -0.0944377 0.0857846 0.8898926 0.4379653
11876.459343 -0.1717142 -0.5637046 0.8745215 -0.0964165 0.0833102 0.8941766 0.4291986
11876.496207 -0.1716132 -0.5636625 0.8731661 -0.0980859 0.0835314 0.8986961 0.4192219
11876.533070 -0.1708658 -0.5639283 0.8705990 -0.1003653 0.0845185 0.9010859 0.4133130
11876.569933 -0.1707954 -0.5642583 0.8689525 -0.1018539 0.0901171 0.9047588 0.4036289
11876.606797 -0.1699591 -0.5644585 0.8663956 -0.1065237 0.0930945 0.9097625 0.3902797
11876.643660 -0.1690510 -0.5653511 0.8635213 -0.1136075 0.0979174 0.9149527 0.3746559
11876.680524 -0.1686524 -0.5652041 0.8620889 -0.1203667 0.1000957 0.9191654 0.3614245
11876.717387 -0.1673893 -0.5661943 0.8583066 -0.1307087 0.1012993 0.9239546 0.3449081
11876.754251 -0.1667466 -0.5659074 0.8549925 -0.1395622 0.0949882 0.9254400 0.3392056
11876.791114 -0.1657403 -0.5667001 0.8506458 -0.1513140 0.0908592 0.9321589 0.3161146
