11878.818606 0.0000000 0.0000000 0.0000000 0.0000000 0.0000000 0.0000000 1.0000000
11878.855469 -0.0235789 -0.0140872 0.0269071 -0.0011719 -0.0104546 0.0021859 0.9999422
11878.892333 -0.0485547 -0.0310476 0.0577033 0.0026210 -0.0173519 0.0087638 0.9998076
11878.966060 -0.0912326 -0.0676400 0.1165359 0.0092007 -0.0261444 0.0224084 0.9993646
11879.076650 -0.1406658 -0.1238529 0.2071579 0.0002576 -0.0215594 0.0362887 0.9991087
11879.187241 -0.1719965 -0.1793158 0.2994137 -0.0290614 0.0178971 0.0482887 0.9982501
11879.297831 -0.1829474 -0.2297700 0.3838554 -0.0695180 0.0590938 0.0570902 0.9941911
11879.408422 -0.1837939 -0.2841547 0.4749773 -0.0836679 0.0955253 0.0841920 0.9883250
11879.519012 -0.1615736 -0.3367150 0.5780040 -0.0904297 0.1153211 0.1180934 0.9821290
11879.666466 -0.1028738 -0.3935374 0.7117562 -0.1222446 0.1258827 0.2102380 0.9617743
11879.813920 -0.0421176 -0.4383728 0.8038236 -0.1701716 0.1532694 0.3077900 0.9234800
11879.961374 -0.0216158 -0.4603673 0.8388568 -0.1860672 0.2145329 0.3629119 0.8874963
11880.256282 -0.1273394 -0.4544400 0.8452213 -0.1004841 0.2977656 0.4663737 0.8268822
11880.440599 -0.3057187 -0.4455873 0.8296768 -0.0241821 0.3836611 0.5237295 0.7602150
11880.588053 -0.4456770 -0.4577870 0.8193934 -0.0303640 0.4186335 0.5422888 0.7278371
11880.809234 -0.6116853 -0.5192042 0.8519548 0.0408873 0.5260706 0.5529707 0.6448266
11880.919825 -0.6759572 -0.5604538 0.9153964 0.0887794 0.5527770 0.5564394 0.6139471
11881.104142 -0.7468605 -0.6448098 1.0047207 0.0813835 0.5540778 0.5701771 0.6010595
11881.399050 -0.9606052 -0.7909836 1.1474228 0.1207798 0.6287149 0.5528169 0.5334073
11881.693958 -1.2654649 -0.9533374 1.3191533 0.1510834 0.6744587 0.5403512 0.4798956
11881.878275 -1.4231800 -1.0134345 1.4028782 0.1421319 0.7257152 0.5270033 0.4188119
11882.062593 -1.5528885 -1.0661316 1.5399549 0.1134050 0.7671927 0.5312404 0.3410841
11882.173183 -1.6407001 -1.0967095 1.5845652 0.1029522 0.7614602 0.5581049 0.3132062
11882.246910 -1.6725192 -1.1322064 1.6147668 0.1088892 0.7665219 0.5631277 0.2889197
11882.320637 -1.6991450 -1.1564809 1.6289321 0.1193595 0.7766152 0.5547091 0.2737151
11882.394364 -1.7311497 -1.2031537 1.6818503 0.1372232 0.7885641 0.5445260 0.2506550
11882.431228 -1.7375014 -1.2233757 1.7073622 0.1467063 0.7929026 0.5408238 0.2393582
11882.468091 -1.7409810 -1.2439792 1.7217184 0.1550711 0.7953596 0.5385882 0.2308221
11882.541818 -1.7472153 -1.2792915 1.7666821 0.1725207 0.7997217 0.5313759 0.2198211
11882.615545 -1.7398216 -1.3174987 1.8128148 0.1880654 0.8012756 0.5261288 0.2139563
11882.689272 -1.7273378 -1.3598192 1.8612931 0.2047920 0.7956238 0.5303535 0.2092086
11882.910453 -1.6581111 -1.4879496 1.9602498 0.2190091 0.7803031 0.5443587 0.2164158
11883.315952 -1.4345449 -1.6318048 2.0641153 0.1969448 0.8272834 0.4963920 0.1743842
11883.500269 -1.2821844 -1.6651312 2.0851660 0.1715408 0.8146448 0.5355342 0.1418831
11883.647723 -1.1439630 -1.6865984 2.0703082 0.1464664 0.8030527 0.5621880 0.1326598
11883.795177 -0.9921901 -1.7005982 2.0668864 0.1421493 0.8075790 0.5594230 0.1210603
11883.942631 -0.8254751 -1.7059927 2.0704086 0.1408487 0.8024369 0.5660232 0.1259937
11884.090085 -0.6817055 -1.7219678 2.0421093 0.1390807 0.7841369 0.5936413 0.1156539
11884.274402 -0.5208414 -1.7097988 1.9873157 0.1302838 0.7830176 0.6024134 0.0837114
11884.495583 -0.3446218 -1.5914207 1.8758619 0.1166124 0.7763563 0.6185526 0.0326367
11884.753628 -0.1799741 -1.3987792 1.6822889 0.1192551 0.7089692 0.6939891 -0.0389865
11884.937945 -0.0766228 -1.2342188 1.5566629 0.1505985 0.6521387 0.7375845 -0.0894672
11885.159126 0.0350380 -1.0575950 1.4118493 0.1943422 0.5963869 0.7634676 -0.1538540
11885.343443 0.0974591 -0.9542047 1.3222699 0.2024639 0.5416383 0.7831858 -0.2285965
11885.527761 0.1517410 -0.8765346 1.2589550 0.2071181 0.5063364 0.7737895 -0.3193359
11885.675215 0.2013534 -0.8222020 1.2139026 0.2341467 0.4885947 0.7419632 -0.3948938
11885.785805 0.2517985 -0.7990396 1.1951133 0.2661457 0.4879414 0.7090854 -0.4339096
11885.970123 0.3287228 -0.8017039 1.1549407 0.2898986 0.4927783 0.6860360 -0.4499810
11886.117576 0.4093628 -0.8281748 1.1003668 0.2676103 0.5241223 0.6510832 -0.4793445
11886.265030 0.5123685 -0.8721072 1.0551963 -0.2453802 -0.5622270 -0.5901923 0.5247499
11886.375621 0.6251367 -0.9040800 1.0257246 -0.2259537 -0.5733865 -0.5391391 0.5740225
11886.559938 0.8068783 -0.9427244 0.9718970 -0.1869114 -0.5364430 -0.5192652 0.6384799
11886.891710 1.0687597 -0.9776485 0.8968761 -0.1163092 -0.5180017 -0.4712561 0.7043181
11887.555252 1.5493264 -0.9897439 0.7196702 -0.0515378 -0.5454576 -0.3851605 0.7426111
11890.098833 1.2445623 -1.1322026 0.9773874 -0.0746103 -0.4279716 -0.3134893 0.8443921
11890.320014 1.1871614 -1.1779835 1.0704658 -0.0986388 -0.3825216 -0.2949874 0.8700173
