11878.818606 0.0000000 0.0000000 0.0000000 0.0000000 0.0000000 0.0000000 1.0000000
11878.855469 -0.0237377 -0.0152612 0.0269981 -0.0016110 -0.0104043 0.0021760 0.9999422
11878.892333 -0.0454202 -0.0311010 0.0564879 0.0024808 -0.0185589 0.0080863 0.9997920
11879.002923 -0.1107782 -0.0896505 0.1448831 0.0103641 -0.0268038 0.0296754 0.9991464
11879.076650 -0.1406234 -0.1265451 0.2080033 -0.0008228 -0.0213801 0.0362032 0.9991153
11879.187241 -0.1696377 -0.1814465 0.2977512 -0.0304073 0.0168558 0.0470484 0.9982874
11879.334695 -0.1837125 -0.2487050 0.4127824 -0.0775824 0.0729560 0.0649319 0.9921906
11879.482149 -0.1745458 -0.3129639 0.5464415 -0.0857711 0.1121317 0.0986208 0.9850603
11879.629603 -0.1145879 -0.3810014 0.6832544 -0.1102977 0.1213799 0.1782827 0.9702147
11879.777057 -0.0558466 -0.4231779 0.7891080 -0.1590926 0.1414139 0.2848231 0.9346483
11879.924510 -0.0240100 -0.4482997 0.8358718 -0.1776344 0.2008143 0.3437092 0.8999909
11880.145692 -0.0704067 -0.4547180 0.8498152 -0.1392749 0.2546999 0.4256054 0.8570825
11880.330009 -0.1884030 -0.4445526 0.8438067 -0.0626037 0.3377260 0.4825055 0.8057359
11880.477463 -0.3420674 -0.4376450 0.8248002 -0.0174947 0.3870597 0.5313352 0.7533668
11880.624917 -0.4788602 -0.4592130 0.8141503 -0.0224873 0.4368975 0.5463929 0.7141917
11880.809234 -0.6133744 -0.5116438 0.8499330 0.0416972 0.5248839 0.5483436 0.6496750
11880.956688 -0.6946042 -0.5678175 0.9267218 0.0932102 0.5477890 0.5607367 0.6138513
11881.141006 -0.7640722 -0.6563083 1.0138990 0.0769269 0.5575975 0.5654406 0.6028634
11881.399050 -0.9655744 -0.7804538 1.1441138 0.1195698 0.6278830 0.5475638 0.5400370
11881.657094 -1.2365670 -0.9195458 1.2980915 0.1470313 0.6648154 0.5399563 0.4948227
11881.841412 -1.3949095 -0.9889812 1.3796333 0.1460327 0.7144076 0.5242127 0.4398834
11881.988866 -1.5169994 -1.0189140 1.4554881 0.1236347 0.7535123 0.5212293 0.3811216
11882.136320 -1.6091968 -1.0669806 1.5547988 0.1004367 0.7623370 0.5471464 0.3307349
11882.357501 -1.7335397 -1.1671970 1.6364493 0.1247081 0.7830607 0.5450109 0.2724460
11882.394364 -1.7450650 -1.1871470 1.6629524 0.1342076 0.7888438 0.5401068 0.2607650
11882.468091 -1.7559627 -1.2241676 1.7037051 0.1530603 0.7953485 0.5346738 0.2410751
11882.541818 -1.7544812 -1.2559574 1.7492805 0.1704604 0.7998806 0.5277329 0.2294173
11882.578682 -1.7573584 -1.2752470 1.7739798 0.1790357 0.8006850 0.5252327 0.2257883
11882.615545 -1.7556897 -1.2926542 1.8006753 0.1887302 0.8007835 0.5229211 0.2228905
11882.726136 -1.7423576 -1.3545225 1.8736432 0.2145603 0.7880460 0.5345781 0.2171951
11883.021044 -1.6325257 -1.5234723 1.9774439 0.2022661 0.7971076 0.5231671 0.2236160
11883.352815 -1.4373304 -1.6146340 2.0678658 0.1912777 0.8251820 0.4995862 0.1813866
11883.573996 -1.2385015 -1.6539011 2.0750685 0.1570549 0.8075584 0.5490721 0.1473195
11883.758313 -1.0548794 -1.6774924 2.0656614 0.1418717 0.8078701 0.5568600 0.1308631
11883.942631 -0.8498262 -1.6922414 2.0731602 0.1411809 0.8031739 0.5629374 0.1344659
11884.163812 -0.6279849 -1.7209395 2.0296311 0.1330946 0.7830759 0.5970948 0.1120525
11884.311265 -0.5011881 -1.6878874 1.9803584 0.1290038 0.7850226 0.6005116 0.0805188
11884.495583 -0.3595826 -1.5844982 1.8837065 0.1178117 0.7776902 0.6162893 0.0388062
11884.679900 -0.2357016 -1.4534276 1.7450124 0.1215894 0.7348147 0.6670813 -0.0163073
11884.864218 -0.1277258 -1.2945952 1.6179626 0.1321931 0.6777464 0.7207881 -0.0604103
11885.085399 -0.0042938 -1.1042910 1.4786167 0.1842912 0.6268623 0.7469474 -0.1230851
11885.343443 0.0961810 -0.9573011 1.3372285 0.2032277 0.5503451 0.7787547 -0.2221709
11885.564624 0.1571930 -0.8666033 1.2634420 0.2166726 0.5115458 0.7640998 -0.3279106
11885.675215 0.2018907 -0.8288637 1.2323731 0.2384315 0.5016766 0.7357959 -0.3873958
11885.785805 0.2521400 -0.8068876 1.2117766 0.2709931 0.4997027 0.7038304 -0.4260080
11885.970123 0.3383373 -0.8094366 1.1684765 0.2869235 0.5050823 0.6808088 -0.4461683
11886.117576 0.4141919 -0.8390576 1.1207277 0.2709665 0.5372578 0.6444521 -0.4718185
11886.265030 0.5221626 -0.8825864 1.0784690 -0.2459806 -0.5764232 -0.5827628 0.5173175
11886.412484 0.6714482 -0.9265013 1.0459305 -0.2264590 -0.5830227 -0.5225368 0.5794447
11886.523075 0.7746531 -0.9560139 1.0221307 -0.2071614 -0.5626801 -0.5143189 0.6131487
11886.670529 0.9001069 -0.9871241 0.9897474 -0.1659141 -0.5327795 -0.4978551 0.6638967
11886.817983 1.0151284 -1.0025637 0.9594489 -0.1361782 -0.5291785 -0.4754693 0.6894596
11887.002300 1.1755993 -0.9911826 0.9354725 -0.1277440 -0.5456317 -0.4339926 0.7054204
11887.149754 1.2880871 -0.9908391 0.9098356 -0.1527070 -0.5384106 -0.4284610 0.7093770
11887.370935 1.4323499 -1.0274364 0.8427776 -0.0993053 -0.5513499 -0.3923835 0.7295114
11887.702707 1.6644911 -1.0127463 0.7378752 -0.0505501 -0.5639567 -0.3769995 0.7329863
11889.767062 1.3998604 -1.0660143 0.8840728 -0.0785420 -0.4892165 -0.3415591 0.7986463
11889.951379 1.3109345 -1.1112701 0.9687085 -0.0873364 -0.4754961 -0.3224885 0.8138040
11890.135696 1.2347124 -1.1544847 1.0544951 -0.0946231 -0.4336942 -0.3028972 0.8433321
11890.283150 1.1924715 -1.1798544 1.1080793 -0.1103206 -0.4005691 -0.2952537 0.8603482
