3302.116651 0.0000000 0.0000000 0.0000000 0.0000000 0.0000000 0.0000000 1.0000000
3303.886091 -0.0257653 -0.1693745 0.4472492 -0.0427937 -0.0058741 -0.0045879 0.9990561
3303.922954 -0.0231767 -0.1735606 0.4598350 -0.0440816 -0.0089481 -0.0058371 0.9989708
3304.254724 -0.0070890 -0.2004763 0.5646838 -0.0768262 -0.0332711 -0.0077333 0.9964592
3304.660220 -0.0383309 -0.2224798 0.7003328 -0.1083346 -0.0440312 -0.0095813 0.9930927
3304.991990 -0.0974313 -0.2378650 0.8286068 -0.1441831 -0.0477736 0.0019860 0.9883952
3305.286897 -0.1370878 -0.2543995 0.9151085 -0.1619881 -0.0454538 0.0011951 0.9857446
3305.581804 -0.1613217 -0.2729856 1.0205390 -0.1765215 -0.0409765 -0.0030234 0.9834388
3305.839847 -0.1757875 -0.3170116 1.1082233 -0.1675306 -0.0325264 0.0044866 0.9853200
3306.097890 -0.1962782 -0.3417379 1.1900258 -0.1839947 -0.0365628 -0.0018524 0.9822452
3306.392797 -0.2204213 -0.3433618 1.2763481 -0.2170464 -0.0187964 0.0026495 0.9759767
3306.650840 -0.2383804 -0.3285455 1.3328965 -0.2427319 0.0383168 0.0443852 0.9683197
3306.945746 -0.2708773 -0.3008507 1.3733331 -0.2780554 0.0675667 0.0910815 0.9538470
3311.443073 -0.4182734 -0.2390433 1.4859935 -0.2844748 0.2246839 0.2145685 0.9069463
3311.737979 -0.5161092 -0.2442637 1.4666619 -0.2476469 0.2882333 0.2564052 0.8887345
3311.996022 -0.5909178 -0.2389749 1.4542307 -0.2317290 0.3267237 0.2878643 0.8698778
3312.364655 -0.6360498 -0.2360773 1.4805342 -0.2324837 0.3804193 0.3186477 0.8364784
3312.843879 -0.6698177 -0.2863570 1.5938941 -0.2224230 0.3766798 0.3248053 0.8385355
3312.954469 -0.6777950 -0.3018487 1.6187663 -0.2285498 0.3695988 0.3153996 0.8436141
3313.065059 -0.6939524 -0.3156275 1.6455095 -0.2332884 0.3683796 0.3024697 0.8475760
3313.433692 -0.7701635 -0.3513245 1.7154324 -0.2369645 0.3740880 0.2852094 0.8500362
3313.765462 -0.8815504 -0.3865249 1.7754359 -0.2203941 0.3912168 0.2939378 0.8437869
3314.613318 -0.8239885 -0.4133672 1.9036535 -0.1929632 0.4524754 0.3804347 0.7831352
3320.253407 -0.9367012 -0.5601120 2.2718592 -0.1292427 0.6522549 0.4614590 0.5872951
3320.437724 -0.9551651 -0.5554883 2.2711711 -0.1406798 0.6130366 0.4753672 0.6151596
3320.548314 -0.9677558 -0.5554028 2.2760582 -0.1525417 0.5927610 0.4766778 0.6309863
3320.695767 -0.9876829 -0.5608465 2.2858667 -0.1554303 0.5724455 0.4706515 0.6531729
3321.064401 -1.0437579 -0.5689986 2.3067455 -0.1936713 0.5326808 0.4472738 0.6918733
3321.174991 -1.0543284 -0.5717703 2.3092585 -0.1960888 0.5235395 0.4386812 0.7035725
3321.359307 -1.0449047 -0.5693409 2.3068333 -0.1929183 0.4950965 0.4289587 0.7305179
3321.396171 -1.0423000 -0.5694255 2.3044934 -0.1924811 0.4906725 0.4258977 0.7353929
3321.433034 -1.0385188 -0.5684862 2.3015141 -0.1933852 0.4853323 0.4208904 0.7415565
3321.764804 -0.9984252 -0.5726873 2.2701271 -0.2056300 0.4356384 0.3632102 0.7975047
3321.949121 -0.9745179 -0.5996777 2.2734802 -0.2274559 0.4123078 0.3296921 0.8182721
3321.985984 -0.9712957 -0.6057934 2.2743695 -0.2299580 0.4093823 0.3246202 0.8210647
3322.170300 -0.9732781 -0.6239631 2.2760842 -0.2327374 0.3986118 0.3022349 0.8340240
3322.280890 -0.9830751 -0.6265005 2.2750051 -0.2270773 0.3908296 0.2975714 0.8409159
3322.981294 -1.1617537 -0.6506948 2.2773373 -0.1686548 0.3899167 0.2708995 0.8637905
3323.276201 -1.2536098 -0.6766443 2.3024416 -0.1606304 0.3965379 0.2610091 0.8653495
3323.423654 -1.2756190 -0.6832497 2.3164999 -0.1526738 0.3955832 0.2652121 0.8659487
3323.607970 -1.2780105 -0.6925647 2.3350778 -0.1427318 0.4035709 0.2747126 0.8609827
3323.792287 -1.2764914 -0.7047633 2.3687489 -0.1301414 0.4160112 0.2710006 0.8582287
3323.939740 -1.2724556 -0.7171618 2.4025216 -0.1196302 0.4236661 0.2686346 0.8567561
3357.743411 -0.2793256 -0.1997218 1.4125617 -0.3560899 0.0268902 0.0525622 0.9325846
3358.517541 -0.1374052 -0.3015723 1.5575886 -0.3858796 -0.0230703 -0.0422710 0.9212914
3358.886174 -0.1846231 -0.3065843 1.6002946 -0.3917925 -0.0372752 -0.0506890 0.9178997
3359.254807 -0.2574709 -0.2649445 1.5159230 -0.3642034 0.0365514 0.0082045 0.9305657
3360.139527 -0.3289865 -0.2327130 1.4376242 -0.3143084 0.1638585 0.1457915 0.9236371
3360.618751 -0.3968651 -0.2701514 1.5131395 -0.3178675 0.2091352 0.1692628 0.9091605
3360.950521 -0.5021219 -0.2677845 1.5276074 -0.2957475 0.2826754 0.2123305 0.8874366
3361.356017 -0.6596796 -0.2729027 1.5349939 -0.2663310 0.3950007 0.2759601 0.8347983
3361.724650 -0.7161270 -0.2867539 1.6104546 -0.2750125 0.4112687 0.2926356 0.8182851
3361.872104 -0.7239389 -0.2990956 1.6535978 -0.2574498 0.4281403 0.3035784 0.8113295
3361.945830 -0.7247247 -0.3121102 1.6815723 -0.2540094 0.4353375 0.3099484 0.8061591
3362.019557 -0.7267450 -0.3237597 1.7080890 -0.2529172 0.4373984 0.3196032 0.8016042
3362.093284 -0.7291141 -0.3340512 1.7322509 -0.2497427 0.4381291 0.3239202 0.8004668
3362.203874 -0.7318963 -0.3533210 1.7670254 -0.2494532 0.4400935 0.3285843 0.7975733
3363.383500 -0.8535521 -0.4477302 1.9889765 -0.1940994 0.5319592 0.4491735 0.6910775
3363.825860 -0.7223868 -0.4335763 2.0426550 -0.1925086 0.5151289 0.4871278 0.6784462
3364.157630 -0.6394016 -0.4232351 2.0440831 -0.2087134 0.5176980 0.5029667 0.6598879
3364.784307 -0.7460172 -0.4521830 2.0731361 -0.1455095 0.5791094 0.5508018 0.5831609
3365.116076 -0.8303021 -0.4806834 2.1398921 -0.1024919 0.5947813 0.5794498 0.5476938
3365.484710 -0.8103216 -0.5090312 2.1634905 -0.0992179 0.5999319 0.5639037 0.5587935
3365.742753 -0.7286645 -0.5055656 2.1495364 -0.1021550 0.5744483 0.5573117 0.5907429
3366.037660 -0.6383165 -0.4903241 2.0846829 -0.1213935 0.5608902 0.5510441 0.6058186
3366.332566 -0.5991355 -0.4704446 2.0343914 -0.1540249 0.5691197 0.5425392 0.5983563
3366.516883 -0.6070246 -0.4570014 2.0130594 -0.1780096 0.5843464 0.5463526 0.5730189
3366.701200 -0.6375327 -0.4439254 2.0176468 -0.1918760 0.5902202 0.5540737 0.5548208
3367.069833 -0.7321227 -0.4596753 2.0851839 -0.1708070 0.5848888 0.5576903 0.5636591
3367.954553 -0.9284660 -0.5901178 2.0870752 -0.0550600 0.6448771 0.4611253 0.6070135
3368.470639 -1.0456605 -0.5416878 1.9959538 -0.0362319 0.6039905 0.4380297 0.6648404
3368.876136 -1.1497607 -0.4868666 1.9472686 -0.0542778 0.5852229 0.4368923 0.6809503
3369.429086 -1.1623096 -0.4445459 1.8063825 -0.0849875 0.5362971 0.3906430 0.7433441
3369.834582 -1.0916618 -0.4052927 1.5999949 -0.1108541 0.4750412 0.3260584 0.8097734
3370.461259 -0.8454845 -0.3858360 1.4687196 -0.1211297 0.3841213 0.2593414 0.8777930
3370.940482 -0.6366794 -0.4009576 1.4195929 -0.1321711 0.3534030 0.2212666 0.8992654
3371.419705 -0.4118564 -0.3851980 1.4056647 -0.1877585 0.1909456 0.1090144 0.9572891
3373.631505 0.0617278 -0.2444094 0.7395149 -0.1073727 0.0094954 -0.0143548 0.9940699
3374.516225 -0.0748786 -0.1124133 0.3989219 -0.0258292 0.0209556 0.0454273 0.9984138
