3302.116651 0.0000000 0.0000000 0.0000000 0.0000000 0.0000000 0.0000000 1.0000000
3303.886091 -0.0281489 -0.1625126 0.4470148 -0.0408182 -0.0052246 -0.0042427 0.9991439
3303.922954 -0.0253992 -0.1668882 0.4591461 -0.0421410 -0.0083038 -0.0054199 0.9990625
3304.254724 -0.0097474 -0.1936624 0.5637029 -0.0747093 -0.0324650 -0.0072683 0.9966502
3304.660220 -0.0412123 -0.2166402 0.6991138 -0.1063445 -0.0430484 -0.0093314 0.9933532
3304.991990 -0.0991846 -0.2320443 0.8266956 -0.1419038 -0.0470556 0.0026569 0.9887578
3305.286897 -0.1391660 -0.2494512 0.9128618 -0.1598642 -0.0445151 0.0018316 0.9861331
3305.544940 -0.1603356 -0.2637123 1.0054349 -0.1754971 -0.0403091 -0.0018342 0.9836527
3305.802984 -0.1748058 -0.3056730 1.0958985 -0.1663516 -0.0332024 0.0055530 0.9854917
3306.024163 -0.1923061 -0.3325894 1.1650362 -0.1709198 -0.0313798 0.0017780 0.9847835
3306.319070 -0.2169803 -0.3393871 1.2555510 -0.2062622 -0.0261459 -0.0010242 0.9781469
3306.540250 -0.2322282 -0.3336175 1.3109565 -0.2293930 0.0135804 0.0215843 0.9729998
3306.798293 -0.2556908 -0.3107030 1.3559041 -0.2605548 0.0534367 0.0745558 0.9610916
3308.973229 -0.1622139 -0.2765751 1.5633583 -0.3982972 -0.0573806 -0.0723311 0.9125980
3309.231273 -0.1911021 -0.2951488 1.5969400 -0.3970516 -0.0659190 -0.1042856 0.9094664
3309.710496 -0.2795145 -0.2763538 1.5648259 -0.3912047 -0.0240565 -0.0784991 0.9166341
3311.185029 -0.3802961 -0.2321324 1.4931231 -0.2963209 0.1788719 0.1878748 0.9191854
3311.479936 -0.4308600 -0.2364035 1.4840262 -0.2769871 0.2361047 0.2191551 0.9052645
3311.774842 -0.5292085 -0.2408840 1.4648434 -0.2426527 0.2942078 0.2631306 0.8861849
3312.106612 -0.6086812 -0.2352298 1.4550800 -0.2349701 0.3434086 0.2978417 0.8591565
3312.401519 -0.6368554 -0.2351505 1.4868706 -0.2309330 0.3779734 0.3236947 0.8360788
3312.807015 -0.6644976 -0.2777236 1.5840402 -0.2180717 0.3767153 0.3301350 0.8375806
3312.991332 -0.6833996 -0.3035476 1.6271815 -0.2268826 0.3687759 0.3130479 0.8452985
3313.101922 -0.6976619 -0.3172758 1.6518172 -0.2331660 0.3654398 0.3012374 0.8493193
3313.912915 -0.9214672 -0.3927207 1.7951200 -0.2053981 0.4048302 0.3001700 0.8389410
3315.166269 -0.7421026 -0.4144598 1.9750303 -0.1929791 0.4735884 0.4413177 0.7373681
3317.156888 -0.7400042 -0.4225506 2.1836271 0.0065962 0.6507656 0.5996927 0.4656493
3318.447104 -0.7224935 -0.4806694 2.3354445 0.0502135 0.7021871 0.6194423 0.3474235
3318.852601 -0.7155973 -0.5609261 2.4319665 0.0367013 0.7318940 0.5918855 0.3356422
3319.847911 -0.8838865 -0.5485714 2.3239555 -0.0695817 0.6928301 0.5050912 0.5099291
3320.290271 -0.9382632 -0.5654145 2.2661588 -0.1288694 0.6436145 0.4704263 0.5897899
3320.437724 -0.9532157 -0.5602527 2.2678535 -0.1391175 0.6111060 0.4799012 0.6139142
3320.585178 -0.9712252 -0.5613995 2.2739842 -0.1500712 0.5864846 0.4790379 0.6356391
3321.064401 -1.0404556 -0.5734482 2.3017223 -0.1910521 0.5298893 0.4525712 0.6913000
3321.174991 -1.0476412 -0.5751623 2.3038881 -0.1928033 0.5205810 0.4456612 0.7022880
3321.285581 -1.0445144 -0.5743908 2.3037238 -0.1907141 0.5020633 0.4420062 0.7184644
3321.359307 -1.0401232 -0.5736122 2.3008726 -0.1891276 0.4923126 0.4356059 0.7294564
3321.691077 -1.0004840 -0.5757926 2.2742715 -0.1982207 0.4446283 0.3856729 0.7837542
3321.727941 -0.9944940 -0.5798447 2.2726421 -0.2015547 0.4393990 0.3772112 0.7899468
3321.801667 -0.9888246 -0.5790927 2.2642770 -0.2060461 0.4286029 0.3614808 0.8019826
3322.170300 -0.9698915 -0.6238039 2.2695565 -0.2279065 0.3967858 0.3073438 0.8343617
3322.207164 -0.9691311 -0.6281027 2.2718556 -0.2285869 0.3942386 0.3060755 0.8358479
3322.760114 -1.0767355 -0.6313328 2.2707884 -0.1806023 0.3720870 0.2819833 0.8656902
3323.055021 -1.1782671 -0.6611188 2.2793734 -0.1624166 0.3921154 0.2733605 0.8632152
3323.423654 -1.2787482 -0.6686311 2.3223226 -0.1441232 0.3981435 0.2679468 0.8653986
3323.571107 -1.2829366 -0.6754190 2.3356955 -0.1357601 0.4034133 0.2760248 0.8617640
3323.792287 -1.2860972 -0.6845034 2.3742633 -0.1184634 0.4196378 0.2732365 0.8574452
3323.902877 -1.2761906 -0.7062539 2.3947096 -0.1137094 0.4244886 0.2730655 0.8557539
3323.939740 -1.2736138 -0.7093952 2.4052660 -0.1124915 0.4253873 0.2721547 0.8557588
3357.706548 -0.2820034 -0.1969457 1.4174781 -0.3565673 0.0266593 0.0541369 0.9323187
3358.591268 -0.1404504 -0.3083522 1.5754387 -0.3861509 -0.0312727 -0.0480385 0.9206529
3359.439124 -0.2875632 -0.2403366 1.4573429 -0.3503259 0.0710602 0.0364313 0.9332175
3360.618751 -0.3974698 -0.2669002 1.5126628 -0.3155311 0.2091538 0.1707265 0.9096963
3360.950521 -0.5039083 -0.2653370 1.5280886 -0.2939885 0.2836751 0.2136678 0.8873811
3361.282290 -0.6376512 -0.2701875 1.5280291 -0.2643231 0.3775976 0.2724882 0.8445730
3361.650924 -0.7124691 -0.2787266 1.5883540 -0.2754015 0.4065063 0.2910402 0.8210982
3361.872104 -0.7244552 -0.2996992 1.6572343 -0.2576770 0.4298445 0.3064392 0.8092782
3361.945830 -0.7263883 -0.3101941 1.6837698 -0.2522329 0.4367456 0.3113043 0.8054325
3362.019557 -0.7282064 -0.3205191 1.7099130 -0.2500054 0.4388729 0.3214193 0.8009854
3362.093284 -0.7317037 -0.3310664 1.7339203 -0.2460912 0.4400656 0.3254215 0.7999265
3362.203874 -0.7294952 -0.3521754 1.7654272 -0.2481980 0.4380503 0.3321071 0.7976305
3362.388190 -0.7375067 -0.3805747 1.8047085 -0.2441967 0.4459445 0.3362837 0.7927262
3362.867414 -0.7999765 -0.4142814 1.8906580 -0.2036328 0.5041931 0.3897469 0.7432498
3363.236047 -0.8644857 -0.4408773 1.9644365 -0.1868148 0.5320030 0.4355678 0.7016792
3363.641543 -0.7903294 -0.4388606 2.0263300 -0.1865347 0.5296119 0.4662692 0.6836001
3363.936450 -0.6876499 -0.4274492 2.0423751 -0.1956789 0.5139385 0.4958120 0.6721216
3364.194493 -0.6355640 -0.4209599 2.0398283 -0.2040257 0.5165549 0.5077361 0.6585959
3365.116076 -0.8318992 -0.4793658 2.1386762 -0.0975426 0.5940121 0.5814407 0.5473223
3365.521573 -0.8019108 -0.5080962 2.1612511 -0.0933689 0.5958645 0.5647353 0.5632955
3365.779616 -0.7185608 -0.5016219 2.1420066 -0.0985967 0.5695862 0.5580040 0.5953838
3366.074523 -0.6324396 -0.4863759 2.0753520 -0.1191947 0.5615055 0.5506941 0.6060035
3366.406293 -0.5989273 -0.4630944 2.0210307 -0.1608855 0.5739879 0.5461717 0.5885153
3366.553746 -0.6125385 -0.4517755 2.0081546 -0.1775484 0.5843728 0.5505162 0.5691371
3366.701200 -0.6387947 -0.4421084 2.0145335 -0.1876366 0.5882794 0.5568164 0.5555856
3366.774926 -0.6564471 -0.4385756 2.0225730 -0.1862596 0.5878969 0.5606710 0.5525691
3368.175733 -0.9818469 -0.5698789 2.0401740 -0.0338127 0.6178622 0.4439391 0.6480903
3368.728683 -1.1130059 -0.5067877 1.9661168 -0.0350640 0.6030274 0.4391903 0.6650115
3369.207906 -1.1836729 -0.4664863 1.8780441 -0.0697154 0.5652127 0.4202887 0.7064219
3369.539676 -1.1411271 -0.4214928 1.7500542 -0.0892510 0.5164195 0.3743719 0.7649777
3369.982036 -1.0579540 -0.3889414 1.5549918 -0.1060870 0.4525829 0.3174538 0.8265212
3370.387532 -0.8847941 -0.3768299 1.4830589 -0.1089557 0.3940690 0.2704142 0.8716160
3370.793029 -0.7006763 -0.3993591 1.4211373 -0.1219741 0.3776616 0.2408431 0.8857136
3371.198525 -0.5084760 -0.3863302 1.4264002 -0.1552535 0.2665123 0.1686942 0.9361677
3371.788339 -0.3588870 -0.3519863 1.3690319 -0.2183139 0.1166659 0.0281540 0.9684707
3373.778958 0.0621463 -0.2219986 0.6936602 -0.0992431 0.0273665 -0.0029803 0.9946824
3374.479362 -0.0724011 -0.1076080 0.4101008 -0.0290701 0.0224237 0.0454781 0.9982905
