3961.404513 0.000000000 0.000000000 0.000000000 0.000000000 0.000000000 0.000000000 1.000000000
3961.441377 -0.007056406 -0.005238431 0.005015410 0.006690525 -0.002138950 0.000436064 0.999975204
3961.478240 -0.015671352 -0.013718930 0.009646855 0.009729475 -0.003355649 0.002130018 0.999944746
3961.515104 -0.024789818 -0.018803621 0.012780027 0.011802257 -0.004146616 0.003461498 0.999915719
3961.551967 -0.034303017 -0.024426904 0.016587554 0.013272222 -0.004245888 0.004932118 0.999890745
3961.588830 -0.046171051 -0.031725418 0.018797580 0.014083869 -0.002412884 0.003475717 0.999891877
3961.625694 -0.058458228 -0.036055841 0.021209266 0.018490849 0.000904091 0.002214640 0.999826193
3961.662557 -0.069966592 -0.041115984 0.023250064 0.022756258 0.006356761 0.000540040 0.999720693
3961.699420 -0.082661152 -0.047961712 0.025347587 0.025279237 0.014524769 -0.001500471 0.999573767
3961.736284 -0.094379589 -0.053373024 0.025591351 0.026449595 0.023589425 -0.004146001 0.999363184
3961.773147 -0.109158687 -0.059394307 0.027411658 0.028161958 0.034721833 -0.006642896 0.998978078
3961.810010 -0.124842145 -0.066581510 0.027522877 0.031281643 0.046433993 -0.006798407 0.998408318
3961.846874 -0.137630269 -0.071842216 0.029610721 0.035524651 0.055967696 -0.004547578 0.997790039
3961.883737 -0.156435519 -0.077191554 0.030331414 0.037068333 0.067448482 -0.002119074 0.997031689
3961.920600 -0.173314020 -0.084673062 0.033394463 0.034775510 0.075762130 0.002368418 0.996516466
3961.957464 -0.191424057 -0.086723678 0.036859389 0.034989975 0.082594603 0.006767868 0.995945752
3961.994327 -0.210044429 -0.091630340 0.040169857 0.032872912 0.087793380 0.010435901 0.995541453
3962.031190 -0.227546290 -0.095693246 0.043837849 0.029522864 0.091250949 0.012836829 0.995307446
3962.068054 -0.244968235 -0.099180572 0.048030432 0.024171347 0.095058307 0.013636981 0.995084763
3962.104917 -0.263209552 -0.104300201 0.052871764 0.018060299 0.100926235 0.012668657 0.994649351
3962.141780 -0.278575599 -0.108515203 0.057061072 0.013568309 0.107688241 0.012825144 0.994009435
3962.178644 -0.293631047 -0.110708080 0.063068256 0.009018257 0.116977267 0.011534199 0.993026674
3962.215507 -0.306862861 -0.116021410 0.068891004 0.002274161 0.127805799 0.008695304 0.991758466
3962.252370 -0.319684684 -0.118697755 0.074490875 -0.002420553 0.139999136 0.007014464 0.990123808
3962.289234 -0.330878764 -0.120265290 0.080358014 -0.003930725 0.151624411 0.004377725 0.988420665
3962.326097 -0.341683954 -0.122708403 0.086689547 -0.003444549 0.162448451 0.000821464 0.986710668
3962.362961 -0.352703393 -0.126050994 0.094237953 -0.000617915 0.171714261 -0.002737235 0.985142827
3962.399824 -0.362864316 -0.127673283 0.099515751 0.003273324 0.178597108 -0.005731069 0.983900189
3962.436687 -0.374186814 -0.129065275 0.107864499 0.005235741 0.184689358 -0.009139478 0.982740462
3962.473550 -0.384182990 -0.131033719 0.115076780 0.007257512 0.187683076 -0.012344944 0.982125223
3962.510414 -0.394069850 -0.135275111 0.125538647 0.008969251 0.189341918 -0.014856889 0.981757820
3962.547277 -0.404110223 -0.139075592 0.134184659 0.011481192 0.188237056 -0.019432863 0.981864214
3962.584141 -0.413677812 -0.143368900 0.143447861 0.014420475 0.186268225 -0.024021911 0.982099354
3962.621004 -0.420462787 -0.149540305 0.154619083 0.016184181 0.183711886 -0.026184140 0.982498050
3962.657867 -0.429044634 -0.155503497 0.165773094 0.016858080 0.183556288 -0.027301000 0.982485414
3962.694731 -0.435273468 -0.161828741 0.176897705 0.016069708 0.184005812 -0.025915802 0.982452035
3962.731594 -0.440583467 -0.168767259 0.187695533 0.015179288 0.184689611 -0.024841115 0.982365668
3962.768457 -0.444472730 -0.174026608 0.198645204 0.017893510 0.185054228 -0.022126431 0.982316256
3962.805321 -0.449444026 -0.180733755 0.209625930 0.019954715 0.186477914 -0.021235287 0.982026935
3962.842184 -0.453715742 -0.186682686 0.219643280 0.020178813 0.188102841 -0.018756397 0.981762886
3962.879047 -0.456683695 -0.191668287 0.230186179 0.018019138 0.189306781 -0.016536521 0.981613338
3962.915911 -0.461808294 -0.196418732 0.238466471 0.014952887 0.191918984 -0.012411637 0.981218338
3962.952774 -0.468099296 -0.202003524 0.248469621 0.011766858 0.195508599 -0.007496972 0.980602741
3962.989637 -0.472999275 -0.205299288 0.258627504 0.007514491 0.198037162 -0.005555940 0.980149925
3963.026500 -0.479562044 -0.208813235 0.267841041 0.003573428 0.202195510 -0.003494590 0.979332387
3963.063364 -0.485994667 -0.211108148 0.277309179 -0.000600456 0.206483781 -0.002333498 0.978447080
3963.100227 -0.493188679 -0.212543130 0.286311269 -0.005614460 0.211680695 -0.000558609 0.977322578
3963.137091 -0.501415789 -0.215166405 0.296070039 -0.013015547 0.217912316 0.001055522 0.975880980
3963.173954 -0.509894967 -0.215617791 0.304077655 -0.018679826 0.223612890 0.003618830 0.974492311
3963.210818 -0.518588960 -0.214453369 0.314341992 -0.023210092 0.228634462 0.004426362 0.973225534
3963.247681 -0.530233145 -0.214332327 0.321782291 -0.028374054 0.233541861 0.004761987 0.971921027
3963.284544 -0.539564729 -0.211992219 0.329726577 -0.032736253 0.236389279 0.005219398 0.971092820
3963.321407 -0.550752699 -0.209404647 0.336250603 -0.037044398 0.239423841 0.005523204 0.970192492
3963.358271 -0.562003613 -0.205038697 0.343097955 -0.040616464 0.243412629 0.006010233 0.969053388
3963.395134 -0.573245943 -0.200264752 0.348690093 -0.045031156 0.248144165 0.005828527 0.967658341
3963.431998 -0.585777521 -0.192963198 0.354386687 -0.045927901 0.254930228 0.006093110 0.965848863
3963.468861 -0.595525920 -0.186616212 0.357663542 -0.047079246 0.261067778 0.006891808 0.964147091
3963.505724 -0.607963681 -0.177010939 0.361732960 -0.046263635 0.269418836 0.007426684 0.961882532
3963.542588 -0.618942976 -0.168842122 0.363887995 -0.045976821 0.276034802 0.008028332 0.960013807
3963.579451 -0.629391611 -0.160717815 0.366586506 -0.044916093 0.282244623 0.008339165 0.958254099
3963.616314 -0.638761342 -0.152856916 0.367103696 -0.041407108 0.285935283 0.008735329 0.957314014
3963.653177 -0.645623386 -0.145029843 0.366676986 -0.036085587 0.287320316 0.006388016 0.957133234
3963.690041 -0.653473973 -0.138430387 0.365264624 -0.031319208 0.290088534 0.003918611 0.956479132
3963.726904 -0.659242988 -0.133298114 0.362109125 -0.027969431 0.292541087 0.001922597 0.955841899
3963.763767 -0.664235473 -0.126254261 0.359441459 -0.023448532 0.296296209 0.001848653 0.954806387
3963.800631 -0.668540299 -0.119611450 0.357097030 -0.020076059 0.299841195 -0.000378301 0.953777790
3963.837494 -0.670711040 -0.115211792 0.352897018 -0.017524177 0.301623434 -0.002088548 0.953263760
3963.874357 -0.672372282 -0.111273788 0.349271685 -0.015595887 0.302811444 -0.004696661 0.952911317
3963.911221 -0.673104763 -0.106236555 0.344893724 -0.013184942 0.302614480 -0.008066263 0.952987671
3963.948084 -0.671630859 -0.101007268 0.339487970 -0.010468582 0.300891995 -0.010631490 0.953541458
