# timestamp tx ty tz qx qy qz qw
3961.390000000 -0.11307656415499 -0.18672530978007 1.8253405632515 -0.63019651994228 -0.30464027612672 0.26738653641299 0.66223189938204
3961.400000000 -0.11606828211714 -0.18757148522897 1.8271950595273 -0.62850000130205 -0.30407399132118 0.26824349459559 0.66375611769119
3961.410000000 -0.11901732327224 -0.18846130903406 1.8291079667279 -0.62705136029943 -0.30363707282783 0.26902313873675 0.66500952652982
3961.420000000 -0.12192387348288 -0.18939460123994 1.8310754545275 -0.62595300206328 -0.30334468343006 0.26969657752303 0.66590434622027
3961.430000000 -0.12479201934644 -0.19037364658435 1.8330693306885 -0.62516398377774 -0.3031665418239 0.27028055346335 0.6664896576281
3961.440000000 -0.12762614064476 -0.19140131340024 1.8350586719481 -0.62462355303917 -0.30306594354796 0.27079766646206 0.66683211881913
3961.450000000 -0.13042997623825 -0.19248108483508 1.8370133764262 -0.6242704652214 -0.30300599692242 0.27127029449661 0.66699788560762
3961.460000000 -0.13320629366323 -0.19361730682538 1.8389044152627 -0.62404318890979 -0.30294982565031 0.27172059709106 0.66705278549019
3961.470000000 -0.13595745635524 -0.19481231253452 1.8407130922847 -0.62388799901726 -0.30287039078499 0.27216112226672 0.66705443150803
3961.480000000 -0.1386867350369 -0.19606247395833 1.8424418056187 -0.62376888311461 -0.30276236192925 0.27258329865215 0.66704248586794
3961.490000000 -0.1413975213781 -0.19736347126702 1.844095742643 -0.62365223364778 -0.30262327396054 0.27297570613203 0.66705420273413
3961.500000000 -0.14409315990225 -0.19871124130027 1.84568003116 -0.62350445171279 -0.30245064424685 0.27332691496685 0.66712682755507
3961.510000000 -0.14677692922312 -0.20010205512864 1.8471996650647 -0.62329200229078 -0.30224202897423 0.27362550411719 0.66729747436844
3961.520000000 -0.1494517410045 -0.20153515723681 1.8486603368316 -0.6229995717773 -0.30200003747209 0.2738633946155 0.66758246833019
3961.530000000 -0.15211977717152 -0.20301580968674 1.8500695992007 -0.62265254966143 -0.30173849969062 0.27403996610327 0.66795192729918
3961.540000000 -0.15478314619102 -0.20455003298734 1.8514352327578 -0.62228185980278 -0.3014727785327 0.27415562758403 0.66836976489678
3961.550000000 -0.15744400361454 -0.20614376829961 1.8527649785202 -0.62191849972846 -0.30121824020263 0.2742108113079 0.66879995695768
3961.560000000 -0.16010458937043 -0.20780281847894 1.8540665233476 -0.62159345910454 -0.30099018881125 0.27420595258862 0.66920667465499
3961.570000000 -0.16276592946025 -0.20952949552848 1.8553487113755 -0.62131749360605 -0.3007904173283 0.27413778158864 0.66958059536416
3961.580000000 -0.16542605199384 -0.21131857543507 1.8566231211384 -0.62105590116903 -0.30059044745838 0.27399468687883 0.66997153826268
3961.590000000 -0.16808251989771 -0.21316387924418 1.8579017704028 -0.62076769398764 -0.30035764943568 0.27376387989196 0.67043723837004
3961.600000000 -0.17073283126994 -0.21505930698233 1.8591967674499 -0.62041173352943 -0.30005933079016 0.27343250915282 0.67103527615406
3961.610000000 -0.17337445219699 -0.21699882624991 1.860520248488 -0.61994681880541 -0.2996627185738 0.27298763696857 0.67182285389255
3961.620000000 -0.17600610528064 -0.21897997738116 1.8618783121718 -0.61936234921303 -0.29914204216479 0.27241770836539 0.67282457680717
3961.630000000 -0.17862932335419 -0.22100827405365 1.8632634395783 -0.61871698438774 -0.29848746695294 0.27171461766636 0.67399235296002
3961.640000000 -0.18124613457129 -0.22309023184405 1.8646662457027 -0.61807895180216 -0.29769114803954 0.27087101977716 0.67526830250126
3961.650000000 -0.18385877273762 -0.22523210523339 1.8660774966624 -0.61751663356976 -0.2967451259579 0.26987983213633 0.67659471893518
3961.660000000 -0.18646985025137 -0.22743953646093 1.8674883519969 -0.61709842384907 -0.29564158559314 0.26873406189565 0.67791414805124
3961.670000000 -0.18908367704695 -0.22971486207701 1.8688940736176 -0.61686210944577 -0.29438565879795 0.26743203194423 0.67918946555022
3961.680000000 -0.19170737654981 -0.23205459146618 1.8702981805725 -0.61677622948574 -0.29301128429938 0.26598423711709 0.68042917017117
3961.690000000 -0.1943482667141 -0.23445478792547 1.8717052163281 -0.61679991860777 -0.29155643837138 0.26440270039041 0.68164794115137
3961.700000000 -0.19701323141691 -0.23691225210631 1.8731193852701 -0.61689244278597 -0.29005906188271 0.26269952269086 0.68286046556473
3961.710000000 -0.19970854479277 -0.23942484602373 1.8745443003788 -0.61701319729926 -0.28855683674007 0.26088708557501 0.68408157036225
3961.720000000 -0.20243673694481 -0.24199030294644 1.8759830946085 -0.61712810199111 -0.28706633973048 0.25897988175584 0.68532856585169
3961.730000000 -0.20519297779029 -0.24460404107073 1.8774391949845 -0.61721758993444 -0.28555678359579 0.25699647858929 0.68662404561059
3961.740000000 -0.20797133205378 -0.24726125331005 1.8789162486764 -0.6172637466925 -0.28399101300458 0.25495587626247 0.68799133185746
3961.750000000 -0.21076567193743 -0.24995725584217 1.8804182581604 -0.6172484103199 -0.28233194136341 0.25287696204271 0.68945363652067
3961.760000000 -0.21356964274862 -0.25268744029521 1.881949745286 -0.61715345304888 -0.28054243466126 0.25077856109345 0.6910337698261
3961.770000000 -0.21638373217047 -0.25545026450691 1.8835065562712 -0.61698655896058 -0.27859932229502 0.24868548213441 0.69272327422595
3961.780000000 -0.21922470224251 -0.25825090987184 1.8850635983684 -0.61681425788331 -0.2765115217115 0.24663671705607 0.69444357541304
3961.790000000 -0.22211182468445 -0.26109489134453 1.8865929997863 -0.61671154568467 -0.27429220517545 0.24467412512808 0.69610719583411
3961.800000000 -0.22506454450242 -0.26398717542945 1.8880673865366 -0.61675372385972 -0.27195463235611 0.24284024091844 0.69762750765426
3961.810000000 -0.22810219019038 -0.26693232956114 1.8894605530319 -0.61701625717105 -0.26951248837524 0.24117758728838 0.69891868510305
3961.820000000 -0.2312355837325 -0.26993028975054 1.8907624134134 -0.61753514183687 -0.26698196561255 0.23970570010731 0.69993725145204
3961.830000000 -0.23445659831987 -0.27297102091965 1.8919966913212 -0.61825540283321 -0.26438397775331 0.23839201330907 0.70073576843581
3961.840000000 -0.23775432963665 -0.27604351644014 1.8931911271959 -0.61910933938546 -0.26174019966895 0.23719622827971 0.70137981369073
3961.850000000 -0.24111797044045 -0.27913720920568 1.8943719941862 -0.62002908536851 -0.25907219895685 0.236078099761 0.70193493988972
3961.860000000 -0.24453699151317 -0.28224201391407 1.8955633862343 -0.6209465901139 -0.25640124797528 0.23499805123623 0.70246683066022
3961.870000000 -0.24800660117399 -0.28535097453069 1.8967758593997 -0.62181472758205 -0.25374899842445 0.23393599525388 0.70301624482313
3961.880000000 -0.2515346717928 -0.28846326722397 1.8979932505921 -0.62263503932026 -0.25113871029889 0.23291522222938 0.70356624084297
3961.890000000 -0.25513093968885 -0.29157882960464 1.8991959141874 -0.62341596749499 -0.24859388956672 0.23196527762281 0.70409212431311
3961.900000000 -0.25880509972174 -0.29469764221515 1.9003644738545 -0.62416608681987 -0.24613810662377 0.23111582189326 0.70456951779241
3961.910000000 -0.26256647873384 -0.29782006150913 1.901479928127 -0.62489418147974 -0.24379501974592 0.2303964148636 0.70497428486283
3961.920000000 -0.26641685020169 -0.30094561165868 1.9025328652801 -0.62561110089481 -0.24158267865109 0.22981874335987 0.70528852607528
3961.930000000 -0.27034169922156 -0.30407064465788 1.9035352887013 -0.62633202049142 -0.23950589967074 0.22935350930488 0.70550839250826
3961.940000000 -0.27432437197264 -0.30719091110508 1.9045019858017 -0.62707268171023 -0.23756758393792 0.22896573821387 0.7056317634849
3961.950000000 -0.2783486981668 -0.31030163121104 1.9054473994682 -0.6278486803702 -0.23577056342551 0.22862054506023 0.70565637696813
3961.960000000 -0.28239925707745 -0.31339725014606 1.9063854454027 -0.62867535011369 -0.23411758915874 0.22828308884908 0.70557996708485
3961.970000000 -0.28646494030105 -0.31647146633457 1.907327284548 -0.62955922410751 -0.23261271992587 0.22792251840114 0.70540614646849
3961.980000000 -0.29054316058659 -0.31951770354722 1.9082788872812 -0.63048694646873 -0.23126325182083 0.2275172983776 0.7051520386617
3961.990000000 -0.29463249039536 -0.32252924737288 1.909245476381 -0.63144242065342 -0.23007701887352 0.2270472192543 0.70483657326682
3962.000000000 -0.29873162248967 -0.32549919546586 1.9102321688022 -0.63240958979955 -0.22906188437647 0.22649217891382 0.70447857082124
3962.010000000 -0.30283944686362 -0.3284204629428 1.9112436749386 -0.63337243527447 -0.22822562635499 0.22583225239784 0.70409673730694
3962.020000000 -0.3069542252868 -0.33129043183547 1.912278659222 -0.63432987871063 -0.22756087583488 0.22505744663706 0.70369794548331
3962.030000000 -0.31107223726327 -0.33411711886819 1.9133231059621 -0.63531560204088 -0.22702506782337 0.22418065455717 0.70326150079864
3962.040000000 -0.31518948586481 -0.3369099895179 1.9143617916586 -0.63636799396755 -0.22657044042768 0.22321792427425 0.70276266979743
3962.050000000 -0.31930197000429 -0.33967816907442 1.9153806791084 -0.63752526109224 -0.22614909840867 0.22218525657153 0.70217650097426
3962.060000000 -0.3234057431968 -0.3424300919278 1.9163674459531 -0.63882533733148 -0.22571316447799 0.2210986389149 0.70147783117831
3962.070000000 -0.32749911011939 -0.3451676334118 1.9173158689796 -0.64027093567622 -0.22522291622183 0.21996855504783 0.70067224986223
3962.080000000 -0.33158532142241 -0.34787901170871 1.9182302988972 -0.6417828005817 -0.22465784738111 0.21879243676312 0.69983823709686
3962.090000000 -0.33566814247819 -0.35055068512484 1.9191161919756 -0.64327033000045 -0.22400076107801 0.21756566918834 0.69906517662391
3962.100000000 -0.33975107473423 -0.35316945912033 1.9199784699964 -0.64464332671352 -0.22323486233437 0.21628355691088 0.69844298305034
3962.110000000 -0.34383734035928 -0.35572255899026 1.9208213937055 -0.64581216968576 -0.22234343411609 0.21494149573936 0.69806173953352
3962.120000000 -0.34792229406516 -0.35820020925804 1.9216476025514 -0.64675174627098 -0.2213279100101 0.21352133990594 0.69795040823168
3962.130000000 -0.35198305631638 -0.36059913575556 1.9224572510488 -0.64758791574863 -0.22023252853671 0.21197278261865 0.69799359895316
3962.140000000 -0.35599407087769 -0.36291727976677 1.9232502769132 -0.64846801923041 -0.21910682030839 0.21024134220336 0.69805444440836
3962.150000000 -0.35992977567834 -0.36515274134534 1.924026561071 -0.64953909421551 -0.21799981206494 0.20827262896122 0.69799538612439
3962.160000000 -0.36376492653753 -0.36730336467355 1.9247855972161 -0.65094705299574 -0.21696050135435 0.20601185664206 0.6976784287701
3962.170000000 -0.36749020420952 -0.36936839428175 1.9255275689087 -0.65274713533232 -0.21600479315067 0.2034410702654 0.69704722765438
3962.180000000 -0.37113279791309 -0.37135158363016 1.9262555856857 -0.65478335039522 -0.21507037740431 0.20063075288732 0.69624047412101
3962.190000000 -0.37472482533157 -0.3732573908753 1.9269733620883 -0.65686997495034 -0.21408541280705 0.19766361242994 0.69542675268724
3962.200000000 -0.37829767842097 -0.37509091919147 1.9276853077722 -0.65882271827806 -0.21297930775886 0.19462245045682 0.69477661311061
3962.210000000 -0.38188163879951 -0.37685842531228 1.928397151562 -0.66045942050173 -0.21168161639188 0.19159090103665 0.69446178713606
3962.220000000 -0.38549232585473 -0.37856495103256 1.9291100697991 -0.66167900412474 -0.21015715660551 0.18862656955004 0.69457532513599
3962.230000000 -0.38911269713372 -0.38021023414734 1.9298111417837 -0.66256893126378 -0.20845575264366 0.18572295352307 0.69502201047766
3962.240000000 -0.39272094521131 -0.3817935986383 1.9304853406596 -0.6632437525343 -0.20663859508702 0.18286461730405 0.69567862370704
3962.250000000 -0.39629524482187 -0.38331468824639 1.9311172463144 -0.66381785305247 -0.20476691708985 0.18003605226735 0.69642184595137
3962.260000000 -0.39981389732577 -0.38477338078938 1.9316907079272 -0.66440519907241 -0.20290295230885 0.17722113546907 0.69712896406114
3962.270000000 -0.40326505275851 -0.38617041014761 1.9321994947297 -0.6650665273555 -0.20109597388855 0.17441051443996 0.69773053246214
3962.280000000 -0.40666016385144 -0.38750811716157 1.9326627913261 -0.6657366323933 -0.19936191276927 0.1716124217007 0.69828270832424
3962.290000000 -0.41001414619816 -0.38878890660724 1.9331034641109 -0.66633213495783 -0.19771258339863 0.16883723406295 0.69885993495288
3962.300000000 -0.4133418930353 -0.39001523202858 1.9335443141508 -0.66676984095948 -0.19616019525 0.16609516929868 0.69953666931905
3962.310000000 -0.41665817928275 -0.3911899537322 1.9340080034634 -0.66696679875171 -0.19471663099068 0.16339666512624 0.70038721633405
3962.320000000 -0.41997349194586 -0.39231802014932 1.9345057112793 -0.66688159232866 -0.19338144878694 0.16075919581601 0.70144781562055
3962.330000000 -0.42328846634885 -0.39340797765947 1.9350214910125 -0.66657211382165 -0.19212604146616 0.15821641548545 0.70266404998179
3962.340000000 -0.42660241738627 -0.39446853513263 1.9355356404614 -0.66611076894788 -0.19091748045655 0.15580466352175 0.70396865411228
3962.350000000 -0.42991478482154 -0.39550782454481 1.9360289694466 -0.66557018519405 -0.18972313409741 0.15356033821958 0.70529474937427
3962.360000000 -0.43322510559246 -0.39653336517994 1.9364832028705 -0.66502335206038 -0.18851110461818 0.15151950591968 0.70657578785001
3962.370000000 -0.43653542216156 -0.39754847539383 1.9368909716687 -0.66452027162432 -0.18727024452246 0.14969524750991 0.70776690865693
3962.380000000 -0.43985375385461 -0.39854728142204 1.9372688605428 -0.66405476269873 -0.1860377374995 0.14804613089649 0.70887486588945
3962.390000000 -0.44318899632116 -0.3995224876914 1.9376366321484 -0.66361238857062 -0.18485775491992 0.14652252832557 0.70991362634806
3962.400000000 -0.4465501291472 -0.40046658589552 1.9380132626267 -0.66317857167551 -0.18377442242653 0.14507473855143 0.71089694328113
3962.410000000 -0.44994631220362 -0.40137187019618 1.9384164405273 -0.66273842592065 -0.1828318038399 0.14365319777993 0.71183851334447
3962.420000000 -0.45338422618839 -0.40223115373885 1.9388578316796 -0.66228242708858 -0.18205844979897 0.14223227266727 0.71274587914513
3962.430000000 -0.45686412590038 -0.40303868783948 1.9393376438321 -0.66181481978051 -0.18144551901954 0.14084378229553 0.71361172701639
3962.440000000 -0.46038528762477 -0.4037888896724 1.9398547214418 -0.66134194596383 -0.18097872077084 0.13952804867873 0.71442666297446
3962.450000000 -0.46394692541787 -0.40447610267293 1.940408477194 -0.66087029956003 -0.18064382251409 0.13832536071124 0.715181341431
3962.460000000 -0.46754816847429 -0.40509475663802 1.9409991424792 -0.66040653214851 -0.18042660879037 0.13727587844567 0.71586645705254
3962.470000000 -0.47118668404131 -0.40564233113403 1.9416288725136 -0.65994706919307 -0.18031661562719 0.13640233147501 0.71648460413356
3962.480000000 -0.47485693952333 -0.40612314926643 1.9423026877724 -0.6594631331125 -0.18031252961571 0.13568529790834 0.71706712911732
3962.490000000 -0.47855305136401 -0.40654238269855 1.9430259100241 -0.65892200693323 -0.18041440163611 0.13509904502488 0.71764941335915
3962.500000000 -0.48226928866854 -0.40690484155184 1.9438037041026 -0.65829078440463 -0.18062227697127 0.13461777461949 0.71826658768604
3962.510000000 -0.48600008629979 -0.40721495581478 1.9446410116235 -0.65753645540479 -0.18093618042435 0.13421562967886 0.71895345689207
3962.520000000 -0.48973964427216 -0.40747484733976 1.9455399621929 -0.6566524280607 -0.18135769268662 0.13387284388815 0.71971872123397
3962.530000000 -0.49348138977456 -0.40768145934499 1.9464963739638 -0.65569686595836 -0.18189224059359 0.13358454266819 0.720508155918
3962.540000000 -0.49721870000313 -0.4078307368889 1.947505200192 -0.65473785412337 -0.18254584783099 0.13334792506626 0.72125840494105
3962.550000000 -0.50094509217981 -0.4079180970608 1.9485613430628 -0.65384375998569 -0.18332463435143 0.13316006081052 0.72190637493558
3962.560000000 -0.50465430699146 -0.40793822474594 1.9496593988441 -0.65308304419562 -0.18423478559826 0.13301803079151 0.72238928884923
3962.570000000 -0.50834331067241 -0.40788760384376 1.9507968518707 -0.65248450781622 -0.18526249217212 0.13291847279386 0.72268558560701
3962.580000000 -0.51201649477659 -0.40776868715448 1.9519793975942 -0.65197971754232 -0.18634486104828 0.1328568288485 0.72287419631818
3962.590000000 -0.51567933261427 -0.40758480727305 1.9532142526018 -0.65148559157003 -0.18741162652184 0.13282872726644 0.72304905465249
3962.600000000 -0.5193370917442 -0.40733920812015 1.9545094853454 -0.65091907860662 -0.18839252492623 0.13282992760461 0.72330409924898
3962.610000000 -0.52299451591667 -0.40703504399463 1.9558746882442 -0.65019731044671 -0.18921735427353 0.13285596976203 0.7237330596485
3962.620000000 -0.52665146110418 -0.40667572925511 1.957315119595 -0.64929572175169 -0.18983979639156 0.1329012378284 0.72437088456442
3962.630000000 -0.53029729689959 -0.4062653866552 1.9588213436551 -0.64833324169794 -0.19027229028164 0.13295809116412 0.72510868789059
3962.640000000 -0.53391992411966 -0.40580801600157 1.9603811511485 -0.64745083458176 -0.19053625970477 0.13301855031122 0.72581637885226
3962.650000000 -0.53750759672082 -0.40530699328231 1.9619811530766 -0.64678992466758 -0.19065327456818 0.13307486724006 0.72636437271798
3962.660000000 -0.54104915811516 -0.40476444533956 1.9636061098148 -0.64649198558999 -0.19064497386256 0.13311962960961 0.72662354126567
3962.670000000 -0.54453746979654 -0.40418020474327 1.9652417028622 -0.64662502557786 -0.19052993832677 0.13315188531955 0.72652941739029
3962.680000000 -0.54797391851522 -0.40355212917261 1.966880330423 -0.64707580521625 -0.19031918339857 0.13318614098254 0.72617694991264
3962.690000000 -0.55136107483983 -0.40287856090379 1.9685157563787 -0.64770354035225 -0.19002250046155 0.13323911615712 0.72568513217453
3962.700000000 -0.55470136722879 -0.4021594269223 1.9701425341468 -0.64836764543049 -0.18964969681829 0.1333274872701 0.725173199997
3962.710000000 -0.55799697121335 -0.40139696585931 1.9717566132942 -0.64892803126379 -0.18921069073655 0.13346800021614 0.72476066233578
3962.720000000 -0.56125009997776 -0.40059454719819 1.9733588599378 -0.64929564493119 -0.1887156830976 0.13367008028825 0.72452319911935
3962.730000000 -0.56446370025843 -0.39975302346873 1.9749586850794 -0.64950714590726 -0.18817526221001 0.13392465492547 0.72442717019083
3962.740000000 -0.56764090966243 -0.3988724913329 1.9765664265854 -0.6496181896897 -0.18760007240382 0.1342198790219 0.72442214525351
3962.750000000 -0.57078504827335 -0.39795250973279 1.9781917275064 -0.64968437829552 -0.1870007441124 0.13454389557237 0.72445763883362
3962.760000000 -0.57389970859396 -0.39699186932246 1.9798431968354 -0.64976126787145 -0.18638786416681 0.13488475750832 0.72448323725076
3962.770000000 -0.57698728865959 -0.39599229635232 1.9815249172905 -0.64988518213068 -0.18577094301394 0.13522892838933 0.72446638549029
3962.780000000 -0.58004659149265 -0.39496463252188 1.9832320519411 -0.65004456084543 -0.18515693570456 0.13555916428108 0.72441886437004
3962.790000000 -0.58307589490265 -0.39392121461749 1.9849584868429 -0.65022056910198 -0.18455240891826 0.13585763673317 0.72435924955815
3962.800000000 -0.58607350605481 -0.39287451987986 1.9866981648976 -0.65039441621551 -0.18396394561931 0.13610651895019 0.72430614077689
3962.810000000 -0.5890377907314 -0.39183721861379 1.9884450731644 -0.65054738855219 -0.18339812811231 0.13628803595944 0.72427811861683
3962.820000000 -0.59196892060212 -0.39082192431423 1.9901875502313 -0.65068152345505 -0.18285357374292 0.13639220896205 0.72427570091652
3962.830000000 -0.59487149275699 -0.38984067373494 1.9918997668234 -0.65085068125834 -0.18230895112746 0.13642850685804 0.72425416778977
3962.840000000 -0.59775084674454 -0.3889053256299 1.9935537420048 -0.65111660080355 -0.18173983507879 0.13640947931857 0.72416176263015
3962.850000000 -0.60061233229812 -0.38802747261736 1.995121495371 -0.65154090226556 -0.1811217492732 0.13634771561546 0.72394658992334
3962.860000000 -0.60346124221858 -0.38721814621317 1.9965750128671 -0.65218491199127 -0.18043018420805 0.13625574389097 0.72355660556331
3962.870000000 -0.60630273516244 -0.38648018896266 1.9979021310278 -0.65306833688983 -0.17965153077142 0.13614592304144 0.72297397081958
3962.880000000 -0.60914181757516 -0.38579744807862 1.9991308358978 -0.65410703631707 -0.17879968678914 0.13603039253834 0.72226753308623
3962.890000000 -0.6119833867044 -0.38515109566767 2.0002954746462 -0.65520116196126 -0.17789288287177 0.13592111706401 0.72151993009498
3962.900000000 -0.61483225908165 -0.38452297808874 2.0014308010088 -0.65625131598835 -0.17694946335343 0.1358300517284 0.72081432750047
3962.910000000 -0.61769319569657 -0.38389611100247 2.0025722538589 -0.65715868240121 -0.17598787240039 0.13576930734683 0.72023428833627
3962.920000000 -0.62057167036667 -0.3832633509643 2.0037432651331 -0.65787299690484 -0.17502157131527 0.13574011610924 0.71982302713682
3962.930000000 -0.62347517992387 -0.38263939498826 2.0049351196803 -0.65846554825156 -0.17405123572895 0.13571573331058 0.71952104127605
3962.940000000 -0.62641169840993 -0.38204204228888 2.0061339232426 -0.65902625873016 -0.17307551861162 0.13566525190432 0.71925252490845
3962.950000000 -0.62938942740514 -0.38148843465769 2.0073252419636 -0.65964485754704 -0.17209302079536 0.13555779649403 0.71894140089089
3962.960000000 -0.63241683637002 -0.38099458269579 2.0084937012843 -0.66041076184039 -0.17110227644986 0.13536231804627 0.71851143309777
3962.970000000 -0.63549776758117 -0.38056744462225 2.0096249188693 -0.66138076583652 -0.17010641298498 0.13505824418217 0.7179126419846
3962.980000000 -0.63862374049959 -0.38019400960089 2.010709487838 -0.66252971983524 -0.16912039208966 0.13465229168309 0.71716206233945
3962.990000000 -0.64178423929707 -0.37985863932134 2.0117389247168 -0.66381979913159 -0.16816107106341 0.13415548669969 0.7162872565166
3963.000000000 -0.6449686288407 -0.37954643137512 2.0127050235603 -0.66521335330184 -0.16724537869809 0.13357900178245 0.71531589397682
3963.010000000 -0.64816618325494 -0.37924339585769 2.0135999319942 -0.66667295061669 -0.16639028073805 0.13293417987238 0.71427582572394
3963.020000000 -0.65136992436189 -0.37894201419209 2.0144208625832 -0.66815802040474 -0.1655991042557 0.1322278296449 0.71320235382809
3963.030000000 -0.65458254982946 -0.37864932158261 2.0151774015011 -0.66961960705955 -0.16484051742672 0.13145476783956 0.71214944335311
3963.040000000 -0.65780830195783 -0.37837443602507 2.0158813407264 -0.67100762651667 -0.16407804358105 0.1306076638853 0.7111742394839
3963.050000000 -0.66105137588531 -0.37812628463388 2.0165449970169 -0.67227219715426 -0.16327545885916 0.12967908842338 0.710334112579
3963.060000000 -0.66431586797464 -0.37791352394235 2.017181422129 -0.67336368820457 -0.16239663457252 0.12866175101049 0.70968643097778
3963.070000000 -0.66760476626766 -0.37774067212571 2.0177970842475 -0.67427024426515 -0.16142152412845 0.12755316200688 0.70924813719087
3963.080000000 -0.67091855733688 -0.37760239137908 2.018379769075 -0.67507624811367 -0.16037120211013 0.12636268401004 0.70893272519774
3963.090000000 -0.67425734032293 -0.37749188902745 2.0189140364619 -0.67588102853001 -0.15927275553608 0.12510188431668 0.70863710258325
3963.100000000 -0.67762127669365 -0.37740252725837 2.0193839591663 -0.67678372892304 -0.15815306043538 0.12378244519981 0.70825793324205
3963.110000000 -0.68101062709117 -0.37732790112689 2.0197728670476 -0.67788311737845 -0.15703914063577 0.12241579003747 0.70769171383531
3963.120000000 -0.68442478054653 -0.37726498430049 2.0200707813549 -0.67923342476848 -0.15595041602429 0.12101476534172 0.70687824198261
3963.130000000 -0.68786073247912 -0.37721890582637 2.0202869678132 -0.68077553005304 -0.15488602536955 0.11959691616589 0.70586937493409
3963.140000000 -0.69131515406065 -0.37719621254176 2.0204340990405 -0.68243270062293 -0.15384214513662 0.11818042043522 0.70473512167765
3963.150000000 -0.69478478991077 -0.37720369003372 2.0205254536566 -0.68412873308894 -0.15281502665502 0.11678356481496 0.70354604908254
3963.160000000 -0.69826641674501 -0.37724843979844 2.0205750996015 -0.68578812028082 -0.1518008228653 0.1154249742402 0.7023732907655
3963.170000000 -0.70175871102331 -0.3773363843391 2.0205911188147 -0.68735732739243 -0.15080223600061 0.11411557164396 0.7012675854519
3963.180000000 -0.70526522668638 -0.37746968774975 2.0205643293777 -0.68883808694423 -0.14983930408253 0.11284551382311 0.70022579425288
3963.190000000 -0.70879028408024 -0.37764994096091 2.0204826512836 -0.69024087735039 -0.14893483659203 0.11160174235444 0.69923600936117
3963.200000000 -0.71233819530678 -0.37787875459268 2.0203337374932 -0.69157612310525 -0.1481116583902 0.11037122985438 0.6982861836096
3963.210000000 -0.71591323245367 -0.37815779025139 2.0201047834125 -0.69285413598815 -0.147392578415 0.10914088703621 0.69736420961306
3963.220000000 -0.71951484088192 -0.3784892655659 2.0197874038113 -0.6940810907477 -0.14678946847265 0.10790390031774 0.69646323643695
3963.230000000 -0.72313010192166 -0.37887661591724 2.0193860428374 -0.6952527292481 -0.14628589174921 0.10666998440205 0.6955901054327
3963.240000000 -0.72674417024004 -0.3793234342322 2.0189074619362 -0.69636313017498 -0.14586089793256 0.10545144560504 0.69475390031796
3963.250000000 -0.73034226798155 -0.37983318045245 2.0183588685705 -0.69740641329543 -0.14549357529304 0.10426061609951 0.69396371531472
3963.260000000 -0.73390974777153 -0.38040911093464 2.0177480299658 -0.69837679855852 -0.14516304832438 0.10310990846277 0.69322859390906
3963.270000000 -0.7374392750557 -0.38105380703174 2.0170761281772 -0.69927549982975 -0.14484622799502 0.10201063648851 0.69255120793822
3963.280000000 -0.74094226933587 -0.38176855517613 2.0163259044494 -0.70012166156191 -0.14451413636801 0.10097097825914 0.69191775880591
3963.290000000 -0.74443310867638 -0.38255440430948 2.0154770890959 -0.70093715608507 -0.14413674413005 0.099998527120404 0.69131179418892
3963.300000000 -0.74792622010756 -0.38341231557722 2.0145095502625 -0.70174371360198 -0.1436839625552 0.09910081935019 0.69071680660649
3963.310000000 -0.75143621454012 -0.38434311197912 2.0134035753182 -0.70256293935198 -0.1431257400305 0.098285342968758 0.69011617148661
3963.320000000 -0.75496882315356 -0.38534532746248 2.0121511451985 -0.70341099265074 -0.14244745094247 0.09754558192759 0.68949732311627
3963.330000000 -0.75850592424338 -0.38641187707066 2.0107734293076 -0.70429001479435 -0.14167473994006 0.096838418107184 0.68885859499783
3963.340000000 -0.76202549661397 -0.38753481984051 2.009295984455 -0.70519992038207 -0.14083985677878 0.096114886909968 0.68819992411358
3963.350000000 -0.76550530448886 -0.38870622644924 2.0077436603572 -0.70614061471752 -0.1399750936335 0.095326033991555 0.68752116523937
3963.360000000 -0.76892273218508 -0.38991805865667 2.006140185372 -0.70711188826262 -0.13911264940258 0.094422881960934 0.68682222417163
3963.370000000 -0.77226156789548 -0.39116189501504 2.0045005765454 -0.70810019091661 -0.13827085189962 0.093374874497408 0.68611691711501
3963.380000000 -0.77552343199609 -0.39242886588885 2.0028198580795 -0.70905734984868 -0.13743206634402 0.092199926541631 0.68545552394864
3963.390000000 -0.77871284194902 -0.39371012403975 2.0010900266592 -0.70992971967861 -0.13657311457912 0.090923597415783 0.68489450057961
3963.400000000 -0.78183443910757 -0.39499683169686 1.9993034214734 -0.71066383059173 -0.13567110214925 0.089571323187218 0.68449050394639
3963.410000000 -0.78489318535443 -0.39627985834389 1.9974528198559 -0.71120643845516 -0.13470324642971 0.088168589562839 0.68430018056093
3963.420000000 -0.78789513028964 -0.39755602140676 1.9955330251036 -0.71153511815514 -0.13365071450938 0.086736832762528 0.68434785305823
3963.430000000 -0.79084821421579 -0.39883924208322 1.993543321989 -0.71170833007583 -0.13250517489544 0.085286510496408 0.68457274460349
3963.440000000 -0.79376082751153 -0.40014649524198 1.9914837641982 -0.71179754731394 -0.13125970547678 0.083826522887131 0.68490017916239
3963.450000000 -0.79664145887176 -0.40149554252588 1.9893546457839 -0.71187415877756 -0.129907342861 0.082365840004362 0.68525552368143
3963.460000000 -0.79949859643543 -0.40290539672693 1.9871568120554 -0.71200948995477 -0.12844141469103 0.080913254324014 0.68556424533461
3963.470000000 -0.80233566757583 -0.40438617114845 1.9848952322307 -0.71224823964839 -0.12686688068777 0.07947709234206 0.6857773920852
3963.480000000 -0.80514253382605 -0.40592121756875 1.9825840831358 -0.71256462132555 -0.12521866006735 0.078065202657686 0.68591382238596
3963.490000000 -0.80790647457223 -0.40748961275585 1.980238819749 -0.71292152351838 -0.12353670981062 0.076685256927316 0.68600361078014
3963.500000000 -0.8106142717387 -0.40907053407915 1.9778744042654 -0.71328205131736 -0.12186103130253 0.07534493848417 0.68607706896762
3963.510000000 -0.81325211369514 -0.41064314842099 1.9755050631507 -0.71360950495924 -0.12023152467722 0.074052088706884 0.68616480750893
3963.520000000 -0.81580870699169 -0.41219502108661 1.9731390993301 -0.71387574189595 -0.11867505924054 0.072814794302981 0.68629123641306
3963.530000000 -0.81828094023768 -0.41373631415229 1.9707708527887 -0.71407503061837 -0.11718417257058 0.071641258421691 0.68646358274717
3963.540000000 -0.8206673217944 -0.41528090200121 1.9683924548468 -0.71420521545906 -0.11574579081524 0.070539634779738 0.68668623260174
3963.550000000 -0.822966672923 -0.41684263481116 1.9659961376839 -0.71426404712572 -0.11434688579136 0.069518001703327 0.68696354206943
3963.560000000 -0.825178140616 -0.41843527703157 1.9635742904363 -0.71424920729956 -0.11297448210564 0.068584374623729 0.68729980344999
3963.570000000 -0.82729867742199 -0.42006481091007 1.961126179303 -0.71415275258932 -0.11162706022146 0.06774304126247 0.68770351588161
3963.580000000 -0.82931852545518 -0.42171673500725 1.9586690998639 -0.7139518041869 -0.11033378930979 0.066988287837386 0.68819462765081
3963.590000000 -0.83122652890098 -0.42337330050653 1.9562232168665 -0.713621070267 -0.10912900043582 0.0663125298364 0.68879494606273
3963.600000000 -0.83301117502333 -0.42501686185809 1.9538084596552 -0.71313522255283 -0.10804710701164 0.065707970364705 0.68952624290268
3963.610000000 -0.83466048595289 -0.426629710461 1.9514443522902 -0.71246881565455 -0.10712253492696 0.065166737160905 0.69041020096638
3963.620000000 -0.83616969099898 -0.42820077689966 1.9491448585489 -0.71161492580116 -0.10637359031674 0.06467895283831 0.69145172623971
3963.630000000 -0.83755465417914 -0.42973735444421 1.9469103021953 -0.71061687579798 -0.10577529697506 0.064229279778864 0.69261088787287
3963.640000000 -0.83883493104708 -0.43124989925733 1.9447389799507 -0.70952642450814 -0.10529539321001 0.063801604976592 0.6938403910813
3963.650000000 -0.8400304665277 -0.43274926568852 1.9426296444715 -0.70839552462775 -0.10490163430687 0.063379764864093 0.69509311118216
3963.660000000 -0.84116165784851 -0.43424692861283 1.9405817021385 -0.70727637165451 -0.10456191708351 0.062947397336472 0.69632217023704
3963.670000000 -0.84224113610851 -0.43575122896343 1.9385922969045 -0.70620889975667 -0.10424405166142 0.062492227623436 0.69749328963392
3963.680000000 -0.84325956515293 -0.43726044350007 1.9366508436983 -0.70519931854425 -0.10391515281126 0.062013652864107 0.69860566058355
3963.690000000 -0.84420399498345 -0.43877101985179 1.9347454652992 -0.70424811062236 -0.10354218808516 0.061513160198914 0.69966402300941
3963.700000000 -0.84506167826916 -0.44027928365023 1.9328643064382 -0.7033556752866 -0.10309208122342 0.060992313725354 0.7006730724793
3963.710000000 -0.8458202399369 -0.44178145103893 1.9309955552875 -0.70252234317665 -0.10253173403931 0.060452657793763 0.70163742561108
3963.720000000 -0.84647179784681 -0.44327493817397 1.9291325161983 -0.70174714354458 -0.10184500710291 0.059895799856731 0.70256034204526
3963.730000000 -0.84701952000789 -0.44476067517657 1.9272821765636 -0.70102572382435 -0.1010618007192 0.059323693050422 0.7034416439299
3963.740000000 -0.84746824436321 -0.44624028623113 1.9254537119147 -0.70035323611363 -0.10021973985175 0.058738289786383 0.70428059871204
3963.750000000 -0.84782245605474 -0.4477154851436 1.92365613781 -0.69972490218365 -0.099356434951384 0.058141576838013 0.70507653282507
3963.760000000 -0.84808612831889 -0.44918802860348 1.9218983020364 -0.69913599018683 -0.098509469593372 0.057535658748493 0.70582887416022
3963.770000000 -0.84826215611267 -0.45065480700205 1.920186914274 -0.69857907729355 -0.097711590962942 0.056923935533872 0.7065404329
3963.780000000 -0.84835174891279 -0.45209943058751 1.9185232053301 -0.69803935352604 -0.096982436751225 0.056312963982067 0.70722296199875
3963.790000000 -0.84835577507046 -0.45350322680134 1.9169075715471 -0.69750076987406 -0.096339477088747 0.055709740614068 0.70788968489453
3963.800000000 -0.84827502527609 -0.45484743930877 1.9153404287891 -0.69694728051899 -0.095800195376102 0.055121205139267 0.70855378305891
3963.810000000 -0.84811019691479 -0.45611316594138 1.9138221313581 -0.69636282950336 -0.095382039013325 0.054554295001701 0.70922838720444
3963.820000000 -0.8478612397423 -0.45728927727616 1.9123510663024 -0.69573722041903 -0.095095643135348 0.054013753390813 0.70992186416881
3963.830000000 -0.84752640284299 -0.45838638394417 1.9109204826666 -0.69507637179255 -0.094933131942959 0.053498218174806 0.71062963524421
3963.840000000 -0.84710381281113 -0.45941877709231 1.9095227633505 -0.69438892045873 -0.094883485109544 0.053005282858666 0.71134491731276
3963.850000000 -0.84659180853638 -0.46040079951338 1.9081503448663 -0.69368351583259 -0.094935693609668 0.052532489453817 0.7120609043423
3963.860000000 -0.84598893929634 -0.46134689211835 1.9067957478193 -0.69296883246439 -0.095078775139972 0.052077317269853 0.71277077435653
3963.870000000 -0.84529557620667 -0.46226611191619 1.9054525649287 -0.69225180838302 -0.095302164809832 0.051642139604783 0.71346900464564
3963.880000000 -0.84451672533663 -0.46315243382349 1.904117172749 -0.6915345564232 -0.095596404668562 0.051242907581692 0.7141536593126
3963.890000000 -0.84365822490833 -0.46399722180123 1.9027864713025 -0.69081839271234 -0.09595227857603 0.050897888282617 0.71482341420436
3963.900000000 -0.84272603222791 -0.46479181831522 1.9014573886105 -0.69010466956981 -0.096360614487431 0.050625322551085 0.71547694143847
3963.910000000 -0.84172626927688 -0.46552754992587 1.9001268227027 -0.68939477110707 -0.096812247012251 0.050443399461609 0.716112911383
3963.920000000 -0.84066361811833 -0.46619748814667 1.8987910352466 -0.68869216465962 -0.097297452501423 0.050361878308475 0.71672867201363
3963.930000000 -0.83953839001575 -0.46679955949981 1.8974447275977 -0.68800604250443 -0.097805022553309 0.050367347123636 0.71731791653664
3963.940000000 -0.83835017623483 -0.46733249921691 1.8960823601276 -0.68734659378396 -0.09832348433006 0.050442435003773 0.71787374460532
3963.950000000 -0.83709861455507 -0.46779509499956 1.8946984478422 -0.68672404811744 -0.098841395148424 0.050569758130442 0.71838928159108
3963.960000000 -0.83578339229202 -0.46818629560224 1.8932875779349 -0.68614869537921 -0.099347378211128 0.050731924518452 0.71885766192386
