11248.215609 0.000000000 0.000000000 0.000000000 0.000000000 0.000000000 0.000000000 1.000000000
11248.252472 0.008909331 -0.006612890 -0.000771009 0.000851674 -0.008410002 0.001012464 0.999963760
11248.289335 0.017888099 -0.011768795 -0.001256155 0.000976365 -0.017073235 0.001378758 0.999852836
11248.326199 0.027198650 -0.015748829 -0.001507448 0.002921372 -0.026329270 0.002571318 0.999645770
11248.363062 0.036928616 -0.016284322 0.000268706 0.009926026 -0.036169086 0.003553902 0.999290049
11248.399925 0.045714770 -0.018409871 0.002403750 0.018534841 -0.045989178 0.002019986 0.998767912
11248.436789 0.055296663 -0.023043577 0.007129028 0.025093697 -0.055705141 0.000309622 0.998131812
11248.473652 0.066167377 -0.027828090 0.012486668 0.028151581 -0.064779826 0.000431786 0.997502327
11248.510516 0.077824086 -0.032727223 0.018432807 0.028992319 -0.073173076 -0.000245437 0.996897757
11248.547379 0.089655340 -0.038610931 0.026492767 0.028090889 -0.079502791 0.001590553 0.996437490
11248.584242 0.102545895 -0.044564776 0.037071180 0.027393362 -0.083920665 0.003388901 0.996090114
11248.621106 0.116054848 -0.049232643 0.047924004 0.028619045 -0.086208083 0.003560999 0.995859623
11248.657969 0.134026274 -0.057705548 0.058763392 0.028275603 -0.089041889 0.002738980 0.995622694
11248.694833 0.150474042 -0.063499726 0.073788583 0.026693404 -0.088583231 -0.001230165 0.995710254
11248.731696 0.167453289 -0.068817727 0.085120663 0.023671836 -0.086196564 -0.006756739 0.995973945
11248.768559 0.186541602 -0.075855605 0.097479552 0.020113459 -0.085502379 -0.010254608 0.996082127
11248.805423 0.203017354 -0.081010967 0.108560592 0.017173672 -0.082243241 -0.014846067 0.996353745
11248.842286 0.219532251 -0.086275943 0.122939751 0.013992776 -0.079280108 -0.018744532 0.996577919
11248.879149 0.238559887 -0.091680713 0.134027421 0.010446461 -0.078081302 -0.020677352 0.996677816
11248.916013 0.253191054 -0.094980843 0.144501790 0.007499932 -0.074267745 -0.021972636 0.996968031
11248.952876 0.266552925 -0.097036466 0.155677140 0.005171811 -0.070566051 -0.021362390 0.997264922
11248.989739 0.279894412 -0.100268334 0.166972518 0.001767775 -0.069596156 -0.020086313 0.997371435
11249.026603 0.290057272 -0.101530828 0.175673053 -0.003118598 -0.068593517 -0.017852988 0.997480035
11249.063466 0.299590468 -0.103920169 0.181952268 -0.010349491 -0.069682449 -0.016649047 0.997376561
11249.100330 0.305878818 -0.105273470 0.187211275 -0.015538259 -0.072114214 -0.017608395 0.997119904
11249.137193 0.309354842 -0.103840470 0.194482386 -0.019314108 -0.075375937 -0.017384257 0.996816516
11249.174056 0.310397416 -0.102513120 0.199451029 -0.022755239 -0.077871740 -0.016055334 0.996574342
11249.210920 0.308779716 -0.099748477 0.201902509 -0.023653410 -0.079750262 -0.014020492 0.996435583
11249.247783 0.304418981 -0.096679874 0.204946920 -0.022973677 -0.080649942 -0.009282359 0.996434450
11249.284647 0.297849357 -0.094128639 0.207256734 -0.021694889 -0.082164340 -0.005812014 0.996365666
11249.321510 0.289940953 -0.092303365 0.209666520 -0.020254564 -0.085505821 -0.002602942 0.996128380
11249.358373 0.277564198 -0.089651659 0.212236881 -0.015925307 -0.088676453 -0.003852459 0.995925725
11249.395236 0.265010715 -0.089536086 0.212248713 -0.012022535 -0.091934107 -0.006303137 0.995672584
11249.432100 0.249194503 -0.089759566 0.211529732 -0.007666532 -0.093018800 -0.009841442 0.995586216
11249.468963 0.232093170 -0.089293346 0.207344711 -0.001964829 -0.092097923 -0.014137964 0.995647609
11249.505827 0.212619409 -0.088435546 0.205313355 0.002506740 -0.090431042 -0.017238095 0.995750368
11249.542690 0.191691667 -0.087483205 0.201864928 0.006237288 -0.088796802 -0.024371754 0.995732009
11249.579553 0.171220556 -0.087106653 0.192788169 0.008444596 -0.086299494 -0.031977408 0.995720088
11249.616417 0.146008074 -0.085302681 0.193179965 0.010499564 -0.083649412 -0.040531404 0.995615244
11249.653280 0.119249418 -0.083370797 0.187322736 0.011589368 -0.077712983 -0.047742218 0.995764554
11249.690144 0.093860328 -0.080299914 0.183904439 0.013583521 -0.071220510 -0.053824492 0.995914698
11249.727007 0.068481497 -0.077387318 0.173897207 0.018066006 -0.064401075 -0.059238296 0.996000469
11249.763870 0.042763781 -0.073519200 0.174561456 0.023492044 -0.056522917 -0.060825355 0.996269822
11249.800734 0.013986304 -0.067169882 0.167082727 0.029959315 -0.044751823 -0.064599477 0.996457040
11249.837597 -0.010424537 -0.061101213 0.161796182 0.034371544 -0.036976542 -0.066150211 0.996531725
11249.874460 -0.033761449 -0.056481730 0.156142056 0.035367172 -0.030702299 -0.064126030 0.996842206
11249.911324 -0.056054726 -0.050256439 0.149969995 0.035195276 -0.025708491 -0.063457184 0.997032344
11249.948187 -0.075350277 -0.041838072 0.147343799 0.034949411 -0.024256444 -0.065201871 0.996964812
11249.985051 -0.092620566 -0.032991193 0.140315935 0.033688080 -0.025243875 -0.067872010 0.996805489
11250.021914 -0.109287642 -0.025453575 0.133143067 0.030365890 -0.027815528 -0.072354376 0.996528506
11250.058777 -0.121098362 -0.016016046 0.126736403 0.024940038 -0.032076001 -0.078423359 0.996091783
11250.095641 -0.128372774 -0.008662277 0.127190918 0.017264133 -0.036758184 -0.084404573 0.995603681
11250.132504 -0.132975996 -0.002335956 0.126659408 0.008949343 -0.039958879 -0.089024708 0.995187283
11250.169367 -0.135539532 0.005696747 0.119179860 0.001390458 -0.041977245 -0.093492158 0.994733691
11250.206231 -0.134344578 0.009481697 0.112312429 -0.005630043 -0.042625807 -0.091842301 0.994844854
11250.243094 -0.129212230 0.012185724 0.110809915 -0.007279445 -0.042214043 -0.088435553 0.995160401
11250.279957 -0.123243704 0.013054891 0.106112882 -0.005470427 -0.039922960 -0.084340990 0.995621800
11250.316821 -0.114230931 0.012195197 0.104430728 -0.003182370 -0.035100587 -0.079246625 0.996231794
11250.390548 -0.092750371 0.007952701 0.092998780 0.003799692 -0.014726591 -0.064720236 0.997787535
11250.427411 -0.079957619 0.004650456 0.093582354 0.010477709 -0.000576188 -0.060117632 0.998136163
11250.464274 -0.070275381 0.001238287 0.088614523 0.017945224 0.015994461 -0.051281653 0.998394907
11250.501138 -0.057453472 -0.004571613 0.084584720 0.024537951 0.028538175 -0.047826551 0.998146355
11250.538001 -0.043977883 -0.013305991 0.087445371 0.030246776 0.038735736 -0.042807654 0.997873843
11250.574864 -0.033512548 -0.020759994 0.084808700 0.038141645 0.047965933 -0.046918061 0.997017145
11250.611728 -0.021550931 -0.030506369 0.082805589 0.045408767 0.054738864 -0.052240964 0.996098697
11250.648591 -0.010454089 -0.043418828 0.080465294 0.050738767 0.061881743 -0.056981865 0.995162964
11250.685454 -0.002473527 -0.051879954 0.080352373 0.058197845 0.070561230 -0.070070744 0.993339956
11250.722318 0.011345753 -0.062904879 0.079120882 0.065307453 0.074736372 -0.079702072 0.991865396
11250.759181 0.018221235 -0.071352199 0.089632653 0.075237513 0.084763125 -0.087663673 0.989681542
11250.796045 0.028415218 -0.074371189 0.094001547 0.091494560 0.093621507 -0.087797277 0.987499595
11250.832908 0.037645258 -0.090004697 0.089432508 0.098141082 0.103267714 -0.102710612 0.984456480
11250.869771 0.050237767 -0.094952084 0.091873184 0.107963637 0.115616225 -0.098930955 0.982440531
11251.238405 0.000000000 0.000000000 0.000000000 0.000000000 0.000000000 0.000000000 1.000000000
11251.865082 0.000000000 0.000000000 0.000000000 0.000000000 0.000000000 0.000000000 1.000000000
11251.901946 -0.020824272 0.008017232 -0.002436942 -0.006526251 -0.004430217 -0.000313671 0.999968827
11251.938809 -0.041695409 0.016749857 -0.009284763 -0.017407071 -0.004776854 -0.002367233 0.999834239
11251.975672 -0.061562903 0.024574401 -0.012838945 -0.030764438 -0.003286987 -0.005847319 0.999504149
11252.012536 -0.080714576 0.032719560 -0.017135961 -0.041563485 -0.000136245 -0.011544337 0.999069154
11252.049399 -0.098026909 0.038733091 -0.025327984 -0.051411148 0.003145889 -0.019878842 0.998474777
11252.086262 -0.112328716 0.043173160 -0.032293271 -0.061413474 0.007995488 -0.028894264 0.997662067
11252.123126 -0.124524578 0.047289595 -0.039680671 -0.073708385 0.015921531 -0.037354674 0.996452808
11252.159989 -0.138129354 0.054692559 -0.046986833 -0.082555681 0.029156696 -0.042304028 0.995261192
11252.196853 -0.148249716 0.056219492 -0.055996384 -0.094469190 0.041286442 -0.045432344 0.993633211
11252.233716 -0.153927431 0.059275664 -0.061878245 -0.104291670 0.051256828 -0.051089559 0.991910219
11252.270580 -0.158011600 0.063081615 -0.068950556 -0.112337925 0.060866293 -0.055856720 0.990230024
11252.307443 -0.160801947 0.065060169 -0.075079829 -0.122487895 0.071472690 -0.058854580 0.988141954
11252.344306 -0.161320835 0.065071851 -0.079388812 -0.131414592 0.079544745 -0.062771924 0.986135125
11252.381170 -0.160522401 0.063305527 -0.080444753 -0.139987186 0.088353589 -0.063693628 0.984144449
11252.418033 -0.160312876 0.063325509 -0.080828220 -0.147814080 0.100435428 -0.064629100 0.981777370
11252.454896 -0.161070973 0.063379586 -0.081098229 -0.155115411 0.117058337 -0.066753000 0.978662670
11252.491760 -0.161407173 0.063209832 -0.079983994 -0.159232751 0.138635278 -0.063678585 0.975382090
11252.528623 -0.160950243 0.063528508 -0.080430262 -0.158250675 0.160143256 -0.064493164 0.972189009
11252.565486 -0.158919573 0.064103112 -0.079429619 -0.153661460 0.178059071 -0.067414366 0.969607353
11252.602350 -0.157552436 0.064796060 -0.077118039 -0.147226483 0.194894254 -0.067387201 0.967367351
11252.639213 -0.156097621 0.066312462 -0.075131208 -0.137847230 0.207398757 -0.065561809 0.966274083
11252.676077 -0.153022125 0.066900030 -0.067475721 -0.129603580 0.214854673 -0.062468704 0.965990722
11252.712940 -0.151312023 0.068105064 -0.064534612 -0.117281750 0.217464596 -0.059540797 0.967165470
11252.749803 -0.148031771 0.069566622 -0.059312880 -0.104153045 0.214385286 -0.053713333 0.969693720
11252.786667 -0.147268161 0.070231840 -0.057022013 -0.091779381 0.206904411 -0.047440406 0.972890794
11252.823530 -0.143375814 0.073091693 -0.049927361 -0.077486150 0.191312209 -0.042777766 0.977530360
11252.860394 -0.144021675 0.073758110 -0.047334578 -0.063741416 0.171702847 -0.039284404 0.982299268
11252.897257 -0.142055392 0.075058378 -0.044011723 -0.053709924 0.145347789 -0.032464933 0.987388134
11252.934120 -0.139897257 0.075789846 -0.043330386 -0.045123849 0.111520730 -0.027047684 0.992368579
11252.970984 -0.140072435 0.076867253 -0.040339362 -0.038906869 0.079496317 -0.026557853 0.995721459
11253.007847 -0.136337325 0.079174489 -0.031727687 -0.030799188 0.040735524 -0.022858676 0.998433530
11253.044710 -0.135238215 0.079218879 -0.029474715 -0.021260591 0.003177412 -0.013077479 0.999683380
11253.081574 -0.134074956 0.079091907 -0.026451431 -0.011633549 -0.035373740 -0.007733739 0.999276519
11253.118437 -0.130874202 0.084919728 -0.032662868 0.003460457 -0.077960558 -0.009345944 0.996906638
11253.376481 0.000000000 0.000000000 0.000000000 0.000000000 0.000000000 0.000000000 1.000000000
11253.413344 -0.076477520 -0.050806284 -0.019453831 0.002465487 0.005536371 0.003440531 0.999975741
11253.450207 -0.042410102 -0.009397311 0.002872823 0.018383710 -0.004270104 -0.005477444 0.999806881
11253.487071 -0.055823557 -0.021395966 0.021254588 0.019876545 -0.003627390 -0.009557091 0.999750197
11253.523934 -0.052140966 -0.025311550 0.013637181 0.018918315 -0.001920765 -0.013602859 0.999726653
11253.560797 -0.073829159 -0.042370576 0.008914078 0.012974777 0.006372237 -0.013742695 0.999801099
11253.597661 -0.078503430 -0.033792295 0.003496801 0.009558581 0.013994289 -0.014179657 0.999755859
11253.671388 0.000000000 0.000000000 0.000000000 0.000000000 0.000000000 0.000000000 1.000000000
11253.708251 0.072924502 0.016757194 -0.011233024 -0.001667305 0.001668033 -0.004370685 0.999987662
11253.781978 0.000000000 0.000000000 0.000000000 0.000000000 0.000000000 0.000000000 1.000000000
11254.076885 0.000000000 0.000000000 0.000000000 0.000000000 0.000000000 0.000000000 1.000000000
11254.113748 0.018982217 0.001578085 0.000799738 0.002221155 0.005304510 0.005062039 0.999970675
11254.150611 0.037774503 0.000832075 -0.003209954 0.005376200 0.010504110 0.008534638 0.999893963
11254.187475 0.059788767 -0.002181363 -0.003006980 0.007379626 0.015839672 0.010614093 0.999790967
11254.224338 0.081102781 -0.006643704 -0.007323872 0.007600259 0.021614874 0.012167593 0.999663413
11254.261201 0.105118357 -0.010582817 -0.004366829 0.007627929 0.025019038 0.012762982 0.999576390
11254.298065 0.129759654 -0.014704227 -0.003769157 0.008445898 0.027264955 0.013726326 0.999498308
11254.334928 0.151955992 -0.016594881 -0.004855150 0.008184730 0.030805048 0.015641531 0.999369502
11254.371792 0.172820076 -0.017543938 -0.004868000 0.003744565 0.033398673 0.018638095 0.999261260
11254.408655 0.193843246 -0.013927476 -0.000762856 -0.002713019 0.033367626 0.020552432 0.999228120
11254.445518 0.211545736 -0.008786629 0.002782108 -0.012249972 0.032252636 0.022850432 0.999143422
11254.482382 0.227344260 -0.003371067 0.006486430 -0.023226278 0.029383712 0.029860035 0.998852074
11254.519245 0.239276096 0.005569484 0.010760768 -0.032002151 0.024236565 0.038032703 0.998469770
11254.556108 0.246783182 0.013413043 0.008225397 -0.042107325 0.016062679 0.045389779 0.997952282
11254.592972 0.254278570 0.020124996 0.008419721 -0.053619325 -0.000711626 0.047605000 0.997425795
11254.629835 0.257555723 0.027037393 0.010166411 -0.063925236 -0.020029297 0.046774615 0.996656656
11254.666698 0.258203119 0.034640469 0.010367164 -0.074154571 -0.039957430 0.043035317 0.995516181
11254.703562 0.257623225 0.041377153 0.007584473 -0.084259331 -0.059210937 0.039585888 0.993895054
11254.740425 0.253637582 0.050259724 0.006007062 -0.092042848 -0.075179815 0.039030906 0.992145479
11254.777289 0.248517558 0.058973767 0.001166511 -0.100884050 -0.088764668 0.038643990 0.990176678
11254.814152 0.244967207 0.067267455 -0.004206538 -0.115257002 -0.101787508 0.041600350 0.987230718
11254.851015 0.236626506 0.078896031 -0.014048904 -0.128748029 -0.107022814 0.045032520 0.984856427
11254.887879 0.236076087 0.083253682 -0.021628644 -0.149581864 -0.113687515 0.055103090 0.980644703
11254.924742 0.231374741 0.095544726 -0.030076981 -0.158963427 -0.113362834 0.063409723 0.978702545
11254.961606 0.230701268 0.086174458 -0.042282328 -0.185436457 -0.108443968 0.084924035 0.972954869
11254.998469 0.233618289 0.112066478 -0.062643170 -0.187150240 -0.106044173 0.078318290 0.973445237
11255.035332 0.234432772 0.113329664 -0.071246833 -0.208001509 -0.095332518 0.081444606 0.970058680
11255.072196 0.238037705 0.115933843 -0.076017447 -0.222244605 -0.082513690 0.087985210 0.967500627
11255.109059 0.241046861 0.106123663 -0.098602861 -0.234602302 -0.064589083 0.081983358 0.966472328
11255.145922 0.251619965 0.103468016 -0.094310120 -0.241422489 -0.051954683 0.073059842 0.966270208
11255.182786 0.257453948 0.099445671 -0.105752364 -0.238897800 -0.030825390 0.062457278 0.968543589
11255.219649 0.255659163 0.096685670 -0.115545452 -0.229499727 -0.004458346 0.047620848 0.972132862
11255.256512 0.264511853 0.086119473 -0.129458189 -0.217644408 0.014164409 0.032836840 0.975372791
11255.293376 0.270860940 0.085631214 -0.123582400 -0.198570356 0.030981030 0.025222814 0.979272068
11255.330239 0.274500459 0.077559419 -0.131221682 -0.176486045 0.048295740 0.017347222 0.982964516
11255.367103 0.284668714 0.062785342 -0.132994145 -0.158794656 0.057038128 0.011832448 0.985591650
11255.403966 0.286736012 0.056982927 -0.135107696 -0.136476114 0.066781089 0.007461528 0.988361716
11255.440829 0.289921165 0.053778313 -0.133712873 -0.115557685 0.072647162 0.016759291 0.990498841
11255.477693 0.293503046 0.052061889 -0.132885754 -0.091582261 0.069674104 0.016656393 0.993217349
11255.514556 0.288440913 0.049860790 -0.133000568 -0.070259139 0.068504974 0.015599278 0.995051444
11255.551419 0.287598580 0.049003601 -0.135186791 -0.051739126 0.058877707 0.015105848 0.996809065
11255.588283 0.288341314 0.050113745 -0.132099077 -0.033822376 0.043736674 0.013888544 0.998373806
11255.625146 0.288521409 0.050281961 -0.129897863 -0.016812136 0.026771694 0.012212462 0.999425590
11255.662009 0.288442910 0.050097529 -0.127988338 0.000437018 0.010563347 0.009640846 0.999897599
11255.698873 0.288244665 0.049599655 -0.125025406 0.016188782 -0.003943163 0.005414381 0.999846518
11255.735736 0.287912428 0.047948863 -0.110838830 0.029858362 -0.016226631 0.000782880 0.999422133
11255.772600 0.285472155 0.052667391 -0.105913222 0.050353710 -0.023586283 -0.002419329 0.998449981
11255.809463 0.286701530 0.053049557 -0.082496330 0.069063015 -0.034338012 -0.040679764 0.996190906
11255.846326 0.286678851 0.051953584 -0.071178287 0.082799047 -0.036742400 -0.037699409 0.995174885
11255.883190 0.286818981 0.052205749 -0.058708780 0.099383906 -0.038563665 -0.042816471 0.993379295
11255.920053 0.285272837 0.053648382 -0.059929483 0.120235071 -0.035570506 -0.048240885 0.990934432
11255.993780 0.000000000 0.000000000 0.000000000 0.000000000 0.000000000 0.000000000 1.000000000
11256.030643 0.007373111 -0.002709017 0.025704714 0.019781088 -0.009109295 -0.004010837 0.999754786
11256.067507 0.013527870 -0.013516380 -0.004867787 0.035863418 -0.016756799 -0.003355196 0.999210596
11256.104370 0.018956037 -0.012131304 0.025447121 0.053237218 -0.026560159 -0.004587001 0.998218060
11256.141233 0.018785302 0.015551794 0.035611130 0.071700461 -0.034265224 -0.004663220 0.996826589
11256.178097 -0.029367458 -0.005197220 -0.009212353 0.079791717 -0.033202156 0.001781752 0.996256888
11256.214960 0.016424164 -0.011849880 0.012585356 0.094798774 -0.047819071 -0.000687048 0.994347036
11256.251823 0.016522080 -0.012068158 0.012633323 0.109105594 -0.053360060 0.002056147 0.992594779
11256.288687 0.018398989 -0.011134532 0.007783629 0.125086829 -0.057937708 0.003705020 0.990445793
11256.325550 0.019944783 -0.010724498 0.002838339 0.139275089 -0.060489539 0.007261302 0.988377810
11256.362414 0.020783076 -0.010071244 -0.001073125 0.146977440 -0.059666499 0.010336380 0.987284482
11256.399277 0.021904103 -0.009424924 -0.004655885 0.148348138 -0.055153754 0.012105688 0.987321794
11256.436140 0.024063241 -0.008549420 -0.009677735 0.143087789 -0.048227787 0.015496889 0.988412738
11256.473004 0.024174811 -0.008253699 -0.009999339 0.133491591 -0.038195450 0.019094825 0.990129530
11256.509867 0.024199594 -0.008347372 -0.009821226 0.121552557 -0.027549718 0.020311249 0.991994679
11256.546731 0.023685614 -0.008557218 -0.008724522 0.110309765 -0.015332161 0.019869566 0.993580341
11256.583594 0.024226353 -0.008347983 -0.009867126 0.099625297 -0.002339510 0.021378154 0.994792581
11256.620457 0.023922028 -0.008388813 -0.009223737 0.088643044 0.010448298 0.021829296 0.995769382
11256.657320 0.024167644 -0.008363030 -0.009724965 0.074711770 0.022490103 0.023646887 0.996671021
11256.694184 0.024467029 -0.008144151 -0.010831321 0.059854683 0.034338348 0.025048168 0.997301817
11256.731047 0.024416102 -0.008192206 -0.010603347 0.044525210 0.045077637 0.025818394 0.997656703
11256.767911 0.024453042 -0.008132837 -0.010857353 0.022059489 0.052525554 0.044047445 0.997403800
11256.878501 0.000000000 0.000000000 0.000000000 0.000000000 0.000000000 0.000000000 1.000000000
11256.915364 -0.013243704 0.011233555 -0.012394134 -0.009663325 0.012345928 0.009713262 0.999829888
11256.952228 -0.022627033 0.017379152 -0.026886443 -0.020586763 0.020390429 0.017261019 0.999431074
11256.989091 -0.033570800 0.024824699 -0.040636234 -0.028906615 0.029711483 0.023538604 0.998863161
11257.025954 -0.044285629 0.039124332 -0.054518394 -0.032172006 0.039758608 0.029369468 0.998259306
11257.062818 -0.061892096 0.059500735 -0.055251013 -0.033786990 0.056063328 0.034398910 0.997262299
11257.099681 -0.067054495 0.064304031 -0.066622682 -0.050863992 0.063888453 0.041106217 0.995811939
11257.136544 -0.070729226 0.066359699 -0.075529799 -0.071901202 0.070831247 0.046221346 0.993819296
11257.173408 -0.071444914 0.066137008 -0.080997676 -0.094078258 0.074794739 0.049479380 0.991517484
11257.210271 -0.080030143 0.071891457 -0.089800894 -0.105881780 0.083172634 0.055187806 0.989356160
11257.247135 -0.083327256 0.077158719 -0.092218958 -0.112501033 0.087740593 0.062465742 0.987797081
11257.283998 -0.092195049 0.080589823 -0.092372246 -0.117550828 0.093919359 0.069533899 0.986167312
11257.320861 -0.096418589 0.082853071 -0.091766201 -0.122563265 0.095244624 0.078763992 0.984734952
11257.357725 -0.098885946 0.085784227 -0.086199194 -0.130320176 0.092073783 0.084227756 0.983587682
11257.394588 -0.100489616 0.087858960 -0.079760492 -0.140068024 0.086301513 0.088902645 0.982359052
11257.431452 -0.101802140 0.089518398 -0.070885703 -0.150464863 0.076746941 0.090394571 0.981477976
11257.468315 -0.109899566 0.096967071 -0.061660260 -0.156828403 0.067359827 0.086947396 0.981482387
11257.505178 -0.112997383 0.100099154 -0.050302483 -0.166947722 0.052473754 0.083492309 0.981021941
11257.542042 -0.120286927 0.109789364 -0.039062887 -0.172168344 0.036569260 0.075963669 0.981453121
11257.578905 -0.120782606 0.108578667 -0.028970575 -0.181898877 0.016656289 0.072177202 0.980523229
11257.615768 -0.126723051 0.118945412 -0.014023539 -0.182960719 -0.002586838 0.066836521 0.980842292
11257.652632 -0.128583968 0.121927425 -0.000547551 -0.186826572 -0.023525413 0.068212986 0.979739428
11257.689495 -0.130713820 0.131765500 0.026921038 -0.189022303 -0.046377923 0.063622929 0.978811383
11257.726358 -0.133781701 0.137785807 0.042226333 -0.189517856 -0.068872482 0.057961803 0.977742314
11257.800085 0.000000000 0.000000000 0.000000000 0.000000000 0.000000000 0.000000000 1.000000000
11257.836949 -0.013797373 -0.003062602 0.012612940 0.003678490 -0.011311819 -0.008543234 0.999892771
11257.873812 -0.028158601 -0.009535034 0.022181418 0.008901464 -0.021790959 -0.011188153 0.999660313
11258.647943 0.000000000 0.000000000 0.000000000 0.000000000 0.000000000 0.000000000 1.000000000
11258.684806 0.015590952 0.005178752 0.006276330 0.007303138 -0.010348507 0.004106241 0.999911368
11258.721669 0.008317303 0.021718159 0.005154295 0.015179651 -0.015542895 0.011663377 0.999695957
11258.758533 0.018118696 0.002769671 0.011120502 0.017100876 -0.024026593 0.017659554 0.999409020
11258.795396 0.031670995 -0.003461171 0.005600282 0.020053912 -0.032502841 0.023151372 0.999002218
11258.832259 0.062223993 -0.000596297 0.014576191 0.023190392 -0.042613417 0.025879377 0.998487115
11258.869123 0.085829958 -0.014502615 0.015572783 0.024816582 -0.049671691 0.029001947 0.998035967
11258.905986 0.117584452 -0.065110974 0.023337472 0.024732186 -0.056573302 0.032139704 0.997574449
11258.979713 0.000000000 0.000000000 0.000000000 0.000000000 0.000000000 0.000000000 1.000000000
11259.053440 0.000000000 0.000000000 0.000000000 0.000000000 0.000000000 0.000000000 1.000000000
11259.090303 0.025434788 -0.022581017 -0.004547923 0.011792609 -0.003019572 0.000780153 0.999925613
11259.127167 0.042104155 -0.034246065 -0.013588167 0.024504190 -0.005031704 0.002273717 0.999684513
11259.164030 0.064267278 -0.056303252 -0.014176430 0.032846723 -0.008690182 0.004015143 0.999414563
11259.237756 0.000000000 0.000000000 0.000000000 0.000000000 0.000000000 0.000000000 1.000000000
11259.274620 0.015474991 -0.009189210 -0.011924748 0.011611176 -0.003080097 0.003168574 0.999922812
11259.422073 0.000000000 0.000000000 0.000000000 0.000000000 0.000000000 0.000000000 1.000000000
11259.495800 0.000000000 0.000000000 0.000000000 0.000000000 0.000000000 0.000000000 1.000000000
11259.569527 0.000000000 0.000000000 0.000000000 0.000000000 0.000000000 0.000000000 1.000000000
11259.864434 0.000000000 0.000000000 0.000000000 0.000000000 0.000000000 0.000000000 1.000000000
11259.938161 0.000000000 0.000000000 0.000000000 0.000000000 0.000000000 0.000000000 1.000000000
11259.975024 0.001602722 -0.007434373 -0.005821647 -0.008219642 0.005204866 -0.006162334 0.999933660
11260.011887 0.011687553 0.002040669 -0.014090653 -0.013920634 0.006196316 -0.007998678 0.999851882
11260.085614 0.000000000 0.000000000 0.000000000 0.000000000 0.000000000 0.000000000 1.000000000
11260.122478 0.011158459 -0.011961507 0.001930359 -0.021456512 0.000355257 -0.004348642 0.999760270
11260.196204 0.000000000 0.000000000 0.000000000 0.000000000 0.000000000 0.000000000 1.000000000
11260.269931 0.000000000 0.000000000 0.000000000 0.000000000 0.000000000 0.000000000 1.000000000
11260.343658 0.000000000 0.000000000 0.000000000 0.000000000 0.000000000 0.000000000 1.000000000
11260.380521 0.012144065 -0.002093884 -0.002295027 -0.013978178 -0.002845616 -0.005059706 0.999885440
11260.454248 0.000000000 0.000000000 0.000000000 0.000000000 0.000000000 0.000000000 1.000000000
11260.491111 -0.195855364 -0.087076090 0.069085121 -0.021218810 0.022375252 0.002597679 0.999521017
11260.527975 -0.190777376 -0.055347718 0.078675762 -0.021804238 0.008713667 0.006426875 0.999703586
11260.564838 -0.191935107 -0.027477749 0.073435031 -0.025644599 -0.008312033 0.007742674 0.999606609
11260.601701 -0.376353860 -0.001297681 0.132061690 -0.027524067 0.003955120 0.013400045 0.999523520
11260.638565 -0.330774099 -0.015597760 0.175308838 -0.032385465 -0.021184918 0.021352673 0.999022722
11261.007198 0.027388837 0.045969609 -0.054357506 -0.066805340 0.180927798 0.016208382 0.981090963
11261.044062 0.025709055 0.054811880 -0.034050170 -0.073616356 0.171360344 0.023016509 0.982184589
11261.080925 0.022794284 0.060774524 -0.015315588 -0.080899648 0.161852598 0.029241180 0.983058453
11261.117789 0.019130886 0.065879546 0.001722062 -0.086909644 0.152722090 0.036302891 0.983770669
11261.154652 0.014992375 0.070836164 0.017376389 -0.090078995 0.141477898 0.041193765 0.984973550
11261.191515 0.010729924 0.072723240 0.031586487 -0.093244337 0.127932847 0.044912752 0.986367822
11261.228379 0.004098468 0.075582400 0.042792276 -0.091440752 0.113713831 0.046187021 0.988217831
11261.265242 0.001402875 0.076029390 0.051014196 -0.087281220 0.093347043 0.046111137 0.990728021
11261.302105 -0.004407582 0.078651719 0.057746772 -0.078487843 0.075524315 0.045740888 0.992997229
11261.338969 -0.007621933 0.077842407 0.055114310 -0.071035542 0.055452600 0.042784493 0.995011806
11261.375832 -0.021948028 0.072114222 0.064280115 -0.068320341 0.048222587 0.044638675 0.995496988
11261.412696 -0.028369892 0.068681836 0.063715234 -0.061813589 0.031180782 0.039149478 0.996832073
11261.449559 -0.040727332 0.065786436 0.065678969 -0.053280391 0.022265593 0.038813237 0.997576535
11261.486422 -0.048070468 0.062905207 0.060294453 -0.046059616 0.007077239 0.036010098 0.998264313
11261.523286 -0.061854739 0.060740560 0.057919323 -0.044537079 0.002256364 0.031206712 0.998517692
11261.560149 -0.073015086 0.059228312 0.054969624 -0.043789595 -0.002311533 0.034061812 0.998457253
11261.597012 -0.085004531 0.055190537 0.044683345 -0.045748468 -0.003674744 0.030859210 0.998469472
11261.633876 -0.093036912 0.055150159 0.035979837 -0.042775691 -0.004641302 0.024776328 0.998766661
11261.670739 -0.106581844 0.052104495 0.024131078 -0.042035826 0.004336187 0.018532358 0.998934805
11261.707603 -0.117069736 0.049782250 0.019264271 -0.041011933 0.015676515 0.013572860 0.998943448
11261.744466 -0.124256998 0.046955310 -0.003214296 -0.036680989 0.021190278 0.011045404 0.999041259
11261.781329 -0.132844806 0.047641128 -0.016097972 -0.030277237 0.027671194 0.008315644 0.999123812
11261.818193 -0.138483554 0.050039034 -0.023443801 -0.021528456 0.027074648 0.010464488 0.999346793
11261.855056 -0.144869640 0.053079940 -0.030258227 -0.014312568 0.021840768 0.009516058 0.999613702
11261.891919 -0.158110708 0.054151550 -0.045893330 -0.013098942 0.016632399 0.006745002 0.999753118
11261.928783 -0.162853226 0.052127577 -0.048311118 -0.020024845 0.005886530 0.007326752 0.999755263
11262.002509 0.000000000 0.000000000 0.000000000 0.000000000 0.000000000 0.000000000 1.000000000
11262.039373 -0.004059154 0.001691120 0.017685778 -0.006455417 -0.012845706 0.010168159 0.999844968
11262.076236 -0.017310767 0.009363046 0.016413353 -0.009805451 -0.022867020 0.014680014 0.999582648
11262.113100 -0.027400767 0.018909596 0.024674460 -0.014183072 -0.034299958 0.018306144 0.999143243
11262.149963 -0.035428762 0.025190100 0.029939966 -0.019311901 -0.047898009 0.022991192 0.998400807
11262.186826 -0.045329526 0.033984743 0.033053719 -0.020911133 -0.060582034 0.024608916 0.997640729
11262.223690 -0.047455121 0.042563640 0.046960935 -0.022764754 -0.076605454 0.024524540 0.996499836
11262.997820 0.043886691 -0.071497232 0.300732017 0.037146360 -0.164398074 -0.099621259 0.980647266
11263.034684 0.056346983 -0.075037070 0.288777411 0.040304903 -0.155236214 -0.096171558 0.982358515
11263.071547 0.068072803 -0.077110045 0.277395487 0.047064386 -0.144585997 -0.089175500 0.984341204
11263.108410 0.079287700 -0.079695672 0.264263391 0.056531969 -0.133431852 -0.074154265 0.986661673
11263.145274 0.086950921 -0.078740671 0.253632665 0.070726231 -0.119365878 -0.063729838 0.988275290
11263.182137 0.094311491 -0.079365633 0.236298203 0.082985722 -0.106437154 -0.053262226 0.989417791
11263.219001 0.099563822 -0.079899736 0.227706328 0.092330486 -0.096303910 -0.041866951 0.990175664
11263.255864 0.103502676 -0.080457538 0.214484587 0.097608872 -0.086741783 -0.033802629 0.990861118
11263.292727 0.105340280 -0.078967139 0.206617430 0.098694287 -0.076413460 -0.026410408 0.991828024
11263.329591 0.106495723 -0.075765833 0.190714970 0.097378202 -0.065154433 -0.019366579 0.992923617
11263.366454 0.107964724 -0.072296590 0.177142248 0.092276812 -0.054546244 -0.009379094 0.994193971
11263.403317 0.104405388 -0.064232387 0.161371782 0.087279253 -0.041069396 -0.007494512 0.995308697
11263.440181 0.099653952 -0.056878600 0.150778145 0.081026882 -0.029298171 -0.006185803 0.996262014
11263.477044 0.091419451 -0.049846347 0.138516635 0.077021614 -0.018043015 -0.010943078 0.996806085
11263.513907 0.082359590 -0.041487012 0.127570778 0.073549680 -0.005845850 -0.012392807 0.997197390
11263.550771 0.075397916 -0.034007765 0.113715246 0.067914858 0.006124668 -0.012692915 0.997591555
11263.587634 0.068732791 -0.026800234 0.100434750 0.062164392 0.020836137 -0.010018893 0.997798085
11263.624498 0.059770145 -0.020291707 0.089208104 0.057896726 0.038733080 -0.005656458 0.997554839
11263.661361 0.057242915 -0.016359262 0.076873027 0.054907251 0.052292205 -0.002554626 0.997117937
11263.698225 0.051638778 -0.010571765 0.068029441 0.053713392 0.069443360 -0.000424897 0.996138692
11263.735088 0.048502155 -0.011670452 0.057371855 0.049410664 0.084046341 0.002957433 0.995231628
11263.771951 0.049263500 -0.013883783 0.048138883 0.049294129 0.094353907 0.003699912 0.994310677
11263.808815 0.041485444 -0.019904722 0.036929537 0.047437586 0.110724077 0.006860319 0.992694736
11263.845678 0.038469754 -0.026530139 0.033675253 0.041264109 0.121299647 0.008642692 0.991720200
11263.882541 0.035815150 -0.032992259 0.026530556 0.032984164 0.127610058 0.008416181 0.991240084
11263.919405 0.032113526 -0.039767217 0.020043463 0.028316529 0.130510777 0.009013526 0.991001427
11263.956268 0.027987385 -0.045553770 0.019622216 0.029757541 0.129182383 0.007250019 0.991147757
11263.993131 0.026542567 -0.051060017 0.020909231 0.032883052 0.123176597 0.007646409 0.991810322
11264.029995 0.020480834 -0.057444189 0.022046063 0.033095188 0.119833067 0.007623166 0.992213011
11264.066858 0.016223285 -0.063387737 0.024049450 0.034757458 0.114748091 0.008417714 0.992750704
11264.103722 0.008197921 -0.072119527 0.030191895 0.035622437 0.112650797 0.006652733 0.992973626
11264.140585 0.000961845 -0.080100268 0.035673782 0.037739471 0.111559026 0.002380711 0.993038118
11264.177448 -0.008445525 -0.088446885 0.042655434 0.042228799 0.112600483 -0.009844393 0.992693782
11264.214312 -0.015269868 -0.093720980 0.050401792 0.047582544 0.115072817 -0.025389381 0.991891921
11264.251175 -0.022546981 -0.096244082 0.060290892 0.051865146 0.119871557 -0.043394051 0.990483582
11264.288038 -0.029923968 -0.098203517 0.069268353 0.055727035 0.126652047 -0.058355045 0.988659918
11264.324902 -0.037948303 -0.098437980 0.078990124 0.060157906 0.134461343 -0.070564918 0.986570716
11264.361765 -0.048267059 -0.097967543 0.087892041 0.065855622 0.141761482 -0.082165465 0.984284282
11264.398628 -0.055163339 -0.095701635 0.105652183 0.072547130 0.145130172 -0.091985427 0.982452452
11264.435492 -0.064336263 -0.094652750 0.117407501 0.076809578 0.145499319 -0.102771431 0.981003702
11264.472355 -0.072323099 -0.092615627 0.129378080 0.076041557 0.143016905 -0.109200463 0.980733931
11264.509219 -0.079950497 -0.089632720 0.145309255 0.071551256 0.138082087 -0.113388218 0.981303632
11264.546082 -0.090592220 -0.086840630 0.160004199 0.063934736 0.131631836 -0.118220620 0.982145250
11264.582945 -0.096373484 -0.083333910 0.180334598 0.055847507 0.116730154 -0.123142205 0.983916223
11264.619809 -0.104174927 -0.078513689 0.198521554 0.050068974 0.102552041 -0.131822392 0.984682202
11264.656672 -0.111313492 -0.073884115 0.216048807 0.043726139 0.085604131 -0.136330247 0.985988855
11264.693536 -0.120507605 -0.067073226 0.235874116 0.034267776 0.073458835 -0.147941113 0.985668778
11264.730399 -0.128763974 -0.056789313 0.251082212 0.024378696 0.065493070 -0.148315236 0.986467898
11264.767262 -0.135971099 -0.047977068 0.261371642 0.010056728 0.060027383 -0.143554255 0.987769067
11264.804126 -0.143136859 -0.036961488 0.276925892 -0.004010819 0.058082439 -0.137688875 0.988762915
11264.840989 -0.151816428 -0.022382574 0.282252610 -0.013538450 0.057630338 -0.134163857 0.989189327
11264.877852 -0.159976408 -0.002815953 0.290621549 -0.017954135 0.059239749 -0.139632314 0.988266706
11264.914716 -0.168414593 0.013934329 0.292668462 -0.021586919 0.062055063 -0.138650328 0.988159537
11264.951579 -0.175650641 0.029506784 0.299208313 -0.023534097 0.067783840 -0.135458916 0.988181353
11264.988442 -0.183576956 0.045348696 0.303292394 -0.027455034 0.075775139 -0.133200705 0.987806618
11265.025306 -0.182303712 0.053263813 0.306475908 -0.037762925 0.076396838 -0.126260534 0.988329828
11265.062169 -0.195924133 0.069620073 0.300347656 -0.041630514 0.090243571 -0.124155104 0.987273276
11265.099033 -0.206920281 0.073757149 0.294403136 -0.054064386 0.101748742 -0.114181757 0.986755669
11265.135896 -0.209098697 0.089381672 0.293188989 -0.056548167 0.109560914 -0.113778338 0.985826135
11265.172759 -0.218182951 0.096946277 0.282434940 -0.061164856 0.122402549 -0.100804284 0.985451639
11265.209623 -0.223145813 0.110973738 0.274830252 -0.054548811 0.134344950 -0.089474715 0.985378146
11265.246486 -0.236662775 0.126755536 0.263946295 -0.039695427 0.153401628 -0.076118015 0.984427869
11265.283350 -0.245190740 0.122466303 0.251995504 -0.034667790 0.165719956 -0.056242500 0.983957231
11265.320213 -0.251780778 0.120746121 0.236794412 -0.023761850 0.175152168 -0.042539932 0.983334839
11265.357076 -0.261212021 0.121614307 0.219594151 -0.008880260 0.185784221 -0.031772260 0.982036591
11265.393939 -0.271845371 0.122920409 0.206687018 0.010912226 0.197795734 -0.021835184 0.979939282
11265.430803 -0.277908772 0.120673373 0.191642910 0.026601782 0.204502538 -0.015111409 0.978387833
11265.467666 -0.286214203 0.121778011 0.176936820 0.041319139 0.212589547 -0.010968795 0.976205945
11265.504530 -0.293355018 0.121684335 0.162013292 0.054119993 0.217707992 -0.012761368 0.974428773
11265.541393 -0.300250024 0.118768245 0.148716986 0.066004679 0.221739784 -0.014484408 0.972761571
11265.578257 -0.307134092 0.122458622 0.135892168 0.084212556 0.225007698 -0.018205453 0.970540226
11265.615120 -0.309930146 0.117176272 0.125378534 0.098982640 0.225654244 -0.019102167 0.968977690
11265.651983 -0.315696537 0.115947410 0.114429325 0.115190566 0.227122501 -0.021770647 0.966784656
11265.688847 -0.321242541 0.115711309 0.103549689 0.130770802 0.228112176 -0.024524009 0.964501143
11265.725710 -0.323058367 0.113434300 0.098699391 0.143567890 0.228636280 -0.026846057 0.962493122
11265.762573 -0.320702285 0.107565284 0.087750033 0.151789740 0.225303411 -0.032028638 0.961858809
11265.799437 -0.324255109 0.100623041 0.082724579 0.160618529 0.227762967 -0.031095568 0.959874392
11265.836300 -0.316988170 0.096737996 0.078770176 0.169153586 0.225133494 -0.035944920 0.958858669
11265.873163 -0.316116005 0.098117039 0.074985504 0.181071013 0.227170616 -0.035190869 0.956226110
11265.910027 -0.303337127 0.087231196 0.062157668 0.183003858 0.220767915 -0.028514402 0.957579255
11265.946890 -0.294693589 0.089563474 0.062361218 0.192805365 0.220458984 -0.018079340 0.955979645
11265.983754 -0.278486073 0.078467585 0.062030509 0.191503644 0.216343760 -0.004417287 0.957341194
11266.020617 -0.265229374 0.077352807 0.063139915 0.194372877 0.212809771 0.011114452 0.957500696
11266.057480 -0.257764131 0.073487125 0.061536007 0.191917419 0.207279474 0.019447068 0.959074914
11266.094344 -0.261275977 0.068201683 0.064518064 0.186383203 0.203197926 0.024761729 0.960915565
11266.131207 -0.255808502 0.065740161 0.063899502 0.178798735 0.184619844 0.023314379 0.966127813
11266.168070 -0.209814787 0.045345742 0.054215200 0.157420114 0.132912189 0.024474910 0.978240371
11266.204934 -0.201171666 0.039571974 0.063913368 0.145700783 0.105927624 0.017780116 0.983480811
11266.241797 -0.203288972 0.041712970 0.067616634 0.138075501 0.084533870 0.005588245 0.986791730
11266.278660 -0.196150765 0.040866435 0.075640373 0.131718278 0.061206553 -0.003385668 0.989390016
11266.315524 -0.191895276 0.037889812 0.083403371 0.126136929 0.042796038 -0.012287971 0.991013110
11266.352387 -0.183461249 0.033663377 0.087070957 0.115121908 0.023498444 -0.028167769 0.992673814
11266.389251 -0.183196828 0.031844139 0.085784175 0.104228251 0.014288227 -0.032622486 0.993915498
11266.426114 -0.182723209 0.033342510 0.084928520 0.093462080 0.009005199 -0.032525919 0.995050669
11266.462977 -0.181552827 0.034130916 0.086577997 0.081119999 0.008736970 -0.032389980 0.996139586
11266.499841 -0.171783492 0.039165869 0.096786812 0.069461167 0.006904112 -0.033707339 0.996991098
11266.536704 -0.168076992 0.043480836 0.094911262 0.060502205 0.009814487 -0.036316555 0.997458875
11266.573567 -0.174606472 0.043944310 0.100011997 0.051654454 0.027401932 -0.033905815 0.997713089
11266.610431 -0.151513115 0.042362049 0.094317481 0.041662268 0.025549812 -0.036127005 0.998151422
11266.647294 -0.171054304 0.051592965 0.098064907 0.041707348 0.063046195 -0.030798398 0.996662974
11266.684157 -0.174370348 0.054669663 0.094852880 0.039430838 0.091010310 -0.020932885 0.994848788
11266.721021 -0.173375621 0.058187712 0.092626527 0.039905701 0.117824391 -0.009595193 0.992185891
11266.757884 -0.182455570 0.065172292 0.087330565 0.044750135 0.151169464 -0.001027767 0.987493873
11266.794748 -0.194699958 0.073151939 0.087250158 0.051985610 0.184830412 0.003665035 0.981387675
11266.831611 -0.200190023 0.062349882 0.084709220 0.048326977 0.209435165 0.012030332 0.976553500
11266.868474 -0.220664561 0.071733028 0.081987977 0.063083276 0.241095245 0.013720260 0.968351841
11266.905338 -0.230499387 0.077515595 0.081026517 0.076120511 0.263356030 0.016864175 0.961542964
11266.942201 -0.249878496 0.087592945 0.086625405 0.095058113 0.289060116 0.018883532 0.952392578
11266.979064 -0.264026403 0.091325149 0.081376150 0.111454614 0.306318790 0.017667584 0.945216656
11267.015928 -0.285605311 0.092775315 0.090591729 0.127678841 0.329409271 0.018369952 0.935334265
11267.052791 -0.299493402 0.093627676 0.097431727 0.142467111 0.342649877 0.012094263 0.928519189
11267.089654 -0.314635783 0.097253226 0.104838513 0.155005887 0.352177173 0.008442312 0.922969759
11267.126518 -0.334239125 0.095883846 0.120189346 0.157599181 0.363746971 0.004568565 0.918057561
11267.163381 -0.354980350 0.101549819 0.145845354 0.158483893 0.375074148 0.004502184 0.913335621
11267.200245 -0.362396240 0.102689683 0.160979301 0.150955483 0.373760670 -0.000020685 0.915158629
11267.237108 -0.367536366 0.109261855 0.175935477 0.146215186 0.371012866 -0.007871333 0.917010725
11267.273971 -0.375194490 0.117691793 0.200496629 0.147409752 0.374955118 -0.014716771 0.915129721
11267.310835 -0.384723872 0.131534249 0.223612547 0.154131606 0.382033408 -0.020600189 0.910971761
11267.347698 -0.389322996 0.138034940 0.250240862 0.159087643 0.390197217 -0.019132642 0.906681478
11267.384562 -0.402534127 0.140694007 0.269807994 0.161027119 0.405587345 -0.017980363 0.899580956
11267.421425 -0.412087232 0.145953625 0.293132335 0.166617319 0.424163878 -0.015406825 0.889992297
11267.458288 -0.421103686 0.145824313 0.313743591 0.170177564 0.444635600 -0.013765849 0.879289091
11267.495152 -0.430881143 0.147456944 0.336075515 0.177812189 0.468946755 -0.010579332 0.865077972
11267.532015 -0.448755860 0.160292491 0.374794871 0.199798107 0.503723681 -0.007593146 0.840407968
11267.568878 -0.446716666 0.146831632 0.383883744 0.196743160 0.513527572 -0.009872474 0.835155129
11267.605742 -0.453255564 0.137504369 0.402629554 0.193634912 0.527390003 -0.015185436 0.827124357
11267.642605 -0.461590737 0.142167568 0.432675630 0.198907956 0.542920113 -0.024497056 0.815520287
11267.679468 -0.467345953 0.146303341 0.454032421 0.197098866 0.550725758 -0.032918837 0.810413122
11267.716332 -0.469846964 0.152550370 0.482652724 0.194919288 0.558119237 -0.036219161 0.805727959
11267.753195 -0.465530187 0.162828550 0.496696681 0.190618768 0.551348388 -0.040971246 0.811172485
11267.790059 -0.467496693 0.160267085 0.519281507 0.177126944 0.549096107 -0.039695390 0.815808654
11267.826922 -0.471444964 0.179526269 0.557752371 0.185732231 0.554123402 -0.044166565 0.810246944
11267.863786 -0.477757454 0.189643785 0.590815246 0.189564005 0.558652163 -0.040528487 0.806430817
11267.900649 -0.487582207 0.198811248 0.625770569 0.194162726 0.569276571 -0.038383096 0.797967255
11267.937512 -0.495542169 0.207808703 0.658481777 0.198488459 0.582702816 -0.039357189 0.787090063
11267.974375 -0.503221214 0.215072066 0.687228978 0.201900631 0.599080026 -0.039629072 0.773801506
11268.011239 -0.516853988 0.213195264 0.707141995 0.202096269 0.616502941 -0.032336984 0.760286510
11268.048102 -0.535696507 0.213610902 0.733721912 0.212921351 0.643325329 -0.029937724 0.734779418
11268.084965 -0.557402372 0.218525097 0.746634126 0.234124392 0.660843670 -0.030719396 0.712409794
11268.121829 -0.564187884 0.206844077 0.763851702 0.242081732 0.688004732 -0.037045226 0.683135092
11268.195556 0.000000000 0.000000000 0.000000000 0.000000000 0.000000000 0.000000000 1.000000000
11268.232419 -0.027191147 0.005020285 -0.011584378 0.022502638 0.031640198 -0.001915391 0.999244153
11268.269283 -0.053735554 0.012453386 -0.025136843 0.040242832 0.052576702 -0.005598811 0.997789979
11268.306146 -0.080495864 0.021653352 -0.031454690 0.054062527 0.063023090 -0.008938496 0.996506631
11268.343009 -0.108343169 0.034897767 -0.046501640 0.066198610 0.063637294 -0.011769410 0.995705545
11268.379873 -0.135793641 0.046853770 -0.041075893 0.074415796 0.059232064 -0.015166542 0.995351136
11268.416736 -0.164665863 0.060783733 -0.037285835 0.083251290 0.055722598 -0.017730806 0.994811475
11268.453599 -0.191938043 0.073551401 -0.035963513 0.089867666 0.058338966 -0.019567195 0.994051039
11268.490463 -0.218007073 0.086604893 -0.042275153 0.097271107 0.065762609 -0.021447178 0.992851257
11268.527326 -0.246626675 0.098135009 -0.035544530 0.107070930 0.076904863 -0.020826891 0.991053820
11268.564189 -0.276198089 0.110513471 -0.038236633 0.115083776 0.095569804 -0.018194098 0.988580346
11268.601053 -0.303201348 0.121751159 -0.036749743 0.120421819 0.120409362 -0.015244153 0.985275507
11268.637916 -0.330658108 0.132593393 -0.040878177 0.128951102 0.147867396 -0.012682720 0.980482519
11268.711643 0.000000000 0.000000000 0.000000000 0.000000000 0.000000000 0.000000000 1.000000000
11268.748506 -0.029599011 0.005503730 -0.005665366 0.014017595 0.031676766 -0.015713111 0.999276340
11268.785370 -0.058800936 0.014388573 -0.007482264 0.024521656 0.062058255 -0.030684063 0.997299314
11268.822233 -0.089293800 0.027823715 -0.014182974 0.032078020 0.092914894 -0.043514039 0.994205356
11268.859097 -0.119137838 0.045172159 -0.015770685 0.041801441 0.121198289 -0.051421225 0.990413785
11268.895960 -0.150417507 0.064784609 -0.020457279 0.053661052 0.148809686 -0.056561146 0.985787511
11268.932823 -0.183086634 0.083471932 -0.025916204 0.065295637 0.175973833 -0.060040545 0.980390131
11268.969687 -0.214679360 0.099937618 -0.024031423 0.074356355 0.200894311 -0.061503399 0.974848628
11269.006550 -0.246838599 0.112057805 -0.024711154 0.079128988 0.225147098 -0.062393829 0.969099760
11269.043413 -0.279692024 0.121810153 -0.027466431 0.082411587 0.248384237 -0.063525073 0.963056684
11269.080277 -0.311680555 0.129195720 -0.024892017 0.087893873 0.270029545 -0.067692026 0.956439495
11269.117140 -0.340910852 0.134065345 -0.018386304 0.096386455 0.292694896 -0.073296964 0.948507726
11269.154003 -0.372168720 0.141431749 -0.018033579 0.107262924 0.317547768 -0.080310859 0.938726962
11269.190867 -0.400901139 0.147589147 -0.015557542 0.116777092 0.343408644 -0.089200787 0.927618921
11269.227730 -0.426114321 0.159890532 0.005386129 0.125344142 0.371583760 -0.097547017 0.914712429
11269.264594 -0.452748597 0.176715553 0.017261297 0.132639974 0.397025377 -0.104469173 0.902143896
11269.301457 -0.470502973 0.197431117 0.041943029 0.138284087 0.417793304 -0.108687982 0.891354680
11269.338320 -0.490775526 0.219511405 0.059486762 0.142607987 0.435188502 -0.111439854 0.881960928
11269.375184 -0.513678491 0.246769741 0.074666247 0.147746027 0.449495912 -0.117430590 0.873117745
11269.412047 -0.525837660 0.270859331 0.100039124 0.155168712 0.459745914 -0.120391898 0.866061270
11269.485774 0.000000000 0.000000000 0.000000000 0.000000000 0.000000000 0.000000000 1.000000000
11269.522637 -0.031195438 0.019954368 -0.000915712 -0.004924248 0.020096436 0.003529845 0.999779701
11269.559500 -0.063116580 0.035895083 -0.000052224 -0.011144650 0.040525422 0.008297800 0.999081910
11269.596364 -0.096473753 0.051089667 0.004325546 -0.015504670 0.058193315 0.012198804 0.998110354
11269.633227 -0.128807932 0.062062088 0.005022520 -0.009769515 0.068147846 0.009443501 0.997582674
11269.670091 -0.162028000 0.072226003 0.017849553 -0.001922596 0.078821592 0.004785733 0.996875405
11269.706954 -0.198122963 0.081127837 0.024990849 -0.001405034 0.095530011 0.001738433 0.995424032
11269.743817 -0.227699623 0.089320786 0.030413546 -0.005598722 0.113785684 0.000429003 0.993489444
11269.780681 -0.259749681 0.098224446 0.039393421 -0.007963776 0.133879676 -0.001329086 0.990964711
11269.817544 -0.291455686 0.106783129 0.044425663 -0.006091600 0.153313294 -0.005934122 0.988141060
11269.854408 -0.324102014 0.118743367 0.051526122 0.000414696 0.171615660 -0.011814535 0.985093057
11269.891271 -0.356297553 0.131511793 0.059852883 0.009412176 0.187092543 -0.014177776 0.982194901
11269.928134 -0.386527210 0.146528825 0.066911124 0.021617273 0.198860288 -0.015533692 0.979666293
11269.964998 -0.422058880 0.167444587 0.076904848 0.036634419 0.212556675 -0.012701383 0.976379156
11270.001861 -0.453870952 0.184240192 0.080300346 0.048276737 0.223841861 -0.004486030 0.973418713
11270.038724 -0.483830214 0.198490724 0.084421277 0.053767037 0.232725024 0.010228283 0.971001267
11270.075588 -0.512419879 0.213795930 0.092382580 0.059221141 0.241009787 0.021541093 0.968474627
11270.112451 -0.541092575 0.226839319 0.098966897 0.060935132 0.250408530 0.032637559 0.965669334
11270.149314 -0.566626728 0.237024456 0.107698396 0.063628078 0.261751622 0.044518068 0.962006092
11270.186178 -0.591441691 0.242916182 0.116613179 0.069603853 0.276007026 0.050736722 0.957288504
11270.223041 -0.612983704 0.249877989 0.129574880 0.079196952 0.296305358 0.049317610 0.950525522
11270.259904 -0.640421152 0.251990765 0.141614214 0.082908787 0.326110095 0.042691913 0.940720856
11270.296768 -0.662943363 0.259299964 0.152063847 0.088184848 0.353886485 0.037309263 0.930374026
11270.333631 -0.693725765 0.276906013 0.177014351 0.102113508 0.389786482 0.021103580 0.914983034
11270.370495 -0.718261957 0.283718705 0.189643919 0.112678714 0.411382198 0.008563696 0.904430687
11270.407358 -0.741588116 0.302371681 0.210985601 0.133117527 0.430649072 -0.011228815 0.892577708
11270.444221 -0.758461595 0.325646996 0.231447816 0.155797929 0.443254203 -0.029149029 0.882271528
11270.481085 -0.781115115 0.341924995 0.253055274 0.173257515 0.456357241 -0.039865214 0.871854722
11270.517948 -0.791982174 0.361223280 0.280708879 0.188194036 0.465508014 -0.045591865 0.863601029
11270.554811 -0.808676004 0.380107999 0.306261629 0.196999282 0.475570291 -0.046540342 0.856071353
11270.591675 -0.819826424 0.395464122 0.333565086 0.201843336 0.484386057 -0.045567345 0.850031197
11270.628538 -0.830216527 0.407611132 0.364453405 0.206055462 0.495143026 -0.041982234 0.842978060
11270.665401 -0.832600832 0.416556895 0.395904750 0.211526617 0.505072951 -0.029584885 0.836231172
11270.702265 -0.840802193 0.424732596 0.426007748 0.216313496 0.515980721 -0.019894594 0.828599155
11270.739128 -0.845226407 0.429212213 0.455801934 0.220482573 0.527448833 -0.016170824 0.820319235
11270.775992 -0.850724161 0.429364145 0.483270913 0.223288581 0.539376378 -0.013128953 0.811814606
11270.812855 -0.855867743 0.429320395 0.509478748 0.225296482 0.552869618 -0.016742203 0.802057564
11270.849718 -0.859632313 0.427428901 0.536076784 0.226199672 0.566309690 -0.019901881 0.792294741
11270.886582 -0.865287185 0.424803078 0.560887516 0.225280598 0.578170300 -0.024130257 0.783827484
11270.923445 -0.874593019 0.429548979 0.592341363 0.223274440 0.592904389 -0.039096147 0.772712350
11270.960309 -0.881129444 0.432636440 0.620199859 0.225347832 0.601787448 -0.050788231 0.764519930
11270.997172 -0.882585883 0.440566778 0.653810084 0.231028125 0.609523773 -0.074396953 0.754699826
11271.034035 -0.885652661 0.448218495 0.686724961 0.240207598 0.614271164 -0.097880960 0.745245278
11271.070899 -0.892699957 0.452523679 0.722450852 0.249823630 0.619691968 -0.113189362 0.735362589
11271.107762 -0.897319555 0.457584590 0.755344987 0.254253298 0.627765894 -0.123638965 0.725243807
11271.144625 -0.910449505 0.461800337 0.789246559 0.250001550 0.639841914 -0.128704771 0.715217948
11271.181489 -0.913856089 0.459133804 0.821079850 0.241768092 0.654786348 -0.127038732 0.704744041
11271.218352 -0.916916549 0.457350194 0.850944698 0.235063240 0.669143379 -0.129124194 0.693050742
11271.255215 -0.914533794 0.454949141 0.882857740 0.234396607 0.684561014 -0.138261020 0.676253140
11271.292079 -0.910495400 0.449158281 0.911235154 0.237657711 0.699701428 -0.146228850 0.657688260
11271.328942 -0.907309175 0.443539888 0.939916015 0.239447400 0.716279268 -0.153133661 0.637306094
11271.365806 -0.910721183 0.439142346 0.967686534 0.236572623 0.732860029 -0.157647237 0.618139863
11271.402669 -0.902727902 0.436279088 0.993480265 0.227221757 0.751838744 -0.165182337 0.596509516
11271.439532 -0.895396054 0.435969830 1.017571807 0.216867432 0.770712674 -0.168265149 0.575028121
11271.476396 -0.883709550 0.438020706 1.042388797 0.206775010 0.789653778 -0.170431197 0.551945865
11271.513259 -0.870865881 0.443715632 1.068734765 0.197772279 0.807702541 -0.175076932 0.527115464
11271.550122 -0.850081325 0.447980791 1.088052511 0.191993982 0.821918786 -0.182551637 0.504244685
11271.586986 -0.834511161 0.450076044 1.110197425 0.188588023 0.833202481 -0.188554108 0.484412581
11271.623849 -0.814443469 0.452842891 1.128939390 0.191560999 0.841008484 -0.192335695 0.467991590
11271.660712 -0.791306138 0.450645089 1.147674203 0.194741875 0.847903550 -0.192404643 0.453999609
11271.697576 -0.768073082 0.444666058 1.162925959 0.199239746 0.852521718 -0.190326750 0.444168866
11271.734439 -0.747611523 0.436317563 1.181150913 0.204446942 0.857806981 -0.183675885 0.434317559
11271.771303 -0.728466749 0.428353101 1.200944901 0.210016727 0.862505436 -0.174410373 0.426096678
11271.808166 -0.709182620 0.419867873 1.216201305 0.214101091 0.865528822 -0.168491974 0.420275003
11271.845029 -0.689970016 0.408512652 1.230942726 0.217443213 0.867045045 -0.167290613 0.415890843
11271.881893 -0.678015649 0.400255442 1.253707886 0.217376575 0.869224131 -0.171140105 0.409765691
11271.918756 -0.661535859 0.388607591 1.266213179 0.214973480 0.871370792 -0.174723059 0.404933512
11271.955620 -0.647972226 0.378098130 1.281760573 0.210120812 0.874787927 -0.174816325 0.400043190
11271.992483 -0.632225394 0.368158549 1.293924332 0.202778861 0.879868567 -0.171248376 0.394190311
11272.029346 -0.616123319 0.362037301 1.308874249 0.192962319 0.886193037 -0.169061378 0.385805309
11272.066210 -0.601641893 0.360185742 1.328645945 0.184992284 0.892106950 -0.169755995 0.375640661
11272.103073 -0.587157249 0.358038187 1.346710324 0.180622891 0.897283733 -0.171156675 0.364640504
11272.139936 -0.572176993 0.360662997 1.366341114 0.173303977 0.902783632 -0.176154047 0.352018744
11272.176800 -0.555764616 0.364164054 1.386327744 0.168928474 0.908644259 -0.178463131 0.337608814
11272.213663 -0.542646170 0.366222888 1.403522730 0.165973306 0.913429439 -0.180604815 0.324778885
11272.250526 -0.531186461 0.369711548 1.424122691 0.165377185 0.918251395 -0.183342114 0.309597254
11272.287390 -0.521004915 0.371689975 1.438638330 0.168008149 0.923072934 -0.181086496 0.294817418
11272.324253 -0.508897781 0.371607721 1.464772344 0.175031453 0.928464234 -0.178415567 0.274747312
11272.361117 -0.499063909 0.367061615 1.476981401 0.185813561 0.932304978 -0.173909634 0.256975055
11272.397980 -0.493515670 0.358923674 1.488938332 0.194663569 0.936953306 -0.165274113 0.238556281
11272.434844 -0.483653575 0.352126896 1.502803087 0.199131638 0.941956580 -0.161101624 0.217049971
11272.471707 -0.473764837 0.342014134 1.509682536 0.202589497 0.945891798 -0.158798888 0.197557792
11272.508570 -0.466286361 0.333840072 1.508339286 0.205562323 0.947510302 -0.161663011 0.183938593
11272.545434 -0.460521430 0.325142652 1.513084292 0.213494077 0.947720528 -0.163071424 0.172202751
11272.582297 -0.449527979 0.326929092 1.517736793 0.208407328 0.949998200 -0.167592674 0.161190748
11272.619160 -0.443990380 0.329261273 1.510641336 0.205676705 0.951095223 -0.164901018 0.161005154
11272.656024 -0.436026007 0.330577910 1.505291343 0.202600196 0.952425480 -0.160616681 0.161372691
11272.692887 -0.436157078 0.332506388 1.501913428 0.199828237 0.952480376 -0.155919135 0.168935120
