11248.215609 0.000000000 0.000000000 0.000000000 0.000000000 0.000000000 0.000000000 1.000000000
11248.252472 0.008887999 -0.006581496 -0.000781229 0.000860602 -0.008385845 0.001038573 0.999963939
11248.289335 0.017862391 -0.011875208 -0.001202795 0.000916411 -0.017051930 0.001401463 0.999853194
11248.326199 0.027152905 -0.015759883 -0.001577011 0.002923418 -0.026315382 0.002576315 0.999646127
11248.363062 0.040338296 -0.021286143 -0.002377907 0.007113101 -0.038751032 0.005817170 0.999206662
11248.399925 0.049966700 -0.024031479 0.001314441 0.015486647 -0.048946690 0.005083174 0.998668373
11248.436789 0.060693420 -0.026676541 0.005687913 0.023292525 -0.059332572 0.003948084 0.997958660
11248.473652 0.070101909 -0.033163991 0.010128472 0.025339909 -0.067564435 0.002835881 0.997389019
11248.510516 0.079987921 -0.037338831 0.017431550 0.026670506 -0.074825116 0.001646404 0.996838570
11248.547379 0.093696453 -0.043276258 0.025911197 0.025451299 -0.082603015 0.003387876 0.996251702
11248.584242 0.107542694 -0.049902201 0.036463469 0.024203772 -0.087679036 0.006230849 0.995835185
11248.621106 0.122055061 -0.055025510 0.047266640 0.025019543 -0.090742588 0.005873716 0.995542705
11248.657969 0.139025241 -0.062360018 0.059979349 0.025488287 -0.093079358 0.004835970 0.995320618
11248.694833 0.156725854 -0.068752944 0.070728563 0.023675434 -0.092942759 0.000592581 0.995389760
11248.731696 0.174956456 -0.074264318 0.084354237 0.020150606 -0.091913983 -0.004603354 0.995552421
11248.768559 0.192800507 -0.079824045 0.101574980 0.017715253 -0.090761095 -0.009828498 0.995666623
11248.805423 0.210173786 -0.085203849 0.114257798 0.014782317 -0.088506721 -0.014438295 0.995861232
11248.842286 0.227582157 -0.090809524 0.127134085 0.011371846 -0.086134210 -0.018489128 0.996047080
11248.879149 0.244783491 -0.096227504 0.138132870 0.007395132 -0.084202930 -0.020001650 0.996220410
11248.916013 0.260116667 -0.099849716 0.149337277 0.003988510 -0.081169762 -0.021639235 0.996457398
11248.952876 0.273929536 -0.101560794 0.162239701 0.001618476 -0.077983484 -0.020801879 0.996736288
11248.989739 0.287741661 -0.104631081 0.171355546 -0.001289491 -0.076986961 -0.018960113 0.996850967
11249.026603 0.298080474 -0.105954856 0.180297241 -0.006300162 -0.076233253 -0.016983813 0.996925473
11249.063466 0.307525575 -0.107557997 0.187380165 -0.013729389 -0.077428184 -0.014622506 0.996796131
11249.100330 0.313779980 -0.107978128 0.195619538 -0.018562360 -0.080270924 -0.015494051 0.996479750
11249.137193 0.317421108 -0.107006676 0.201792419 -0.022274556 -0.083510637 -0.016032059 0.996128917
11249.174056 0.318711132 -0.104973137 0.206742942 -0.025404703 -0.086446941 -0.014413785 0.995828152
11249.210920 0.316840887 -0.101782888 0.210377917 -0.026463440 -0.088205241 -0.011194314 0.995687842
11249.247783 0.312013626 -0.098439559 0.213747874 -0.025788831 -0.088959277 -0.006259360 0.995681703
11249.284647 0.305582732 -0.095396139 0.215139225 -0.024090236 -0.090226933 -0.001960049 0.995627880
11249.321510 0.296226025 -0.092776224 0.217946053 -0.021597724 -0.092885859 -0.000766778 0.995442152
11249.358373 0.284544945 -0.093170539 0.216772795 -0.018608844 -0.096011832 -0.003121120 0.995201349
11249.395236 0.271284699 -0.092729248 0.216967329 -0.014658102 -0.098818116 -0.005188527 0.994984031
11249.432100 0.254865289 -0.092573404 0.215474844 -0.009702044 -0.099293195 -0.009215494 0.994968235
11249.468963 0.236078277 -0.091749087 0.214909479 -0.004314435 -0.098213822 -0.012958048 0.995071650
11249.505827 0.216805965 -0.091014504 0.212361723 0.000378734 -0.096662730 -0.016717199 0.995176733
11249.542690 0.196508765 -0.090810001 0.206467226 0.003858286 -0.094524853 -0.022921482 0.995251119
11249.579553 0.174519286 -0.089886799 0.202113360 0.005919446 -0.091641322 -0.029746778 0.995330095
11249.616417 0.149442658 -0.088651165 0.194110170 0.008154919 -0.087664284 -0.039141625 0.995347381
11249.653280 0.124453723 -0.086966924 0.186738595 0.009855283 -0.082372226 -0.047705531 0.995410383
11249.690144 0.098745465 -0.084175050 0.179916948 0.011915389 -0.075214855 -0.054096192 0.995627642
11249.727007 0.071489260 -0.080260411 0.177571237 0.016450949 -0.067422196 -0.059258789 0.995827317
11249.763870 0.044187970 -0.076356120 0.168304712 0.022266135 -0.057785030 -0.061581116 0.996179163
11249.800734 0.018370200 -0.072259665 0.163857728 0.027170025 -0.048605382 -0.061744384 0.996537447
11249.837597 -0.007226806 -0.067347914 0.160301104 0.030736906 -0.039908327 -0.061070874 0.996861517
11249.874460 -0.031507552 -0.061332159 0.154911235 0.032673862 -0.032483883 -0.060568273 0.997100174
11249.911324 -0.053336065 -0.054747827 0.151239112 0.032862406 -0.028234404 -0.060997669 0.997197151
11249.948187 -0.075047545 -0.046344124 0.143628955 0.032305852 -0.025963424 -0.061994139 0.997215629
11249.985051 -0.093802810 -0.039489001 0.133639261 0.030467665 -0.026131533 -0.062492717 0.997237921
11250.021914 -0.107467756 -0.031066835 0.132258967 0.027774910 -0.029189002 -0.067651011 0.996895134
11250.058777 -0.120313071 -0.022001958 0.128429368 0.022342166 -0.032993425 -0.073557250 0.996494651
11250.095641 -0.128473878 -0.015041137 0.123913929 0.014050639 -0.037951171 -0.079120167 0.996043324
11250.132504 -0.133017257 -0.006837248 0.121421173 0.006736094 -0.041573554 -0.085228682 0.995470881
11250.169367 -0.135647073 -0.000358958 0.115374073 -0.001231891 -0.043652952 -0.087579757 0.995199800
11250.206231 -0.135053113 0.004071977 0.107460342 -0.007992396 -0.044047434 -0.085784808 0.995307446
11250.243094 -0.130713955 0.007742104 0.105149359 -0.009246373 -0.042879928 -0.084702082 0.995440304
11250.279957 -0.124011308 0.009800543 0.101421118 -0.006916953 -0.040782772 -0.082888067 0.995700002
11250.316821 -0.115116619 0.010144166 0.097824633 -0.004170152 -0.036108408 -0.079561941 0.996167004
11250.390548 -0.092190400 0.004480187 0.092404649 0.002235933 -0.016145973 -0.063070670 0.997875988
11250.427411 -0.079203047 0.003488748 0.090293594 0.009860042 -0.002112683 -0.060341701 0.998126864
11250.464274 -0.068212867 -0.001878066 0.087812878 0.015901025 0.013006848 -0.051246081 0.998474777
11250.501138 -0.054309011 -0.007054151 0.084869452 0.023055261 0.025640465 -0.048845910 0.998210967
11250.538001 -0.043624468 -0.014684802 0.085630730 0.029595410 0.037682768 -0.046908658 0.997749329
11250.574864 -0.031364638 -0.025835462 0.083101101 0.035561189 0.045912076 -0.043137178 0.997379899
11250.611728 -0.018905204 -0.036244672 0.082545184 0.042488836 0.052311033 -0.047438607 0.996598125
11250.648591 -0.008139923 -0.046746183 0.083775483 0.049111608 0.059663437 -0.054678760 0.995509207
11250.685454 0.001922463 -0.056359172 0.089120604 0.055422440 0.067155629 -0.064946838 0.994082689
11250.722318 0.011353197 -0.062808268 0.089711957 0.065299995 0.075187922 -0.074214682 0.992257476
11250.759181 0.020465788 -0.074056581 0.089286558 0.073797792 0.083299771 -0.083724990 0.990255117
11250.796045 0.031974025 -0.082714006 0.093330003 0.085993432 0.090142086 -0.091621086 0.987970233
11250.832908 0.041643977 -0.091101013 0.101300389 0.096149892 0.100650690 -0.092781678 0.985908806
11250.869771 0.052019391 -0.105822600 0.091603018 0.102301925 0.111709140 -0.109945670 0.982327521
11251.238405 0.000000000 0.000000000 0.000000000 0.000000000 0.000000000 0.000000000 1.000000000
11251.865082 0.104211181 -0.107374817 0.220720649 0.085899822 -0.093976341 -0.083703808 0.988323510
11251.901946 0.083896488 -0.094089217 0.221899524 0.080796070 -0.097490832 -0.086811297 0.988145411
11251.938809 0.064654931 -0.079480916 0.216467097 0.071037754 -0.096539691 -0.090585656 0.988649547
11251.975672 0.046484046 -0.066710055 0.210287780 0.058951635 -0.093133099 -0.096431881 0.989217758
11252.012536 0.030183259 -0.054028094 0.201782882 0.049152970 -0.088308290 -0.102928743 0.989540935
11252.049399 0.014752366 -0.042494230 0.192449212 0.041168120 -0.083155066 -0.112622038 0.989296079
11252.086262 0.001643455 -0.034305453 0.183953404 0.032302912 -0.075299047 -0.121086024 0.989254653
11252.123126 -0.009961681 -0.026686590 0.176620990 0.021392897 -0.063958235 -0.128854483 0.989367604
11252.159989 -0.017974351 -0.014650629 0.164068043 0.014794890 -0.052385997 -0.135947421 0.989219427
11252.196853 -0.026313320 -0.007322634 0.151939631 0.006030553 -0.038408477 -0.139351338 0.989479482
11252.233716 -0.030442517 -0.001256904 0.145671353 -0.001867043 -0.026820166 -0.145591214 0.988979459
11252.270580 -0.032237459 0.001549195 0.140392080 -0.010929856 -0.016342806 -0.149941131 0.988499463
11252.307443 -0.032896455 0.009034848 0.131576478 -0.016902754 -0.004653785 -0.152680427 0.988120079
11252.344306 -0.032734722 0.009741037 0.127332315 -0.024918785 0.004673995 -0.156599998 0.987336695
11252.381170 -0.030590039 0.011062106 0.125740126 -0.030108327 0.013577524 -0.158363283 0.986828387
11252.418033 -0.031000083 0.015496407 0.124179542 -0.033495471 0.027986303 -0.157125369 0.986613631
11252.454896 -0.030759085 0.014207318 0.122930676 -0.040080547 0.044786736 -0.156172797 0.985899508
11252.491760 -0.029089512 0.015091291 0.120068409 -0.041652564 0.063960053 -0.154083863 0.985105276
11252.528623 -0.025912898 0.015545517 0.122963950 -0.038822096 0.083067834 -0.154540837 0.983722389
11252.565486 -0.016078090 0.012485357 0.129142493 -0.034505166 0.095414639 -0.154459670 0.982775450
11252.602350 -0.017164906 0.013433989 0.131338060 -0.025928153 0.113402426 -0.152008191 0.981509626
11252.639213 -0.015842609 0.014505468 0.137735426 -0.015882870 0.124629304 -0.147624388 0.981031239
11252.676077 -0.016752973 0.016094036 0.141781718 -0.004862816 0.132818907 -0.141672701 0.980950713
11252.712940 -0.016593862 0.016913544 0.148248956 0.007611668 0.135289520 -0.138606742 0.981033623
11252.749803 -0.017298765 0.011609267 0.155085072 0.015570072 0.132007048 -0.132372200 0.982247114
11252.786667 -0.021919120 -0.008758252 0.164231226 0.008777836 0.125104189 -0.126043111 0.984065592
11252.823530 -0.028288025 -0.008430541 0.168842643 0.020080164 0.115002044 -0.120138668 0.985869169
11252.860394 -0.030910164 -0.008517585 0.177333862 0.030813975 0.095887132 -0.114790566 0.988270879
11252.897257 -0.035885856 -0.011429650 0.185474873 0.035611752 0.073341705 -0.111229755 0.990444720
11252.934120 -0.051741064 -0.020562701 0.192982703 0.030832080 0.055935040 -0.106142536 0.992297530
11252.970984 -0.058469661 -0.022448599 0.201277226 0.032672897 0.027717324 -0.100684188 0.993995428
11253.007847 -0.073001683 -0.023969330 0.202146143 0.034323432 0.004263090 -0.099871531 0.994399011
11253.044710 -0.082960002 -0.023084722 0.212702200 0.040989101 -0.022365270 -0.093156271 0.994555950
11253.081574 -0.093444794 -0.015654501 0.213586956 0.053599127 -0.048637800 -0.089475788 0.993355751
11253.376481 0.000000000 0.000000000 0.000000000 0.000000000 0.000000000 0.000000000 1.000000000
11253.413344 -0.076477520 -0.050806284 -0.019453831 0.002465487 0.005536371 0.003440531 0.999975741
11253.450207 -0.042410102 -0.009397311 0.002872823 0.018383710 -0.004270104 -0.005477444 0.999806881
11253.487071 -0.055823557 -0.021395966 0.021254588 0.019876545 -0.003627390 -0.009557091 0.999750197
11253.523934 -0.052140966 -0.025311550 0.013637181 0.018918315 -0.001920765 -0.013602859 0.999726653
11253.560797 -0.073829159 -0.042370576 0.008914078 0.012974777 0.006372237 -0.013742695 0.999801099
11253.597661 -0.078503430 -0.033792295 0.003496801 0.009558581 0.013994289 -0.014179657 0.999755859
11253.671388 0.000000000 0.000000000 0.000000000 0.000000000 0.000000000 0.000000000 1.000000000
11253.708251 0.072924502 0.016757194 -0.011233024 -0.001667305 0.001668033 -0.004370685 0.999987662
11253.781978 0.000000000 0.000000000 0.000000000 0.000000000 0.000000000 0.000000000 1.000000000
11254.076885 -0.295548737 0.025529243 0.213572562 0.094994590 0.069718674 -0.101086341 0.987874925
11254.113748 -0.276708096 0.023345511 0.211644709 0.098075151 0.074251421 -0.095733672 0.987776816
11254.150611 -0.258772165 0.018569168 0.204425901 0.101466835 0.078794032 -0.092080422 0.987429559
11254.187475 -0.236768708 0.011510160 0.201496392 0.104261518 0.083331205 -0.089887030 0.986967981
11254.224338 -0.216096982 0.003963649 0.196806490 0.105346069 0.088687450 -0.087764628 0.986576974
11254.261201 -0.192684531 -0.004504547 0.192960709 0.105810329 0.091640636 -0.086702719 0.986351252
11254.298065 -0.170153230 -0.013181791 0.187182948 0.106883146 0.093894325 -0.085354358 0.986141205
11254.334928 -0.148833111 -0.019132443 0.182817876 0.106975950 0.097230896 -0.083123930 0.985998333
11254.371792 -0.127294168 -0.024413468 0.183628857 0.103214584 0.099731080 -0.079813562 0.986422956
11254.408655 -0.106456943 -0.025166703 0.181843594 0.096981421 0.100376181 -0.077417068 0.987180710
11254.445518 -0.088806614 -0.024688685 0.176851347 0.087209798 0.099892609 -0.074993536 0.988327801
11254.482382 -0.069550782 -0.022828056 0.182839945 0.076862492 0.097061761 -0.066414125 0.990080953
11254.519245 -0.054437049 -0.019131122 0.185355961 0.066440240 0.091490112 -0.053796317 0.992129624
11254.556108 -0.046541177 -0.014026165 0.186053187 0.055180497 0.083753102 -0.044164889 0.993976831
11254.592972 -0.037306678 -0.006120818 0.187117860 0.044427376 0.068054177 -0.045697641 0.995643795
11254.629835 -0.030240646 -0.000856277 0.188485488 0.031405538 0.048485059 -0.046102513 0.997264981
11254.666698 -0.030320689 0.006887705 0.189174429 0.019430922 0.031338327 -0.053684056 0.997876942
11254.703562 -0.030020861 0.013692606 0.189546362 0.006259883 0.013877325 -0.056966249 0.998260021
11254.740425 -0.032967821 0.024292843 0.188479483 -0.001583948 -0.000545922 -0.059130099 0.998248875
11254.777289 -0.035526197 0.033695377 0.188643590 -0.013122679 -0.014200045 -0.058207404 0.998117268
11254.814152 -0.038614202 0.044906847 0.179843023 -0.027282814 -0.025947368 -0.057181418 0.997653544
11254.851015 -0.036818825 0.056642022 0.180295452 -0.043383528 -0.038998861 -0.054756574 0.996794164
11254.887879 -0.035584010 0.064043134 0.175502926 -0.063021451 -0.045510147 -0.043457322 0.996026397
11254.924742 -0.041187927 0.079204127 0.168307871 -0.071923837 -0.042619213 -0.030397717 0.996035397
11254.961606 -0.045040846 0.082259469 0.151503697 -0.090508282 -0.037752677 -0.015026078 0.995066404
11254.998469 -0.063914917 0.129705593 0.122042753 -0.077440709 -0.016717914 -0.012366169 0.996780097
11255.035332 -0.061419241 0.132545441 0.113917418 -0.097607367 -0.006401323 -0.005513391 0.995189130
11255.293376 0.000000000 0.000000000 0.000000000 0.000000000 0.000000000 0.000000000 1.000000000
11255.330239 0.005308216 -0.009942014 -0.009091946 0.019153751 0.016508814 -0.002621576 0.999676764
11255.367103 0.017939532 -0.019313194 -0.012406554 0.040731464 0.023922009 -0.005009393 0.998871148
11255.403966 0.017853064 -0.018443216 -0.016034778 0.067311347 0.035256237 -0.005396149 0.997094274
11255.440829 0.019701527 -0.018381234 -0.018278752 0.092553847 0.039181650 -0.004200150 0.994927585
11255.477693 0.018609956 -0.017612554 -0.018999036 0.118110873 0.038953606 -0.001494637 0.992234945
11255.514556 0.020318041 -0.017182678 -0.020619122 0.140223533 0.032573573 -0.004634954 0.989573061
11255.551419 0.019274900 -0.017715298 -0.016766008 0.159301430 0.022197280 -0.006812663 0.986956894
11255.588283 0.019429469 -0.018817261 -0.017144442 0.175023973 0.007398407 -0.009173033 0.984493613
11255.625146 0.018387742 -0.020783251 -0.012635053 0.191587329 -0.008021278 -0.014751757 0.981331944
11255.662009 0.017951209 -0.021825263 -0.009779068 0.207202479 -0.023870444 -0.022610670 0.977745414
11255.698873 0.017387366 -0.022572435 -0.007290613 0.223194525 -0.037354011 -0.029272376 0.973617971
11255.735736 0.017251696 -0.022773545 -0.006294496 0.238704935 -0.048527513 -0.037644573 0.969148040
11255.772600 0.016323728 -0.023504086 -0.002143672 0.255085528 -0.056551997 -0.040215183 0.964425206
11255.809463 0.015871961 -0.023874009 -0.000688335 0.270668179 -0.060625821 -0.047211912 0.959601104
11255.846326 0.015364096 -0.024134343 0.002372450 0.287211418 -0.061844379 -0.049441617 0.954589128
11255.883190 0.014931809 -0.024883851 0.004624468 0.303956002 -0.061081059 -0.053048648 0.949244797
11255.956917 0.000000000 0.000000000 0.000000000 0.000000000 0.000000000 0.000000000 1.000000000
11255.993780 0.006713137 -0.009745760 0.011198060 0.015393202 -0.007975719 -0.002590244 0.999846339
11256.067507 0.000000000 0.000000000 0.000000000 0.000000000 0.000000000 0.000000000 1.000000000
11256.104370 0.002732161 0.011292038 -0.005481340 0.018273909 -0.007529722 -0.002452022 0.999801636
11256.141233 -0.003277823 0.009958883 -0.009480441 0.031388860 -0.014184722 -0.000627992 0.999406397
11256.178097 0.013447382 -0.013316470 0.003421685 0.042104617 -0.024858406 -0.000670067 0.998803675
11256.214960 0.019029498 -0.007783236 0.004800624 0.057724837 -0.032549195 0.000215649 0.997801781
11256.251823 0.005326091 -0.000472116 -0.038365308 0.072344236 -0.034028724 0.004115854 0.996790528
11256.288687 0.017160658 -0.011709889 -0.015964316 0.087070242 -0.041293450 0.005170593 0.995332539
11256.325550 -0.026074719 0.052492693 -0.090312488 0.113035597 -0.034289140 -0.001935733 0.992997229
11256.362414 -0.037222981 0.070636138 -0.109895624 0.123948723 -0.031179314 0.000617809 0.991798460
11256.399277 -0.032780964 0.069900915 -0.112099983 0.125397697 -0.027395090 0.002785961 0.991724372
11256.436140 -0.035947096 0.070471421 -0.108467147 0.120367788 -0.018914662 0.005044588 0.992536306
11256.473004 -0.037826531 0.073928162 -0.115121566 0.110838406 -0.008471316 0.009313369 0.993758678
11256.509867 -0.035514910 0.072694734 -0.115379743 0.098843582 0.002130278 0.010779369 0.995042324
11256.546731 -0.031493563 0.071853250 -0.113023549 0.087651968 0.013309436 0.010435513 0.996007562
11256.583594 -0.035592694 0.071014009 -0.113408454 0.076415263 0.027167257 0.012647849 0.996625662
11256.620457 -0.038613200 0.071338259 -0.108081892 0.065387271 0.040663656 0.014141371 0.996930778
11256.657320 -0.036660820 0.065567687 -0.098640196 0.050691012 0.052002307 0.016895507 0.997216463
11256.694184 -0.037572771 0.059521202 -0.076799937 0.035422780 0.063194372 0.018263882 0.997205138
11256.731047 -0.034125932 0.064448386 -0.092025116 0.021186506 0.074373499 0.017498054 0.996851802
11256.767911 -0.045015983 0.069836713 -0.108663402 0.004534754 0.086674511 0.022027848 0.995982826
11256.804774 -0.058806725 0.077621274 -0.119904339 -0.010415440 0.099488445 0.025785919 0.994650006
11256.878501 0.000000000 0.000000000 0.000000000 0.000000000 0.000000000 0.000000000 1.000000000
11256.915364 -0.013243704 0.011233555 -0.012394134 -0.009663325 0.012345928 0.009713262 0.999829888
11256.952228 -0.022627033 0.017379152 -0.026886443 -0.020586763 0.020390429 0.017261019 0.999431074
11256.989091 -0.033570800 0.024824699 -0.040636234 -0.028906615 0.029711483 0.023538604 0.998863161
11257.025954 -0.044285629 0.039124332 -0.054518394 -0.032172006 0.039758608 0.029369468 0.998259306
11257.062818 -0.061892096 0.059500735 -0.055251013 -0.033786990 0.056063328 0.034398910 0.997262299
11257.099681 -0.069700561 0.067100972 -0.066667587 -0.048579272 0.066044785 0.041287046 0.995777845
11257.136544 -0.074911341 0.072524749 -0.074583597 -0.067371845 0.074089825 0.046480246 0.993886948
11257.173408 -0.081517205 0.077966899 -0.082622096 -0.084837876 0.081975050 0.050768070 0.991718292
11257.210271 -0.088004760 0.080896385 -0.088919230 -0.098722644 0.089019671 0.054773480 0.989610612
11257.247135 -0.093742542 0.084928796 -0.090287574 -0.106283695 0.095305398 0.061735060 0.987830698
11257.283998 -0.100969493 0.090109006 -0.091026790 -0.109839693 0.100519091 0.069252349 0.986425519
11257.320861 -0.106539443 0.093419522 -0.089237615 -0.114285797 0.102702692 0.078027278 0.985039473
11257.357725 -0.107266836 0.093689546 -0.084967129 -0.123280123 0.098988324 0.086264364 0.983647227
11257.394588 -0.115180127 0.103022113 -0.079407811 -0.127258360 0.096921667 0.087158442 0.983267486
11257.431452 -0.118187591 0.103667155 -0.069810919 -0.137920856 0.089671217 0.090523832 0.982212961
11257.468315 -0.125674233 0.109370105 -0.064371489 -0.144786358 0.079617321 0.086013556 0.982496619
11257.505178 -0.129063815 0.112233013 -0.054449491 -0.154403105 0.065416388 0.080014661 0.982587457
11257.542042 -0.135576919 0.114639901 -0.043263219 -0.163596675 0.051001720 0.078531891 0.982073128
11257.578905 -0.135416493 0.117529780 -0.031049192 -0.171774745 0.030351913 0.074473813 0.981848180
11257.615768 -0.134117767 0.128325790 -0.009285748 -0.173039511 0.008306462 0.070599005 0.982346237
11257.652632 -0.136412770 0.130429596 0.005268902 -0.178754687 -0.013513948 0.064195268 0.981704175
11257.689495 -0.134561449 0.137324080 0.027576972 -0.180472568 -0.036669943 0.066898249 0.980616927
11257.726358 -0.137426555 0.142612129 0.043103151 -0.180757821 -0.058191799 0.063025877 0.979779601
11257.763222 -0.138954610 0.146922186 0.057612125 -0.175923213 -0.079498678 0.063645996 0.979122162
11257.800085 -0.143886596 0.153566748 0.074419022 -0.168694094 -0.099812739 0.055998158 0.979001462
11258.647943 0.000000000 0.000000000 0.000000000 0.000000000 0.000000000 0.000000000 1.000000000
11258.684806 0.015590952 0.005178752 0.006276330 0.007303138 -0.010348507 0.004106241 0.999911368
11258.721669 0.008317303 0.021718159 0.005154295 0.015179651 -0.015542895 0.011663377 0.999695957
11258.758533 0.018118696 0.002769671 0.011120502 0.017100876 -0.024026593 0.017659554 0.999409020
11258.795396 0.031670995 -0.003461171 0.005600282 0.020053912 -0.032502841 0.023151372 0.999002218
11258.832259 0.062223993 -0.000596297 0.014576191 0.023190392 -0.042613417 0.025879377 0.998487115
11258.869123 0.085829958 -0.014502615 0.015572783 0.024816582 -0.049671691 0.029001947 0.998035967
11258.905986 0.117584452 -0.065110974 0.023337472 0.024732186 -0.056573302 0.032139704 0.997574449
11258.979713 0.000000000 0.000000000 0.000000000 0.000000000 0.000000000 0.000000000 1.000000000
11259.053440 0.000000000 0.000000000 0.000000000 0.000000000 0.000000000 0.000000000 1.000000000
11259.090303 0.025434788 -0.022581017 -0.004547923 0.011792609 -0.003019572 0.000780153 0.999925613
11259.127167 0.042104155 -0.034246065 -0.013588167 0.024504190 -0.005031704 0.002273717 0.999684513
11259.164030 0.064267278 -0.056303252 -0.014176430 0.032846723 -0.008690182 0.004015143 0.999414563
11259.237756 0.000000000 0.000000000 0.000000000 0.000000000 0.000000000 0.000000000 1.000000000
11259.274620 0.015474991 -0.009189210 -0.011924748 0.011611176 -0.003080097 0.003168574 0.999922812
11259.422073 0.000000000 0.000000000 0.000000000 0.000000000 0.000000000 0.000000000 1.000000000
11259.495800 0.000000000 0.000000000 0.000000000 0.000000000 0.000000000 0.000000000 1.000000000
11259.569527 0.000000000 0.000000000 0.000000000 0.000000000 0.000000000 0.000000000 1.000000000
11259.864434 0.000000000 0.000000000 0.000000000 0.000000000 0.000000000 0.000000000 1.000000000
11259.938161 0.000000000 0.000000000 0.000000000 0.000000000 0.000000000 0.000000000 1.000000000
11259.975024 0.001602722 -0.007434373 -0.005821647 -0.008219642 0.005204866 -0.006162334 0.999933660
11260.011887 0.011687553 0.002040669 -0.014090653 -0.013920634 0.006196316 -0.007998678 0.999851882
11260.085614 0.000000000 0.000000000 0.000000000 0.000000000 0.000000000 0.000000000 1.000000000
11260.122478 0.011158459 -0.011961507 0.001930359 -0.021456512 0.000355257 -0.004348642 0.999760270
11260.196204 0.000000000 0.000000000 0.000000000 0.000000000 0.000000000 0.000000000 1.000000000
11260.269931 0.000000000 0.000000000 0.000000000 0.000000000 0.000000000 0.000000000 1.000000000
11260.343658 0.000000000 0.000000000 0.000000000 0.000000000 0.000000000 0.000000000 1.000000000
11260.380521 0.012144065 -0.002093884 -0.002295027 -0.013978178 -0.002845616 -0.005059706 0.999885440
11260.454248 0.000000000 0.000000000 0.000000000 0.000000000 0.000000000 0.000000000 1.000000000
11260.491111 -0.195855364 -0.087076090 0.069085121 -0.021218810 0.022375252 0.002597679 0.999521017
11260.527975 -0.365354091 -0.094285391 0.146319240 -0.027382527 0.038449254 0.009003594 0.998844743
11260.564838 -0.352592558 -0.057451759 0.136887744 -0.029510343 0.018905642 0.010692845 0.999328434
11260.601701 -0.498530895 -0.049697522 0.197614327 -0.034516994 0.025494548 0.016188037 0.998947680
11260.638565 -0.427016675 -0.084756292 0.220943123 -0.043517884 -0.004256319 0.023802383 0.998759985
11261.007198 0.206431925 -0.061391987 0.193347692 0.036736071 0.036314756 -0.069455244 0.996246815
11261.044062 0.199980408 -0.055490851 0.213767067 0.028251005 0.026799221 -0.064750947 0.997141421
11261.080925 0.193310663 -0.052601069 0.230021611 0.019145347 0.016521690 -0.060206819 0.997865558
11261.117789 0.183347389 -0.049652860 0.245821476 0.010984299 0.009175313 -0.055474903 0.998357475
11261.154652 0.173736915 -0.047157694 0.260929763 0.004984430 -0.000583746 -0.052545276 0.998605907
11261.191515 0.165530637 -0.045035176 0.273122787 0.001790315 -0.013955302 -0.050006036 0.998649836
11261.228379 0.157131195 -0.040754009 0.281617731 0.004354754 -0.028455082 -0.052390344 0.998211682
11261.265242 0.141783014 -0.042016290 0.291178465 0.004996505 -0.040092267 -0.052362937 0.997810483
11261.302105 0.135115445 -0.043290138 0.293848813 0.007866223 -0.058608331 -0.053960409 0.996790588
11261.338969 0.117393509 -0.045924082 0.297650218 0.009767080 -0.065009281 -0.056093179 0.996258974
11261.375832 0.109119937 -0.044926822 0.294402301 0.017694000 -0.080080889 -0.057974465 0.994943678
11261.412696 0.092481956 -0.049347162 0.296250522 0.019763304 -0.087055519 -0.060794402 0.994150281
11261.449559 0.080568925 -0.048985757 0.288829058 0.028097117 -0.097292043 -0.062448870 0.992897272
11261.486422 0.061929740 -0.051591057 0.286083043 0.031121669 -0.098819152 -0.063445248 0.992593050
11261.523286 0.051208399 -0.049416646 0.288655847 0.034013074 -0.107717603 -0.063617803 0.991560817
11261.560149 0.032606985 -0.043060657 0.274185598 0.039068382 -0.100941174 -0.065396927 0.991971672
11261.597012 0.024663478 -0.040901661 0.268168688 0.040606081 -0.104429118 -0.070035852 0.991231918
11261.633876 0.007194113 -0.037341777 0.256213337 0.043665290 -0.092711151 -0.070735149 0.992216945
11261.670739 -0.001476999 -0.035919800 0.243668720 0.045964938 -0.085913450 -0.077331163 0.992232859
11261.707603 -0.014345234 -0.032914270 0.234098688 0.051297206 -0.070479341 -0.075563781 0.993323386
11261.744466 -0.022014383 -0.030331189 0.222843036 0.056717046 -0.059686970 -0.077668294 0.993573487
11261.781329 -0.035278697 -0.026396768 0.211510643 0.063199431 -0.045965418 -0.076311320 0.994016886
11261.818193 -0.041612033 -0.023643546 0.198752597 0.069750525 -0.045292880 -0.072512411 0.993894041
11261.855056 -0.056837916 -0.015801618 0.191846147 0.078326628 -0.041811757 -0.073506415 0.993334532
11261.891919 -0.063398682 -0.013442306 0.185318008 0.077460743 -0.049392525 -0.072023481 0.993163049
11261.928783 -0.067005172 -0.007293573 0.185952082 0.075761907 -0.060494047 -0.073613912 0.992563128
11261.965646 -0.082149506 0.006120851 0.191850886 0.078825764 -0.060876917 -0.072148710 0.992408752
11262.002509 -0.090675332 0.001817791 0.180881172 0.063056521 -0.071791597 -0.064224549 0.993350446
11262.039373 -0.091171190 -0.005766955 0.175320491 0.045628745 -0.092420824 -0.057082321 0.993034780
11262.076236 -0.091391146 0.010252351 0.188326806 0.048232410 -0.108167656 -0.065352209 0.990809023
11262.113100 -0.094577298 0.033077125 0.203729168 0.051141903 -0.123084627 -0.079589576 0.987876594
11262.149963 -0.100691825 0.046334188 0.213888898 0.048757829 -0.135172009 -0.085957468 0.985881567
11262.186826 -0.105253331 0.047631256 0.216381684 0.041850489 -0.149746031 -0.082606517 0.984378397
11262.223690 -0.106659636 0.049827009 0.229368478 0.034781870 -0.166366145 -0.079408541 0.982245803
11262.997820 0.047866836 -0.073800407 0.298757702 0.036073759 -0.168058738 -0.099081419 0.980121315
11263.034684 0.060413733 -0.077371508 0.286903411 0.039215848 -0.158897460 -0.095633730 0.981869578
11263.071547 0.072261706 -0.080247886 0.278391987 0.044806086 -0.149211690 -0.085299484 0.984099746
11263.108410 0.082189210 -0.081322007 0.265241861 0.055779047 -0.136851847 -0.076674469 0.986043274
11263.145274 0.090954617 -0.081573769 0.253254384 0.068816580 -0.123535998 -0.062588722 0.987970531
11263.182137 0.098453082 -0.081526011 0.237959146 0.081312127 -0.110770807 -0.050940279 0.989203334
11263.219001 0.103565186 -0.082563043 0.226929903 0.090610817 -0.100148797 -0.041830249 0.989954650
11263.255864 0.107439600 -0.083079629 0.214950487 0.095816463 -0.090630621 -0.033133611 0.990710557
11263.292727 0.108792052 -0.081666015 0.203920186 0.097115859 -0.079525046 -0.026796663 0.991728902
11263.329591 0.112036332 -0.079856634 0.186683923 0.094196625 -0.069228306 -0.015416512 0.993024051
11263.366454 0.112535201 -0.076158151 0.171246231 0.089650780 -0.057639625 -0.007647279 0.994274616
11263.403317 0.109165214 -0.068540409 0.160944521 0.084173292 -0.045251284 -0.004798297 0.995411515
11263.440181 0.104960501 -0.061958130 0.148596600 0.077413000 -0.033695064 -0.002220471 0.996427059
11263.477044 0.097078845 -0.053363018 0.137252346 0.074030466 -0.022365279 -0.007234069 0.996978879
11263.513907 0.087970033 -0.045880765 0.124680042 0.070301130 -0.010254338 -0.010186911 0.997421086
11263.550771 0.082731351 -0.039575811 0.112989746 0.064095922 0.000636212 -0.008529728 0.997907102
11263.587634 0.077006944 -0.035274915 0.102440909 0.056019098 0.013899100 -0.006270165 0.998313248
11263.624498 0.070091769 -0.029706813 0.091940582 0.050924506 0.030573992 -0.002364096 0.998231590
11263.661361 0.067215405 -0.025872469 0.079336442 0.047978833 0.044724882 0.001095378 0.997845948
11263.698225 0.061225224 -0.024771823 0.065844603 0.043695286 0.062190704 0.001751963 0.997105777
11263.735088 0.061797753 -0.031106619 0.055258363 0.035232633 0.074280880 0.005560246 0.996599257
11263.771951 0.064174429 -0.027284063 0.047540996 0.039794464 0.083571188 0.008531550 0.995670378
11263.808815 0.063696325 -0.028880835 0.040809367 0.041192189 0.094746158 0.012107396 0.994575202
11263.845678 0.063939735 -0.029858943 0.034604587 0.039190657 0.103063881 0.013935223 0.993804693
11263.882541 0.062616825 -0.031032229 0.027313296 0.034648977 0.108742803 0.013349727 0.993376195
11263.919405 0.061552182 -0.032105412 0.022643797 0.034077071 0.109670281 0.013342277 0.993294120
11263.956268 0.060540859 -0.032168116 0.018128125 0.039685059 0.106306918 0.012429437 0.993463397
11263.993131 0.059052713 -0.032163758 0.018778859 0.046324413 0.099748731 0.008323601 0.993898869
11264.029995 0.058015183 -0.033186313 0.017738162 0.050649337 0.092843339 0.009513812 0.994346142
11264.066858 0.058945592 -0.031842407 0.020271588 0.057421330 0.083571590 0.009018105 0.994805157
11264.103722 0.055458233 -0.038750250 0.024603184 0.059863485 0.078013666 0.009552010 0.995107532
11264.140585 0.049633101 -0.049106006 0.025894608 0.060736194 0.075928666 0.007042377 0.995236814
11264.177448 0.045917895 -0.058812771 0.032186404 0.064785905 0.073205680 -0.003366892 0.995204687
11264.214312 0.044495106 -0.059516747 0.035931356 0.074083723 0.071658358 -0.015842929 0.994547963
11264.251175 0.037124354 -0.067219093 0.043946050 0.076174431 0.076203428 -0.033958703 0.993598163
11264.288038 0.035944000 -0.073526807 0.057584178 0.078242749 0.077065669 -0.052995261 0.992537379
11264.324902 0.033764943 -0.080947377 0.062380340 0.079038404 0.079241060 -0.069300577 0.991297722
11264.361765 0.027583782 -0.091853514 0.077131458 0.076775879 0.082223892 -0.083697967 0.990120888
11264.398628 0.027535379 -0.112068161 0.096489549 0.067280561 0.075221650 -0.099537164 0.989902735
11264.435492 0.009338036 -0.104397431 0.103264093 0.077029780 0.083260633 -0.105482943 0.987930894
11264.472355 -0.004376156 -0.101759329 0.115381017 0.075344875 0.082118139 -0.115353040 0.987052917
11264.509219 -0.015120301 -0.098222829 0.134950683 0.070660308 0.077361800 -0.119317308 0.987312376
11264.546082 -0.023837732 -0.098996326 0.144894615 0.062514111 0.069611609 -0.125512287 0.987670422
11264.582945 -0.035688870 -0.091200061 0.162543684 0.056334246 0.057084285 -0.130680814 0.988175273
11264.619809 -0.043505196 -0.088935196 0.186551616 0.048483226 0.041771561 -0.142146304 0.987774730
11264.656672 -0.053605102 -0.078559853 0.215111911 0.045656685 0.027240273 -0.148948699 0.987414658
11264.693536 -0.062077932 -0.074756853 0.226636052 0.036337566 0.012744278 -0.145235315 0.988647521
11264.730399 -0.074544869 -0.067394041 0.225095168 0.023541357 0.005133274 -0.142647550 0.989480257
11264.767262 -0.085146055 -0.052031714 0.232646435 0.013683031 0.000557997 -0.150544181 0.988508403
11264.804126 -0.092833579 -0.038983881 0.249763668 -0.000094670 -0.002118190 -0.154353723 0.988013387
11264.840989 -0.109051965 -0.022818362 0.259510577 -0.009717111 0.007232995 -0.148725912 0.988804281
11264.877852 -0.113440208 -0.005557490 0.263037413 -0.014705430 0.003915138 -0.152628928 0.988166392
11264.914716 -0.121765338 0.010476820 0.269788623 -0.018895332 0.008096231 -0.148836732 0.988648057
11264.951579 -0.129088730 0.024861993 0.274063766 -0.022149190 0.013625915 -0.144699126 0.989133954
11264.988442 -0.137031600 0.039637126 0.276728541 -0.026274757 0.021378882 -0.141194493 0.989402175
11265.025306 -0.143449634 0.053144705 0.276918590 -0.033318810 0.029123241 -0.138645455 0.989352882
11265.062169 -0.152746543 0.062682010 0.273712754 -0.042520393 0.040150732 -0.129763559 0.989818811
11265.099033 -0.159203723 0.073716886 0.267541409 -0.050014567 0.049140651 -0.126321703 0.989508212
11265.135896 -0.166568398 0.084900953 0.261398077 -0.055249363 0.060699347 -0.119287513 0.989461243
11265.172759 -0.176023468 0.096658044 0.252842844 -0.057094008 0.075743124 -0.108325258 0.989580154
11265.209623 -0.181186154 0.107631646 0.243553907 -0.053004179 0.088472195 -0.094012208 0.990214586
11265.246486 -0.191344380 0.116489820 0.229680747 -0.044480998 0.104250751 -0.078831956 0.990423501
11265.283350 -0.199227452 0.123997226 0.216275275 -0.030289045 0.118065119 -0.062153298 0.990595877
11265.320213 -0.208212137 0.125894219 0.202462196 -0.018321862 0.131148845 -0.049363244 0.989963412
11265.357076 -0.215054244 0.131745428 0.186093852 -0.000236494 0.141470402 -0.038607266 0.989189327
11265.393939 -0.221619144 0.128814071 0.171212107 0.015808601 0.150794581 -0.025896063 0.988099456
11265.430803 -0.231344894 0.125681043 0.155940235 0.030327959 0.161056802 -0.018990451 0.986296237
11265.467666 -0.235215634 0.124883093 0.138964593 0.042939495 0.166282400 -0.014120183 0.985041618
11265.504530 -0.240091860 0.123204201 0.123186976 0.055187095 0.170788541 -0.013223440 0.983672082
11265.541393 -0.246252432 0.122003302 0.110306405 0.067727603 0.175362125 -0.016038306 0.982040644
11265.578257 -0.247980550 0.123187244 0.097376220 0.084719397 0.176097929 -0.017449813 0.980564952
11265.615120 -0.253534943 0.122396633 0.085029602 0.102125019 0.178653702 -0.019854737 0.978396177
11265.651983 -0.257709175 0.122518986 0.075521022 0.119201712 0.180160835 -0.023830786 0.976096869
11265.688847 -0.264637679 0.120830588 0.065459013 0.134162635 0.183177009 -0.022908891 0.973612726
11265.725710 -0.265585274 0.121474124 0.057985313 0.148445129 0.182725638 -0.026581405 0.971529126
11265.762573 -0.269369513 0.115709990 0.046417251 0.156939566 0.183184296 -0.029288812 0.970028698
11265.799437 -0.264936835 0.109178394 0.038865656 0.165876985 0.180602655 -0.029359547 0.969022930
11265.836300 -0.257496804 0.104453906 0.033169813 0.173440114 0.177549630 -0.032009188 0.968178749
11265.873163 -0.255266666 0.100219280 0.019926935 0.179839090 0.176324010 -0.035476193 0.967113853
11265.910027 -0.235116154 0.094315089 0.021907002 0.188326567 0.169290423 -0.020089252 0.967197120
11265.946890 -0.222474307 0.085912749 0.025913291 0.190086991 0.166662246 -0.017504754 0.967359424
11265.983754 -0.204316258 0.076905601 0.031775765 0.189649954 0.161672428 -0.007699457 0.968419135
11266.020617 -0.193066627 0.070207924 0.018037912 0.185736895 0.155892551 0.002458453 0.970151126
11266.057480 -0.176681697 0.065686300 0.012275927 0.181903705 0.144731089 0.015590197 0.972481787
11266.094344 -0.158538073 0.055885766 0.013491414 0.173082784 0.126114383 0.025411682 0.976469040
11266.131207 -0.145429209 0.049672805 0.012851622 0.163662001 0.103087895 0.028019466 0.980715334
11266.168070 -0.141385972 0.045887340 0.021938682 0.154740483 0.079718806 0.026464535 0.984377921
11266.204934 -0.126764417 0.037743222 0.019690828 0.140391812 0.046879377 0.015578914 0.988862872
11266.241797 -0.114044279 0.034319598 0.022438452 0.129006594 0.015257832 0.003881567 0.991518736
11266.278660 -0.106465526 0.030998155 0.053266458 0.122247033 -0.008262653 -0.008630034 0.992427766
11266.315524 -0.105975866 0.029993728 0.056696627 0.118110724 -0.025005808 -0.018896377 0.992505670
11266.352387 -0.106228173 0.031326659 0.048767377 0.111554995 -0.038183954 -0.035721440 0.992381692
11266.389251 -0.104580432 0.029793169 0.052523576 0.101728752 -0.047681551 -0.040459078 0.992844820
11266.426114 -0.107244536 0.032556340 0.056132305 0.091517977 -0.049881045 -0.046098769 0.993484378
11266.462977 -0.107382394 0.036510713 0.061968073 0.081052803 -0.049034074 -0.047291201 0.994379044
11266.499841 -0.100150838 0.039048158 0.071991369 0.068166554 -0.051246598 -0.044700455 0.995353699
11266.536704 -0.102305487 0.043766938 0.074436158 0.060002021 -0.042986613 -0.048203811 0.996106565
11266.573567 -0.099760272 0.042127743 0.075899631 0.049655940 -0.032848906 -0.045884829 0.997170866
11266.610431 -0.099641800 0.047273263 0.073171720 0.045111850 -0.016663982 -0.046121776 0.997777581
11266.647294 -0.099735186 0.046498228 0.077150151 0.039087139 0.006508891 -0.037122846 0.998524785
11266.684157 -0.102512643 0.050810128 0.069509499 0.036833007 0.034103323 -0.027611148 0.998357594
11266.721021 -0.102447912 0.055287585 0.062102534 0.038087152 0.061600756 -0.018295588 0.997206092
11266.757884 -0.107766598 0.062966421 0.061090130 0.043103546 0.092726342 -0.010238238 0.994705558
11266.794748 -0.118395627 0.068997465 0.059203319 0.048823413 0.125482991 -0.003342042 0.990888059
11266.831611 -0.138307780 0.059775244 0.051857915 0.046389285 0.160313264 0.001049004 0.985974967
11266.868474 -0.156247586 0.074094795 0.051148605 0.063690759 0.191585883 0.007075350 0.979381561
11266.905338 -0.177257717 0.080126435 0.047069039 0.076450631 0.220908195 0.012828051 0.972208977
11266.942201 -0.186924115 0.093549423 0.048573408 0.097746447 0.240520522 0.017998463 0.965542138
11266.979064 -0.212587088 0.103657722 0.051579244 0.119104773 0.267287612 0.017951015 0.956059158
11267.015928 -0.226900339 0.102236256 0.056209199 0.132970273 0.284908742 0.016820524 0.949138045
11267.052791 -0.249176204 0.103603259 0.063888758 0.148408860 0.303017110 0.012074624 0.941280842
11267.089654 -0.266222388 0.103609458 0.072967328 0.158458412 0.314847291 0.009648796 0.935771823
11267.126518 -0.286117911 0.107217029 0.086278908 0.164409176 0.325333178 0.005882696 0.931178451
11267.163381 -0.299181134 0.111567155 0.108451381 0.165056273 0.330855042 0.004676248 0.929122984
11267.200245 -0.316077948 0.119567901 0.124951065 0.163058132 0.334611833 0.003531642 0.928134918
11267.237108 -0.332306743 0.130864218 0.148919433 0.162691534 0.340782404 -0.005698033 0.925940812
11267.273971 -0.347493798 0.142305434 0.173917696 0.165873557 0.348693103 -0.014271910 0.922331512
11267.310835 -0.360912144 0.151353166 0.197176695 0.169012889 0.357873082 -0.021463480 0.918096304
11267.347698 -0.374663353 0.161239684 0.222099960 0.175335914 0.370371073 -0.020030666 0.911965668
11267.384562 -0.386065602 0.168591619 0.249427676 0.183650956 0.387156099 -0.016454333 0.903389037
11267.421425 -0.399840057 0.172125995 0.277742624 0.188317224 0.410325557 -0.015142079 0.892154872
11267.458288 -0.413715571 0.175703287 0.305380851 0.197338745 0.435949504 -0.009784045 0.878014624
11267.495152 -0.420087069 0.175022840 0.326426387 0.202920243 0.457683653 -0.006685762 0.865623653
11267.532015 -0.427250862 0.174803287 0.341603965 0.210351959 0.477203786 -0.007755728 0.853210688
11267.568878 -0.439601988 0.170778409 0.369733572 0.217869893 0.502448320 -0.007870557 0.836669862
11267.605742 -0.448721081 0.164122388 0.393636495 0.218387499 0.520087719 -0.013141133 0.825616717
11267.642605 -0.458636612 0.166326180 0.430428982 0.225124627 0.539399803 -0.018535107 0.811186314
11267.679468 -0.466826022 0.167713761 0.460726708 0.224622324 0.553223670 -0.022592621 0.801859081
11267.716332 -0.472995967 0.171200201 0.494857699 0.221105143 0.565786362 -0.026023731 0.793927670
11267.753195 -0.475911289 0.177368045 0.529374540 0.217395112 0.575011134 -0.029685941 0.788175285
11267.790059 -0.484062076 0.191592500 0.563634157 0.219878033 0.580299675 -0.030507930 0.783565700
11267.826922 -0.485521674 0.200667635 0.602032840 0.223270729 0.585678756 -0.031725001 0.778539717
11267.863786 -0.488764763 0.210074797 0.641894102 0.228302062 0.592460036 -0.030649576 0.771964967
11267.900649 -0.495453745 0.219905078 0.677586913 0.237879634 0.601372361 -0.026781170 0.762264609
11267.937512 -0.501328528 0.223797649 0.711818218 0.238381535 0.615707874 -0.028700415 0.750502765
11267.974375 -0.508112848 0.230865970 0.738738954 0.243421316 0.628689229 -0.027837925 0.738052189
11268.011239 -0.518955052 0.230383798 0.763011754 0.248215228 0.646871090 -0.020674510 0.720777035
11268.048102 -0.526053667 0.232612401 0.796045482 0.263306051 0.673349023 -0.020966668 0.690529823
11268.084965 -0.539349616 0.227058813 0.825547576 0.275159419 0.702086270 -0.023677735 0.656354785
11268.121829 -0.546079278 0.220719531 0.854574621 0.288773328 0.730484664 -0.029907783 0.618148565
11268.158692 -0.554401636 0.214911610 0.880132377 0.300909072 0.755701780 -0.038629714 0.580410480
11268.195556 -0.564620376 0.212992445 0.910021484 0.312300205 0.777785242 -0.049654301 0.543187916
11268.232419 -0.571959615 0.211788803 0.940722704 0.317952991 0.795848131 -0.062740624 0.511463881
11268.269283 -0.570634782 0.210163414 0.971750855 0.323823780 0.807411730 -0.073219292 0.487712413
11268.306146 -0.574344516 0.215301275 1.007215023 0.330970883 0.812665999 -0.082234822 0.472514182
11268.343009 -0.562391460 0.212840438 1.039191723 0.335066229 0.813339770 -0.092015110 0.466628551
11268.379873 -0.544672847 0.211219370 1.065447807 0.332853019 0.812946677 -0.106761418 0.465755939
11268.416736 -0.531158626 0.208872795 1.097302198 0.338670909 0.810817301 -0.111991584 0.464042246
11268.453599 -0.512703657 0.204308122 1.119374275 0.342598289 0.810319126 -0.115075052 0.461266786
11268.490463 -0.500968158 0.205610454 1.148612499 0.341911197 0.814840436 -0.122712836 0.451744735
11268.527326 -0.485048234 0.199774742 1.174896955 0.351286411 0.817966461 -0.123324096 0.438542962
11268.564189 -0.471951604 0.198744267 1.207075357 0.357261986 0.826037169 -0.122697532 0.418296337
11268.601053 -0.452563763 0.194146037 1.228860736 0.362744272 0.835694611 -0.118243754 0.395030975
11268.637916 -0.443794370 0.193848163 1.259392977 0.369959176 0.845631480 -0.115114495 0.367132396
11268.674780 -0.433087647 0.189284444 1.289201975 0.374476403 0.856563210 -0.115776792 0.335652560
11268.711643 -0.416266590 0.177894413 1.304054618 0.371656805 0.868707716 -0.120718077 0.304376841
11268.748506 -0.400630057 0.169404805 1.324158430 0.371638715 0.878721356 -0.124043666 0.272665769
11268.785370 -0.380867124 0.158475935 1.338315248 0.360561192 0.891909719 -0.127444804 0.241351381
11268.822233 -0.360223472 0.153431654 1.360661507 0.352053136 0.902885377 -0.126948893 0.211519569
11268.859097 -0.338697910 0.152918667 1.381615996 0.352994829 0.908624589 -0.125537649 0.184489235
11268.895960 -0.315612435 0.151280284 1.401114106 0.355267406 0.912606299 -0.125443086 0.158741564
11268.932823 -0.291599870 0.149169892 1.426038623 0.360515416 0.915081263 -0.124141015 0.131315857
11268.969687 -0.270143837 0.144553840 1.452102900 0.361501724 0.918081462 -0.122405387 0.107050918
11269.006550 -0.252931625 0.132559061 1.466025949 0.359913081 0.921622753 -0.115434363 0.088028081
11269.043413 -0.250644028 0.117342532 1.481785893 0.360316306 0.923981786 -0.100941688 0.078997411
11269.080277 -0.242202073 0.102020979 1.496206284 0.358795971 0.926464736 -0.093323313 0.064956710
11269.117140 -0.255188644 0.082830936 1.508955717 0.352554530 0.930164218 -0.083055086 0.060014009
11269.154003 -0.233740672 0.099423811 1.525757194 0.352899551 0.929138541 -0.103886031 0.037028514
11269.190867 -0.201639384 0.083585858 1.549537420 0.355821013 0.928941369 -0.102255501 -0.001787173
11269.227730 -0.228718460 0.089994356 1.541199207 0.346613348 0.932419479 -0.102138177 0.004578269
11269.264594 -0.192773417 0.094516009 1.568496943 0.348182321 0.930994213 -0.105640166 -0.029309243
11269.301457 -0.138452828 0.071048081 1.562247634 0.330011904 0.935999155 -0.102958709 -0.066311531
11269.338320 -0.106531769 0.068935245 1.576773047 0.323636234 0.936913908 -0.099898353 -0.086441666
11269.375184 -0.074015647 0.075095221 1.599150538 0.325678468 0.934919715 -0.099195078 -0.100094579
11269.412047 -0.035683006 0.070383623 1.582933068 0.321329743 0.934272826 -0.102336571 -0.115795776
11269.448910 0.000453353 0.068705320 1.577034473 0.320430726 0.932638645 -0.103542380 -0.129569530
11269.485774 0.033248097 0.067009330 1.567104816 0.325690269 0.929658413 -0.098012500 -0.141614199
11269.522637 0.067317009 0.059212692 1.557306528 0.328445375 0.927400053 -0.084621266 -0.157772020
11269.559500 0.099247366 0.054009158 1.542364717 0.339444280 0.921864450 -0.074427739 -0.171475992
11269.596364 0.131615818 0.043081921 1.527154922 0.344163537 0.918222010 -0.063950971 -0.185283735
11269.633227 0.159826100 0.030960904 1.509315491 0.342695743 0.916547000 -0.065420181 -0.195502892
11269.670091 0.185817420 0.016722387 1.494580984 0.337757558 0.915878475 -0.068724461 -0.205823839
11269.706954 0.211276412 0.003047548 1.484118462 0.334647238 0.914797902 -0.063426994 -0.217101425
11269.743817 0.240597010 -0.012038477 1.465720892 0.334675461 0.911439002 -0.053056762 -0.233358711
11269.780681 0.265934229 -0.025103100 1.451346993 0.333671749 0.908125758 -0.044174716 -0.249036968
11269.817544 0.293093085 -0.038653627 1.436411619 0.330496162 0.904228210 -0.039319478 -0.267577350
11269.854408 0.319713622 -0.049982607 1.415634155 0.328013659 0.899714291 -0.038599625 -0.285361737
11269.891271 0.348178446 -0.058601916 1.400892258 0.325785220 0.895442367 -0.043503281 -0.300257206
11269.928134 0.377152205 -0.067223981 1.383474946 0.323319584 0.890765071 -0.049906619 -0.315454185
11269.964998 0.412850589 -0.076250136 1.367851615 0.324872375 0.884229660 -0.057925414 -0.330515563
11270.001861 0.441588700 -0.085074604 1.351274967 0.330783069 0.877403975 -0.063491099 -0.341633916
11270.038724 0.477950990 -0.091401026 1.337891102 0.340850323 0.869011045 -0.069821924 -0.351803541
11270.075588 0.508136690 -0.097354144 1.321916819 0.350242049 0.861414909 -0.074737415 -0.360151559
11270.112451 0.533540785 -0.108262494 1.309001446 0.362924725 0.853954434 -0.072391182 -0.365796417
11270.149314 0.560137212 -0.117958516 1.292940617 0.372383118 0.845103621 -0.072006881 -0.376756728
11270.186178 0.581812859 -0.128935739 1.277436018 0.375491500 0.836686671 -0.073778190 -0.391814083
11270.223041 0.598664641 -0.143256277 1.262454867 0.373979896 0.827421248 -0.072852679 -0.412559748
11270.259904 0.617548287 -0.155692056 1.241953850 0.364506453 0.817017555 -0.067481682 -0.441660017
11270.296768 0.634374857 -0.164705411 1.229375124 0.357320815 0.807151616 -0.060962796 -0.465952426
11270.333631 0.655180693 -0.176757663 1.209534645 0.346196264 0.794986069 -0.056377545 -0.494941264
11270.370495 0.675266147 -0.185246855 1.189809799 -0.328477919 -0.786910892 0.058207817 0.519119740
11270.407358 0.696989059 -0.189495027 1.167909145 -0.306483775 -0.780829191 0.065823317 0.540407896
11270.444221 0.714176476 -0.191519976 1.146714330 -0.286442190 -0.776442170 0.073683202 0.556470335
11270.481085 0.735715508 -0.189836890 1.119973183 -0.272275627 -0.769367993 0.086048730 0.571431935
11270.517948 0.752469599 -0.188002989 1.092829943 -0.264645219 -0.762473464 0.093897149 0.582906842
11270.554811 0.767086923 -0.186592132 1.065250158 -0.263761789 -0.755637228 0.097931691 0.591482401
11270.591675 0.775794148 -0.183736533 1.034181356 -0.261254609 -0.750236094 0.097207785 0.599535227
11270.628538 0.784700036 -0.184497625 1.004745364 -0.264540672 -0.742446840 0.097749904 0.607647777
11270.665401 0.790349185 -0.186917305 0.972403705 -0.272434175 -0.732410192 0.095676549 0.616604388
11270.702265 0.792607784 -0.187182546 0.947493374 -0.282591909 -0.723491609 0.098865956 0.622034848
11270.739128 0.792380512 -0.188896388 0.921520650 -0.286010116 -0.715223372 0.099457473 0.629890501
11270.775992 0.791913807 -0.195417434 0.897524655 -0.287559032 -0.706636667 0.097008131 0.639189959
11270.812855 0.789722323 -0.201551735 0.874093533 -0.283820897 -0.698367894 0.093976609 0.650304854
11270.849718 0.786351502 -0.206430644 0.848041654 -0.275911778 -0.690794766 0.088018566 0.662516415
11270.886582 0.788787425 -0.215616658 0.829415262 -0.270013601 -0.687080920 0.081934720 0.669551492
11270.923445 0.786725760 -0.217794895 0.800988555 -0.254351228 -0.683399141 0.074049406 0.680285037
11270.960309 0.794104695 -0.225941405 0.776753843 -0.242874801 -0.681431592 0.070907347 0.686756909
11270.997172 0.801636279 -0.229616478 0.747793972 -0.221494436 -0.681667149 0.072419114 0.693560123
11271.034035 0.807156324 -0.230083704 0.716661751 -0.195834443 -0.682323039 0.076933987 0.700118005
11271.070899 0.812932312 -0.234204963 0.685599685 -0.177605808 -0.680563867 0.081812859 0.706113100
11271.107762 0.821460247 -0.235888928 0.652648449 -0.160609946 -0.677518249 0.079210632 0.713371634
11271.144625 0.827124178 -0.238349378 0.622311294 -0.150696769 -0.672665179 0.069650128 0.721083105
11271.181489 0.831828952 -0.243388891 0.591765285 -0.144085839 -0.666380346 0.052573945 0.729665995
11271.218352 0.829153955 -0.248817757 0.564479470 -0.139550820 -0.656985104 0.040852979 0.739748061
11271.255215 0.828526020 -0.247733593 0.531638145 -0.119070768 -0.646885812 0.028933132 0.752677739
11271.292079 0.825947165 -0.249099255 0.500765502 -0.100526288 -0.632831156 0.023241887 0.767384529
11271.328942 0.823647916 -0.255099505 0.474922419 -0.086915560 -0.618622899 0.016718116 0.780686796
11271.365806 0.825917006 -0.264975011 0.448197544 -0.077650689 -0.603192866 0.007216459 0.793773711
11271.402669 0.821728528 -0.262169242 0.425222129 -0.063414767 -0.587440431 -0.007647751 0.806742728
11271.439532 0.807680845 -0.261534244 0.413305163 -0.060378861 -0.571817100 -0.020669794 0.817895055
11271.476396 0.800113559 -0.255865544 0.387993217 -0.050245047 -0.551419973 -0.041657358 0.831670642
11271.513259 0.796360731 -0.246277004 0.375188172 -0.039621614 -0.537914574 -0.057979327 0.840069234
11271.550122 0.789672911 -0.241555765 0.366733134 -0.031963836 -0.527580202 -0.069584072 0.846046984
11271.586986 0.787085116 -0.230934054 0.358511329 -0.018419027 -0.520330310 -0.077981666 0.850197613
11271.623849 0.782908916 -0.220958784 0.349328220 -0.011334558 -0.514592648 -0.078184284 0.853787541
11271.660712 0.777832389 -0.220191807 0.341534108 -0.011495843 -0.512336731 -0.081503682 0.854831040
11271.697576 0.770794272 -0.214589477 0.335776329 -0.010551924 -0.512462735 -0.078235120 0.855073035
11271.734439 0.761382818 -0.208058104 0.337645888 -0.015538293 -0.515711308 -0.070223100 0.853738368
11271.771303 0.753635466 -0.206974104 0.336349964 -0.024145480 -0.518536568 -0.067356527 0.852056265
11271.808166 0.753112674 -0.208772004 0.335430443 -0.032068662 -0.524956703 -0.061843149 0.848273277
11271.845029 0.749085903 -0.204156429 0.326732218 -0.029834555 -0.529511571 -0.055279594 0.845973730
11271.881893 0.767904401 -0.209765419 0.315238535 -0.025205804 -0.540202856 -0.052722950 0.839503288
11271.918756 0.798641562 -0.216231525 0.290092856 -0.015827170 -0.548437297 -0.060606066 0.833842278
11271.955620 0.840966105 -0.223964840 0.262298167 -0.005390214 -0.558368742 -0.074632131 0.826211452
11271.992483 0.840678751 -0.224417016 0.260126889 -0.005358774 -0.564255834 -0.083176814 0.821381927
11272.029346 0.846291304 -0.225625306 0.257054389 -0.004709541 -0.570788980 -0.093525551 0.815739393
11272.066210 0.849736989 -0.226181865 0.255447268 -0.003041483 -0.576327741 -0.102698274 0.810734332
11272.103073 0.859956205 -0.225824744 0.250517070 0.001151974 -0.580952883 -0.106981866 0.806875050
11272.139936 0.859906673 -0.228018016 0.249817982 0.003731929 -0.583724022 -0.116974413 0.803473294
11272.176800 0.864616632 -0.229037017 0.247449666 0.006312031 -0.585531652 -0.127006948 0.800613523
11272.213663 0.868365526 -0.230400711 0.245027557 0.008496830 -0.585499525 -0.132906392 0.799658716
11272.250526 0.869573951 -0.230587363 0.245236650 0.012380818 -0.584237337 -0.136110663 0.799992085
11272.287390 0.871564150 -0.231263131 0.244880795 0.010685096 -0.580205560 -0.136015758 0.802961349
11272.324253 0.873664558 -0.232049957 0.244345188 0.012170058 -0.575963855 -0.136943638 0.805831254
11272.361117 0.875393987 -0.232402578 0.243764341 0.012723798 -0.568414569 -0.130773649 0.812183022
11272.397980 0.875907481 -0.232454464 0.244084448 0.011158421 -0.559053004 -0.123622410 0.819788218
11272.434844 0.875995398 -0.232723728 0.243942469 0.012800416 -0.547322154 -0.120173149 0.828150392
11272.471707 0.876402676 -0.232590824 0.243916452 0.019074658 -0.538637102 -0.117202334 0.834128201
11272.508570 0.876482725 -0.232550383 0.243946970 0.025590707 -0.532721639 -0.108803175 0.838877022
11272.545434 0.876657963 -0.232583433 0.244029284 0.034600556 -0.530134201 -0.105788529 0.840576768
11272.582297 0.876846552 -0.232579023 0.244057566 0.039408468 -0.528722525 -0.109631971 0.840761721
11272.619160 0.876742959 -0.232661664 0.244152278 0.034237623 -0.527556360 -0.113207467 0.841246784
11272.656024 0.876812041 -0.232722402 0.244172275 0.028429959 -0.529115915 -0.119610175 0.839596033
11272.692887 0.876776040 -0.232731476 0.244167954 0.021972267 -0.532351255 -0.124570422 0.837019444
