11248.215609 0.007709203 0.020229312 -0.284584105 -0.037768845 0.037998039 0.057300046 0.996918440
11248.252472 0.017281573 0.014616109 -0.285564005 -0.036398284 0.029690763 0.058613893 0.997175038
11248.289335 0.026734952 0.010407727 -0.286363095 -0.035793010 0.021077473 0.059321262 0.997374356
11248.326199 0.036351480 0.007778883 -0.287040621 -0.033078074 0.012053736 0.060721353 0.997533679
11248.363062 0.045592234 0.006705947 -0.286996186 -0.026653323 0.002978471 0.061994217 0.997716129
11248.399925 0.054960720 0.005857891 -0.284093171 -0.017511547 -0.006420828 0.060598847 0.997987926
11248.436789 0.065627821 0.002684997 -0.280890644 -0.010519441 -0.015953571 0.059483763 0.998046339
11248.473652 0.076725379 0.000134485 -0.276359975 -0.006493032 -0.024696209 0.058913101 0.997936428
11248.510516 0.087992355 -0.003807130 -0.270012081 -0.005782378 -0.032202255 0.058508180 0.997750640
11248.547379 0.100566208 -0.005459803 -0.262518048 -0.004894676 -0.038623855 0.059187096 0.997487366
11248.584242 0.116601408 -0.010680751 -0.252874315 -0.006182757 -0.044008773 0.062598743 0.997048855
11248.621106 0.132209286 -0.013237650 -0.244130731 -0.004842287 -0.046785727 0.063620001 0.996865153
11248.657969 0.149753243 -0.019142402 -0.231479988 -0.006008901 -0.048517589 0.062391128 0.996853709
11248.694833 0.170189977 -0.021223778 -0.221067533 -0.006848152 -0.049264003 0.058418032 0.997052372
11248.731696 0.189824522 -0.023515614 -0.209246486 -0.010280806 -0.048577875 0.052593309 0.997380793
11248.768559 0.209904894 -0.026202587 -0.198020577 -0.013067606 -0.047579098 0.048756056 0.997591257
11248.805423 0.227320164 -0.029474143 -0.183605686 -0.016945599 -0.044920377 0.044302069 0.997863889
11248.842286 0.246763378 -0.032678362 -0.173984438 -0.020843094 -0.042681884 0.040950682 0.998031497
11248.879149 0.264611781 -0.034806445 -0.164569318 -0.024530720 -0.040558700 0.038677357 0.998126864
11248.916013 0.279734105 -0.035425320 -0.149968222 -0.027919298 -0.037727125 0.036295582 0.998238325
11248.952876 0.294805199 -0.035707429 -0.140820354 -0.030702643 -0.034765508 0.036864720 0.998243332
11248.989739 0.309430689 -0.035393585 -0.133102641 -0.033250608 -0.033089127 0.038909640 0.998141050
11249.026603 0.319588631 -0.034230523 -0.122765601 -0.038162034 -0.032513086 0.041363560 0.997885585
11249.063466 0.329271138 -0.033215854 -0.115820751 -0.044379767 -0.033723138 0.044852365 0.997437477
11249.100330 0.335511029 -0.032560453 -0.108167946 -0.049346257 -0.036527634 0.044665650 0.997113705
11249.137193 0.339234918 -0.032017063 -0.103705652 -0.053534832 -0.039801825 0.042988423 0.996845961
11249.174056 0.340313733 -0.029423758 -0.098953143 -0.056265060 -0.042587247 0.044731036 0.996503770
11249.210920 0.338547438 -0.027139550 -0.096439250 -0.057449371 -0.044228960 0.047225624 0.996249557
11249.247783 0.334240437 -0.023402259 -0.091580734 -0.056347214 -0.045254443 0.053098958 0.995970666
11249.284647 0.326793909 -0.020923685 -0.089237720 -0.054489858 -0.046071358 0.056123391 0.995870709
11249.321510 0.318034738 -0.018882614 -0.086084895 -0.051530633 -0.048877142 0.057844281 0.995795965
11249.358373 0.307124406 -0.020055890 -0.085715987 -0.048560001 -0.052088134 0.056928422 0.995835304
11249.395236 0.294374645 -0.021454910 -0.084991395 -0.044497460 -0.054872457 0.054049645 0.996035933
11249.432100 0.279007852 -0.022949412 -0.084604651 -0.039740603 -0.055737376 0.050742865 0.996362984
11249.468963 0.261365622 -0.024705684 -0.084889486 -0.034794621 -0.054836079 0.047040578 0.996779561
11249.505827 0.242339671 -0.026844189 -0.088964313 -0.030430503 -0.053049840 0.041926041 0.997247159
11249.542690 0.220936924 -0.029479403 -0.091330610 -0.027470319 -0.051191621 0.035210099 0.997689903
11249.579553 0.199011609 -0.031612054 -0.094698071 -0.025883906 -0.048659477 0.028549073 0.998071790
11249.616417 0.174315766 -0.033552103 -0.098444149 -0.024265718 -0.045460898 0.018456608 0.998500824
11249.653280 0.148510605 -0.034355816 -0.099769190 -0.023440288 -0.040760349 0.010706421 0.998836637
11249.690144 0.121916398 -0.034060009 -0.103806138 -0.021732707 -0.033768799 0.002580919 0.999190032
11249.727007 0.095574275 -0.033899244 -0.107295409 -0.017868292 -0.026548294 -0.002952164 0.999483466
11249.763870 0.067625426 -0.033075701 -0.112594016 -0.012704774 -0.016767211 -0.006047243 0.999760389
11249.800734 0.041126616 -0.031242175 -0.110267617 -0.007679021 -0.007256961 -0.007570352 0.999915540
11249.837597 0.016156645 -0.030184461 -0.116053782 -0.005062438 0.000943850 -0.006701797 0.999964297
11249.874460 -0.009888914 -0.027273960 -0.125066519 -0.003213806 0.008778238 -0.007871747 0.999925315
11249.911324 -0.031325039 -0.023872824 -0.127420738 -0.003915175 0.012714244 -0.006560699 0.999889970
11249.948187 -0.053421155 -0.018874045 -0.132016689 -0.004608140 0.014614670 -0.007640993 0.999853373
11249.985051 -0.073212847 -0.013000711 -0.136661887 -0.005964792 0.013440313 -0.010146943 0.999840379
11250.021914 -0.086441979 -0.006931258 -0.136904031 -0.009095267 0.009403022 -0.014845573 0.999804199
11250.058777 -0.100421086 0.001144691 -0.139226303 -0.014160235 0.005270308 -0.020614520 0.999673307
11250.095641 -0.109296620 0.006353454 -0.143233672 -0.022806130 -0.000418612 -0.026580734 0.999386430
11250.132504 -0.115014970 0.012486963 -0.145347387 -0.030991789 -0.004831467 -0.030581353 0.999040008
11250.169367 -0.118255019 0.019179987 -0.150522619 -0.038397089 -0.007188766 -0.033028658 0.998690665
11250.206231 -0.117787667 0.023631524 -0.155965194 -0.045025442 -0.007995119 -0.032343462 0.998430133
11250.243094 -0.115160801 0.026197869 -0.164853215 -0.046369813 -0.007134364 -0.028738465 0.998485386
11250.279957 -0.108338617 0.028304964 -0.167707250 -0.044248458 -0.004767696 -0.026336228 0.998661995
11250.316821 -0.099726684 0.029647188 -0.172530547 -0.041753545 0.000264086 -0.023612333 0.998848855
11250.390548 -0.079826295 0.026964545 -0.179845795 -0.035463247 0.022028212 -0.011006671 0.999067545
11250.427411 -0.065965042 0.023328485 -0.186517641 -0.029686404 0.036025010 -0.002586694 0.998906493
11250.464274 -0.052703544 0.019305333 -0.189950407 -0.023773137 0.050591838 0.005879744 0.998419106
11250.501138 -0.041907892 0.014395892 -0.191866249 -0.018372746 0.065602787 0.009905984 0.997627497
11250.538001 -0.027453888 0.007334758 -0.192657560 -0.012876991 0.075844176 0.011721062 0.996967614
11250.574864 -0.018494356 0.001684239 -0.193774104 -0.005331387 0.087751307 0.006048933 0.996109784
11250.611728 -0.006031672 -0.005663125 -0.193853557 0.002772522 0.095207058 0.001445372 0.995452583
11250.648591 0.006776985 -0.014933951 -0.194365829 0.008924756 0.101373740 -0.005868205 0.994791090
11250.685454 0.017761756 -0.024276018 -0.192788288 0.013510990 0.108024038 -0.017226346 0.993907213
11250.722318 0.028773475 -0.031205360 -0.193726510 0.021592483 0.116165996 -0.025035191 0.992679477
11250.759181 0.039958246 -0.043025605 -0.192296699 0.028141940 0.123951793 -0.033812605 0.991312623
11250.796045 0.050639261 -0.047616154 -0.188002750 0.041642345 0.132628128 -0.041576035 0.989417553
11250.832908 0.063262030 -0.056506306 -0.175403044 0.050008565 0.141387537 -0.051432781 0.987351716
11250.869771 0.076008126 -0.065936469 -0.180660114 0.056366056 0.153013498 -0.059169594 0.984839439
11250.906635 0.088316828 -0.074686252 -0.178768262 0.060722567 0.167159036 -0.067221187 0.981759608
11251.238405 0.000000000 0.000000000 0.000000000 0.000000000 0.000000000 0.000000000 1.000000000
11251.865082 0.000000000 0.000000000 0.000000000 0.000000000 0.000000000 0.000000000 1.000000000
11251.901946 -0.020824272 0.008017232 -0.002436942 -0.006526251 -0.004430217 -0.000313671 0.999968827
11251.938809 -0.040353555 0.016324481 -0.005036029 -0.018580012 -0.006048791 -0.002313541 0.999806404
11251.975672 -0.060473669 0.025193118 -0.008634067 -0.031282600 -0.004389615 -0.007428451 0.999473333
11252.012536 -0.077243291 0.031433433 -0.013869304 -0.043264244 -0.002688283 -0.010206834 0.999007881
11252.049399 -0.094399467 0.037092794 -0.024069866 -0.053027928 0.000261711 -0.019704415 0.998398542
11252.086262 -0.108777173 0.040217534 -0.029173937 -0.064707033 0.005228907 -0.027332682 0.997516155
11252.123126 -0.122993827 0.046108253 -0.035952888 -0.075207524 0.015153991 -0.035109553 0.996434391
11252.159989 -0.132589236 0.050093129 -0.047872853 -0.086725183 0.023600040 -0.041839067 0.995073497
11252.196853 -0.145101383 0.057226487 -0.056000456 -0.094476379 0.038056090 -0.047181312 0.993680000
11252.233716 -0.151069358 0.059327632 -0.064513966 -0.104431786 0.048018202 -0.051878911 0.992016554
11252.270580 -0.154454917 0.060802259 -0.073543400 -0.114044294 0.056679331 -0.056890342 0.990224659
11252.307443 -0.156079575 0.062605947 -0.079997756 -0.123952754 0.066281952 -0.058905780 0.988318026
11252.344306 -0.156012088 0.058551379 -0.082516998 -0.136204556 0.073763385 -0.061967380 0.985985458
11252.381170 -0.156357467 0.061975367 -0.082976058 -0.141089752 0.084113814 -0.063414186 0.984376550
11252.418033 -0.155671433 0.061474565 -0.083574757 -0.149175122 0.096243136 -0.063840464 0.982042968
11252.454896 -0.156844631 0.061266750 -0.084549904 -0.156314775 0.112819500 -0.066559784 0.978982747
11252.491760 -0.156484827 0.061957892 -0.082927607 -0.160068929 0.133166641 -0.066163383 0.975841641
11252.528623 -0.156388044 0.062248908 -0.081952922 -0.159535080 0.154707640 -0.066423208 0.972729146
11252.565486 -0.156144887 0.062256351 -0.081923485 -0.155598670 0.174269766 -0.069447786 0.969843328
11252.602350 -0.155868620 0.062360942 -0.081228301 -0.149177954 0.192399710 -0.066668093 0.967617512
11252.639213 -0.155998319 0.062239900 -0.082132012 -0.140038893 0.204129785 -0.068924122 0.966421008
11252.676077 -0.151190758 0.065327108 -0.073672496 -0.129570335 0.210531920 -0.064841717 0.966790259
11252.712940 -0.147465184 0.067471020 -0.068071261 -0.117452674 0.213387012 -0.060941827 0.967965364
11252.749803 -0.140981197 0.071876623 -0.060246378 -0.102523178 0.207921416 -0.055756938 0.971158504
11252.786667 -0.141107365 0.051886588 -0.047234446 -0.109437697 0.201810658 -0.048103794 0.972101748
11252.823530 -0.146586627 0.049221527 -0.038778789 -0.100302711 0.194516689 -0.041735195 0.974864483
11252.860394 -0.150952131 0.046255346 -0.027043950 -0.091752537 0.180257574 -0.035950471 0.978670657
11252.897257 -0.157541111 0.043021739 -0.021365717 -0.085920662 0.161337540 -0.030733185 0.982671499
11252.934120 -0.161339611 0.041772287 -0.011083983 -0.080467753 0.136886790 -0.022245660 0.987062335
11252.970984 -0.170111611 0.040920302 -0.003975201 -0.075392872 0.113172181 -0.016592117 0.990571856
11253.007847 -0.178651795 0.040156018 0.009801656 -0.070137307 0.090478420 -0.005799183 0.993408680
11253.044710 -0.188841000 0.036707710 0.014054628 -0.066048957 0.064598426 -0.003482458 0.995717049
11253.081574 -0.195849255 0.039702136 0.025502890 -0.051624089 0.038843405 0.008024241 0.997878611
11253.118437 -0.199455425 0.039744552 0.031217119 -0.041331254 0.008491429 0.013260798 0.999021411
11253.376481 0.000000000 0.000000000 0.000000000 0.000000000 0.000000000 0.000000000 1.000000000
11253.413344 -0.076477520 -0.050806284 -0.019453831 0.002465487 0.005536371 0.003440531 0.999975741
11253.450207 -0.042410102 -0.009397311 0.002872823 0.018383710 -0.004270104 -0.005477444 0.999806881
11253.487071 -0.055823557 -0.021395966 0.021254588 0.019876545 -0.003627390 -0.009557091 0.999750197
11253.523934 -0.052140966 -0.025311550 0.013637181 0.018918315 -0.001920765 -0.013602859 0.999726653
11253.560797 -0.073829159 -0.042370576 0.008914078 0.012974777 0.006372237 -0.013742695 0.999801099
11253.597661 -0.078503430 -0.033792295 0.003496801 0.009558581 0.013994289 -0.014179657 0.999755859
11253.671388 0.000000000 0.000000000 0.000000000 0.000000000 0.000000000 0.000000000 1.000000000
11253.708251 0.072924502 0.016757194 -0.011233024 -0.001667305 0.001668033 -0.004370685 0.999987662
11253.781978 0.000000000 0.000000000 0.000000000 0.000000000 0.000000000 0.000000000 1.000000000
11254.076885 -0.386299431 0.054452360 0.055172678 -0.015140682 0.155316487 -0.023911089 0.987459242
11254.113748 -0.367941797 0.055060234 0.050065748 -0.012033883 0.160573438 -0.019337125 0.986761093
11254.150611 -0.354662806 0.052198738 0.038289517 -0.008651166 0.165983856 -0.016057665 0.985959768
11254.187475 -0.334926486 0.048005931 0.030410655 -0.006275994 0.171022668 -0.014814405 0.985135734
11254.224338 -0.315082431 0.043376930 0.023859680 -0.005430740 0.176785558 -0.013531389 0.984141350
11254.261201 -0.294204623 0.037533775 0.015498146 -0.005526773 0.180049583 -0.013040368 0.983555555
11254.298065 -0.271592021 0.032240786 0.008672722 -0.004562556 0.182549343 -0.012436111 0.983107448
11254.334928 -0.250051051 0.028834023 0.000625990 -0.004438065 0.185616538 -0.010432205 0.982556880
11254.371792 -0.230921030 0.027730154 -0.002344072 -0.008037459 0.188712478 -0.006466611 0.981978178
11254.408655 -0.210152507 0.030355271 -0.007482648 -0.014234611 0.188674271 -0.003872001 0.981928885
11254.445518 -0.193546459 0.033466712 -0.011239350 -0.023477260 0.187565431 -0.000356656 0.981971443
11254.482382 -0.177984908 0.038171630 -0.015724767 -0.032693531 0.185424402 0.008730818 0.982075691
11254.519245 -0.165580466 0.046071101 -0.016950503 -0.040149063 0.180478796 0.017060967 0.982611001
11254.556108 -0.159565121 0.052438080 -0.022939764 -0.049988504 0.173045754 0.030184479 0.983181179
11254.592972 -0.151539832 0.058822669 -0.025266670 -0.061127052 0.156209365 0.033345547 0.985266566
11254.629835 -0.147828281 0.066305175 -0.022962648 -0.071555927 0.137430146 0.033925489 0.987340748
11254.666698 -0.148475438 0.074352883 -0.023272989 -0.082204662 0.118691601 0.031257920 0.989028633
11254.703562 -0.148618549 0.081684895 -0.024500081 -0.093160816 0.099386901 0.028502330 0.990268111
11254.740425 -0.153620258 0.089996591 -0.026118524 -0.101293169 0.084379226 0.030331280 0.990807652
11254.777289 -0.157072634 0.099557288 -0.027366474 -0.110530153 0.069239564 0.030480716 0.990989327
11254.814152 -0.162077799 0.107223488 -0.033536423 -0.124598540 0.056141023 0.035590991 0.989978135
11254.851015 -0.166345343 0.112389527 -0.037535094 -0.143948749 0.046717256 0.045162760 0.987449527
11254.887879 -0.168002591 0.115548000 -0.045764767 -0.162918940 0.038769197 0.058174811 0.984159589
11254.924742 -0.174850091 0.122648649 -0.053373758 -0.174486399 0.040768959 0.073328570 0.981078684
11254.961606 -0.172936156 0.120532870 -0.059417173 -0.195260286 0.040315177 0.089732282 0.975805402
11254.998469 -0.167866617 0.105835155 -0.069828577 -0.226000607 0.042328708 0.112026647 0.966737807
11255.293376 0.000000000 0.000000000 0.000000000 0.000000000 0.000000000 0.000000000 1.000000000
11255.330239 0.005308216 -0.009942014 -0.009091946 0.019153751 0.016508814 -0.002621576 0.999676764
11255.367103 0.022842582 -0.025220344 -0.011200512 0.036386088 0.020055380 -0.006216543 0.999117196
11255.403966 0.023842389 -0.026079250 -0.014756473 0.061854888 0.030620400 -0.006905160 0.997591436
11255.440829 0.016963076 -0.012492815 -0.017288821 0.096467033 0.040575221 -0.002855357 0.994504690
11255.477693 0.017899156 -0.014021780 -0.017227035 0.121159889 0.039252691 -0.003006054 0.991852045
11255.514556 0.019801311 -0.018650649 -0.013391266 0.140458748 0.031466946 -0.007142521 0.989560604
11255.551419 0.020501621 -0.018247854 -0.017135579 0.158543363 0.020208061 -0.009693403 0.987097621
11255.588283 0.019406255 -0.019591389 -0.011171078 0.176084742 0.005633212 -0.012558306 0.984278798
11255.625146 0.017609093 -0.022036685 -0.008211140 0.191610560 -0.009229419 -0.017313974 0.981274903
11255.662009 0.018988928 -0.020155454 -0.009399811 0.209315583 -0.025809530 -0.024780601 0.977193296
11255.698873 0.018228944 -0.021590123 -0.003852495 0.225614026 -0.039262012 -0.033896327 0.972834945
11255.735736 0.018602619 -0.020495353 -0.008049334 0.239605665 -0.050361864 -0.033804480 0.968973696
11255.772600 0.018202918 -0.020999435 -0.006450416 0.254969895 -0.058874436 -0.038547885 0.964384854
11255.809463 0.018154679 -0.021088172 -0.006200870 0.270112783 -0.063570887 -0.038136423 0.959970534
11255.846326 0.017764719 -0.021963267 -0.003616790 0.286066830 -0.064679764 -0.042427443 0.955082297
11255.883190 0.017813832 -0.021650026 -0.004632897 0.301463157 -0.064165488 -0.040092003 0.950471103
11255.920053 0.017453067 -0.022302367 -0.002682869 0.320113808 -0.062653556 -0.039132569 0.944494724
11255.993780 0.000000000 0.000000000 0.000000000 0.000000000 0.000000000 0.000000000 1.000000000
11256.030643 0.007373111 -0.002709017 0.025704714 0.019781088 -0.009109295 -0.004010837 0.999754786
11256.067507 0.013527870 -0.013516380 -0.004867787 0.035863418 -0.016756799 -0.003355196 0.999210596
11256.104370 0.018956037 -0.012131304 0.025447121 0.053237218 -0.026560159 -0.004587001 0.998218060
11256.141233 0.018785302 0.015551794 0.035611130 0.071700461 -0.034265224 -0.004663220 0.996826589
11256.178097 -0.029367458 -0.005197220 -0.009212353 0.079791717 -0.033202156 0.001781752 0.996256888
11256.214960 0.016424164 -0.011849880 0.012585356 0.094798774 -0.047819071 -0.000687048 0.994347036
11256.251823 0.018824685 -0.012817209 0.009108046 0.108672000 -0.053680893 0.001967724 0.992625237
11256.288687 0.018988119 -0.010442801 0.003448524 0.125029206 -0.057721701 0.003651945 0.990465820
11256.325550 0.020558804 -0.010162742 -0.000518634 0.139340445 -0.060499333 0.007037454 0.988369644
11256.362414 0.020237891 -0.009435247 -0.001978156 0.147056863 -0.059120260 0.010124751 0.987307727
11256.399277 0.022392159 -0.010225784 -0.007869422 0.147905186 -0.054919839 0.012868457 0.987391651
11256.436140 0.026567755 -0.008983848 -0.013600429 0.142640203 -0.048264090 0.014871735 0.988485336
11256.473004 0.028486663 -0.007363783 -0.019489387 0.133228958 -0.038632695 0.018246215 0.990163922
11256.509867 0.028424198 -0.007252951 -0.019860538 0.121330716 -0.027937915 0.019907249 0.992019176
11256.546731 0.028578660 -0.007362537 -0.019855341 0.110106669 -0.015906641 0.019930867 0.993592620
11256.583594 0.028703947 -0.007422224 -0.019861445 0.099359579 -0.003027202 0.020873623 0.994828045
11256.620457 0.029561326 -0.006716413 -0.022594679 0.088410430 0.009864043 0.021775352 0.995797217
11256.657320 0.029310001 -0.006481727 -0.023006039 0.074837759 0.022100378 0.022532491 0.996696115
11256.694184 0.029288618 -0.006582505 -0.022850975 0.059672609 0.033872075 0.024623070 0.997339249
11256.731047 0.029948650 -0.006128802 -0.024858758 0.044989016 0.044927206 0.023469277 0.997700751
11256.767911 0.034341786 -0.002410056 -0.043107715 0.028654430 0.055277944 0.025139058 0.997743130
11256.804774 0.036918689 -0.002695102 -0.047424607 0.005115505 0.060512088 0.049333982 0.996934474
11256.878501 0.000000000 0.000000000 0.000000000 0.000000000 0.000000000 0.000000000 1.000000000
11256.915364 -0.013243704 0.011233555 -0.012394134 -0.009663325 0.012345928 0.009713262 0.999829888
11256.952228 -0.022627033 0.017379152 -0.026886443 -0.020586763 0.020390429 0.017261019 0.999431074
11256.989091 -0.033570800 0.024824699 -0.040636234 -0.028906615 0.029711483 0.023538604 0.998863161
11257.025954 -0.044285629 0.039124332 -0.054518394 -0.032172006 0.039758608 0.029369468 0.998259306
11257.062818 -0.061892096 0.059500735 -0.055251013 -0.033786990 0.056063328 0.034398910 0.997262299
11257.099681 -0.070153378 0.066961318 -0.066955097 -0.048701167 0.066207096 0.041206270 0.995764434
11257.136544 -0.071949795 0.069443420 -0.073763922 -0.069589585 0.071840227 0.045495391 0.993944883
11257.173408 -0.079868972 0.076480716 -0.083470821 -0.085898928 0.080484740 0.049152322 0.991830468
11257.210271 -0.081679277 0.077757582 -0.086868830 -0.101557434 0.084769711 0.054362670 0.989719629
11257.247135 -0.089219712 0.083532751 -0.090786874 -0.107790403 0.091856606 0.060812395 0.988051355
11257.283998 -0.092797071 0.089488432 -0.093505144 -0.110503979 0.094517246 0.067969851 0.987033665
11257.320861 -0.100220010 0.093202792 -0.089694075 -0.115077756 0.097807363 0.074237213 0.985738099
11257.357725 -0.104356721 0.097201109 -0.085967667 -0.121338315 0.095987804 0.081019156 0.984631538
11257.394588 -0.108464755 0.100809306 -0.079366855 -0.130103439 0.091862969 0.086223520 0.983463168
11257.431452 -0.116904579 0.108189538 -0.072406650 -0.135721549 0.086572185 0.083984151 0.983377635
11257.468315 -0.120393530 0.107482456 -0.066326059 -0.146805450 0.075416818 0.083461814 0.982748508
11257.505178 -0.122180283 0.110076264 -0.054408818 -0.157183155 0.060401041 0.081133947 0.982375920
11257.542042 -0.129745781 0.113279715 -0.047921319 -0.165670112 0.046006382 0.075639375 0.982199311
11257.578905 -0.133270249 0.123839378 -0.032872993 -0.168966055 0.027087076 0.068414882 0.982871413
11257.615768 -0.135237873 0.130301476 -0.017103415 -0.172548547 0.006575157 0.062480994 0.982995331
11257.652632 -0.137416705 0.133475199 -0.001991987 -0.175963536 -0.013538742 0.064033888 0.982218504
11257.689495 -0.136414915 0.138752639 0.017284345 -0.179753244 -0.037828509 0.059267547 0.981195748
11257.726358 -0.137533486 0.142935872 0.033707473 -0.180438593 -0.060005259 0.058242992 0.980024993
11257.763222 -0.138877392 0.147023752 0.047290426 -0.176877573 -0.083513439 0.051717706 0.979318678
11257.800085 -0.139464691 0.150271177 0.063585162 -0.171536967 -0.106731556 0.052204244 0.977986813
11257.836949 -0.139997363 0.153224632 0.074636832 -0.164057299 -0.130212858 0.049478848 0.976566255
11257.873812 -0.143497020 0.158435225 0.089127079 -0.151473150 -0.149928585 0.049312446 0.975779474
11257.910675 -0.143452048 0.157413393 0.084793411 -0.135705650 -0.169534460 0.043356970 0.975172937
11257.947539 -0.145824045 0.160371810 0.091871276 -0.118438527 -0.185731441 0.025200794 0.975110829
11258.647943 0.000000000 0.000000000 0.000000000 0.000000000 0.000000000 0.000000000 1.000000000
11258.684806 0.015590952 0.005178752 0.006276330 0.007303138 -0.010348507 0.004106241 0.999911368
11258.721669 0.008317303 0.021718159 0.005154295 0.015179651 -0.015542895 0.011663377 0.999695957
11258.758533 0.018118696 0.002769671 0.011120502 0.017100876 -0.024026593 0.017659554 0.999409020
11258.795396 0.031670995 -0.003461171 0.005600282 0.020053912 -0.032502841 0.023151372 0.999002218
11258.832259 0.062223993 -0.000596297 0.014576191 0.023190392 -0.042613417 0.025879377 0.998487115
11258.869123 0.085829958 -0.014502615 0.015572783 0.024816582 -0.049671691 0.029001947 0.998035967
11258.905986 0.117584452 -0.065110974 0.023337472 0.024732186 -0.056573302 0.032139704 0.997574449
11258.979713 0.000000000 0.000000000 0.000000000 0.000000000 0.000000000 0.000000000 1.000000000
11259.053440 0.000000000 0.000000000 0.000000000 0.000000000 0.000000000 0.000000000 1.000000000
11259.090303 0.025434788 -0.022581017 -0.004547923 0.011792609 -0.003019572 0.000780153 0.999925613
11259.127167 0.042104155 -0.034246065 -0.013588167 0.024504190 -0.005031704 0.002273717 0.999684513
11259.164030 0.064267278 -0.056303252 -0.014176430 0.032846723 -0.008690182 0.004015143 0.999414563
11259.237756 0.000000000 0.000000000 0.000000000 0.000000000 0.000000000 0.000000000 1.000000000
11259.274620 0.015474991 -0.009189210 -0.011924748 0.011611176 -0.003080097 0.003168574 0.999922812
11259.422073 0.000000000 0.000000000 0.000000000 0.000000000 0.000000000 0.000000000 1.000000000
11259.495800 0.000000000 0.000000000 0.000000000 0.000000000 0.000000000 0.000000000 1.000000000
11259.569527 0.000000000 0.000000000 0.000000000 0.000000000 0.000000000 0.000000000 1.000000000
11259.864434 0.000000000 0.000000000 0.000000000 0.000000000 0.000000000 0.000000000 1.000000000
11259.938161 0.000000000 0.000000000 0.000000000 0.000000000 0.000000000 0.000000000 1.000000000
11259.975024 0.001602722 -0.007434373 -0.005821647 -0.008219642 0.005204866 -0.006162334 0.999933660
11260.011887 0.011687553 0.002040669 -0.014090653 -0.013920634 0.006196316 -0.007998678 0.999851882
11260.085614 0.000000000 0.000000000 0.000000000 0.000000000 0.000000000 0.000000000 1.000000000
11260.122478 0.011158459 -0.011961507 0.001930359 -0.021456512 0.000355257 -0.004348642 0.999760270
11260.196204 0.000000000 0.000000000 0.000000000 0.000000000 0.000000000 0.000000000 1.000000000
11260.269931 0.000000000 0.000000000 0.000000000 0.000000000 0.000000000 0.000000000 1.000000000
11260.343658 0.000000000 0.000000000 0.000000000 0.000000000 0.000000000 0.000000000 1.000000000
11260.380521 0.012144065 -0.002093884 -0.002295027 -0.013978178 -0.002845616 -0.005059706 0.999885440
11260.454248 0.000000000 0.000000000 0.000000000 0.000000000 0.000000000 0.000000000 1.000000000
11260.491111 -0.195855364 -0.087076090 0.069085121 -0.021218810 0.022375252 0.002597679 0.999521017
11260.527975 -0.193895414 -0.066422030 0.081727847 -0.023632020 0.009078372 0.006369649 0.999659181
11260.564838 -0.198246792 -0.013375989 0.075596072 -0.023280429 -0.007371442 0.007550761 0.999673247
11260.601701 -0.346856833 0.011915026 0.121511616 -0.025366161 -0.001238228 0.013318425 0.999588728
11260.638565 -0.253807157 -0.045149438 0.148552686 -0.038439497 -0.034547701 0.019069122 0.998481452
11261.007198 0.000000000 0.000000000 0.000000000 0.000000000 0.000000000 0.000000000 1.000000000
11261.044062 -0.008754809 0.006309861 0.019414792 -0.007996020 -0.009928827 0.004790209 0.999907255
11261.080925 -0.018123308 0.010033390 0.036543708 -0.016363535 -0.019712700 0.008930094 0.999631882
11261.117789 -0.027542526 0.012281412 0.051621854 -0.024514737 -0.029067211 0.014477820 0.999171913
11261.154652 -0.038750820 0.013814047 0.065198630 -0.030411307 -0.038754791 0.018718814 0.998610437
11261.191515 -0.045898721 0.016980885 0.076328762 -0.031272992 -0.054079194 0.021496693 0.997815251
11261.228379 -0.050680455 0.020268127 0.085354775 -0.027723258 -0.074094206 0.018601112 0.996692240
11261.265242 -0.056228660 0.019985989 0.092591509 -0.023949414 -0.094850622 0.020327572 0.994995773
11261.302105 -0.060414948 0.018863486 0.094306901 -0.018813247 -0.115752645 0.019863766 0.992901206
11261.338969 -0.069290355 0.019085664 0.097423427 -0.011158842 -0.130231246 0.021772491 0.991181791
11261.375832 -0.072882019 0.016689476 0.096260302 -0.004286205 -0.150772676 0.019954229 0.988357782
11261.412696 -0.080459118 0.016964283 0.093332052 0.005667604 -0.163660973 0.019309921 0.986311376
11261.449559 -0.082994998 0.015639959 0.085538499 0.016125815 -0.181861743 0.013406105 0.983100474
11261.486422 -0.095506281 0.010647075 0.080917522 0.018365715 -0.187166616 0.016003650 0.982026100
11261.523286 -0.097303264 0.010919850 0.070298105 0.022085601 -0.201817885 0.014631627 0.979064703
11261.597012 0.000000000 0.000000000 0.000000000 0.000000000 0.000000000 0.000000000 1.000000000
11261.633876 -0.016598182 0.001190125 -0.007023938 0.003291512 0.009041289 -0.002772158 0.999949872
11261.670739 -0.032704338 0.002540581 -0.015371466 0.006623027 0.021912782 -0.008495535 0.999701798
11261.707603 -0.047032334 0.001405505 -0.024258131 0.008994905 0.036240842 -0.011444308 0.999237061
11261.744466 -0.061436728 0.002294142 -0.034453608 0.013829055 0.051553570 -0.013789761 0.998479247
11261.781329 -0.074846148 0.003675661 -0.043611914 0.019413605 0.062894113 -0.014693632 0.997723162
11261.818193 -0.087215759 0.004210190 -0.052352786 0.026078297 0.067570731 -0.012077327 0.997300506
11261.855056 -0.100654855 0.008808535 -0.056567594 0.033819895 0.068191878 -0.012706967 0.997017860
11261.891919 -0.112947226 0.012954514 -0.059158389 0.036042299 0.065360151 -0.013501213 0.997119188
11261.928783 -0.124632515 0.019164203 -0.058568045 0.035068948 0.060004696 -0.015418513 0.997462749
11261.965646 -0.136135533 0.023421921 -0.058694661 0.031198956 0.053627372 -0.011865919 0.998002946
11262.002509 -0.145984694 0.029939031 -0.053848229 0.027414456 0.045556735 -0.009130766 0.998543799
11262.039373 -0.156407118 0.037738003 -0.049446415 0.024778562 0.035945296 -0.006927336 0.999022484
11262.076236 -0.165917769 0.045963880 -0.044449061 0.021359853 0.024990387 -0.005920453 0.999441922
11262.113100 -0.172290906 0.051614553 -0.037020352 0.015306310 0.012148541 -0.002080243 0.999806881
11262.149963 -0.178792670 0.059347305 -0.029603599 0.010698983 -0.001257857 -0.000754087 0.999941707
11262.186826 -0.182096675 0.065828741 -0.018387310 0.007540083 -0.015816309 0.001038183 0.999845922
11262.223690 -0.182766974 0.070083082 -0.007663276 0.003503429 -0.032140687 0.002299639 0.999474585
11262.260553 -0.182302773 0.073797464 0.002730066 -0.002787624 -0.047375817 -0.000164200 0.998873234
11262.297416 -0.185097963 0.075585589 0.005795527 -0.011326592 -0.061142273 -0.007510223 0.998036504
11262.334280 -0.169672951 0.081097804 0.042767018 -0.020402027 -0.076305039 -0.008238615 0.996841729
11262.371143 -0.162744850 0.079198144 0.051084206 -0.027824543 -0.088407725 -0.010499255 0.995640337
11262.408006 -0.159679562 0.068359941 0.044657517 -0.032686941 -0.098018549 -0.012208054 0.994572699
11262.444870 -0.147295073 0.064140230 0.059974723 -0.032753296 -0.109603688 -0.013749342 0.993340433
11262.481733 -0.129783913 0.059243809 0.069255188 -0.027852286 -0.120423436 -0.016400602 0.992196321
11262.997820 0.080474004 -0.022434257 0.014892239 0.004624457 -0.128069326 -0.038167793 0.991019726
11263.034684 0.092371374 -0.025530022 0.002260106 0.007313884 -0.118555926 -0.035106894 0.992299616
11263.071547 0.104668483 -0.027621433 -0.007065501 0.012940607 -0.108363688 -0.025600141 0.993697405
11263.108410 0.113555402 -0.028791009 -0.019299282 0.023173545 -0.095105536 -0.018407881 0.995027184
11263.145274 0.121466711 -0.028600704 -0.032946520 0.036583968 -0.080569752 -0.006434940 0.996056557
11263.182137 0.127529114 -0.029127307 -0.048176590 0.048851322 -0.066323765 0.004268438 0.996592462
11263.219001 0.132266566 -0.030401643 -0.060215265 0.057729803 -0.055121824 0.013685755 0.996715367
11263.255864 0.135385409 -0.032010783 -0.070391543 0.061740488 -0.045212831 0.022412959 0.996815741
11263.292727 0.135988802 -0.030894704 -0.085690960 0.063492656 -0.034116417 0.028069438 0.997003913
11263.329591 0.135145530 -0.029656090 -0.100055233 0.060978990 -0.021975055 0.035687272 0.997258782
11263.366454 0.133829832 -0.025131192 -0.111873329 0.057204548 -0.010784920 0.043459084 0.997357845
11263.403317 0.132205799 -0.021509312 -0.126293838 0.049038067 0.000183441 0.051799599 0.997452796
11263.440181 0.122685529 -0.014299114 -0.139548421 0.044127863 0.013308531 0.045951121 0.997879803
11263.477044 0.115288779 -0.009156424 -0.151863977 0.038728159 0.023273587 0.044465847 0.997988582
11263.513907 0.103744112 -0.002848828 -0.163700074 0.034253206 0.034935314 0.041156605 0.997954071
11263.550771 0.095477313 0.002750244 -0.176733717 0.028350981 0.046655521 0.041515265 0.997645199
11263.587634 0.086125024 0.008276474 -0.187944606 0.022112239 0.061586920 0.043244440 0.996919274
11263.624498 0.079753727 0.016144268 -0.200614274 0.019089093 0.076053940 0.047115732 0.995806932
11263.661361 0.071533419 0.018574599 -0.210855469 0.015167766 0.093172111 0.048860360 0.994334757
11263.698225 0.065259635 0.022203300 -0.222863063 0.012816914 0.109581761 0.051349618 0.992567778
11263.735088 0.057531845 0.014484005 -0.229458556 0.003908113 0.127235800 0.053650726 0.990412712
11263.771951 0.058120467 0.007597671 -0.239373967 0.000505370 0.137665331 0.057808798 0.988790214
11263.808815 0.051953010 0.003781547 -0.244950280 0.000567966 0.152647823 0.059190430 0.986506343
11263.845678 0.056086093 0.006019922 -0.252988905 0.000689218 0.157636985 0.061246540 0.985595763
11263.882541 0.055223137 0.005051244 -0.258903891 -0.003731267 0.161963373 0.061607853 0.984864652
11263.919405 0.054240122 0.003026949 -0.264229447 -0.004805237 0.162743330 0.062184121 0.984695196
11263.956268 0.052873895 0.001368897 -0.267088175 -0.000042784 0.159889951 0.060073033 0.985305250
11263.993131 0.052657761 -0.000422867 -0.269205749 0.005832211 0.153254449 0.057572328 0.986490965
11264.029995 0.050868355 -0.001000452 -0.271190226 0.011063295 0.147176355 0.059299536 0.987269104
11264.066858 0.033053987 -0.031899702 -0.258616060 -0.004240231 0.153479919 0.058024880 0.986437559
11264.103722 0.021535635 -0.055865496 -0.246902540 -0.014045943 0.156318694 0.057736419 0.985917687
11264.140585 0.017035089 -0.058639508 -0.248951852 -0.007372544 0.153545037 0.054080978 0.986633062
11264.177448 0.011638664 -0.065793522 -0.234612092 -0.003185758 0.153846189 0.041758884 0.987206876
11264.214312 0.006239295 -0.071371406 -0.223350868 0.001381355 0.155828834 0.025756042 0.987447262
11264.251175 -0.001705363 -0.075792804 -0.219281316 0.004288147 0.160702467 0.008355700 0.986958206
11264.288038 -0.007017940 -0.076987810 -0.208567485 0.007321240 0.165192276 -0.008663848 0.986196160
11264.324902 -0.014556326 -0.077066332 -0.195307851 0.011010936 0.173111930 -0.020612992 0.984624863
11264.361765 -0.022302404 -0.076764703 -0.187610045 0.015782908 0.179790795 -0.030273613 0.983112276
11264.398628 -0.029494314 -0.075023100 -0.174558252 0.021819312 0.182795063 -0.042992231 0.981968224
11264.435492 -0.036906756 -0.071374789 -0.154230922 0.026565837 0.183463857 -0.054124646 0.981175721
11264.472355 -0.044615805 -0.070145056 -0.143937662 0.025698848 0.180848286 -0.060894236 0.981287599
11264.509219 -0.049104448 -0.064369641 -0.119048201 0.021727068 0.175077885 -0.066254996 0.982082486
11264.546082 -0.056775685 -0.060662307 -0.100789018 0.014855651 0.166518211 -0.069340512 0.983485103
11264.582945 -0.064306468 -0.058116138 -0.087294891 0.007062565 0.153007865 -0.071935147 0.985578060
11264.619809 -0.072542191 -0.055062242 -0.075575203 0.000547137 0.137151837 -0.077793643 0.987490356
11264.656672 -0.088441007 -0.048106425 -0.045807071 -0.007134449 0.130180120 -0.094176404 0.986981809
11264.693536 -0.093861945 -0.046598695 -0.028388681 -0.018440641 0.116303444 -0.087927692 0.989142120
11264.730399 -0.102262489 -0.036447562 -0.011884764 -0.028992627 0.108043060 -0.088479206 0.989776552
11264.767262 -0.112344265 -0.022482023 0.002098154 -0.040884960 0.103722505 -0.094909787 0.989223003
11264.804126 -0.123110145 -0.010462989 0.005597027 -0.053689089 0.100799583 -0.089061402 0.989456892
11264.840989 -0.129967093 0.002225443 0.016831327 -0.064365447 0.099085152 -0.080205001 0.989750683
11264.877852 -0.139270276 0.019589053 0.021958096 -0.069155239 0.100919627 -0.082551509 0.989049077
11264.914716 -0.148184985 0.035545960 0.029798009 -0.072404861 0.105151884 -0.080258101 0.988564253
11264.951579 -0.158417791 0.057824828 0.031789638 -0.067845367 0.111506186 -0.081107527 0.988121927
11264.988442 -0.167102396 0.065850608 0.038737398 -0.075635292 0.121777751 -0.069055170 0.987259269
11265.025306 -0.168376550 0.078572668 0.039018847 -0.080749810 0.124468245 -0.059835948 0.987120450
11265.062169 -0.167780951 0.079608440 0.039814465 -0.096324697 0.125962213 -0.046432208 0.986255109
11265.099033 -0.167773157 0.079263270 0.041448787 -0.111018173 0.131170928 -0.028392367 0.984714687
11265.135896 -0.169922009 0.078893468 0.039167676 -0.122925438 0.137811840 -0.009724231 0.982752621
11265.172759 -0.173079848 0.079153635 0.029794257 -0.133698940 0.143360361 0.000834524 0.980597615
11265.209623 -0.176861584 0.077556871 0.022397164 -0.137880549 0.154037118 0.019456724 0.978203952
11265.246486 -0.186669633 0.071567349 0.004416641 -0.138595298 0.164739236 0.031591862 0.976040125
11265.283350 -0.192812070 0.066155240 -0.006697401 -0.132427216 0.178468883 0.050758205 0.973671138
11265.320213 -0.196673676 0.064264148 -0.017785490 -0.121196657 0.189647779 0.063541859 0.972269237
11265.357076 -0.205868334 0.057698414 -0.035417445 -0.106779717 0.202977568 0.078718133 0.970155478
11265.393939 -0.209326059 0.057294466 -0.044701386 -0.088881388 0.213623688 0.086411096 0.969019175
11265.430803 -0.215689063 0.055882834 -0.062826470 -0.069505572 0.221650809 0.091088809 0.968371153
11265.467666 -0.222756371 0.052353226 -0.076642424 -0.056807283 0.230558187 0.093434043 0.966894984
11265.504530 -0.229879320 0.047411874 -0.091364831 -0.044635966 0.237071276 0.092740417 0.966024876
11265.541393 -0.235716119 0.044095121 -0.104101732 -0.031430747 0.241964534 0.089178398 0.965666890
11265.578257 -0.241011024 0.041253235 -0.113858491 -0.015968192 0.246781111 0.085725047 0.965140045
11265.615120 -0.245363265 0.038964324 -0.122594617 0.002161899 0.250623465 0.080556564 0.964724779
11265.651983 -0.250282049 0.036573209 -0.131311446 0.018925017 0.254087478 0.077263534 0.963904440
11265.688847 -0.256767273 0.036591940 -0.138058648 0.036571138 0.258167595 0.073005296 0.962643385
11265.725710 -0.259873927 0.036179505 -0.149151981 0.052398421 0.258830458 0.071156636 0.961872101
11265.762573 -0.262969077 0.037196338 -0.154188365 0.066707380 0.261167377 0.067716919 0.960601985
11265.799437 -0.266606480 0.039863694 -0.155700117 0.082767792 0.266027719 0.065175563 0.958191454
11265.836300 -0.268055826 0.037471727 -0.160243481 0.091234311 0.268790334 0.060934812 0.956929982
11265.873163 -0.271239281 0.041408204 -0.156937808 0.106190316 0.276581973 0.061492715 0.953123629
11265.910027 -0.272255450 0.041656576 -0.155367881 0.114576496 0.283274442 0.061630301 0.950173438
11265.946890 -0.275696576 0.043343399 -0.157368094 0.120379589 0.288950711 0.061818536 0.947731316
11265.983754 -0.276269734 0.045406394 -0.157182157 0.121454559 0.291708648 0.047212288 0.947589517
11266.020617 -0.279160589 0.046637096 -0.157568187 0.128033489 0.294793427 0.065496840 0.944676876
11266.057480 -0.279475540 0.048700012 -0.156564474 0.127376527 0.292772681 0.057853308 0.945892334
11266.094344 -0.280789584 0.050753165 -0.155166149 0.125491142 0.286180347 0.052650899 0.948462248
11266.131207 -0.280378133 0.051695846 -0.152676865 0.119500197 0.272015899 0.046411607 0.953715384
11266.168070 -0.278538197 0.050149053 -0.148305893 0.114664458 0.253134727 0.054004762 0.959092498
11266.204934 -0.277734786 0.049726404 -0.144972771 0.104700200 0.230487972 0.046029527 0.966330349
11266.241797 -0.277311027 0.049715899 -0.143886596 0.093241386 0.207049608 0.029925464 0.973417163
11266.278660 -0.273416579 0.047756501 -0.140905648 0.087209091 0.184904218 0.029614666 0.978431404
11266.315524 -0.275243133 0.048724350 -0.141799107 0.081949458 0.167157799 0.017247513 0.982367039
11266.352387 -0.275501817 0.050146446 -0.142748505 0.075095095 0.153454944 0.005546444 0.985282481
11266.389251 -0.277056038 0.050161369 -0.149600357 0.067539424 0.140303001 0.002055708 0.987800181
11266.426114 -0.279422015 0.052440204 -0.154860690 0.058957949 0.134873822 0.004326044 0.989097714
11266.462977 -0.278270334 0.051774010 -0.150349826 0.048632380 0.135599509 0.016948553 0.989424288
11266.499841 -0.278077990 0.051183380 -0.150027543 0.037109446 0.137563810 0.029816577 0.989348292
11266.536704 -0.277223527 0.051018741 -0.146930397 0.025395822 0.143922165 0.031555649 0.988759696
11266.573567 -0.276786000 0.050783340 -0.145967722 0.016164044 0.154472798 0.036059219 0.987206459
11266.610431 -0.277904689 0.051427484 -0.148437172 0.008767226 0.169646338 0.041110568 0.984608114
11266.647294 -0.276644915 0.051087327 -0.147037238 0.001358061 0.190878823 0.046973854 0.980488062
11266.684157 -0.277349651 0.050569691 -0.147878319 -0.004309484 0.216417223 0.057210434 0.974613786
11266.721021 -0.277571559 0.050742518 -0.148386165 -0.007452163 0.243977427 0.062255960 0.967751861
11266.757884 -0.279068232 0.050431196 -0.151603341 -0.008660853 0.270990878 0.071068525 0.959915698
11266.794748 -0.278393507 0.050775860 -0.150645956 -0.007342773 0.295102775 0.077015877 0.952328205
11266.831611 -0.279697716 0.050481897 -0.152847379 -0.005064692 0.316228867 0.073674910 0.945804238
11266.868474 -0.280052662 0.050340973 -0.153775588 0.001748238 0.334095985 0.076701716 0.939411342
11266.905338 -0.280294240 0.050353698 -0.155276388 0.010631944 0.349196672 0.082961194 0.933309197
11266.942201 -0.281048119 0.049886279 -0.156179726 0.020547418 0.363250107 0.077499360 0.928235412
11266.979064 -0.280767560 0.050316434 -0.155311361 0.034070741 0.374694794 0.069113962 0.923940599
11267.015928 -0.281041294 0.050343759 -0.156224251 0.047254398 0.381656796 0.057209071 0.921320915
11267.052791 -0.281310886 0.050207570 -0.157195389 0.061035901 0.384719670 0.056145631 0.919300258
11267.089654 -0.284675777 0.050007503 -0.163758308 0.068854868 0.382769436 0.041591112 0.920335174
11267.126518 -0.288937509 0.049058344 -0.166927367 0.070266336 0.379833370 0.035801999 0.921687305
11267.163381 -0.289614171 0.048353590 -0.167232141 0.064747937 0.370843828 0.036703896 0.925707996
11267.200245 -0.291699708 0.047800232 -0.170026109 0.053878065 0.358629405 0.030939776 0.931410134
11267.237108 -0.284187436 0.049516819 -0.159974784 0.044055421 0.344620645 0.025743093 0.937354267
11267.273971 -0.280492038 0.049915135 -0.154356092 0.037354179 0.333804369 0.017597314 0.941737592
11267.310835 -0.277517974 0.049946174 -0.150225401 0.030015508 0.324313372 0.009044221 0.945430100
11267.347698 -0.276810676 0.049956188 -0.148843259 0.025831355 0.319224834 0.014564369 0.947214961
11267.384562 -0.276581913 0.049992688 -0.148798540 0.024784049 0.317613125 0.020802870 0.947668135
11267.421425 -0.273711175 0.050995465 -0.145729288 0.023954177 0.318901718 0.020080047 0.947272241
11267.458288 -0.270396680 0.051862679 -0.141928747 0.025038265 0.323279113 0.019670805 0.945767820
11267.495152 -0.264927804 0.052600086 -0.132351637 0.027005360 0.331720471 0.020960849 0.942758143
11267.532015 -0.261214226 0.053047452 -0.123530783 0.032462459 0.340962440 0.022353269 0.939250290
11267.568878 -0.258909613 0.053340711 -0.116081789 0.038789894 0.347656608 0.015405036 0.936692536
11267.605742 -0.253355473 0.056344979 -0.100921430 0.044281151 0.347206593 0.007249849 0.936714590
11267.642605 -0.249855816 0.045674529 -0.084712163 0.034182593 0.343852907 0.001123620 0.938400447
11267.679468 -0.245226502 0.046681069 -0.070755467 0.028689124 0.335427612 -0.005685001 0.941611886
11267.753195 0.000000000 0.000000000 0.000000000 0.000000000 0.000000000 0.000000000 1.000000000
11267.826922 0.000000000 0.000000000 0.000000000 0.000000000 0.000000000 0.000000000 1.000000000
11267.863786 -0.032070920 0.018503750 0.000902484 0.004050347 0.007337698 0.003952899 0.999957025
11267.900649 -0.063997187 0.034013957 0.001139782 0.008615253 0.018711399 0.006602640 0.999765992
11267.937512 -0.094480775 0.046990789 -0.000441925 0.012810145 0.034536958 0.004501739 0.999311209
11267.974375 -0.123713277 0.058166705 -0.002665224 0.017047282 0.055808887 0.004822977 0.998284280
11268.011239 -0.151956245 0.066879086 -0.005592825 0.024671681 0.084620878 0.009304686 0.996064246
11268.048102 -0.166612685 0.069941498 -0.019864954 0.037650883 0.105128996 0.021526339 0.993512452
11268.121829 0.000000000 0.000000000 0.000000000 0.000000000 0.000000000 0.000000000 1.000000000
11268.158692 -0.026346803 -0.000643358 -0.013337296 0.023946499 0.041254357 -0.007279946 0.998835146
11268.195556 -0.055543024 0.003519548 -0.029463869 0.049914140 0.080157444 -0.010469438 0.995476663
11268.232419 -0.084104627 0.009141029 -0.043000687 0.071646877 0.110710651 -0.014968262 0.991153777
11268.269283 -0.114414580 0.020641150 -0.053098153 0.090143330 0.132442787 -0.016575865 0.986943901
11268.306146 -0.141044796 0.032452781 -0.058353402 0.104734920 0.142598286 -0.020043625 0.984019637
11268.379873 0.000000000 0.000000000 0.000000000 0.000000000 0.000000000 0.000000000 1.000000000
11268.416736 -0.029125845 0.013526426 -0.000231287 0.009503054 -0.003066277 -0.000791613 0.999949813
11268.453599 -0.057613768 0.024811076 -0.000398907 0.015879380 0.000039139 -0.003918008 0.999866247
11268.490463 -0.085078262 0.035932630 -0.005347059 0.022984205 0.007864074 -0.006037644 0.999686658
11268.527326 -0.112384602 0.047718935 -0.009315288 0.033416435 0.019600639 -0.005681331 0.999233127
11268.564189 -0.139506996 0.058525871 -0.013318662 0.041116375 0.038185518 -0.003106695 0.998419583
11268.601053 -0.167793453 0.066253111 -0.017837359 0.044363782 0.064396553 0.000498459 0.996937633
11268.637916 -0.194505513 0.078143999 -0.023643013 0.054086655 0.093098864 -0.003996691 0.994178712
11268.674780 -0.221510947 0.085682482 -0.025946505 0.065585896 0.123028710 -0.007587766 0.990204453
11268.711643 -0.248913616 0.090280168 -0.028587513 0.077965185 0.153746620 -0.021165937 0.984802246
11268.748506 -0.275292665 0.097308643 -0.022637248 0.090387449 0.184167147 -0.031247994 0.978231132
11268.785370 -0.302575350 0.106054559 -0.016810536 0.099445373 0.214849055 -0.042431843 0.970644116
11268.859097 0.000000000 0.000000000 0.000000000 0.000000000 0.000000000 0.000000000 1.000000000
11268.895960 -0.030764926 0.015074514 -0.011983929 0.010874593 0.028230922 -0.005474365 0.999527276
11268.932823 -0.062436499 0.030562127 -0.022935044 0.021566750 0.056090482 -0.005990224 0.998174787
11268.969687 -0.095790736 0.042457171 -0.040689729 0.030354129 0.083001301 -0.011974597 0.996015072
11269.006550 -0.129773825 0.051202282 -0.052094329 0.034718946 0.108455993 -0.014557664 0.993388116
11269.043413 -0.162463561 0.057585608 -0.059653789 0.036862094 0.132872283 -0.016093502 0.990316689
11269.080277 -0.195756942 0.061234981 -0.065437920 0.041503068 0.155658647 -0.021554360 0.986703217
11269.117140 -0.228542686 0.063868530 -0.073349513 0.050197605 0.179845899 -0.026621493 0.982052445
11269.154003 -0.260669082 0.069048829 -0.071986578 0.061145075 0.206340432 -0.034331750 0.975964248
11269.190867 -0.291168809 0.074274607 -0.070016548 0.071594156 0.234821171 -0.042845424 0.968451142
11269.227730 -0.324808419 0.083869182 -0.083918452 0.080144614 0.263969302 -0.051552892 0.959812105
11269.264594 -0.355472445 0.098623872 -0.076191291 0.086767718 0.289874971 -0.060401239 0.951207399
11269.301457 -0.384065449 0.118151307 -0.069196731 0.091530904 0.311875522 -0.069279261 0.943162858
11269.338320 -0.406830430 0.139913529 -0.039373904 0.096292794 0.331420869 -0.072770722 0.935730934
11269.375184 -0.435028672 0.166993350 -0.033604383 0.102459177 0.347161710 -0.076570794 0.929041326
11269.412047 -0.457205415 0.193093017 -0.012265086 0.111313663 0.360351145 -0.079624891 0.922722161
11269.448910 -0.475907087 0.219904035 0.012341201 0.118428558 0.371578991 -0.080577746 0.917284548
11269.485774 -0.498085678 0.240864873 0.035104275 0.119658053 0.388133883 -0.075500384 0.910677612
11269.522637 -0.516203761 0.265096217 0.065977573 0.118753694 0.407458395 -0.068142101 0.902901947
11269.559500 -0.537441075 0.281006277 0.093781829 0.114348032 0.427549124 -0.062569402 0.894545317
11269.596364 -0.552699566 0.297477156 0.124268413 0.114390716 0.441489309 -0.053840514 0.888314784
11269.633227 -0.566418350 0.309951782 0.155948147 0.120363951 0.450451821 -0.055502497 0.882907271
11269.670091 -0.584679306 0.319222540 0.183553919 0.126943767 0.458778650 -0.061545018 0.877279699
11269.706954 -0.600400329 0.327683926 0.219660461 0.127321482 0.473520041 -0.062681638 0.869274974
11269.743817 -0.618245900 0.335520536 0.251625538 0.123402722 0.492690891 -0.060888100 0.859255552
11269.780681 -0.634009182 0.343163490 0.282453895 0.120972879 0.510961413 -0.060357939 0.848905742
11269.817544 -0.645825028 0.351659268 0.314535797 0.123796366 0.527792752 -0.060849518 0.838096976
11269.854408 -0.651341081 0.361188471 0.348722130 0.127316564 0.541115820 -0.067166723 0.828536570
11269.891271 -0.675324619 0.376301914 0.378026932 0.138420328 0.555599868 -0.069040336 0.816934526
11269.928134 -0.684485555 0.390041649 0.411006927 0.150706932 0.565560579 -0.072453119 0.807576120
11269.964998 -0.698704541 0.407548934 0.439207613 0.164306372 0.572385550 -0.073216207 0.800010979
11270.001861 -0.713851035 0.427639961 0.469845116 0.181718096 0.578910470 -0.068202935 0.791953027
11270.038724 -0.724844098 0.441341758 0.493213356 0.191283137 0.580586076 -0.058005136 0.789281964
11270.075588 -0.736850619 0.453443944 0.522397339 0.199755684 0.585653245 -0.047609154 0.784118176
11270.112451 -0.746070683 0.463337392 0.548593521 0.204672605 0.590609670 -0.035589352 0.779758155
11270.149314 -0.753241599 0.470440626 0.568323553 0.212059438 0.598622918 -0.026674151 0.771990895
11270.186178 -0.762430310 0.470620930 0.560405016 0.214738771 0.586560488 -0.013342738 0.780804694
11270.223041 -0.768575907 0.472780436 0.558360100 0.221051976 0.586218238 -0.010447521 0.779342771
11270.259904 -0.775539279 0.474308312 0.555604577 0.223753870 0.592012703 -0.009792672 0.774182975
11270.296768 -0.783295333 0.475728214 0.553668022 0.222864062 0.601586938 -0.009622436 0.767028153
11270.333631 -0.791818440 0.477544844 0.550895929 0.222552925 0.609707296 -0.013993217 0.760612488
11270.370495 -0.809223235 0.480005831 0.545975268 0.227080882 0.612718821 -0.018834906 0.756739855
11270.407358 -0.813899159 0.482122481 0.542997837 0.233684018 0.610253036 -0.028253363 0.756428957
11270.444221 -0.840418935 0.489238352 0.534171104 0.238202482 0.606398642 -0.039191719 0.757630706
11270.481085 -0.852088332 0.493354976 0.528358102 0.248137131 0.598226547 -0.037398327 0.761021912
11270.517948 -0.876047730 0.496690840 0.520108938 0.255660385 0.588593602 -0.023163589 0.766589046
11270.554811 -0.888427973 0.497408777 0.509913445 0.259669602 0.575997829 -0.003741695 0.775102675
11270.591675 -0.900907695 0.498672426 0.497747481 0.261561424 0.560770273 0.017890157 0.785367608
11270.628538 -0.905725598 0.495108008 0.485673308 0.264331490 0.543940663 0.046991564 0.795015216
11270.665401 -0.914505005 0.496612728 0.472761095 0.273489863 0.524333596 0.083824992 0.802029252
11270.702265 -0.916656852 0.495890915 0.461919010 0.280597240 0.505358577 0.116411850 0.807667136
11270.739128 -0.921027303 0.501407087 0.448650479 0.286344528 0.486458153 0.132982895 0.814666092
11270.775992 -0.925073862 0.508478940 0.447545141 0.296742618 0.476305783 0.142654806 0.815307438
11270.812855 -0.918213248 0.503987372 0.445683241 0.303685755 0.466552705 0.158858970 0.815393984
11270.849718 -0.914798141 0.504495442 0.438107938 0.310588539 0.453089893 0.169444248 0.818249941
11270.886582 -0.916571856 0.504554152 0.433888257 0.313349426 0.444201320 0.172301590 0.821467876
11270.923445 -0.914318442 0.506896675 0.431663573 0.320455670 0.432997495 0.174445182 0.824251294
11270.960309 -0.922328055 0.505540133 0.428489625 0.323551953 0.425463349 0.170463890 0.827790499
11271.034035 0.000000000 0.000000000 0.000000000 0.000000000 0.000000000 0.000000000 1.000000000
11271.107762 0.551775217 0.015002320 0.037005216 -0.129422799 -0.429078668 0.208424196 0.869310439
11271.144625 0.537299216 0.003713686 0.008008540 -0.126256064 -0.418397218 0.197820932 0.877422392
11271.181489 0.519321382 -0.006841727 -0.016618177 -0.128586471 -0.406748682 0.182583913 0.885824025
11271.218352 0.499963164 -0.018064063 -0.038807660 -0.129304335 -0.392873973 0.169476017 0.894543648
11271.255215 0.480943292 -0.028113268 -0.058346495 -0.122111335 -0.376131773 0.159172058 0.904587150
11271.292079 0.457538486 -0.037948947 -0.078746155 -0.111777954 -0.354213744 0.150697857 0.916148663
11271.328942 0.437867820 -0.047751762 -0.096382722 -0.102273218 -0.333857358 0.139444366 0.926625431
11271.365806 0.418027997 -0.057528336 -0.112546772 -0.096315019 -0.312692165 0.125614017 0.936572552
11271.402669 0.390612155 -0.060927693 -0.131579369 -0.089554325 -0.288404316 0.101494059 0.947893441
11271.439532 0.369963229 -0.064500585 -0.145681679 -0.090014085 -0.265956670 0.083436891 0.956139505
11271.476396 0.344807386 -0.062796272 -0.160860837 -0.089734763 -0.240152791 0.062819436 0.964535117
11271.513259 0.319332451 -0.056966424 -0.171077624 -0.087379098 -0.216260865 0.044726830 0.971388519
11271.550122 0.283686459 -0.047890879 -0.185006440 -0.079038091 -0.188229635 0.023480013 0.978657901
11271.586986 0.264242917 -0.037736755 -0.185658514 -0.071290024 -0.173479393 0.014806809 0.982142270
11271.623849 0.237089962 -0.030628238 -0.195564926 -0.064561769 -0.153835565 0.009729393 0.985936999
11271.660712 0.206900507 -0.024541480 -0.200294152 -0.061817724 -0.137287691 0.006767614 0.988577187
11271.697576 0.177751273 -0.020807020 -0.200940430 -0.060343530 -0.124003522 0.006463099 0.990424156
11271.734439 0.148389816 -0.019255683 -0.202206776 -0.062929675 -0.109623358 0.011963455 0.991907001
11271.771303 0.118426301 -0.019079177 -0.201822549 -0.068732753 -0.095807709 0.017226717 0.992874563
11271.808166 0.087508097 -0.017815640 -0.200118080 -0.070995159 -0.084878154 0.019097442 0.993675351
11271.845029 0.062419284 -0.020270849 -0.193013638 -0.071387514 -0.078638233 0.023192193 0.994073391
11271.881893 0.037257165 -0.025786638 -0.198961437 -0.067287229 -0.072979361 0.020983119 0.994839787
11271.918756 0.013060946 -0.030002423 -0.197789952 -0.064566970 -0.068264104 0.016218888 0.995443642
11271.955620 -0.010661142 -0.033288091 -0.190310284 -0.065546602 -0.063549966 0.009832444 0.995775223
11271.992483 -0.035441607 -0.032924049 -0.185665265 -0.069770671 -0.055522569 -0.001356665 0.996015787
11272.029346 -0.059566777 -0.032528255 -0.186619163 -0.074351087 -0.047171444 -0.012685755 0.996035039
11272.066210 -0.085616492 -0.030764701 -0.190091074 -0.075710498 -0.036285397 -0.023284608 0.996197343
11272.103073 -0.107562259 -0.026837897 -0.192080349 -0.074004933 -0.025896057 -0.033128105 0.996371031
11272.139936 -0.131214187 -0.020811196 -0.197536021 -0.070378169 -0.014572712 -0.043649800 0.996458352
11272.176800 -0.155249819 -0.013870945 -0.206339315 -0.068152532 -0.001641296 -0.053777687 0.996223092
11272.213663 -0.178426906 -0.006525796 -0.212948307 -0.063583873 0.013439357 -0.061880458 0.995965481
11272.250526 -0.200459331 -0.001828091 -0.222399563 -0.058726024 0.028558196 -0.067329146 0.995591521
11272.287390 -0.221443206 0.002838928 -0.229221702 -0.056968912 0.046910338 -0.068705797 0.994903743
11272.324253 -0.242868185 0.003953878 -0.233344436 -0.053791817 0.068360560 -0.065272093 0.994068801
11272.361117 -0.262111157 0.002628982 -0.237186790 -0.050659027 0.090101667 -0.060857508 0.992779791
11272.397980 -0.278477997 -0.002525741 -0.238900870 -0.051419854 0.112110205 -0.056605481 0.990748763
11272.434844 -0.298184931 -0.008050760 -0.236588851 -0.051070113 0.137393966 -0.056289058 0.987596214
11272.471707 -0.304476470 -0.015073599 -0.228067428 -0.050514732 0.154579014 -0.053610265 0.985230684
11272.508570 -0.311102509 -0.021452455 -0.223918855 -0.046082228 0.166262731 -0.055739444 0.983425796
11272.545434 -0.322874904 -0.021416623 -0.223280162 -0.037347678 0.176943555 -0.058769468 0.981754720
11272.582297 -0.329876721 -0.014120774 -0.213083372 -0.032864965 0.186938301 -0.060769625 0.979939282
11272.619160 -0.331974655 -0.007838408 -0.208135724 -0.035941157 0.190791547 -0.061849911 0.979020655
11272.656024 -0.332092613 -0.000742037 -0.201577067 -0.041212343 0.190462247 -0.062855795 0.978812993
11272.692887 -0.329091370 0.004924811 -0.193063587 -0.047142684 0.186022654 -0.062523864 0.979420185
