11269.485774 0.0000000 0.0000000 0.0000000 0.0000000 0.0000000 0.0000000 1.0000000
11269.522637 -0.0311954 0.0199544 -0.0009157 -0.0049242 0.0200964 0.0035298 0.9997797
11269.559500 -0.0627291 0.0346761 -0.0006048 -0.0118269 0.0398208 0.0074080 0.9991094
11269.596364 -0.0960320 0.0496567 0.0051933 -0.0163745 0.0571117 0.0103574 0.9981798
11269.633227 -0.1282734 0.0604832 0.0095477 -0.0115033 0.0672055 0.0078863 0.9976417
11269.670091 -0.1606688 0.0705893 0.0163235 -0.0031087 0.0767239 0.0049191 0.9970354
11269.743817 -0.2248639 0.0877524 0.0318422 -0.0071125 0.1106210 -0.0008912 0.9938368
11269.817544 -0.2865779 0.1053887 0.0470365 -0.0077382 0.1489618 -0.0068519 0.9887890
11269.891271 -0.3511338 0.1299136 0.0576146 0.0081002 0.1815431 -0.0140380 0.9832494
11269.964998 -0.4175876 0.1652515 0.0722094 0.0346199 0.2067055 -0.0120724 0.9777160
11270.001861 -0.4461291 0.1813626 0.0772326 0.0458368 0.2169305 -0.0040790 0.9751018
11270.038724 -0.4757376 0.1967341 0.0820435 0.0516933 0.2256870 0.0087243 0.9727883
11270.075588 -0.5034081 0.2102468 0.0869351 0.0561365 0.2332151 0.0193086 0.9706115
11270.112451 -0.5309486 0.2231396 0.0958711 0.0573194 0.2427950 0.0326405 0.9678324
11270.149314 -0.5589442 0.2356165 0.1051773 0.0614648 0.2557057 0.0434378 0.9638204
11270.223041 -0.6108495 0.2486942 0.1269072 0.0767144 0.2939542 0.0457618 0.9516363
11270.259904 -0.6345825 0.2536743 0.1369455 0.0818933 0.3201121 0.0375570 0.9430860
11270.296768 -0.6550335 0.2643236 0.1502225 0.0897605 0.3484010 0.0317463 0.9324977
11270.333631 -0.6857524 0.2709144 0.1651016 0.0958065 0.3803721 0.0200009 0.9196402
11270.370495 -0.7113487 0.2820473 0.1774665 0.1089501 0.4018770 0.0044203 0.9091783
11270.407358 -0.7358417 0.3017003 0.1984548 0.1307940 0.4216054 -0.0138546 0.8971900
11270.444221 -0.7513269 0.3225264 0.2252561 0.1510222 0.4360709 -0.0341308 0.8864928
11270.481085 -0.7728188 0.3436620 0.2451076 0.1712701 0.4475686 -0.0444741 0.8765677
11270.517948 -0.7917880 0.3636340 0.2676545 0.1850872 0.4577537 -0.0503318 0.8681422
11270.554811 -0.8034438 0.3804539 0.2929572 0.1935964 0.4658757 -0.0490695 0.8620165
11270.591675 -0.8145183 0.3962238 0.3205304 0.1983769 0.4748966 -0.0493138 0.8559719
11270.628538 -0.8224303 0.4079684 0.3502773 0.2032612 0.4845234 -0.0434316 0.8497269
11270.665401 -0.8258513 0.4168041 0.3802873 0.2064720 0.4937046 -0.0329825 0.8441193
11270.702265 -0.8333059 0.4245279 0.4078385 0.2102295 0.5027636 -0.0234814 0.8381413
11270.739128 -0.8403339 0.4299364 0.4353120 0.2132995 0.5138363 -0.0210274 0.8306825
11270.775992 -0.8431270 0.4324122 0.4622299 0.2170784 0.5250762 -0.0186959 0.8226922
11270.812855 -0.8508592 0.4305523 0.4854156 0.2189459 0.5370150 -0.0187824 0.8144476
11270.849718 -0.8580694 0.4291640 0.5087643 0.2196037 0.5492781 -0.0211294 0.8059909
11270.886582 -0.8681537 0.4264779 0.5268306 0.2188969 0.5580183 -0.0228014 0.8001124
11270.923445 -0.8697671 0.4287560 0.5557780 0.2184122 0.5698544 -0.0351411 0.7914083
11270.960309 -0.8785144 0.4359651 0.5849839 0.2191311 0.5803121 -0.0525441 0.7825973
11270.997172 -0.8813804 0.4422272 0.6175584 0.2250989 0.5884730 -0.0735437 0.7730598
11271.034035 -0.8890520 0.4513633 0.6513256 0.2353530 0.5939252 -0.0973372 0.7631431
11271.070899 -0.8907556 0.4581445 0.6849760 0.2452677 0.5992795 -0.1152737 0.7532728
11271.107762 -0.8972432 0.4635450 0.7188047 0.2509382 0.6075922 -0.1247895 0.7431617
11271.144625 -0.9085683 0.4699852 0.7550057 0.2450409 0.6216096 -0.1340881 0.7318312
11271.218352 -0.9213085 0.4672690 0.8170106 0.2298159 0.6519035 -0.1354100 0.7098384
11271.255215 -0.9257612 0.4647214 0.8493459 0.2311067 0.6673318 -0.1407347 0.6938672
11271.292079 -0.9330086 0.4657961 0.8829964 0.2332039 0.6837558 -0.1525590 0.6744032
11271.328942 -0.9260522 0.4617137 0.9124298 0.2345526 0.7009717 -0.1620986 0.6537185
11271.365806 -0.9283821 0.4581145 0.9394492 0.2323997 0.7178899 -0.1676917 0.6344320
11271.402669 -0.9234609 0.4585928 0.9711814 0.2233351 0.7387336 -0.1764510 0.6109494
11271.439532 -0.9108664 0.4573528 0.9980163 0.2132187 0.7589219 -0.1807242 0.5881447
11271.476396 -0.8970504 0.4590528 1.0255064 0.2026559 0.7800002 -0.1837513 0.5628195
11271.550122 -0.8726469 0.4739646 1.0841106 0.1811778 0.8153239 -0.2002077 0.5121897
11271.586986 -0.8528671 0.4786085 1.1090240 0.1791326 0.8277479 -0.2076687 0.4895086
11271.660712 -0.8182023 0.4830842 1.1512654 0.1807002 0.8424483 -0.2136831 0.4603996
11271.697576 -0.7996333 0.4802062 1.1709409 0.1843229 0.8471116 -0.2124004 0.4509026
11271.734439 -0.7761284 0.4751676 1.1928406 0.1873773 0.8531607 -0.2087516 0.4398061
11271.771303 -0.7609304 0.4697145 1.2141997 0.1917196 0.8577647 -0.1997896 0.4330905
11271.808166 -0.7384726 0.4613829 1.2320418 0.1974444 0.8612347 -0.1933050 0.4265251
11271.845029 -0.7206157 0.4531272 1.2526938 0.1979535 0.8635304 -0.1941704 0.4212214
11271.881893 -0.7121251 0.4486807 1.2746018 0.1981829 0.8646717 -0.1986358 0.4166655
11271.918756 -0.7014889 0.4404238 1.2943298 0.1988727 0.8667000 -0.1998817 0.4114949
11271.955620 -0.6918923 0.4357942 1.3158449 0.1905183 0.8705559 -0.2026689 0.4059071
11272.029346 -0.6558442 0.4182899 1.3403589 0.1737827 0.8821401 -0.1970111 0.3909157
11272.103073 -0.6237094 0.4168136 1.3743317 0.1613072 0.8930945 -0.2004074 0.3690515
11272.139936 -0.6084510 0.4195056 1.3908465 0.1553632 0.8980649 -0.2046627 0.3570082
11272.176800 -0.5951117 0.4238571 1.4095037 0.1505001 0.9032493 -0.2065004 0.3447434
11272.287390 -0.5604914 0.4361873 1.4666719 0.1532253 0.9178496 -0.2093481 0.3004122
11272.324253 -0.5466219 0.4357527 1.4854202 0.1602799 0.9231930 -0.2068862 0.2814660
11272.361117 -0.5399693 0.4344959 1.5000817 0.1719387 0.9266181 -0.2034525 0.2653735
11272.434844 -0.5352091 0.4207176 1.5064456 0.1849945 0.9343614 -0.1919758 0.2364129
11272.471707 -0.5345795 0.4140143 1.5173242 0.1894802 0.9377105 -0.1894341 0.2211582
11272.508570 -0.5240605 0.4096140 1.5212235 0.1937200 0.9393609 -0.1942563 0.2057624
11272.545434 -0.5325533 0.4188502 1.5221903 0.1943539 0.9371679 -0.2057702 0.2039645
11272.619160 -0.5310118 0.4156207 1.5175816 0.1919311 0.9394315 -0.2008127 0.2007616
