4030.007200 0.000000000 0.000000000 0.000000000 0.000000000 0.000000000 0.000000000 1.000000000
4030.044064 0.015423824 -0.006568425 0.006683573 -0.000955477 -0.004267026 -0.000518615 0.999990284
4030.080927 0.027065521 -0.013609322 0.012830003 -0.001509054 -0.005968520 -0.000827681 0.999980688
4030.117791 0.036993738 -0.019858887 0.021724189 0.000996552 -0.007280680 0.000610262 0.999972820
4030.154654 0.047001097 -0.030016076 0.025902661 0.002165387 -0.009656346 0.006264166 0.999931395
4030.191517 0.054481000 -0.037065819 0.033091474 0.005932755 -0.013446792 0.013553740 0.999800146
4030.228381 0.060244191 -0.049122509 0.041380908 0.006672880 -0.019740893 0.018741548 0.999607205
4030.265244 0.061653525 -0.053333227 0.052900556 0.012403525 -0.026836006 0.023900315 0.999277115
4030.302108 0.064075232 -0.070771053 0.056344401 0.011116633 -0.037267633 0.024479097 0.998943567
4030.338971 0.062394843 -0.075743318 0.065152757 0.018758217 -0.047101937 0.023433406 0.998438954
4030.375834 0.060239367 -0.093108788 0.070427902 0.021508316 -0.056651786 0.022452302 0.997909725
4030.412697 0.054710168 -0.098661214 0.076695099 0.029074520 -0.063294530 0.022618026 0.997314870
4030.449561 0.045941245 -0.115634158 0.081658669 0.028994842 -0.066762872 0.023742210 0.997064829
4030.486424 0.038625617 -0.123263530 0.086988159 0.032892454 -0.070104539 0.024804693 0.996688604
4030.523288 0.031288467 -0.131647214 0.091605924 0.034648109 -0.073447637 0.025057003 0.996381998
4030.560151 0.018569451 -0.142913789 0.097335473 0.031169511 -0.072930053 0.026393073 0.996500432
4030.597014 0.009806750 -0.150745124 0.101677351 0.027384451 -0.073426045 0.026416777 0.996574581
4030.633878 0.002711406 -0.159567237 0.105550781 0.019120766 -0.072804898 0.028451616 0.996756911
4030.670741 -0.009685365 -0.168977246 0.109990865 0.007669257 -0.066528305 0.031210765 0.997266769
4030.707604 -0.019656211 -0.173115984 0.112316549 -0.000356580 -0.060415380 0.037445843 0.997470617
4030.744468 -0.030343603 -0.177514106 0.115204118 -0.008047251 -0.054892369 0.043419011 0.997515380
4030.781331 -0.046103217 -0.180867687 0.117846340 -0.014006343 -0.047300149 0.048755109 0.997591794
4030.818194 -0.056959528 -0.182993606 0.118629552 -0.018069956 -0.045296080 0.053003117 0.997402847
4030.855057 -0.071038783 -0.183464408 0.120628163 -0.019903701 -0.043097049 0.053874716 0.997418642
4030.891921 -0.088226356 -0.187301278 0.123647183 -0.024570955 -0.038660400 0.051544629 0.997619569
4030.928784 -0.102439709 -0.189425200 0.127517879 -0.027727460 -0.036455087 0.047326084 0.997828841
4030.965648 -0.115837477 -0.193511248 0.129061744 -0.033148713 -0.033287816 0.044991013 0.997882187
4031.002511 -0.130045652 -0.191809654 0.130951881 -0.033723671 -0.027621275 0.045257982 0.998023808
4031.039374 -0.143533424 -0.195366055 0.132655308 -0.037571270 -0.022452179 0.042744156 0.998126864
4031.076238 -0.157724783 -0.197655916 0.133780956 -0.039131943 -0.016629200 0.040042974 0.998292923
4031.113101 -0.174768001 -0.199163824 0.137263238 -0.037684806 -0.007960776 0.037630212 0.998549163
4031.149964 -0.187674105 -0.200137943 0.137590811 -0.034702141 -0.004097660 0.036654346 0.998716891
4031.186828 -0.202987328 -0.202640489 0.139471769 -0.036242504 0.001992216 0.035796508 0.998699725
4031.223691 -0.217013299 -0.207567334 0.141146466 -0.041636743 0.006768646 0.035791054 0.998468578
4031.260554 -0.232526928 -0.211368918 0.144059926 -0.045060784 0.011029147 0.038370382 0.998186171
4031.297418 -0.248138264 -0.215365693 0.146798790 -0.046285883 0.013407634 0.042204209 0.997946203
4031.334281 -0.261003733 -0.219696313 0.146685258 -0.046093475 0.011297468 0.044705667 0.997872353
4031.371145 -0.273793310 -0.225720018 0.151742697 -0.045898058 0.010486194 0.049015235 0.997687817
4031.408008 -0.285933912 -0.231609732 0.153118640 -0.046351831 0.009964163 0.052696537 0.997484505
4031.444871 -0.296048760 -0.235119879 0.158001333 -0.045882512 0.010039938 0.055807643 0.997336209
4031.481735 -0.306576252 -0.238475502 0.163247705 -0.047109757 0.012018226 0.057515100 0.997160137
4031.518598 -0.314090580 -0.243772507 0.167430729 -0.048349343 0.012907038 0.061729889 0.996837556
4031.555461 -0.319961756 -0.250638902 0.171778783 -0.048967000 0.013840275 0.065605216 0.996547341
4031.592325 -0.324291408 -0.259885341 0.176511705 -0.050921034 0.014763171 0.067049339 0.996340036
4031.629188 -0.327918321 -0.265661508 0.182862341 -0.049333930 0.015870012 0.069570355 0.996230006
4031.666051 -0.328902155 -0.272808909 0.186508119 -0.047350064 0.014672334 0.072851613 0.996110082
4031.702914 -0.328377366 -0.279024631 0.191627249 -0.044183876 0.012396092 0.075036414 0.996124327
4031.739778 -0.325630099 -0.282567322 0.193074673 -0.038716473 0.008016434 0.077608675 0.996199608
4031.776641 -0.320992470 -0.287547201 0.196678475 -0.034417350 0.003149860 0.082510762 0.995990753
4031.813505 -0.315870374 -0.293779314 0.197852507 -0.034866966 -0.000960321 0.088224337 0.995489776
4031.850368 -0.310954422 -0.294726849 0.200113147 -0.034180470 -0.005537408 0.093021311 0.995061815
4031.887231 -0.303015023 -0.298107773 0.203583136 -0.035805169 -0.011463321 0.095100828 0.994757473
4031.924095 -0.291310370 -0.303576231 0.205802232 -0.037490614 -0.018791109 0.095788121 0.994517922
4031.960958 -0.276637763 -0.309370458 0.207068905 -0.039584883 -0.026845679 0.096649893 0.994168580
4031.997821 -0.268456370 -0.309855163 0.209433019 -0.037385199 -0.028655555 0.096243635 0.994242609
4032.034685 -0.251892120 -0.314720988 0.208632261 -0.037967861 -0.032451633 0.100647129 0.993667722
4032.071548 -0.225607306 -0.320214391 0.210797533 -0.039996993 -0.040620338 0.102142133 0.993135035
4032.108411 -0.210100487 -0.322848797 0.211618185 -0.040129725 -0.041372437 0.104556568 0.992847383
4032.145275 -0.191632926 -0.329231679 0.221070200 -0.043324355 -0.044640172 0.103166729 0.992716908
4032.182138 -0.170742363 -0.333429962 0.225318402 -0.044135801 -0.051539999 0.105311811 0.992121518
4032.219002 -0.157633379 -0.337218821 0.223848149 -0.042198256 -0.053886965 0.102246672 0.992401719
4032.255865 -0.141978920 -0.339023083 0.230211735 -0.040806532 -0.059900369 0.099175729 0.992426813
4032.292728 -0.121003404 -0.343286425 0.227477938 -0.042849429 -0.071160555 0.095043018 0.992001474
4032.329592 -0.101740509 -0.347045481 0.228671655 -0.043637797 -0.082209133 0.091345482 0.991460204
4032.366455 -0.090630233 -0.351149768 0.230168998 -0.042586856 -0.087361723 0.083637409 0.991745472
4032.403318 -0.080160409 -0.355754733 0.224682420 -0.039253041 -0.090406343 0.077783629 0.992086530
4032.440181 -0.056909047 -0.367005914 0.225093335 -0.040112060 -0.101112932 0.076449715 0.991121888
4032.477045 -0.040808890 -0.371653080 0.227055639 -0.038462911 -0.108946219 0.071954817 0.990693629
4032.513908 -0.025161937 -0.377320379 0.226979226 -0.038153291 -0.116787083 0.066457994 0.990196168
4032.550771 -0.002031647 -0.389029533 0.229991511 -0.041365702 -0.131494969 0.063439958 0.988419592
4032.587635 0.010480840 -0.392090738 0.234380990 -0.042918928 -0.140722111 0.057551712 0.987442732
4032.624498 0.022516541 -0.393177569 0.237515435 -0.044133339 -0.149920076 0.051628876 0.986362338
4032.661361 0.045226999 -0.395987034 0.244031936 -0.047245037 -0.166384995 0.046063676 0.983850658
4032.698225 0.056458138 -0.394506007 0.250781476 -0.047233272 -0.175558671 0.037770309 0.982609570
4032.735088 0.068486840 -0.394909352 0.249901593 -0.047920652 -0.181495488 0.029320521 0.981785774
4032.771952 0.092890188 -0.393759191 0.250833452 -0.047751095 -0.192862406 0.018831534 0.979882300
4032.808815 0.108180963 -0.388551861 0.256666541 -0.046176903 -0.199912354 0.012397035 0.978646517
4032.845678 0.124433413 -0.387221575 0.256154448 -0.050957121 -0.201083779 0.009719633 0.978199482
4032.882542 0.138553679 -0.383165032 0.259863138 -0.054030664 -0.202842966 0.003064139 0.977714717
4032.919405 0.152472019 -0.379322052 0.262328029 -0.057990503 -0.202623516 -0.005110350 0.977524757
4032.956268 0.170407608 -0.370919943 0.270808011 -0.059628416 -0.206207916 -0.011936351 0.976616740
4032.993132 0.184435159 -0.364779145 0.272633135 -0.061306112 -0.205527619 -0.019233117 0.976539850
4033.029995 0.197007969 -0.357735693 0.277643204 -0.061712734 -0.205332235 -0.025179174 0.976420105
4033.066859 0.209728062 -0.351371586 0.280021518 -0.063425958 -0.203145012 -0.032159053 0.976562858
4033.103722 0.222598508 -0.345235825 0.283906698 -0.063948832 -0.203843966 -0.041768305 0.976019263
4033.140585 0.234975785 -0.338813961 0.287254483 -0.064603046 -0.205835074 -0.048631385 0.975240111
4033.177449 0.241792619 -0.322404683 0.302645534 -0.060730401 -0.206370026 -0.055090003 0.975032449
4033.214312 0.248068899 -0.320182890 0.304577410 -0.064267769 -0.205950588 -0.063530721 0.974380732
4033.251175 0.258867949 -0.318624496 0.306595385 -0.065843239 -0.210483238 -0.070370734 0.972835779
4033.288038 0.260773510 -0.318074405 0.310218394 -0.067548960 -0.212317273 -0.074973598 0.971976042
4033.324902 0.268651158 -0.319581568 0.309996694 -0.067956388 -0.216954425 -0.075863369 0.970853984
4033.361765 0.281257778 -0.320376843 0.303618491 -0.062194597 -0.224306554 -0.075410604 0.969603837
4033.398628 0.278001994 -0.322359532 0.309430718 -0.058035925 -0.232450545 -0.075804241 0.967911303
4033.435492 0.285939366 -0.326027095 0.306001246 -0.052179534 -0.242526829 -0.076444432 0.965719581
4033.472355 0.290279150 -0.329642177 0.307691187 -0.049359340 -0.253404319 -0.076314203 0.963081539
4033.509218 0.293314070 -0.333210349 0.309205085 -0.047880564 -0.264573425 -0.079098918 0.959922791
4033.546082 0.292595565 -0.331759542 0.310786843 -0.047529519 -0.275938809 -0.079421423 0.956708372
4033.582945 0.283826292 -0.330342680 0.326818585 -0.049550634 -0.289597005 -0.087287121 0.951871455
4033.619809 0.279419214 -0.328020573 0.332187802 -0.048330866 -0.292730749 -0.091461301 0.950582802
4033.656672 0.294995278 -0.337718189 0.319019645 -0.049426630 -0.292071581 -0.103620678 0.949480891
4033.693535 0.296759844 -0.336179465 0.317797810 -0.048296690 -0.291553229 -0.102908999 0.949775696
4033.730399 0.297038764 -0.336764693 0.321576625 -0.046404939 -0.288827866 -0.108245008 0.950109482
4033.767262 0.297989577 -0.338547409 0.324750215 -0.045505457 -0.285938174 -0.116056286 0.950105011
4033.804125 0.299393862 -0.339005798 0.324658751 -0.043993101 -0.283553392 -0.125531673 0.949686170
4033.840989 0.299542338 -0.339796841 0.328298628 -0.043126862 -0.280968100 -0.133841902 0.949359417
4033.877852 0.299971461 -0.340376645 0.332566470 -0.042935606 -0.278485239 -0.139414340 0.949297726
4033.914715 0.300529897 -0.340865314 0.338494956 -0.042478118 -0.276839644 -0.142831206 0.949291646
4033.951579 0.303294778 -0.342695445 0.338582247 -0.041441672 -0.276984632 -0.148464188 0.948430538
4033.988442 0.306834221 -0.344634265 0.342436910 -0.040821224 -0.278265327 -0.152994305 0.947362006
4034.025306 0.308062047 -0.345571429 0.347004652 -0.039210837 -0.278531551 -0.157485902 0.946615458
4034.062169 0.309834599 -0.347170115 0.350256026 -0.035664298 -0.279070616 -0.162908912 0.945678771
4034.099032 0.312809289 -0.349282652 0.352584034 -0.031340335 -0.279779643 -0.165739089 0.945130467
4034.135895 0.315533608 -0.351870745 0.358307809 -0.028965008 -0.280201018 -0.166083843 0.945020914
4034.172759 0.318981171 -0.354105830 0.360568583 -0.024861045 -0.280182987 -0.168524444 0.944711030
4034.209622 0.323722988 -0.357805252 0.360123008 -0.020063644 -0.281216979 -0.174862877 0.943364918
4034.246485 0.330700934 -0.363742381 0.356207728 -0.016391963 -0.282963365 -0.179480270 0.942045569
4034.283349 0.335596979 -0.366260529 0.357089639 -0.013071239 -0.281889707 -0.184629261 0.941424131
4034.320212 0.340444654 -0.370370924 0.357247591 -0.012568174 -0.280228734 -0.191727102 0.940507650
4034.357075 0.346951455 -0.378436834 0.356118381 -0.014751486 -0.278995186 -0.200252980 0.939064860
4034.393939 0.354054093 -0.385003895 0.354737908 -0.016401399 -0.277341962 -0.208599582 0.937709212
4034.430802 0.358025998 -0.388377726 0.358202457 -0.013836571 -0.275327861 -0.217380777 0.936348617
4034.467666 0.363508135 -0.392688721 0.355604470 -0.009428210 -0.272299558 -0.224081576 0.935709059
4034.504529 0.368016273 -0.397955120 0.351962686 -0.004337206 -0.267947018 -0.228091747 0.936034024
4034.541392 0.374058008 -0.403562814 0.352723897 -0.001734365 -0.269394606 -0.232428640 0.934558988
4034.578255 0.378410697 -0.406814516 0.353199601 -0.000085931 -0.269707918 -0.233696565 0.934153914
4034.615119 0.382736772 -0.408827245 0.353532761 0.001146962 -0.271543384 -0.235909104 0.933064759
4034.651982 0.386343747 -0.412611037 0.353814334 0.000745572 -0.274041355 -0.239331648 0.931461811
4034.688846 0.391136527 -0.417816967 0.352945775 -0.000050570 -0.277827591 -0.241926163 0.929668486
4034.725709 0.395112813 -0.420710504 0.351790935 0.000857838 -0.281232685 -0.242667556 0.928450286
4034.762572 0.400593549 -0.423862219 0.350501060 0.002984032 -0.285472453 -0.243554920 0.926918328
4034.799436 0.406555742 -0.426638275 0.347652197 0.005643721 -0.289214432 -0.242611036 0.925992966
4034.836299 0.412482291 -0.429207861 0.345431328 0.007171273 -0.292878479 -0.240512237 0.925378084
4034.873162 0.418409288 -0.431018293 0.344123006 0.007325156 -0.297095180 -0.238994285 0.924425542
4034.910026 0.424097687 -0.434203088 0.341510952 0.006479377 -0.301708460 -0.239418760 0.922826469
4034.946889 0.432741433 -0.437818825 0.336673409 0.004728013 -0.306222320 -0.240444839 0.921081901
4034.983752 0.441286653 -0.440647840 0.335308999 -0.000540922 -0.310019433 -0.238958836 0.920209944
4035.020616 0.449227363 -0.443360656 0.331753224 -0.005967392 -0.312205583 -0.240340143 0.919091225
4035.057479 0.460538357 -0.446246296 0.329189420 -0.012516546 -0.314153939 -0.240845323 0.918228805
4035.094342 0.472822636 -0.450297326 0.322909296 -0.020260409 -0.312839687 -0.244419932 0.917594552
4035.131206 0.486563265 -0.452000707 0.320540607 -0.029468557 -0.310260773 -0.243613631 0.918434680
4035.168069 0.496763647 -0.455684572 0.317673296 -0.039892878 -0.305340350 -0.245156780 0.919279039
4035.204932 0.504936099 -0.461176366 0.312653899 -0.051183209 -0.299026132 -0.251064450 0.919200897
4035.241796 0.515168190 -0.462492436 0.310273737 -0.060642887 -0.295137733 -0.254286677 0.918996453
4035.278659 0.524290085 -0.468628883 0.305866718 -0.071543470 -0.291158706 -0.261549115 0.917442203
4035.315523 0.532971323 -0.472284704 0.301091433 -0.080463402 -0.287123412 -0.267641038 0.916217268
4035.352386 0.537349761 -0.471770376 0.304224223 -0.087393090 -0.283280998 -0.268023968 0.916666508
4035.389249 0.541129470 -0.473253787 0.304934680 -0.093392730 -0.279225916 -0.272091031 0.916120708
4035.426112 0.546333969 -0.477373749 0.303769052 -0.100727916 -0.275794357 -0.275466442 0.915374041
4035.462976 0.558425367 -0.480324000 0.298511565 -0.108212844 -0.274907976 -0.271303326 0.916029513
4035.499839 0.565233648 -0.484421015 0.296861112 -0.114284270 -0.274493694 -0.274133205 0.914572716
4035.536703 0.571761966 -0.489160776 0.293217570 -0.119594283 -0.274474651 -0.277060002 0.913016200
4035.573566 0.578259051 -0.497096002 0.289854199 -0.123012953 -0.276227474 -0.282533586 0.910352111
4035.610429 0.585090876 -0.492086828 0.290233910 -0.122160099 -0.278595358 -0.275933713 0.911768675
4035.647293 0.588741004 -0.489631444 0.292955101 -0.120109737 -0.280347049 -0.275163502 0.911736906
4035.684156 0.594444454 -0.496427268 0.287188828 -0.121464707 -0.281387478 -0.280307233 0.909667671
4035.721019 0.609650254 -0.506933153 0.274402201 -0.122567192 -0.284558892 -0.285989881 0.906759799
4035.757883 0.614747524 -0.509412169 0.272865534 -0.124546602 -0.288529605 -0.291083723 0.903608918
4035.794746 0.615918994 -0.507004678 0.273499250 -0.127132878 -0.293695748 -0.292737246 0.901046574
4035.831609 0.617902577 -0.507905841 0.272357374 -0.131014168 -0.297112823 -0.299384862 0.897177815
4035.868473 0.633107305 -0.519443691 0.259016067 -0.135733843 -0.302035451 -0.304420978 0.893128633
4035.905336 0.648747504 -0.528675675 0.246879667 -0.138664916 -0.305715710 -0.309209704 0.889774859
4035.942199 0.651886463 -0.534195423 0.240978956 -0.140389785 -0.305518389 -0.318042010 0.886452794
4035.979063 0.659527540 -0.536844015 0.237173527 -0.139892474 -0.305502266 -0.319308221 0.886081696
4036.015926 0.659995794 -0.537588418 0.235512972 -0.138478935 -0.300484270 -0.326102346 0.885545075
4036.052789 0.667750180 -0.542454660 0.228460431 -0.135584906 -0.296759576 -0.330783039 0.885512888
4036.089653 0.676054537 -0.556258678 0.219474435 -0.134015143 -0.292134821 -0.343281448 0.882527649
4036.126516 0.696024120 -0.573298931 0.205967784 -0.133253664 -0.288495958 -0.349395484 0.881439924
4036.163380 0.707625389 -0.581091523 0.197329909 -0.130674988 -0.283481985 -0.356017858 0.880802631
4036.200243 0.714553475 -0.589705765 0.194960922 -0.128636912 -0.281019419 -0.367550403 0.877147257
4036.237106 0.704150319 -0.587728858 0.198878914 -0.126253009 -0.272331774 -0.382017344 0.874047101
4036.273969 0.718126178 -0.596498132 0.189642370 -0.126658976 -0.271244407 -0.385922611 0.872609735
4036.310833 0.726170599 -0.605945528 0.182650477 -0.128460184 -0.268105865 -0.393105835 0.870106339
4036.347696 0.729790688 -0.607168913 0.181543946 -0.130786926 -0.265258044 -0.397472441 0.868647516
4036.421423 0.732454479 -0.610857368 0.178014874 -0.135149911 -0.255631357 -0.405859351 0.866986334
4036.458286 0.731287360 -0.615924776 0.175911278 -0.137245491 -0.248224661 -0.415672272 0.864155531
4036.495150 0.737343550 -0.619388342 0.176861703 -0.140108168 -0.245497122 -0.414523184 0.865026832
4036.532013 0.740213156 -0.622995853 0.169934422 -0.140399963 -0.238298640 -0.420253128 0.864227355
4036.568876 0.742102087 -0.624655068 0.168087274 -0.143116578 -0.230342716 -0.419586480 0.866260409
4036.605740 0.744271159 -0.628549576 0.159427881 -0.143171713 -0.217656881 -0.424614578 0.867081165
4036.642603 0.748175144 -0.630403817 0.154114246 -0.142442957 -0.208967373 -0.427676648 0.867833734
4036.679466 0.750722170 -0.634273529 0.149373949 -0.141836151 -0.199936971 -0.429532439 0.869143009
4036.716330 0.765349567 -0.646675706 0.127947718 -0.139370695 -0.191308275 -0.431091547 0.870710671
4036.753193 0.768013537 -0.650146723 0.122318238 -0.138228714 -0.180728540 -0.433007866 0.872200787
4036.790056 0.771932244 -0.652304113 0.115155280 -0.138696611 -0.170839295 -0.432070047 0.874581456
4036.826920 0.774991930 -0.658618748 0.105697036 -0.141199946 -0.163080812 -0.436958611 0.873232126
4036.863783 0.778343976 -0.662064493 0.098782003 -0.144326404 -0.157285303 -0.437057823 0.873734295
4036.900646 0.782772362 -0.666984439 0.090612382 -0.146734908 -0.154496163 -0.436974257 0.873872578
