ply
format ascii 1.0
comment author: Gordon Liu
element vertex 2368
property double x
property double y
property double z
property uchar red
property uchar green
property uchar blue
end_header
0.00248341 -0.0603123 0.304356 255 0 0
0.202311 0.0223134 0.399129 255 0 0
0.21029 0.0498193 0.296917 255 0 0
0.151913 0.089642 0.335846 255 0 0
0.120122 0.123044 0.521451 255 0 0
0.0220045 0.2182 0.752046 255 0 0
0.189732 0.0214677 0.89372 255 0 0
0.1238 -0.000169668 0.887421 255 0 0
-0.0644857 0.0317002 0.783624 255 0 0
0.108493 0.0684619 0.847694 255 0 0
0.138971 0.061442 0.478143 255 0 0
0.140698 0.0777127 0.400187 255 0 0
-0.0259519 -0.0504049 0.470815 255 0 0
-0.0403938 -0.029813 0.417006 255 0 0
-0.0398882 -0.0300208 0.415547 255 0 0
0.220687 0.0285793 0.389252 255 0 0
0.0940744 0.128707 0.742496 255 0 0
0.0967639 0.102639 0.628319 255 0 0
-0.202121 -0.0819276 0.563657 255 0 0
0.0971576 0.197405 0.737661 255 0 0
0.0940005 0.190037 0.72659 255 0 0
0.130479 0.180365 0.733045 255 0 0
-0.0322568 -0.028613 0.410504 255 0 0
-0.0268544 -0.0255197 0.402842 255 0 0
0.140022 0.0582543 0.452893 255 0 0
-0.00934755 0.101805 0.721275 255 0 0
-0.334556 -0.0237004 1.03617 255 0 0
-0.320346 0.0245118 0.942501 255 0 0
0.184905 -0.0447674 0.866394 255 0 0
0.174005 0.0134815 0.773002 255 0 0
0.121352 0.109119 0.522128 255 0 0
0.0440982 0.193745 0.740221 255 0 0
0.110318 0.128152 0.857897 255 0 0
-0.101548 -0.103555 0.468179 255 0 0
0.155371 0.0168575 0.815863 255 0 0
0.0953276 0.0692928 0.754411 255 0 0
0.0313414 0.231183 0.799635 255 0 0
0.0724861 0.109663 0.513696 255 0 0
-0.0277615 -0.0267485 0.424737 255 0 0
0.0969526 0.330743 1.01828 255 0 0
0.0626968 0.249331 0.769331 255 0 0
0.105195 0.107485 0.62875 255 0 0
0.0626172 0.204999 0.431611 255 0 0
0.18067 0.0582277 0.385863 255 0 0
0.189344 0.0794778 0.312543 255 0 0
0.0928759 0.187734 0.710686 255 0 0
0.173206 -0.0396241 0.810761 255 0 0
-0.283183 -0.0490569 0.818171 255 0 0
0.0801554 0.0177727 0.880548 255 0 0
-0.188312 -0.0619037 0.75582 255 0 0
0.103319 0.0702555 0.803415 255 0 0
0.178484 0.00291876 0.771951 255 0 0
0.149102 0.121738 0.685032 255 0 0
0.11078 0.0832118 0.51 255 0 0
-0.0121152 0.00638501 0.641837 255 0 0
0.083605 -0.00250187 0.980887 255 0 0
0.11249 -0.0257101 1.04702 255 0 0
-0.257777 0.0192089 0.774181 255 0 0
-0.261365 -0.0464124 0.758925 255 0 0
-0.175793 -0.0808484 0.52624 255 0 0
0.182724 -0.0274275 0.575173 255 0 0
0.0916613 0.0270295 1.00003 255 0 0
0.179187 -0.0406885 0.854882 255 0 0
0.0638577 0.0608954 0.804974 255 0 0
0.00432434 0.0305553 0.554447 255 0 0
-0.213837 -0.0956542 0.634654 255 0 0
0.197542 0.00442365 0.866786 255 0 0
-0.0119209 0.00469459 0.595056 255 0 0
0.09598 0.0410283 0.797753 255 0 0
0.172093 0.0357226 0.670043 255 0 0
0.10884 0.0546972 0.854081 255 0 0
0.111514 0.07744 0.60218 255 0 0
-0.282331 0.0221199 0.849213 255 0 0
-0.333948 -0.0273752 1.04321 255 0 0
0.154507 -0.0233922 0.54504 255 0 0
0.0833171 -0.00759645 0.950094 255 0 0
0.00321356 0.0315978 0.573629 255 0 0
0.107703 -0.0203913 1.0327 255 0 0
0.095185 0.0971625 0.601406 255 0 0
0.117403 0.085025 0.632991 255 0 0
0.0577182 0.0518447 0.699733 255 0 0
0.177795 -0.037774 0.840128 255 0 0
-0.223199 0.103079 0.786126 255 0 0
0.211048 0.0285513 0.382347 255 0 0
0.2023 0.02736 0.406505 255 0 0
-0.104005 -0.0637014 0.373022 255 0 0
-0.103076 -0.063211 0.371028 255 0 0
-0.134173 -0.0972372 0.405923 255 0 0
-0.131362 -0.0960845 0.399419 255 0 0
-0.132141 -0.0962873 0.399234 255 0 0
-0.0115735 -0.014112 0.304413 255 0 0
0.162383 0.142583 0.299624 255 0 0
0.169109 0.136882 0.29124 255 0 0
0.202975 0.0760053 0.292212 255 0 0
0.205388 0.0694019 0.291211 255 0 0
0.188019 0.079537 0.312179 255 0 0
0.169103 0.118054 0.290449 255 0 0
0.202877 -0.0027068 0.811348 255 0 0
-0.0514102 -0.0410937 0.416755 255 0 0
0.144012 0.126177 0.294696 255 0 0
0.163386 0.139671 0.297733 255 0 0
0.205127 0.0783239 0.28874 255 0 0
-0.110703 0.0149716 0.588647 255 0 0
-0.120182 0.0152848 0.632325 255 0 0
0.164073 0.015043 0.490865 255 0 0
-0.0387017 -0.107224 0.514416 255 0 0
0.100591 0.0842935 0.810059 255 0 0
0.132394 0.0517023 1.09544 255 0 0
-0.213177 -0.0572367 0.828576 255 0 0
-0.193056 -0.0528729 0.736618 255 0 0
0.183684 0.0193891 0.86261 255 0 0
0.104798 0.0671412 0.813595 255 0 0
0.0862635 0.259459 0.813643 255 0 0
0.0304541 0.21374 0.776757 255 0 0
-0.0116378 0.107281 0.757931 255 0 0
-0.10085 -0.103468 0.466944 255 0 0
-0.102683 -0.141703 0.679065 255 0 0
0.125052 -0.0194646 0.849276 255 0 0
0.182692 -0.0436983 0.854254 255 0 0
0.174108 0.0130995 0.771133 255 0 0
0.118206 -0.0277661 1.04462 255 0 0
0.103678 0.11717 0.792031 255 0 0
-0.259463 -0.0464773 0.745596 255 0 0
0.0949173 0.190636 0.726234 255 0 0
0.172032 0.0119658 0.762468 255 0 0
0.157758 0.0133899 0.822322 255 0 0
-0.0582223 0.131686 0.552468 255 0 0
0.167588 0.144951 1.05762 255 0 0
0.133254 -0.0182077 0.92589 255 0 0
-0.0125181 0.106418 0.757853 255 0 0
0.0758418 0.102603 0.766283 255 0 0
0.0306637 0.0959848 0.837651 255 0 0
0.118469 -0.0275077 1.05358 255 0 0
0.188102 0.0196383 0.883787 255 0 0
0.106777 0.0416511 0.883391 255 0 0
0.161776 0.0502039 0.682585 255 0 0
-0.361932 -0.0254258 1.11994 255 0 0
-0.101592 -0.140517 0.671615 255 0 0
0.118464 0.147152 0.963948 255 0 0
0.18137 -0.0430681 0.850415 255 0 0
-0.259536 -0.0464739 0.746938 255 0 0
0.137532 0.109352 0.638439 255 0 0
0.138657 0.0136448 0.644223 255 0 0
-0.0130116 0.105242 0.756872 255 0 0
0.178731 0.00904135 0.735747 255 0 0
0.182522 -0.0432202 0.860207 255 0 0
0.150367 0.00634213 0.796071 255 0 0
0.16373 0.00510066 0.709267 255 0 0
0.0162833 0.0192228 1.02839 255 0 0
-0.0211763 -0.030879 0.422734 255 0 0
0.0625744 0.08581 0.760836 255 0 0
0.118694 -0.0273412 1.06275 255 0 0
-0.25782 -0.0458746 0.746068 255 0 0
0.061512 0.0572157 0.767257 255 0 0
0.0738061 0.101548 0.770279 255 0 0
0.135044 -0.0196255 0.42804 255 0 0
0.168573 0.00695425 0.73777 255 0 0
0.104998 0.0721445 0.811065 255 0 0
0.0802648 -2.71803e-05 0.944574 255 0 0
0.182072 -0.00999006 0.715224 255 0 0
-0.186618 -0.0855199 0.559116 255 0 0
0.141911 0.0102464 0.656076 255 0 0
0.116104 -0.0269542 1.06529 255 0 0
0.109896 -0.0252358 1.0089 255 0 0
-0.0381079 -0.0336399 0.397082 255 0 0
0.207422 0.0398644 0.380272 255 0 0
0.137339 0.0829391 0.458638 255 0 0
-0.0255245 -0.0278291 0.438765 255 0 0
0.143525 0.0634154 0.444506 255 0 0
-0.0180394 -0.00972534 0.417952 255 0 0
0.199746 0.0285315 0.406791 255 0 0
0.179526 0.0529737 0.401867 255 0 0
-0.0451496 -0.028938 0.442737 255 0 0
0.155303 0.089657 0.338785 255 0 0
0.156028 0.0878529 0.330568 255 0 0
0.155561 0.0883514 0.332749 255 0 0
0.153413 0.0883419 0.33187 255 0 0
0.148996 0.0916429 0.340937 255 0 0
0.199457 0.0441817 0.413553 255 0 0
0.211093 0.0210687 0.395081 255 0 0
0.205315 0.0278654 0.395561 255 0 0
-0.0386041 -0.0924006 0.491193 255 0 0
-0.0427363 -0.0986924 0.507275 255 0 0
-0.0348986 -0.0948865 0.481493 255 0 0
-0.033082 -0.0306624 0.413686 255 0 0
0.165519 0.0148757 0.486235 255 0 0
0.164827 0.0149064 0.486397 255 0 0
-0.0106524 -0.122238 0.495236 255 0 0
0.159816 0.0127005 0.454391 255 0 0
-0.0346755 -0.0883471 0.470918 255 0 0
0.137359 0.066086 0.500392 255 0 0
-0.103178 -0.0630576 0.368786 255 0 0
-0.104263 -0.0634705 0.372199 255 0 0
-0.0235705 -0.0744879 0.407547 255 0 0
-0.0489854 -0.0345873 0.424725 255 0 0
-0.0577104 -0.042981 0.454676 255 0 0
0.071027 -0.0797834 0.380512 255 0 0
0.0721283 -0.0820028 0.392277 255 0 0
0.0645258 -0.0704217 0.329628 255 0 0
0.0715661 -0.0804944 0.378801 255 0 0
0.134922 0.0641435 0.458446 255 0 0
0.125778 0.0619056 0.434451 255 0 0
0.131165 0.0487234 0.507094 255 0 0
0.130992 0.0478358 0.505364 255 0 0
0.130371 0.0464427 0.508049 255 0 0
0.131353 0.0469771 0.511905 255 0 0
0.177227 -0.0272962 0.555748 255 0 0
0.164345 -0.025822 0.509568 255 0 0
0.167507 -0.0236441 0.529396 255 0 0
0.186595 -0.0259836 0.596446 255 0 0
0.0777431 0.106909 0.501626 255 0 0
0.0786189 0.104897 0.50459 255 0 0
-0.0482801 0.112 0.488183 255 0 0
0.255702 -0.0781137 0.830675 255 0 0
-0.179393 0.170676 0.525951 255 0 0
0.156882 0.0221869 0.566106 255 0 0
0.207564 0.0412405 0.380665 255 0 0
0.217454 0.0515509 0.414533 255 0 0
0.152496 0.0888055 0.330898 255 0 0
0.225406 0.0349916 0.373355 255 0 0
0.148929 0.0913027 0.338255 255 0 0
0.15288 0.0642914 0.443408 255 0 0
0.151823 0.0908698 0.33713 255 0 0
0.149929 0.0907817 0.333221 255 0 0
0.223857 -0.0358237 0.438073 255 0 0
0.14782 0.0653787 0.384069 255 0 0
0.140203 0.0862005 0.476547 255 0 0
0.136182 0.0583181 0.452536 255 0 0
-0.101693 -0.103116 0.49276 255 0 0
0.180503 0.0118476 0.466749 255 0 0
0.162416 0.0179326 0.5135 255 0 0
0.144781 0.0980197 0.521541 255 0 0
-0.0513786 -0.031386 0.451744 255 0 0
-0.0355644 -0.0313673 0.409564 255 0 0
0.204298 0.0850592 0.292966 255 0 0
0.216945 0.0359139 0.374584 255 0 0
0.198172 0.0456228 0.392864 255 0 0
0.181281 0.0612129 0.362431 255 0 0
0.136404 0.102013 0.330974 255 0 0
0.242938 0.0435921 0.359855 255 0 0
0.219114 0.0365748 0.372948 255 0 0
0.217134 0.0369508 0.375189 255 0 0
0.215334 0.0371588 0.377505 255 0 0
0.310575 0.108726 0.580834 255 0 0
0.308969 0.110111 0.582616 255 0 0
0.31172 0.106196 0.57826 255 0 0
0.221273 0.152023 0.517016 255 0 0
0.193783 0.0514416 0.363401 255 0 0
0.184172 0.029527 0.417031 255 0 0
0.106053 0.0461564 0.380404 255 0 0
0.188554 0.0815203 0.304076 255 0 0
0.181744 0.0876041 0.323286 255 0 0
0.130458 0.102209 0.360704 255 0 0
0.333346 0.104669 0.564989 255 0 0
0.331213 0.107752 0.568591 255 0 0
0.370013 0.0871214 0.608281 255 0 0
0.285134 0.11548 0.553523 255 0 0
0.281299 0.11944 0.557885 255 0 0
0.307998 0.128464 0.599572 255 0 0
0.319269 0.112509 0.572963 255 0 0
0.32724 0.10626 0.560568 255 0 0
0.317142 0.11601 0.581399 255 0 0
0.291104 0.141011 0.521332 255 0 0
0.285773 0.146841 0.52815 255 0 0
0.299594 0.117436 0.550382 255 0 0
0.273089 0.149057 0.528775 255 0 0
0.376824 0.0779274 0.590473 255 0 0
0.295434 0.129143 0.606692 255 0 0
0.297222 0.131687 0.623551 255 0 0
0.303294 0.123302 0.613764 255 0 0
0.354654 0.10212 0.562851 255 0 0
0.354235 0.0986525 0.554851 255 0 0
0.353957 0.0991717 0.555854 255 0 0
0.327075 0.109436 0.53971 255 0 0
0.322955 0.114964 0.545685 255 0 0
0.352615 0.100261 0.553334 255 0 0
0.347399 0.100696 0.556691 255 0 0
0.357887 0.0977228 0.55382 255 0 0
0.332786 0.11555 0.529573 255 0 0
0.342426 0.123525 0.635434 255 0 0
0.345595 0.12163 0.633309 255 0 0
0.334583 0.110663 0.533145 255 0 0
0.304122 0.114136 0.591357 255 0 0
0.218704 0.0360451 0.372069 255 0 0
0.217256 0.0356611 0.365068 255 0 0
0.216209 0.0365477 0.375193 255 0 0
0.209982 0.0377171 0.388977 255 0 0
0.208189 0.039675 0.377415 255 0 0
0.206897 0.0404364 0.389582 255 0 0
0.237794 -0.0469849 0.424269 255 0 0
0.237193 -0.0464926 0.424155 255 0 0
0.228243 -0.0470981 0.451098 255 0 0
0.171313 0.0492104 0.406062 255 0 0
0.165879 0.0508821 0.418035 255 0 0
0.20675 0.0779424 0.285766 255 0 0
0.197896 0.025027 0.391232 255 0 0
0.308647 0.101581 0.58491 255 0 0
0.218686 0.15554 0.519326 255 0 0
0.25802 0.124673 0.555069 255 0 0
0.285358 0.107194 0.590325 255 0 0
0.199435 0.164147 0.561531 255 0 0
0.171909 0.0765502 0.324541 255 0 0
0.332688 0.0982975 0.571592 255 0 0
0.327073 0.104051 0.58109 255 0 0
0.331526 0.0985302 0.572382 255 0 0
0.322919 0.108551 0.587666 255 0 0
0.326153 0.10434 0.568908 255 0 0
0.312827 0.107797 0.540542 255 0 0
0.329459 0.0953078 0.558407 255 0 0
0.311417 0.110132 0.579877 255 0 0
0.322164 0.116242 0.547255 255 0 0
0.469137 0.106839 0.509959 255 0 0
0.426795 0.134253 0.456408 255 0 0
0.471098 0.103521 0.555016 255 0 0
0.407946 0.105956 0.569559 255 0 0
0.293865 0.0997442 0.574793 255 0 0
0.150896 0.0334221 0.491157 255 0 0
0.506865 0.0992808 0.498283 255 0 0
0.317686 0.105114 0.579316 255 0 0
0.317827 0.108814 0.581417 255 0 0
0.463604 0.186002 0.683742 255 0 0
0.462896 0.183768 0.682723 255 0 0
0.46508 0.180733 0.680238 255 0 0
0.459825 0.181124 0.688109 255 0 0
0.288449 0.117408 0.564028 255 0 0
0.363676 0.0572803 0.498454 255 0 0
0.352503 0.10216 0.632645 255 0 0
0.308893 0.117457 0.542745 255 0 0
0.145645 0.0610697 0.416 255 0 0
0.373232 0.0961286 0.496281 255 0 0
0.346624 0.0995229 0.56211 255 0 0
0.362411 0.0834347 0.545397 255 0 0
0.33148 0.108797 0.568147 255 0 0
0.325622 0.112843 0.579432 255 0 0
0.287964 0.121127 0.591261 255 0 0
0.450955 0.089013 0.523679 255 0 0
0.435985 0.0982234 0.530641 255 0 0
0.339094 0.123327 0.490473 255 0 0
0.313027 0.144003 0.664353 255 0 0
0.503632 0.183891 0.747685 255 0 0
0.306475 0.119266 0.635104 255 0 0
0.448003 0.106945 0.557033 255 0 0
0.50208 0.0710535 0.90454 255 0 0
0.504028 0.178215 0.750117 255 0 0
0.498581 0.174205 0.746381 255 0 0
0.513483 0.176973 0.784378 255 0 0
0.497629 0.173423 0.745721 255 0 0
0.495348 0.0736665 0.909595 255 0 0
0.501223 0.0676508 0.900474 255 0 0
0.499253 0.0706803 0.904746 255 0 0
0.47626 0.198607 0.662897 255 0 0
0.474664 0.196429 0.663928 255 0 0
0.438191 0.126949 0.454776 255 0 0
0.42946 0.131804 0.455943 255 0 0
0.423963 0.126178 0.63809 255 0 0
0.337516 0.107666 0.55568 255 0 0
0.36341 0.102747 0.539908 255 0 0
0.335286 0.103372 0.569012 255 0 0
0.327977 0.108174 0.575191 255 0 0
0.437246 0.120793 0.634805 255 0 0
0.541563 0.226566 0.7528 255 0 0
0.548641 0.217888 0.748418 255 0 0
0.375737 0.105992 0.62908 255 0 0
0.501786 0.178717 0.746004 255 0 0
0.506437 0.179533 0.767774 255 0 0
0.50786 0.0702879 0.936788 255 0 0
0.481314 0.162728 0.767513 255 0 0
0.45032 0.165196 0.699889 255 0 0
0.473991 0.161705 0.767132 255 0 0
0.483914 0.164067 0.778075 255 0 0
0.47531 0.159415 0.766062 255 0 0
0.460568 0.152003 0.74564 255 0 0
0.4463 0.163768 0.700159 255 0 0
0.468815 0.162262 0.769064 255 0 0
0.401688 0.127274 0.653628 255 0 0
0.477132 0.162463 0.777899 255 0 0
0.476932 0.160054 0.770931 255 0 0
0.446447 0.167018 0.769308 255 0 0
0.429646 0.197817 0.631413 255 0 0
0.65683 0.0296037 0.86747 255 0 0
0.512432 0.100444 0.972031 255 0 0
0.5838 0.0760455 0.992834 255 0 0
0.53145 0.0860588 0.950835 255 0 0
0.54992 0.0713891 0.929806 255 0 0
0.54575 0.0687584 0.930136 255 0 0
0.51016 0.179052 0.746519 255 0 0
0.478781 0.0974291 0.970813 255 0 0
0.425824 0.123051 0.631793 255 0 0
0.512744 0.182599 0.756389 255 0 0
0.50734 0.187291 0.760195 255 0 0
0.42422 0.12597 0.636784 255 0 0
0.493517 0.178115 0.748961 255 0 0
0.504938 0.0697336 0.899445 255 0 0
0.503817 0.0697554 0.900269 255 0 0
0.458625 0.207698 0.665339 255 0 0
0.498332 0.166619 0.756035 255 0 0
0.50113 0.0700751 0.908633 255 0 0
0.469009 0.184056 0.675434 255 0 0
0.490148 0.164729 0.752459 255 0 0
0.523061 0.145858 0.672525 255 0 0
0.490631 0.0676878 0.897127 255 0 0
0.489698 0.0675664 0.898011 255 0 0
0.46256 0.173366 0.690188 255 0 0
0.460224 0.172117 0.688171 255 0 0
0.425481 0.190303 0.697463 255 0 0
0.543777 0.22628 0.752978 255 0 0
0.517867 0.177988 0.742264 255 0 0
0.518727 0.145652 0.708435 255 0 0
0.508562 0.0720686 0.939526 255 0 0
0.498908 0.16676 0.754917 255 0 0
0.498553 0.166247 0.754751 255 0 0
0.478714 0.0841565 0.957671 255 0 0
0.487389 0.150634 0.75184 255 0 0
0.491257 0.165128 0.776897 255 0 0
0.451843 0.172699 0.692129 255 0 0
0.446042 0.106501 0.557672 255 0 0
0.444492 0.114688 0.46174 255 0 0
0.426946 0.1004 0.557892 255 0 0
0.287075 0.149933 0.517004 255 0 0
0.27748 0.144025 0.523415 255 0 0
0.289545 0.14339 0.533161 255 0 0
0.395046 0.0942881 0.563497 255 0 0
0.544811 0.224725 0.752244 255 0 0
0.347227 0.100856 0.616292 255 0 0
0.474503 0.200059 0.663841 255 0 0
0.474601 0.187311 0.668807 255 0 0
0.475378 0.198901 0.663481 255 0 0
0.463825 0.199639 0.669812 255 0 0
0.469868 0.186303 0.674894 255 0 0
0.468361 0.185749 0.676139 255 0 0
0.512483 0.178637 0.786581 255 0 0
0.469582 0.181159 0.678584 255 0 0
0.42613 0.135004 0.456453 255 0 0
0.425479 0.133574 0.456772 255 0 0
0.422533 0.134821 0.457132 255 0 0
0.464191 0.106846 0.557607 255 0 0
0.458712 0.106523 0.556719 255 0 0
0.449458 0.107774 0.557898 255 0 0
0.44879 0.106162 0.557354 255 0 0
0.355525 0.109539 0.54733 255 0 0
0.34355 0.122324 0.505715 255 0 0
0.303574 0.148171 0.606476 255 0 0
0.333241 0.116804 0.577944 255 0 0
0.360244 0.130138 0.467189 255 0 0
0.36269 0.127385 0.468201 255 0 0
0.409093 0.105786 0.569469 255 0 0
0.363912 0.11004 0.522008 255 0 0
0.472424 0.106269 0.508733 255 0 0
0.461587 0.105945 0.51042 255 0 0
0.458765 0.102238 0.518029 255 0 0
0.457672 0.103547 0.518514 255 0 0
0.450829 0.104939 0.556742 255 0 0
0.402414 0.123128 0.485903 255 0 0
0.428999 0.129518 0.640933 255 0 0
0.337322 0.104003 0.569022 255 0 0
0.510139 0.0872812 0.958043 255 0 0
0.397665 0.0963967 0.564035 255 0 0
0.530338 0.225097 0.757138 255 0 0
0.499813 0.0707091 0.905517 255 0 0
0.511071 0.174444 0.782364 255 0 0
0.497927 0.0695536 0.902602 255 0 0
0.510198 0.164326 0.750499 255 0 0
0.488928 0.169749 0.753166 255 0 0
0.48833 0.17827 0.764737 255 0 0
0.49138 0.176581 0.763574 255 0 0
0.514632 0.157891 0.75303 255 0 0
0.436552 0.126199 0.636898 255 0 0
0.437629 0.124068 0.636668 255 0 0
0.432674 0.126163 0.63755 255 0 0
0.436791 0.123514 0.636316 255 0 0
0.431934 0.125147 0.637162 255 0 0
0.505979 0.176917 0.766841 255 0 0
0.511904 0.185214 0.758774 255 0 0
0.42926 0.0811197 0.500824 255 0 0
0.45988 0.102945 0.557373 255 0 0
0.519689 0.145492 0.711493 255 0 0
0.514901 0.0844563 0.953989 255 0 0
0.409638 0.0958907 0.563126 255 0 0
0.540761 0.0709547 0.93145 255 0 0
0.426951 0.0982568 0.564438 255 0 0
0.418957 0.103171 0.55786 255 0 0
0.423427 0.101712 0.559512 255 0 0
0.424793 0.0999839 0.564429 255 0 0
0.362995 0.127805 0.467675 255 0 0
0.402632 0.102461 0.560463 255 0 0
0.471733 0.105761 0.508897 255 0 0
0.470562 0.105067 0.508797 255 0 0
0.472303 0.101546 0.506986 255 0 0
0.427652 0.104446 0.55727 255 0 0
0.428598 0.102908 0.557539 255 0 0
0.432398 0.101006 0.557045 255 0 0
0.425559 0.103474 0.558085 255 0 0
0.425979 0.100898 0.562952 255 0 0
0.761191 0.0245312 0.667993 255 0 0
0.71053 0.0223035 0.707322 255 0 0
0.584009 0.0760299 0.997463 255 0 0
0.447597 0.128195 0.633272 255 0 0
0.446506 0.125707 0.634522 255 0 0
0.583075 0.0765988 0.998506 255 0 0
0.54983 0.223088 0.750885 255 0 0
0.434525 0.127304 0.640979 255 0 0
0.516002 0.185385 0.750243 255 0 0
0.434042 0.126287 0.643905 255 0 0
0.761652 0.0247905 0.668137 255 0 0
0.475085 0.160142 0.779876 255 0 0
0.39989 0.12969 0.654269 255 0 0
0.473885 0.16037 0.779127 255 0 0
0.465645 0.158041 0.766807 255 0 0
0.435334 0.15936 0.698408 255 0 0
0.441024 0.153614 0.749117 255 0 0
0.471825 0.15877 0.779858 255 0 0
0.471673 0.158179 0.779002 255 0 0
0.436937 0.160468 0.703266 255 0 0
0.434916 0.157851 0.718517 255 0 0
0.534829 0.0882552 0.954042 255 0 0
0.507358 0.183727 0.745435 255 0 0
0.429738 0.126126 0.642254 255 0 0
0.429334 0.12562 0.644714 255 0 0
0.493446 0.184068 0.754494 255 0 0
0.465631 0.193506 0.753366 255 0 0
0.494118 0.173681 0.753425 255 0 0
0.498802 0.170188 0.75258 255 0 0
0.461206 0.17789 0.678342 255 0 0
0.460527 0.174209 0.684158 255 0 0
0.517887 0.0681606 0.942994 255 0 0
0.5035 0.0671958 0.913141 255 0 0
0.501313 0.0671975 0.912682 255 0 0
0.473683 0.157028 0.743189 255 0 0
0.512454 0.0710015 0.938384 255 0 0
0.413654 0.128488 0.649608 255 0 0
0.204499 0.0384201 0.950476 255 0 0
0.14188 0.0353685 0.652987 255 0 0
-0.00164493 0.0218183 0.581817 255 0 0
0.165119 -0.0164543 0.530684 255 0 0
0.0516296 0.0285976 0.919664 255 0 0
0.0975299 0.0827287 0.794271 255 0 0
0.0841899 0.100676 0.48707 255 0 0
0.12767 -0.0210694 0.864924 255 0 0
-0.0170391 0.0333934 0.982913 255 0 0
-0.0279952 0.0083067 0.586782 255 0 0
-0.0282017 0.00549798 0.578794 255 0 0
0.0844352 0.0107869 0.88652 255 0 0
-0.0213693 0.0258905 1.12139 255 0 0
0.00614592 0.0181216 0.579936 255 0 0
0.00109636 0.0257391 0.560248 255 0 0
0.0703206 0.0990636 0.76879 255 0 0
0.0468607 0.0229524 0.940455 255 0 0
0.199256 -0.0122002 0.767247 255 0 0
-0.00470518 0.10553 0.605239 255 0 0
-0.00187713 0.0293155 0.557278 255 0 0
0.244211 0.120618 0.558797 255 0 0
0.0621547 0.0909441 0.791172 255 0 0
0.194401 0.0126993 0.40748 255 0 0
0.0591261 0.0829533 0.739722 255 0 0
-0.013336 -0.0655247 0.372265 255 0 0
-0.0108856 0.0561175 0.675397 255 0 0
0.180923 0.00279773 0.514322 255 0 0
0.0841809 -0.00411128 0.977875 255 0 0
0.0165336 0.00884617 0.420924 255 0 0
0.175253 0.025945 0.434605 255 0 0
0.175857 0.0267676 0.438716 255 0 0
0.174175 0.0209945 0.45171 255 0 0
0.0430356 -0.0102345 1.02194 255 0 0
0.056615 -0.00950046 0.991608 255 0 0
0.0399252 0.0408054 0.921834 255 0 0
0.0456968 0.0669741 0.944222 255 0 0
0.15477 0.0837525 0.358352 255 0 0
0.156754 0.0889874 0.364025 255 0 0
0.113921 0.0350908 0.653437 255 0 0
0.0434717 0.208228 0.796319 255 0 0
0.0815615 0.00511789 0.981859 255 0 0
0.202416 0.0144577 0.424057 255 0 0
0.0523946 0.0141528 0.936199 255 0 0
0.163203 0.0233029 0.448233 255 0 0
0.0366907 0.0224278 0.952923 255 0 0
0.0618005 -0.00406083 1.00183 255 0 0
0.190881 0.0251309 0.45039 255 0 0
0.0830085 0.131779 0.751601 255 0 0
0.0197324 0.116134 0.441424 255 0 0
0.342791 -0.025696 0.799367 255 0 0
0.021201 0.222818 0.765438 255 0 0
0.156555 0.0226789 0.751942 255 0 0
-0.172758 0.0699634 0.627958 255 0 0
0.166812 0.0662626 0.406879 255 0 0
-0.0156316 0.0113398 0.541211 255 0 0
0.0772517 0.103966 0.780656 255 0 0
0.144439 0.0344863 0.557899 255 0 0
-0.00333365 0.027439 0.62705 255 0 0
0.10333 0.0559351 0.782953 255 0 0
0.161551 0.0251334 0.465665 255 0 0
0.175939 0.0233448 0.47134 255 0 0
0.012801 0.0152567 0.998054 255 0 0
0.16278 0.000979369 0.553898 255 0 0
0.0731086 0.0612369 0.776462 255 0 0
0.0137949 0.0153262 0.997083 255 0 0
-0.00559847 0.0618114 0.63418 255 0 0
0.111598 0.0120358 0.948676 255 0 0
0.0385569 0.0271061 0.945742 255 0 0
0.0398418 0.0193017 0.962801 255 0 0
0.163332 -0.00939851 1.06251 255 0 0
0.073346 0.017582 0.957473 255 0 0
0.15374 0.0895847 0.375964 255 0 0
0.18556 0.0235184 0.436682 255 0 0
0.0728436 0.00118741 0.95597 255 0 0
0.0510555 0.0179573 0.892923 255 0 0
0.125055 0.0338067 0.751401 255 0 0
0.180864 0.0225013 0.430642 255 0 0
0.134168 0.00960423 0.465542 255 0 0
-0.18702 -0.0192851 0.877382 255 0 0
0.115548 0.107306 0.508946 255 0 0
0.163573 0.0277908 0.477155 255 0 0
0.0561855 0.0121122 0.767332 255 0 0
0.154769 0.0698119 0.427182 255 0 0
0.121786 0.133292 0.541405 255 0 0
0.152429 0.0220054 0.72381 255 0 0
0.123732 0.0948716 0.575852 255 0 0
0.16033 0.0594747 0.390168 255 0 0
0.0613268 0.00439967 0.971791 255 0 0
0.0772279 0.105416 0.777147 255 0 0
0.152053 0.0242969 0.781114 255 0 0
0.169448 -0.000984158 0.89036 255 0 0
-0.00522849 0.0608074 0.634209 255 0 0
0.0678507 0.0124831 0.946312 255 0 0
0.129348 0.0598194 0.500332 255 0 0
0.0485566 -0.0126822 1.00569 255 0 0
0.0415751 0.0152159 0.989451 255 0 0
0.0498755 0.0280939 0.912634 255 0 0
0.262577 0.0335093 0.668816 255 0 0
0.41161 0.085897 0.863723 255 0 0
0.0810911 0.00530871 0.976087 255 0 0
0.161763 0.0295693 0.452982 255 0 0
0.107052 0.13145 0.511216 255 0 0
-0.0404381 -0.0982393 0.503465 255 0 0
0.0526746 0.0290384 0.942658 255 0 0
0.0818823 0.0138726 0.946696 255 0 0
0.0763106 -0.000537549 0.986032 255 0 0
0.0675559 0.0158661 1.01262 255 0 0
0.133153 -0.0028457 1.01354 255 0 0
0.111643 0.0114544 0.945427 255 0 0
0.0448586 -0.00735095 1.02489 255 0 0
0.15285 -0.0088417 1.00223 255 0 0
0.0944097 0.0200331 0.942851 255 0 0
0.0593362 0.0244645 0.898152 255 0 0
0.173595 -0.0241808 0.550464 255 0 0
-0.0193833 0.0148887 0.571822 255 0 0
0.120627 0.129622 0.632491 255 0 0
0.133622 0.0409151 0.521927 255 0 0
0.0785974 0.0125405 0.883407 255 0 0
0.00332084 -0.0595206 0.305083 255 0 0
0.127156 0.0243194 0.661893 255 0 0
0.158518 -0.0188162 0.55474 255 0 0
0.163615 0.00153641 0.555337 255 0 0
0.158185 0.0274331 0.770729 255 0 0
-0.0133223 -0.0662393 0.374991 255 0 0
-0.00511547 -0.0685339 0.341564 255 0 0
0.0816185 0.00372432 0.986378 255 0 0
0.262356 -0.00697076 0.782842 255 0 0
0.0978723 0.13439 0.787822 255 0 0
0.0911433 0.0160509 0.896267 255 0 0
-0.0320496 -0.0878589 0.478418 255 0 0
-0.0462249 -0.032229 0.443164 255 0 0
0.118435 0.0815926 0.925241 255 0 0
0.162556 0.028976 0.453858 255 0 0
-0.0210786 0.014277 0.599307 255 0 0
0.181578 0.0234445 0.434803 255 0 0
0.0300297 0.17002 0.734066 255 0 0
-0.00724042 0.0465074 0.597477 255 0 0
0.0328363 0.0937403 0.817627 255 0 0
-0.239607 0.0240349 1.09922 255 0 0
0.166203 0.0158034 0.48831 255 0 0
0.05159 0.0573821 0.900383 255 0 0
0.156773 0.0266383 0.807336 255 0 0
0.146204 0.0195949 0.952503 255 0 0
0.0641277 0.011096 0.870185 255 0 0
-0.00647241 0.00399822 0.576747 255 0 0
0.0752692 0.113872 0.896693 255 0 0
-0.041534 -0.006967 0.605488 255 0 0
0.202164 0.0292098 0.674631 255 0 0
0.171198 0.0210241 0.454271 255 0 0
-0.0192755 -0.00238445 0.600692 255 0 0
0.287672 -0.0388346 0.783529 255 0 0
0.297628 0.0783771 0.825093 255 0 0
0.228519 0.106276 0.613519 255 0 0
0.3291 0.0755894 0.84195 255 0 0
0.153744 0.102228 0.422316 255 0 0
0.173106 0.155861 0.59842 255 0 0
0.202382 0.0287465 0.670565 255 0 0
0.00597604 -0.0575094 0.300293 255 0 0
-0.158494 -0.0650439 0.442749 255 0 0
0.0571967 0.0186305 0.91674 255 0 0
0.145478 -0.0126096 0.87694 255 0 0
0.181569 0.0222475 0.428295 255 0 0
0.0463993 0.0295658 0.885565 255 0 0
0.0415237 0.0148478 0.922738 255 0 0
0.044125 0.0162967 0.977143 255 0 0
0.015867 0.209703 0.753349 255 0 0
0.0754821 -0.000750994 0.975585 255 0 0
0.444764 0.0730236 0.912766 255 0 0
0.178186 0.0196061 0.432335 255 0 0
0.331247 0.100502 0.594862 255 0 0
0.355315 0.0983932 0.554645 255 0 0
0.310583 -0.031575 0.807377 255 0 0
0.258309 0.121011 0.546415 255 0 0
0.279256 0.124498 0.568435 255 0 0
0.373388 0.113004 0.556401 255 0 0
0.400959 0.0707577 0.914167 255 0 0
0.444889 0.211027 0.635137 255 0 0
0.172439 0.377521 1.1836 255 0 0
0.371848 0.145659 0.74932 255 0 0
0.357845 0.154146 0.752767 255 0 0
0.385153 0.143805 0.762464 255 0 0
0.385628 0.145588 0.749748 255 0 0
0.337504 0.134545 0.662924 255 0 0
0.365321 0.0705712 0.854652 255 0 0
0.371457 0.321408 1.01406 255 0 0
0.126729 0.117124 0.556264 255 0 0
0.237914 -0.0238124 0.603057 255 0 0
-0.00193684 0.0229616 0.592625 255 0 0
0.165977 0.0231989 0.457346 255 0 0
-0.0290835 -0.111 0.495471 255 0 0
0.167074 0.031846 0.46942 255 0 0
-0.0445387 -0.0315843 0.433762 255 0 0
0.15381 0.0266491 0.806199 255 0 0
0.159815 0.0277614 0.43673 255 0 0
-0.0186956 0.243933 0.782092 255 0 0
-0.0139279 0.103215 0.756656 255 0 0
0.121367 0.0135666 0.874844 255 0 0
0.173685 0.0342336 0.496018 255 0 0
0.0629557 0.109455 0.750586 255 0 0
-0.0423079 -0.0958917 0.497291 255 0 0
0.0352184 0.0236795 0.965885 255 0 0
0.09541 0.0208784 0.836343 255 0 0
0.152857 0.144679 0.563879 255 0 0
-0.0168465 0.0195051 0.595598 255 0 0
-0.0958981 0.198003 0.517866 255 0 0
0.287047 0.101897 0.581099 255 0 0
-0.0620497 0.133238 0.450788 255 0 0
0.454958 0.106299 0.869643 255 0 0
0.378005 0.29887 0.937223 255 0 0
0.411899 0.513341 0.959224 255 0 0
0.364644 0.0775042 0.851464 255 0 0
0.387218 0.291472 0.932101 255 0 0
0.420444 0.117007 0.812532 255 0 0
0.378731 0.139196 0.759947 255 0 0
0.319586 0.290882 1.0815 255 0 0
-2.02733 1.14547 2.73778 255 0 0
0.493478 0.0841866 0.992479 255 0 0
0.422925 0.158331 0.724733 255 0 0
0.446181 0.145205 0.720323 255 0 0
0.379599 0.144764 0.763496 255 0 0
0.316003 0.294387 0.977348 255 0 0
0.464386 0.0637872 0.890706 255 0 0
0.429757 0.137062 0.754494 255 0 0
0.36853 0.150465 0.744795 255 0 0
0.388341 0.0945848 0.838121 255 0 0
0.0510034 0.122508 0.807545 255 0 0
0.174611 0.0272605 0.428773 255 0 0
0.134138 0.0465324 0.539312 255 0 0
0.0472085 0.0174272 0.774663 255 0 0
0.00585113 0.0319531 0.56807 255 0 0
-0.0383229 -0.0308902 0.413525 255 0 0
0.149723 0.0297625 0.471909 255 0 0
0.0143623 0.0156363 0.989021 255 0 0
0.0884069 0.0247531 0.941253 255 0 0
0.0296933 0.0380808 0.970249 255 0 0
0.207062 -0.0142054 0.536055 255 0 0
0.143416 0.018669 0.899308 255 0 0
0.0315378 0.20529 0.792748 255 0 0
0.0574081 0.0181046 1.19663 255 0 0
0.224282 -0.0219407 0.602031 255 0 0
0.0245542 0.177446 0.782687 255 0 0
0.268282 -0.0282287 0.641671 255 0 0
0.317356 -0.0305846 0.798083 255 0 0
0.00386198 0.0295266 0.558977 255 0 0
-0.0479225 0.0212757 0.680302 255 0 0
0.154133 0.115491 0.629178 255 0 0
0.129055 0.0592608 0.814742 255 0 0
0.328532 0.110402 0.575844 255 0 0
0.191737 0.0157796 0.802789 255 0 0
0.315286 0.0962012 0.566015 255 0 0
-0.00233346 0.0267943 0.624461 255 0 0
0.291776 0.0505725 0.696612 255 0 0
0.175954 -0.0269666 0.973976 255 0 0
0.255537 0.0371361 0.698291 255 0 0
0.174431 0.0192567 0.453472 255 0 0
0.139553 -0.00877462 0.994878 255 0 0
0.0561822 0.0151817 0.938539 255 0 0
0.0587035 0.0213845 0.98297 255 0 0
0.0649835 -0.00593629 1.00311 255 0 0
-0.045873 -0.103613 0.536528 255 0 0
-0.0381273 -0.108461 0.513342 255 0 0
0.16297 0.0296669 0.455678 255 0 0
0.169362 0.025402 0.471983 255 0 0
0.043909 0.192249 0.733507 255 0 0
0.098716 0.0767979 0.595541 255 0 0
0.00311952 -0.0607943 0.3136 255 0 0
-0.00866681 0.00672147 0.538722 255 0 0
0.186628 0.0243684 0.440767 255 0 0
0.162563 0.0304738 0.454967 255 0 0
0.199043 0.0150215 0.429783 255 0 0
-0.276346 -0.0910252 0.606995 255 0 0
0.132695 0.0425416 0.519747 255 0 0
0.0816405 0.0158119 0.912497 255 0 0
-0.0399899 -0.109311 0.526448 255 0 0
0.0748264 0.00155098 0.988488 255 0 0
0.123897 0.0294652 0.656501 255 0 0
-0.0186322 0.0802834 0.745907 255 0 0
0.13449 0.0183161 0.95205 255 0 0
0.188087 -0.00182722 1.06321 255 0 0
-0.0023266 -0.0114509 0.99449 255 0 0
-0.0401879 -0.0292401 0.429461 255 0 0
0.012876 0.0166145 1.0016 255 0 0
0.0277481 0.0408091 0.937178 255 0 0
0.136334 0.0169998 0.959092 255 0 0
0.0655539 0.131515 0.842301 255 0 0
0.0448034 0.0480798 0.900497 255 0 0
-0.0269824 -0.109006 0.485408 255 0 0
0.189767 0.0413026 0.783007 255 0 0
0.306698 0.155347 0.514475 255 0 0
-0.0760987 0.00601621 0.818619 255 0 0
0.394905 0.105833 0.823806 255 0 0
0.385215 0.0590075 0.912409 255 0 0
0.087748 0.0274207 0.932444 255 0 0
0.261148 0.0479546 0.938564 255 0 0
0.284322 0.0379667 0.935973 255 0 0
0.248459 0.0640048 1.04968 255 0 0
0.0990401 0.0243678 0.893725 255 0 0
0.205667 0.103188 0.612071 255 0 0
0.190192 0.0939357 0.628821 255 0 0
0.24977 0.0939304 0.620356 255 0 0
0.318706 0.0862325 0.912855 255 0 0
0.450038 0.0803116 0.977209 255 0 0
0.248282 0.122898 0.561988 255 0 0
0.256672 0.0348273 0.673582 255 0 0
0.17854 0.0304635 0.418758 255 0 0
0.19082 0.100938 0.631394 255 0 0
0.210672 0.0911072 0.630217 255 0 0
0.330741 0.0976217 0.570612 255 0 0
0.176004 0.094894 0.77227 255 0 0
0.251511 0.0950324 0.620331 255 0 0
0.247087 0.120248 0.555392 255 0 0
0.256258 0.11859 0.594149 255 0 0
0.215819 0.0571499 0.654952 255 0 0
0.224684 0.0986834 0.586459 255 0 0
0.228946 0.102792 0.604745 255 0 0
0.182711 -0.0444505 0.854516 255 0 0
0.200924 0.0178129 0.418408 255 0 0
0.212433 0.072162 0.632227 255 0 0
0.224402 -0.0456431 0.819112 255 0 0
-0.0525959 -0.00678368 0.794585 255 0 0
0.202624 0.0161471 0.417097 255 0 0
-0.0191559 -0.00354334 0.721181 255 0 0
0.18515 -0.0451813 0.848121 255 0 0
-0.00217389 0.00240638 0.532588 255 0 0
0.128469 0.0404715 0.504094 255 0 0
-0.0425167 -0.0968015 0.50215 255 0 0
0.180279 0.0177859 0.535086 255 0 0
0.126084 0.119658 0.551295 255 0 0
0.0778144 0.12703 0.724392 255 0 0
0.0317536 0.098691 0.857012 255 0 0
0.215052 -0.0212599 0.58394 255 0 0
-0.0544908 0.022811 0.775848 255 0 0
-0.0228401 0.00241504 0.460344 255 0 0
0.0374483 0.0918377 0.836847 255 0 0
0.305191 -0.029989 0.786814 255 0 0
0.356451 0.0829544 0.844843 255 0 0
-0.0207642 0.0878644 0.545349 255 0 0
0.105626 0.0289978 0.23103 255 0 0
0.0386396 0.0159902 0.993651 255 0 0
0.0391077 0.0410792 0.928416 255 0 0
-0.0369968 -0.0289485 0.418479 255 0 0
0.0303842 0.0993873 0.838209 255 0 0
-0.0123281 0.0231282 1.05155 255 0 0
0.356513 0.0981385 0.552038 255 0 0
0.454343 0.0774396 0.966793 255 0 0
0.319217 0.123262 0.509942 255 0 0
0.356687 0.0976295 0.550246 255 0 0
0.223944 0.12365 0.559399 255 0 0
0.203829 0.122692 0.573324 255 0 0
0.214324 0.14044 0.559574 255 0 0
0.273454 -0.00375597 0.718871 255 0 0
0.244087 0.121347 0.560214 255 0 0
0.329526 0.0992652 0.574267 255 0 0
-0.0195344 0.10016 0.528208 255 0 0
0.245878 -0.00545957 0.682607 255 0 0
-0.0383052 -0.00813292 0.612639 255 0 0
0.314135 0.139966 0.77452 255 0 0
0.0495257 0.01225 0.920674 255 0 0
0.0588239 -0.00885964 0.898978 255 0 0
0.0614775 -0.00413806 0.971944 255 0 0
-0.0321472 -0.029774 0.408354 255 0 0
-0.00611574 0.0221502 1.00837 255 0 0
0.0578083 0.00573842 1.01768 255 0 0
0.0329839 0.0935639 0.838405 255 0 0
0.175523 0.0211396 0.460816 255 0 0
0.0564978 0.00599268 0.9854 255 0 0
0.0795057 0.131929 0.756429 255 0 0
0.0568797 -0.00947225 1.03252 255 0 0
0.159 0.133422 0.618193 255 0 0
0.259219 0.0384325 0.68315 255 0 0
0.206121 0.0236617 0.945335 255 0 0
0.144753 0.0362432 0.78261 255 0 0
0.202689 -0.0143145 0.766425 255 0 0
0.314219 0.0702068 0.852525 255 0 0
0.244879 0.0704349 0.944341 255 0 0
-0.259037 -0.0113951 1.06824 255 0 0
-0.0113951 -0.0086741 1.00636 255 0 0
-0.270678 0.0262416 1.13352 255 0 0
0.12662 0.118314 0.552949 255 0 0
0.426488 -0.100108 0.495242 255 0 0
0.209175 0.0794511 0.630159 255 0 0
0.419919 -0.0946837 0.472159 255 0 0
0.197876 0.0452534 0.661514 255 0 0
0.290382 0.0104004 1.0022 255 0 0
0.109917 0.0851163 0.512998 255 0 0
0.108496 0.104117 0.526693 255 0 0
0.265043 0.0438955 0.666594 255 0 0
-0.0468173 -0.0210021 0.588051 255 0 0
0.00970681 0.00309238 0.667908 255 0 0
0.296974 0.0115902 0.730625 255 0 0
-0.0976692 -0.0172534 0.829709 255 0 0
0.00278073 -0.0105913 1.00541 255 0 0
0.353987 0.0988858 0.555738 255 0 0
0.247701 -0.00585892 0.699636 255 0 0
0.0483545 -0.0117777 1.02252 255 0 0
0.128772 0.0477384 0.505509 255 0 0
0.110113 0.0345212 0.65466 255 0 0
0.0443163 0.0382929 0.915632 255 0 0
0.236467 -0.053544 0.810502 255 0 0
-0.00485528 -0.0654803 0.332487 255 0 0
0.043295 -0.0134235 1.06178 255 0 0
0.258902 -0.0798907 0.827804 255 0 0
0.00394361 -0.0111637 0.977415 255 0 0
-0.0279339 0.0853595 0.565761 255 0 0
0.332211 -0.028185 0.795102 255 0 0
0.307593 0.0375269 0.70767 255 0 0
0.212641 0.0772481 0.639273 255 0 0
-0.0425346 -0.00845549 0.61013 255 0 0
-0.0410993 -0.0120436 0.621443 255 0 0
0.379256 0.0967678 0.787858 255 0 0
-0.0279053 -0.00207131 0.617045 255 0 0
0.275375 0.105837 0.597141 255 0 0
0.00398001 0.0218574 0.584409 255 0 0
0.236142 -0.00453825 0.708201 255 0 0
0.348105 -0.0246147 0.803472 255 0 0
0.348127 -0.0250037 0.797039 255 0 0
0.239119 -0.00562588 0.766889 255 0 0
0.194415 0.026297 0.409318 255 0 0
0.219559 0.103747 0.626955 255 0 0
0.243958 0.110551 0.609877 255 0 0
0.181256 0.0299284 0.411666 255 0 0
0.236821 -0.0005912 0.70863 255 0 0
0.414992 0.108609 0.508654 255 0 0
0.211324 -0.0314986 0.82862 255 0 0
0.216367 0.0743616 0.639461 255 0 0
0.214534 0.0889674 0.62477 255 0 0
0.311452 0.0943938 0.626268 255 0 0
-0.0449595 -0.0119873 0.610974 255 0 0
0.261143 0.0465734 0.67302 255 0 0
0.291846 0.141705 0.528169 255 0 0
0.288508 0.0964212 0.630148 255 0 0
-0.00717008 0.0166735 0.582034 255 0 0
0.37031 0.0883879 0.786631 255 0 0
-0.0642773 -0.00590929 0.636871 255 0 0
0.284621 0.102655 0.575799 255 0 0
0.259524 -0.0802531 0.830543 255 0 0
0.151699 0.0905981 0.340468 255 0 0
0.218216 -0.0299314 0.814466 255 0 0
0.269932 -0.00821543 0.742741 255 0 0
0.213929 -0.0276503 0.794452 255 0 0
0.423891 0.113469 0.808884 255 0 0
0.406226 0.0788088 0.858237 255 0 0
0.393536 0.0892909 0.846967 255 0 0
0.42529 0.10578 0.864971 255 0 0
0.512065 0.0775878 0.910798 255 0 0
0.406377 0.11257 0.647068 255 0 0
0.365317 0.155851 0.75428 255 0 0
0.425715 0.123474 0.96439 255 0 0
0.610283 -0.00137968 0.742199 255 0 0
0.36939 0.0753468 0.849796 255 0 0
0.402939 0.1762 0.692348 255 0 0
0.301853 0.252815 0.521842 255 0 0
0.175624 0.0693858 0.879738 255 0 0
0.46942 0.153496 0.77049 255 0 0
-0.0882095 -0.019893 0.821421 255 0 0
0.000163247 0.00670767 0.609324 255 0 0
-0.270204 0.0147664 1.16725 255 0 0
0.24025 0.0430259 0.960845 255 0 0
-0.0153223 0.0512501 0.950218 255 0 0
0.0190222 0.0102497 0.575801 255 0 0
0.166889 0.0935716 0.665978 255 0 0
-0.101614 -0.0165743 0.83483 255 0 0
0.0455846 -0.0138799 1.00517 255 0 0
0.0374397 0.090539 0.831182 255 0 0
0.329873 -0.0311194 0.944214 255 0 0
0.197109 -0.0106654 0.772118 255 0 0
0.0424639 -0.0131649 1.01405 255 0 0
0.233441 0.05451 0.854127 255 0 0
-0.111707 0.0267914 0.891936 255 0 0
0.191822 -0.00422354 0.731217 255 0 0
0.000422916 0.0155585 0.584876 255 0 0
0.261406 0.0378624 0.681593 255 0 0
-0.123984 0.0994986 0.945871 255 0 0
0.0831244 0.027018 0.862288 255 0 0
0.213984 0.0661194 0.565105 255 0 0
-0.0349971 0.0160029 0.599926 255 0 0
0.321773 0.0773155 0.830445 255 0 0
0.173044 0.119069 0.615341 255 0 0
0.0343379 0.0238191 0.905911 255 0 0
0.308293 0.0726878 0.859109 255 0 0
0.25759 0.046001 0.670985 255 0 0
0.00967351 0.0238434 0.578473 255 0 0
0.0409733 -0.0140308 1.06286 255 0 0
0.219545 0.0747006 0.641937 255 0 0
0.025627 -0.00966839 1.0943 255 0 0
-0.0375093 0.0474843 0.749524 255 0 0
0.00352057 0.0311652 0.56154 255 0 0
0.0126662 -0.0179145 0.982214 255 0 0
0.30019 0.083758 0.888189 255 0 0
0.23766 0.0441195 0.667252 255 0 0
-0.0394112 0.0534317 0.758153 255 0 0
0.172684 0.0418923 0.67388 255 0 0
-0.020041 0.0314922 0.98969 255 0 0
0.276782 -0.00161337 0.736023 255 0 0
-0.0924351 0.262253 0.880243 255 0 0
0.00439338 -0.013018 0.980795 255 0 0
-0.0469987 -0.00167835 0.62714 255 0 0
-0.0235475 0.0111904 0.587354 255 0 0
0.119921 -0.0280418 1.04357 255 0 0
-0.0304399 0.246988 0.772157 255 0 0
-0.00885697 0.0221257 1.02311 255 0 0
-0.0950912 -0.0180992 0.833649 255 0 0
0.150918 0.0552024 0.677887 255 0 0
0.304661 0.0959643 0.577558 255 0 0
0.268857 0.0744506 0.895132 255 0 0
0.179675 -0.0427174 0.856693 255 0 0
0.176845 0.0628983 0.35283 255 0 0
0.297443 0.106218 0.615671 255 0 0
0.164181 0.0693827 0.372859 255 0 0
0.21098 0.108349 0.490486 255 0 0
0.282149 0.104762 0.584562 255 0 0
0.229791 0.0827842 0.626926 255 0 0
0.278901 0.00122826 0.71605 255 0 0
-0.00137882 -0.0115254 0.993435 255 0 0
-0.0255072 0.252709 0.785769 255 0 0
0.0427933 0.0882 0.820579 255 0 0
0.028571 0.0412404 0.929383 255 0 0
-0.0109074 0.0884793 0.531318 255 0 0
0.276659 -0.000298245 0.717191 255 0 0
0.344869 -0.0253692 0.794043 255 0 0
0.209073 -0.0223766 0.777456 255 0 0
0.340354 -0.0257213 0.797217 255 0 0
0.309793 0.103877 0.59384 255 0 0
-0.00736253 0.00556067 0.588831 255 0 0
0.233828 0.0252286 0.524845 255 0 0
-0.094978 0.00877032 0.994703 255 0 0
0.346462 0.0994891 0.555523 255 0 0
0.196375 0.112865 0.624944 255 0 0
0.309748 0.104682 0.5978 255 0 0
0.36571 0.149174 0.75372 255 0 0
0.416992 0.0654724 0.90501 255 0 0
0.409774 0.155325 0.701031 255 0 0
0.403557 0.182062 0.668948 255 0 0
0.40279 0.0693619 0.906085 255 0 0
0.24231 -0.0026043 0.708649 255 0 0
0.185618 0.00984393 0.71025 255 0 0
0.00867652 0.0227002 0.576452 255 0 0
0.225541 0.139659 0.547426 255 0 0
0.356761 0.0761182 0.842343 255 0 0
-0.0443724 0.029446 0.758242 255 0 0
0.163338 0.060753 0.378665 255 0 0
0.282095 0.0850042 0.615724 255 0 0
0.16239 0.102679 0.62845 255 0 0
0.353761 0.0979323 0.55319 255 0 0
0.277685 0.123048 0.563688 255 0 0
0.279061 0.121109 0.559017 255 0 0
0.258618 0.117351 0.529046 255 0 0
0.334382 -0.0278767 0.814947 255 0 0
0.340188 0.106351 0.565025 255 0 0
0.314477 0.106624 0.564859 255 0 0
0.357234 0.0986273 0.568804 255 0 0
-0.0335095 0.00530798 0.58565 255 0 0
0.366877 0.111711 0.574518 255 0 0
-0.0113426 0.00570793 0.597261 255 0 0
0.309866 0.0338413 0.672162 255 0 0
0.353698 0.0945269 0.548197 255 0 0
0.529752 0.121408 0.844178 255 0 0
0.198613 0.201809 0.767444 255 0 0
-5.26736 3.16085 3.59898 255 0 0
0.392877 0.0971292 0.772487 255 0 0
0.555623 0.0776444 0.765523 255 0 0
0.503491 0.12752 0.850471 255 0 0
0.233247 0.319685 0.966328 255 0 0
0.171859 0.102148 1.09966 255 0 0
0.374829 0.14043 0.761545 255 0 0
0.389801 0.178838 0.687178 255 0 0
0.471229 0.0611225 0.887984 255 0 0
0.457212 0.0617845 0.922058 255 0 0
0.501153 0.110314 0.986437 255 0 0
0.49758 0.169496 0.766311 255 0 0
0.418852 0.108866 0.864078 255 0 0
0.350644 0.1091 0.791344 255 0 0
0.180613 0.176105 0.996444 255 0 0
0.256908 -0.00737609 0.704653 255 0 0
0.216172 0.11853 0.578069 255 0 0
0.214787 0.119502 0.584408 255 0 0
0.253399 -0.0735136 0.81856 255 0 0
-0.0325907 -0.0101741 0.754907 255 0 0
0.424933 0.0855291 0.891659 255 0 0
0.108892 0.0216064 0.88072 255 0 0
-0.0301395 0.102507 0.543111 255 0 0
0.375181 0.102523 0.533455 255 0 0
0.175739 0.0403007 0.712074 255 0 0
-0.0414474 0.0209971 0.669391 255 0 0
0.275747 0.0448657 0.957017 255 0 0
0.251436 0.0949529 0.61946 255 0 0
0.111316 0.0125656 0.934944 255 0 0
0.301642 0.087316 0.826734 255 0 0
0.0571434 0.0194551 1.01168 255 0 0
0.0239373 0.0884261 1.26006 255 0 0
0.182193 0.0342495 0.691861 255 0 0
0.13539 0.00930968 0.843912 255 0 0
0.124776 -0.00463578 0.917965 255 0 0
0.177203 0.0134385 0.736437 255 0 0
-0.0924768 0.0142213 0.977385 255 0 0
0.168429 0.0526273 0.759213 255 0 0
0.227159 0.0436252 0.972433 255 0 0
0.115627 0.00682145 0.949792 255 0 0
0.281447 0.0945116 0.630828 255 0 0
0.265504 0.105619 0.611649 255 0 0
0.214127 0.127085 0.57784 255 0 0
0.365548 0.226132 0.619666 255 0 0
0.366078 0.229732 0.63161 255 0 0
0.271738 0.0902773 0.629146 255 0 0
-0.105373 0.0342627 0.974472 255 0 0
0.280349 0.00098081 0.713911 255 0 0
0.268814 0.117263 0.870417 255 0 0
-0.0913114 0.0298027 0.956749 255 0 0
0.37735 0.151092 0.751447 255 0 0
0.210416 0.349248 0.514145 255 0 0
0.400757 0.163145 0.704867 255 0 0
0.382173 0.168878 0.699392 255 0 0
0.216887 0.0294271 0.946584 255 0 0
0.441637 0.15146 0.776871 255 0 0
0.377682 0.150333 0.755437 255 0 0
0.298955 0.245928 0.485018 255 0 0
0.33467 0.0554138 1.01322 255 0 0
0.261221 0.0347813 1.01625 255 0 0
0.43715 0.161986 0.787982 255 0 0
0.310958 0.104476 0.570174 255 0 0
0.219932 0.121186 0.572941 255 0 0
0.351305 0.0721473 0.839272 255 0 0
0.347028 0.0989799 0.552356 255 0 0
0.163472 0.136864 0.574861 255 0 0
0.22993 0.0783085 0.635154 255 0 0
0.265016 0.0729349 0.855828 255 0 0
0.358146 0.0937486 0.559799 255 0 0
0.226191 0.0532753 0.656717 255 0 0
0.246252 0.1208 0.557654 255 0 0
0.228251 0.0824472 0.629252 255 0 0
0.264422 0.106322 0.613135 255 0 0
0.258759 0.0818992 0.971792 255 0 0
0.22304 0.0978543 0.604344 255 0 0
0.268025 0.0812392 0.633078 255 0 0
0.222984 0.0541588 0.660004 255 0 0
0.411251 0.197349 0.601474 255 0 0
0.204074 -0.0140418 0.759769 255 0 0
0.211048 0.0896335 0.633324 255 0 0
0.253981 0.0366402 0.700121 255 0 0
0.334448 -0.0274437 0.797168 255 0 0
0.330201 -0.0263618 0.751998 255 0 0
0.348041 -0.024978 0.79564 255 0 0
0.286375 0.144544 0.537592 255 0 0
0.770977 -0.0359337 0.620816 255 0 0
0.436649 0.125768 0.80388 255 0 0
0.453803 0.0578864 0.900903 255 0 0
0.434865 0.142294 0.763071 255 0 0
0.49336 0.100574 0.974945 255 0 0
0.505097 0.437116 0.836344 255 0 0
0.430335 0.0897138 0.864235 255 0 0
0.546653 0.086305 0.965954 255 0 0
0.586404 0.0580816 0.909395 255 0 0
0.431024 0.0688764 0.925252 255 0 0
0.348942 0.43311 1.12497 255 0 0
0.365919 0.151795 0.747733 255 0 0
0.474633 0.449118 0.84286 255 0 0
0.379605 0.2868 0.949746 255 0 0
0.560714 0.0640031 0.920163 255 0 0
0.460973 0.0646239 0.891331 255 0 0
0.408993 0.177773 0.669079 255 0 0
0.500724 0.163581 0.708434 255 0 0
0.448419 0.165917 0.69927 255 0 0
0.359047 0.0811264 0.888718 255 0 0
0.268043 0.08085 0.631563 255 0 0
0.31406 0.0931529 0.606034 255 0 0
0.231093 0.0776049 0.634403 255 0 0
-0.0166739 0.0016264 0.608946 255 0 0
0.236237 0.10644 0.608411 255 0 0
0.455746 0.0667284 0.93055 255 0 0
0.123635 0.0969435 0.511086 255 0 0
0.151571 0.0626046 0.885144 255 0 0
0.397649 0.0716868 0.914815 255 0 0
0.29336 0.258093 0.522811 255 0 0
0.425972 0.145866 0.732714 255 0 0
0.35336 0.163548 0.652173 255 0 0
0.361982 0.22781 0.751694 255 0 0
0.208135 0.0939334 0.61699 255 0 0
0.195231 0.107305 0.619375 255 0 0
0.364311 0.124918 0.711395 255 0 0
0.4117 0.150794 0.69541 255 0 0
0.305834 0.112655 0.594474 255 0 0
0.0499074 -0.014669 1.04823 255 0 0
0.412102 0.0799347 0.857268 255 0 0
0.255028 0.0148029 0.717647 255 0 0
0.22489 0.128838 0.551469 255 0 0
0.27964 0.144271 0.521668 255 0 0
-0.033518 -0.0121608 0.540766 255 0 0
0.288508 0.10304 0.625837 255 0 0
0.146535 0.110843 0.66847 255 0 0
-0.0219638 0.0235484 0.54938 255 0 0
0.159584 -0.0316919 0.898118 255 0 0
0.00745446 -0.0333612 0.711862 255 0 0
0.231037 0.130066 0.565218 255 0 0
0.254709 0.0151211 0.721764 255 0 0
0.262427 0.11722 0.582727 255 0 0
0.381252 0.206467 0.623272 255 0 0
0.416814 0.205778 0.62418 255 0 0
0.282511 0.0990358 0.556365 255 0 0
0.293185 0.121262 0.555352 255 0 0
0.16586 -0.00535201 1.06758 255 0 0
0.350616 0.0864809 0.791967 255 0 0
0.206688 -0.0232463 0.795781 255 0 0
-0.0371777 -0.00952514 0.550573 255 0 0
0.217149 0.122832 0.567045 255 0 0
0.250774 0.121944 0.55654 255 0 0
-0.0471285 -0.0259928 0.79442 255 0 0
0.213065 0.106596 0.61447 255 0 0
0.203488 0.125087 0.578101 255 0 0
0.358684 0.219494 0.647085 255 0 0
0.237395 -0.000570558 0.702419 255 0 0
0.379349 0.206999 0.62536 255 0 0
0.251731 0.121459 0.555562 255 0 0
0.218681 0.123064 0.567658 255 0 0
0.278375 0.109372 0.614516 255 0 0
0.215002 0.126984 0.573997 255 0 0
0.365618 0.226484 0.623337 255 0 0
0.228528 -0.00464106 0.75858 255 0 0
0.199974 -0.0139793 0.774788 255 0 0
0.236673 -0.00393235 0.695983 255 0 0
0.245702 -0.00586141 0.738587 255 0 0
0.215583 0.130597 0.580861 255 0 0
0.315067 -0.0307123 0.789706 255 0 0
0.271942 -0.00810186 0.725777 255 0 0
0.276411 0.0560645 0.643866 255 0 0
0.235668 0.105561 0.608272 255 0 0
0.209105 0.107083 0.617361 255 0 0
0.215194 0.129965 0.577067 255 0 0
0.2164 0.0584602 0.678894 255 0 0
0.229064 0.0729364 0.596204 255 0 0
0.214423 0.0866069 0.620829 255 0 0
0.254673 0.014985 0.639002 255 0 0
0.172664 0.139658 0.578611 255 0 0
0.236953 0.0737842 0.637897 255 0 0
0.305199 0.0496089 0.894134 255 0 0
0.278292 0.121357 0.560711 255 0 0
0.220766 0.124185 0.570393 255 0 0
0.0919685 0.0104157 0.950883 255 0 0
0.172045 0.137454 0.566233 255 0 0
0.224566 0.147289 0.551375 255 0 0
0.254582 0.0960311 0.616985 255 0 0
0.248963 -0.00571742 0.710913 255 0 0
0.182938 0.0330226 0.406999 255 0 0
-0.000410379 0.00506682 0.580488 255 0 0
0.402851 0.0687226 0.909665 255 0 0
-0.0809643 0.0943744 0.928329 255 0 0
0.217657 0.116311 0.564743 255 0 0
0.117061 0.0350157 0.652841 255 0 0
0.193011 0.124272 0.590781 255 0 0
0.17348 0.0238565 0.746097 255 0 0
-0.0843475 0.0197204 0.861637 255 0 0
0.170825 0.106371 0.611504 255 0 0
0.199508 0.123907 0.596702 255 0 0
0.198364 0.119621 0.582808 255 0 0
0.0841575 0.0283061 0.858751 255 0 0
-0.101632 0.00274057 0.859609 255 0 0
0.177245 0.0224373 0.740644 255 0 0
0.193879 0.0261234 0.670873 255 0 0
0.22595 0.076298 0.629765 255 0 0
0.376289 0.0929846 0.784214 255 0 0
0.36878 0.100176 0.8324 255 0 0
0.250707 -0.0785495 0.846032 255 0 0
0.203883 0.0556859 0.678831 255 0 0
-0.000494038 -0.0111026 0.995835 255 0 0
0.224288 0.00133063 0.721975 255 0 0
0.204208 0.088081 0.625557 255 0 0
0.262487 -0.0819982 0.82399 255 0 0
0.207012 0.110232 0.611781 255 0 0
0.244103 -0.00237813 0.704276 255 0 0
0.199445 0.128072 0.589482 255 0 0
0.204875 0.124231 0.573645 255 0 0
0.220539 0.11939 0.56924 255 0 0
0.214695 0.123224 0.583262 255 0 0
-0.0504245 0.142972 0.528297 255 0 0
0.252661 0.0957279 0.618424 255 0 0
0.378568 0.242533 0.611914 255 0 0
0.350457 0.133343 0.658601 255 0 0
0.369891 0.274735 0.60007 255 0 0
0.372646 0.223878 0.624032 255 0 0
0.382489 0.11857 0.504657 255 0 0
0.434942 0.212017 0.638319 255 0 0
0.370226 0.226 0.625104 255 0 0
0.219634 0.152501 0.51851 255 0 0
0.293845 0.0472349 0.677031 255 0 0
0.242457 0.0801481 0.638854 255 0 0
0.183874 -0.0444586 0.848536 255 0 0
0.156877 0.10609 0.642821 255 0 0
0.169115 0.0373884 0.669587 255 0 0
-0.13854 0.0142417 1.08431 255 0 0
0.329414 0.104426 0.564308 255 0 0
-0.0462306 0.140689 0.524709 255 0 0
0.167251 0.0379787 0.674631 255 0 0
0.221428 0.103944 0.607668 255 0 0
-0.00240098 0.0270814 0.627351 255 0 0
0.273346 0.117838 0.597241 255 0 0
0.172073 0.0143649 0.479144 255 0 0
0.151926 0.0558131 0.391225 255 0 0
0.199013 0.0835779 0.648345 255 0 0
0.173898 -0.0255781 0.986793 255 0 0
0.195206 0.0430226 0.663942 255 0 0
0.160139 0.0191691 0.501396 255 0 0
0.311441 0.0797428 0.864596 255 0 0
-0.070022 0.00711124 0.941197 255 0 0
0.202454 0.149245 0.540408 255 0 0
0.194689 0.0996443 0.621573 255 0 0
0.222169 0.100817 0.615684 255 0 0
0.196652 0.0243071 0.666144 255 0 0
0.213175 0.105252 0.61336 255 0 0
0.377724 0.0946814 0.88431 255 0 0
0.318918 0.294156 0.976841 255 0 0
0.407112 0.180615 0.667171 255 0 0
0.272631 0.043505 0.991865 255 0 0
0.284063 0.0405794 0.986698 255 0 0
0.301105 0.253507 0.520983 255 0 0
0.31156 0.322349 0.986525 255 0 0
0.335464 0.135114 0.666415 255 0 0
0.278338 0.185518 0.7456 255 0 0
0.37988 0.160038 0.686546 255 0 0
0.275837 -0.00335387 0.725449 255 0 0
0.275298 -0.000924121 0.715126 255 0 0
-0.0153162 0.0516206 0.641828 255 0 0
0.279066 0.0933947 0.795538 255 0 0
0.301231 0.107602 0.617755 255 0 0
0.279399 0.00134908 0.716105 255 0 0
0.256843 0.0451936 0.759135 255 0 0
0.166183 0.0796565 0.332019 255 0 0
0.171462 -0.0232206 0.819501 255 0 0
0.231164 0.0887003 0.625019 255 0 0
0.169204 0.0173012 0.759074 255 0 0
0.199394 0.0574841 0.898266 255 0 0
-0.102271 0.201419 0.524714 255 0 0
0.186068 0.0924624 0.638649 255 0 0
-0.0929144 -0.0186863 0.829533 255 0 0
0.153181 0.0159253 0.850501 255 0 0
-0.00452419 -0.0106588 0.994433 255 0 0
0.264232 0.0452947 0.669621 255 0 0
0.288063 0.103145 0.873346 255 0 0
0.259783 0.11689 0.59913 255 0 0
0.40241 0.0682207 0.905098 255 0 0
-0.0348043 -0.0125878 0.616494 255 0 0
0.0660558 0.0497649 0.871891 255 0 0
-0.0132315 -0.0146144 0.703717 255 0 0
-0.0301235 -0.00441866 0.617982 255 0 0
0.183837 0.131855 0.596854 255 0 0
0.319864 -0.013507 0.82861 255 0 0
0.00325542 0.0094085 0.603426 255 0 0
0.204687 0.11549 0.538423 255 0 0
0.26349 0.0390353 0.681652 255 0 0
0.280025 0.144308 0.521407 255 0 0
0.294487 0.0990206 0.890798 255 0 0
-0.032974 0.0510302 0.746027 255 0 0
0.187403 0.0982278 0.631571 255 0 0
-0.031065 0.00171709 0.54954 255 0 0
0.0811459 0.0195786 0.937302 255 0 0
0.200745 0.0308554 0.679469 255 0 0
0.314219 0.0975996 0.64128 255 0 0
0.183906 0.0117045 0.757279 255 0 0
0.261419 0.128781 0.619015 255 0 0
0.280529 0.12277 0.559126 255 0 0
0.191587 0.100575 0.628476 255 0 0
-0.0205448 -0.0286703 0.752235 255 0 0
0.203128 0.128126 0.590027 255 0 0
0.138072 0.311064 0.625675 255 0 0
0.148444 0.0534768 0.402143 255 0 0
0.195124 0.108344 0.623772 255 0 0
0.299235 0.0940194 0.861385 255 0 0
0.201561 -0.0103859 0.764695 255 0 0
0.190965 0.0134559 0.755554 255 0 0
0.182904 0.0118539 0.762871 255 0 0
-0.0337277 -0.00331901 0.639022 255 0 0
0.289312 0.0985925 0.568332 255 0 0
-0.0282189 0.0014581 0.566975 255 0 0
0.167327 -0.0214909 0.824685 255 0 0
0.152362 0.120262 0.637829 255 0 0
0.205285 -0.0228553 0.79849 255 0 0
0.170224 0.0657615 0.361258 255 0 0
0.211813 0.0633387 0.693809 255 0 0
0.116403 0.0644781 0.855999 255 0 0
0.296524 0.149811 0.5199 255 0 0
0.196192 0.0421943 0.661817 255 0 0
0.181943 0.0314861 0.410445 255 0 0
-0.0216589 0.00577216 0.729209 255 0 0
0.282419 -0.00234148 0.682636 255 0 0
0.230728 0.104601 0.60624 255 0 0
0.214472 0.101092 0.598267 255 0 0
0.186955 0.00118181 0.777277 255 0 0
0.167143 0.034282 0.781067 255 0 0
0.251184 0.0833936 0.629572 255 0 0
0.31204 0.107357 0.593051 255 0 0
-0.0521423 -0.0269586 0.809596 255 0 0
0.35677 0.0644163 0.902849 255 0 0
0.194142 0.00999217 0.426079 255 0 0
0.228049 0.0826911 0.629401 255 0 0
0.258829 0.120099 0.596891 255 0 0
0.250336 0.133557 0.54705 255 0 0
0.275786 0.0441829 0.956919 255 0 0
0.189746 0.00058153 0.764222 255 0 0
0.15568 0.11856 0.630083 255 0 0
0.186845 0.0922803 0.637972 255 0 0
0.310222 -0.0294208 0.727739 255 0 0
0.187519 0.122186 0.606245 255 0 0
0.255365 0.0339054 0.670765 255 0 0
0.246221 0.0968374 0.632245 255 0 0
0.266012 0.0802786 0.630032 255 0 0
0.321114 0.123022 0.503937 255 0 0
0.278506 0.0656026 0.859338 255 0 0
0.217186 0.097229 0.610183 255 0 0
0.281441 0.106181 0.588491 255 0 0
0.205639 -0.035308 0.87602 255 0 0
-0.0772064 0.00977013 0.830534 255 0 0
0.225609 0.0779642 0.615164 255 0 0
0.259233 -0.00540334 0.569673 255 0 0
0.320087 0.112056 0.519346 255 0 0
0.241263 0.0719018 0.635086 255 0 0
0.284144 0.143516 0.534732 255 0 0
0.177875 0.133727 0.557908 255 0 0
0.242944 0.110274 0.607741 255 0 0
0.343279 0.134001 0.658463 255 0 0
0.53005 -0.0908755 0.408517 255 0 0
0.530249 -0.091111 0.408314 255 0 0
0.24066 0.0671345 0.926704 255 0 0
0.296308 0.0680016 1.03455 255 0 0
0.129273 0.304596 0.620443 255 0 0
0.237459 0.0102558 0.684024 255 0 0
0.324637 0.125397 0.504837 255 0 0
0.151306 0.0569032 0.680901 255 0 0
0.267874 0.0361769 0.675434 255 0 0
0.130239 0.119284 0.546865 255 0 0
0.273219 0.0462699 0.958694 255 0 0
0.169907 0.0472811 0.389233 255 0 0
-0.0440158 -0.0110776 0.784173 255 0 0
-0.0545343 -0.0260274 0.810836 255 0 0
-0.0347734 -0.007212 0.60684 255 0 0
0.191512 0.0366672 0.690939 255 0 0
-0.0195336 0.10917 0.434412 255 0 0
-0.0340622 0.113662 0.43792 255 0 0
0.324656 0.122356 0.49786 255 0 0
0.136018 0.134148 0.575632 255 0 0
0.311392 0.10505 0.565948 255 0 0
0.282601 0.108484 0.621232 255 0 0
0.201944 0.116644 0.611812 255 0 0
0.391232 0.141191 0.746495 255 0 0
0.321505 0.108593 0.567084 255 0 0
0.241043 0.131996 0.568326 255 0 0
0.490614 0.16931 0.768138 255 0 0
0.363726 0.123144 0.643862 255 0 0
0.301243 0.100151 0.570845 255 0 0
0.365849 0.15567 0.773623 255 0 0
0.377508 0.150006 0.752346 255 0 0
0.213128 0.119974 0.549917 255 0 0
0.358704 0.126268 0.658654 255 0 0
0.487896 0.171213 0.76934 255 0 0
0.435173 0.15992 0.713071 255 0 0
0.365597 0.106526 0.571733 255 0 0
0.221203 0.110556 0.602095 255 0 0
0.294897 0.102226 0.611939 255 0 0
0.226554 0.101127 0.605101 255 0 0
0.151301 0.13819 0.574288 255 0 0
0.277723 0.101758 0.622456 255 0 0
0.113966 0.098137 0.500715 255 0 0
0.207319 0.0830422 0.632783 255 0 0
0.258848 0.0925217 0.831261 255 0 0
0.110072 0.0198013 0.857015 255 0 0
0.188263 0.0341955 0.72528 255 0 0
0.213913 0.0601167 0.683898 255 0 0
-0.112763 0.146243 0.518955 255 0 0
0.25888 0.0346441 0.679415 255 0 0
0.183234 0.0113034 0.451018 255 0 0
-0.099393 0.199802 0.523755 255 0 0
-0.132254 0.0241364 0.878435 255 0 0
0.205732 0.01064 0.401933 255 0 0
0.203802 0.115972 0.508356 255 0 0
-0.020741 0.0112059 0.579654 255 0 0
-0.104144 0.0163227 0.997692 255 0 0
0.495239 0.089193 0.917689 255 0 0
0.465264 0.161291 0.769238 255 0 0
0.401197 0.150248 0.717286 255 0 0
0.457476 0.110753 0.982288 255 0 0
0.369624 0.0741552 0.848794 255 0 0
0.407843 0.0571122 0.839471 255 0 0
0.346526 0.0708692 0.849064 255 0 0
0.30758 0.0774828 0.86886 255 0 0
0.385067 0.0917393 0.873583 255 0 0
0.613528 -0.00290576 0.740872 255 0 0
0.322751 0.143587 0.721597 255 0 0
0.335023 0.138396 0.718756 255 0 0
0.505857 0.0422324 0.823685 255 0 0
0.370329 0.0679215 0.842369 255 0 0
0.250022 0.0430654 0.945953 255 0 0
0.317251 0.145782 0.669954 255 0 0
0.377613 0.145455 0.639668 255 0 0
0.336271 0.16206 0.659188 255 0 0
0.213321 0.0775761 0.641925 255 0 0
0.246459 0.0233411 1.02381 255 0 0
0.271521 0.0938648 0.883798 255 0 0
0.179088 0.0601652 0.896146 255 0 0
0.166016 0.0361715 0.916927 255 0 0
0.321971 0.118877 0.671688 255 0 0
0.471227 0.15357 0.748916 255 0 0
0.28819 0.12463 0.606931 255 0 0
0.387822 0.099649 0.777631 255 0 0
0.394577 0.103457 0.818021 255 0 0
0.0353949 -1.83109e-06 0.997384 255 0 0
0.194693 -0.00781214 0.776704 255 0 0
0.228113 0.139649 0.539766 255 0 0
0.226054 0.133295 0.549106 255 0 0
0.237834 0.111123 0.61291 255 0 0
0.183792 -0.0151139 0.737496 255 0 0
0.186537 0.0917666 0.637484 255 0 0
0.0663817 -0.0171735 0.989723 255 0 0
0.311325 0.105059 0.569451 255 0 0
-0.0729515 0.00485248 0.760926 255 0 0
0.392094 0.0751271 0.873188 255 0 0
0.207508 0.113568 0.501636 255 0 0
0.386122 0.165046 0.684008 255 0 0
0.482126 0.0731089 0.974399 255 0 0
0.502878 0.181788 0.746795 255 0 0
0.269945 0.222246 0.943805 255 0 0
0.367138 0.0883086 0.824669 255 0 0
0.519554 0.0773374 0.78373 255 0 0
0.329103 0.128255 0.91626 255 0 0
0.432341 0.126359 0.805298 255 0 0
-5.07575 3.53263 2.23887 255 0 0
0.507604 0.182318 0.744641 255 0 0
0.543815 0.0408657 0.827901 255 0 0
0.46061 0.157538 0.774091 255 0 0
0.41609 0.117764 0.954185 255 0 0
-39.0508 24.9585 15.5473 255 0 0
-3.07762 1.37948 2.33324 255 0 0
0.420235 0.12413 0.961636 255 0 0
0.430046 0.172874 0.692006 255 0 0
0.362141 0.226332 0.64538 255 0 0
0.463798 0.160213 0.771113 255 0 0
0.144588 0.111299 0.821904 255 0 0
0.148892 0.113865 0.632984 255 0 0
0.296548 0.103525 0.615633 255 0 0
0.423713 0.168856 0.685193 255 0 0
0.346869 0.316676 0.949316 255 0 0
0.368223 0.274198 1.12164 255 0 0
0.366426 0.14864 0.755376 255 0 0
0.482719 0.174566 0.771517 255 0 0
0.435173 0.0900801 1.0031 255 0 0
0.444373 0.0918452 0.99872 255 0 0
0.305795 0.298806 0.990396 255 0 0
0.390433 0.140403 0.767144 255 0 0
0.289625 0.309812 1.10571 255 0 0
0.325046 0.0948935 0.873293 255 0 0
0.0396719 0.276969 1.30293 255 0 0
0.447591 0.0673328 0.918148 255 0 0
0.43975 0.0852242 0.926769 255 0 0
0.438299 0.153807 0.778825 255 0 0
0.388703 0.0988717 0.775309 255 0 0
0.19668 0.0426557 0.660563 255 0 0
0.182214 -0.0423515 0.844634 255 0 0
0.187882 0.0926327 0.6335 255 0 0
0.315523 0.097297 0.570105 255 0 0
0.298077 0.103773 0.611434 255 0 0
0.176305 -0.0420404 0.861293 255 0 0
0.209334 0.108801 0.492226 255 0 0
0.274134 -0.00140675 0.727106 255 0 0
0.252224 0.0962104 0.619618 255 0 0
0.186849 0.0778105 0.641357 255 0 0
-0.0726473 0.0206968 0.838843 255 0 0
0.331928 0.0936566 0.562229 255 0 0
0.232404 -0.041235 0.420143 255 0 0
0.252633 0.114413 0.533096 255 0 0
0.226406 0.0528797 0.657084 255 0 0
0.196747 0.0384133 0.954245 255 0 0
0.220742 0.121692 0.575128 255 0 0
0.140546 -0.0238048 0.953176 255 0 0
0.437424 0.0589866 0.893137 255 0 0
0.176985 0.133634 0.55716 255 0 0
0.275586 0.0586079 0.710517 255 0 0
0.3144 0.123019 0.61693 255 0 0
0.30318 0.0571586 0.958429 255 0 0
0.205624 0.108258 0.610312 255 0 0
0.285351 0.100085 0.62081 255 0 0
0.23588 0.0742102 0.63702 255 0 0
0.409518 0.0857613 0.863646 255 0 0
0.255574 -0.0797454 0.830687 255 0 0
-0.0840058 0.0541211 0.869544 255 0 0
-0.0959857 0.0370146 0.873614 255 0 0
0.301301 0.103359 0.612216 255 0 0
0.182067 0.121618 0.60067 255 0 0
-0.0765434 0.0528784 0.862579 255 0 0
-0.0674995 0.00434218 0.748524 255 0 0
-0.133734 0.0452415 0.901966 255 0 0
0.235275 0.107343 0.609886 255 0 0
-0.0179817 0.00868837 0.585868 255 0 0
-0.0131533 0.0141578 0.591151 255 0 0
0.229591 0.155586 0.521872 255 0 0
0.221293 0.0774824 0.632804 255 0 0
-0.062956 0.0245945 0.802503 255 0 0
0.199198 -0.0108785 0.767786 255 0 0
0.285738 -0.0103561 0.712678 255 0 0
0.210526 0.109063 0.608526 255 0 0
0.159261 0.135284 0.618952 255 0 0
-0.0650174 0.093955 0.91051 255 0 0
0.274934 0.026384 0.656164 255 0 0
0.268633 0.0132782 0.690256 255 0 0
0.290874 0.0972729 0.616309 255 0 0
-0.0256806 -0.0140663 0.591402 255 0 0
0.278623 0.101002 0.853112 255 0 0
-0.0284403 -0.00158579 0.617758 255 0 0
-0.00574462 0.00505786 0.585926 255 0 0
0.14863 0.0589703 0.412695 255 0 0
-0.0156721 0.387259 0.806338 255 0 0
-0.0229419 0.00113152 0.559513 255 0 0
0.288282 0.0999492 0.630055 255 0 0
0.209935 -0.0201384 0.439105 255 0 0
-0.0113373 0.0148338 0.622501 255 0 0
-0.0071289 0.379765 0.789185 255 0 0
0.208585 0.032314 0.70216 255 0 0
0.160439 0.0591001 0.657399 255 0 0
-0.0424033 0.0380211 0.749093 255 0 0
0.386808 0.0548629 0.900123 255 0 0
0.366694 0.0588605 0.89163 255 0 0
0.151684 0.0938226 0.308719 255 0 0
0.00501983 0.0181285 0.583021 255 0 0
-0.0416928 0.0370711 0.746994 255 0 0
-0.0692795 0.00627675 0.807081 255 0 0
0.258417 0.115262 0.600044 255 0 0
0.379313 0.150523 0.756261 255 0 0
0.391158 0.155261 0.731536 255 0 0
0.369365 0.173605 0.757063 255 0 0
0.234691 0.0749271 0.638997 255 0 0
0.401062 0.150559 0.752372 255 0 0
-0.0304443 0.0486953 0.741038 255 0 0
-0.0348348 0.0489285 0.745852 255 0 0
-0.0148058 0.0165072 0.593755 255 0 0
0.279687 0.000862676 0.714433 255 0 0
0.27595 0.088208 0.624553 255 0 0
0.136571 0.132896 0.57708 255 0 0
0.34939 0.321329 0.991802 255 0 0
0.357247 0.073317 0.858086 255 0 0
0.377411 0.16222 0.688152 255 0 0
0.45984 0.06553 0.927575 255 0 0
0.556512 0.0784459 0.938858 255 0 0
0.422028 0.145132 0.742707 255 0 0
0.443803 0.172387 0.683745 255 0 0
0.286994 0.34242 1.00177 255 0 0
0.0424789 -0.012081 1.02706 255 0 0
0.0443117 -0.0116407 1.02389 255 0 0
-0.0421789 -0.0125747 0.622233 255 0 0
0.429682 0.216981 0.639897 255 0 0
0.443127 0.0953929 0.895522 255 0 0
0.422274 0.156105 0.726601 255 0 0
0.501088 0.170122 0.782683 255 0 0
0.28135 0.106985 0.594923 255 0 0
-0.0210498 0.00856434 0.590035 255 0 0
0.0469827 -0.0148246 1.05466 255 0 0
-0.0435445 -0.044753 0.786328 255 0 0
0.356959 0.0770544 0.84831 255 0 0
0.143948 0.116342 0.614947 255 0 0
0.226947 0.083065 0.632598 255 0 0
0.255861 0.118534 0.548241 255 0 0
0.0019824 0.0236106 0.615485 255 0 0
0.00676028 0.0333456 0.56383 255 0 0
0.32308 0.0810978 0.844218 255 0 0
0.265353 0.127879 0.553171 255 0 0
0.187938 -0.015575 1.06877 255 0 0
0.211226 0.0868101 0.634896 255 0 0
0.168123 0.0786317 0.658161 255 0 0
0.27203 0.0889947 0.626343 255 0 0
-0.0382653 0.0725727 0.659435 255 0 0
0.25373 0.0145059 0.727453 255 0 0
0.201265 0.0569748 0.347091 255 0 0
0.19762 0.0241665 0.669548 255 0 0
0.365612 0.120353 0.659675 255 0 0
0.363431 0.0938604 0.608851 255 0 0
0.449041 0.209249 0.634447 255 0 0
0.329424 0.152628 0.760416 255 0 0
0.387278 0.158259 0.720875 255 0 0
0.409966 0.143755 0.71093 255 0 0
0.361636 0.125625 0.712722 255 0 0
0.299108 0.148127 0.658188 255 0 0
0.365266 0.100366 0.799374 255 0 0
0.475907 0.193472 0.661772 255 0 0
0.359688 0.0953955 0.609617 255 0 0
0.509889 0.177436 0.784765 255 0 0
0.17972 0.0614604 0.89735 255 0 0
0.421864 0.14823 0.735844 255 0 0
0.160557 0.038873 0.922683 255 0 0
0.485523 0.168178 0.768558 255 0 0
0.232939 0.0769386 0.63475 255 0 0
0.41714 0.149517 0.774006 255 0 0
0.43065 0.16933 0.688955 255 0 0
0.181303 0.0587762 0.891081 255 0 0
0.140665 0.00811645 1.02934 255 0 0
0.254379 0.0473665 0.680801 255 0 0
0.175275 0.073176 0.639724 255 0 0
0.229789 0.140403 0.535793 255 0 0
-0.0621907 0.0146128 0.816976 255 0 0
0.176237 -0.0282894 0.983593 255 0 0
0.0943221 0.0673828 0.897181 255 0 0
0.177807 0.0349536 0.692391 255 0 0
0.172795 0.0152131 0.765526 255 0 0
0.228563 0.0839174 0.631699 255 0 0
0.184537 0.0102307 0.763555 255 0 0
0.164942 0.0637341 0.557848 255 0 0
0.196399 0.129142 0.586938 255 0 0
0.332854 0.102861 0.550793 255 0 0
0.296835 -0.0312388 0.827988 255 0 0
0.253716 0.116289 0.593971 255 0 0
-0.0880721 0.037023 0.872359 255 0 0
0.138563 0.116094 0.661514 255 0 0
0.240858 -0.000586095 0.618644 255 0 0
0.21182 0.0685988 0.610445 255 0 0
0.174655 0.0379095 0.658648 255 0 0
0.154417 0.118946 0.63116 255 0 0
-0.0594186 -0.00595154 0.645738 255 0 0
0.152697 0.0553163 0.389826 255 0 0
0.288868 0.0979865 0.625174 255 0 0
0.308877 0.0825455 0.916488 255 0 0
-0.0296553 0.000780416 0.547515 255 0 0
0.274779 0.10257 0.624019 255 0 0
-0.0814176 0.0110223 0.772099 255 0 0
0.170008 0.00298028 0.976584 255 0 0
0.424017 0.0720599 0.933075 255 0 0
0.315048 0.0625345 1.02416 255 0 0
0.418812 0.145076 0.74332 255 0 0
0.203431 0.353813 0.511043 255 0 0
0.439589 0.0986793 0.899247 255 0 0
0.25901 0.0301043 1.02623 255 0 0
0.269293 0.0388425 0.996897 255 0 0
0.184867 0.119195 0.609236 255 0 0
0.219173 0.0562298 0.657939 255 0 0
0.123571 0.0993827 0.507734 255 0 0
0.381225 0.148376 0.754775 255 0 0
0.23363 0.0619938 0.868692 255 0 0
0.282077 0.101533 0.84274 255 0 0
-0.0974615 0.0476127 0.867596 255 0 0
0.279324 0.104299 0.635699 255 0 0
0.198529 0.0441688 0.661899 255 0 0
-0.0488791 0.29654 0.602777 255 0 0
0.258744 0.092253 0.829435 255 0 0
0.205969 0.111071 0.613406 255 0 0
0.103409 0.0830826 0.513472 255 0 0
0.280476 -0.00346339 0.703232 255 0 0
0.427579 0.0742523 0.852828 255 0 0
0.132744 0.115817 0.548416 255 0 0
0.274941 0.01665 1.02223 255 0 0
0.192014 0.133911 0.550164 255 0 0
-0.0320767 -0.021438 0.585455 255 0 0
-0.00291591 0.00543711 0.582245 255 0 0
0.129942 0.119426 0.547309 255 0 0
0.221465 0.128607 0.557379 255 0 0
0.195197 0.0432965 0.662757 255 0 0
0.198179 0.122862 0.547298 255 0 0
0.00195552 0.00707068 0.582834 255 0 0
0.223893 0.0537913 0.659865 255 0 0
0.210652 0.0324183 0.672962 255 0 0
0.121959 0.111966 0.561441 255 0 0
-0.0461167 -0.0081692 0.5515 255 0 0
0.169906 0.0437756 0.709276 255 0 0
-0.0213529 -0.00256034 0.508642 255 0 0
0.281927 0.0922361 0.626664 255 0 0
0.356185 0.0781832 0.849796 255 0 0
-0.0607025 0.0019819 0.741381 255 0 0
0.228956 0.0799016 0.626695 255 0 0
0.137958 0.143184 0.581685 255 0 0
0.446301 0.0590793 0.900425 255 0 0
0.470585 0.144066 0.866563 255 0 0
0.448238 0.0929795 0.891648 255 0 0
0.369121 0.152342 0.755455 255 0 0
0.442813 0.172955 0.684222 255 0 0
0.466953 0.0614108 0.887527 255 0 0
0.401964 0.128521 0.6475 255 0 0
0.234911 0.0889644 0.622347 255 0 0
0.276356 0.112443 0.857511 255 0 0
0.249373 0.0425662 0.947673 255 0 0
0.381092 0.0888348 0.793124 255 0 0
0.250412 0.0726861 0.942346 255 0 0
0.322202 0.152183 0.757685 255 0 0
0.429299 0.0787197 0.868443 255 0 0
0.410676 0.090591 0.887594 255 0 0
0.16881 0.0767868 0.885845 255 0 0
0.418902 0.143972 0.752142 255 0 0
0.484095 0.169198 0.757744 255 0 0
0.429218 0.14681 0.740785 255 0 0
0.372996 0.148654 0.746437 255 0 0
0.423934 0.064422 0.904565 255 0 0
0.359207 0.100975 0.597517 255 0 0
0.432422 0.165921 0.70632 255 0 0
0.256568 0.0765526 0.873493 255 0 0
0.419722 0.0650024 0.908522 255 0 0
0.360235 0.129 0.467974 255 0 0
0.26125 0.12707 0.857311 255 0 0
0.105237 0.282222 0.530072 255 0 0
0.252476 0.0417788 0.946548 255 0 0
0.474587 0.164589 0.776908 255 0 0
0.348518 0.130496 0.654197 255 0 0
0.439826 0.110612 0.851007 255 0 0
0.262393 0.0459514 0.67229 255 0 0
0.262319 0.0396184 0.682689 255 0 0
0.436206 0.15823 0.717212 255 0 0
0.312208 0.0497945 0.934033 255 0 0
0.171976 0.0305343 0.750245 255 0 0
-0.0903355 0.0232838 0.848379 255 0 0
0.210272 0.0876148 0.635294 255 0 0
-0.00795077 0.0128982 0.612116 255 0 0
-0.00340136 0.0055043 0.582025 255 0 0
0.220572 0.0781829 0.632916 255 0 0
0.133856 -0.00184432 1.03899 255 0 0
-0.0458243 -0.0288789 0.800149 255 0 0
0.434987 0.159316 0.717692 255 0 0
0.414829 0.0677323 0.915714 255 0 0
0.284793 0.0887977 0.870239 255 0 0
0.265786 0.0884004 0.824715 255 0 0
0.212081 0.123898 0.593202 255 0 0
0.339081 0.160764 0.655529 255 0 0
0.27853 0.102427 0.611539 255 0 0
0.386163 0.162176 0.721923 255 0 0
0.340908 0.117086 0.624754 255 0 0
0.225209 0.0986129 0.629216 255 0 0
0.405252 0.180811 0.668506 255 0 0
0.24224 0.128784 0.540285 255 0 0
0.336124 0.159568 0.771513 255 0 0
0.210671 0.101589 0.613472 255 0 0
0.430121 0.103077 0.858002 255 0 0
0.475805 0.196707 0.662806 255 0 0
0.449264 0.213431 0.637042 255 0 0
0.386283 0.160835 0.72224 255 0 0
0.318203 0.117694 0.672092 255 0 0
0.281689 0.0860092 0.915887 255 0 0
0.430212 0.103545 0.858576 255 0 0
0.452368 0.149797 0.767935 255 0 0
0.468271 0.0634351 0.923017 255 0 0
-0.13816 0.0283404 0.974565 255 0 0
0.218606 0.0531634 0.909564 255 0 0
-0.0945122 0.0123873 0.98343 255 0 0
0.214943 -0.00721005 0.921738 255 0 0
0.375457 0.147984 0.742082 255 0 0
0.403744 0.0822339 0.862831 255 0 0
0.414711 0.0886869 0.885447 255 0 0
0.359337 0.121201 0.64172 255 0 0
0.249724 0.0759824 1.03404 255 0 0
0.351551 0.0710707 0.931627 255 0 0
0.0715443 0.0260417 0.945412 255 0 0
0.213082 0.0580885 0.659153 255 0 0
0.232687 -0.053031 0.816827 255 0 0
0.215191 0.106178 0.61337 255 0 0
0.270343 0.0911461 0.622793 255 0 0
0.240488 0.104863 0.611583 255 0 0
0.196717 0.0434631 0.661442 255 0 0
0.212684 0.0773362 0.638896 255 0 0
0.152688 0.120538 0.635604 255 0 0
0.150604 0.115084 0.631465 255 0 0
0.0774171 0.00117129 0.983076 255 0 0
0.205364 0.116146 0.538804 255 0 0
0.450426 0.16944 0.682684 255 0 0
0.474958 0.0655647 0.957025 255 0 0
0.43581 0.10027 0.848307 255 0 0
0.34624 0.132401 0.651216 255 0 0
0.409114 0.0827993 0.870389 255 0 0
0.146347 0.137885 0.576062 255 0 0
0.150106 0.0633924 0.884782 255 0 0
0.286314 0.101622 0.631222 255 0 0
0.392791 0.102562 0.879124 255 0 0
0.36714 0.144174 0.756977 255 0 0
0.376575 0.0431304 0.987486 255 0 0
0.510665 0.0833702 0.99045 255 0 0
0.388647 0.145047 0.749399 255 0 0
0.377589 0.0905354 0.793529 255 0 0
0.00418192 -0.0125586 0.988616 255 0 0
0.368378 0.0788024 0.845439 255 0 0
0.153875 0.0454906 0.695718 255 0 0
-0.0229963 0.00497534 0.603182 255 0 0
0.0425123 -0.0142489 1.00781 255 0 0
0.0343011 0.0253925 0.973247 255 0 0
0.200931 0.0306351 0.676187 255 0 0
0.350977 0.0725998 0.843312 255 0 0
0.297084 0.0310109 0.89812 255 0 0
0.28603 0.0797456 0.93917 255 0 0
-0.0353466 -0.0111558 0.598423 255 0 0
0.0115739 0.0172681 0.998247 255 0 0
0.181809 0.0124405 0.760399 255 0 0
0.375545 0.0600575 0.885105 255 0 0
0.178415 0.0788515 0.901276 255 0 0
0.200243 0.0445358 0.965488 255 0 0
0.421666 0.118892 0.811872 255 0 0
0.198237 0.0372236 0.942953 255 0 0
0.504174 0.173446 0.78502 255 0 0
0.419279 0.14376 0.7518 255 0 0
0.418499 0.143843 0.751721 255 0 0
0.425013 0.159017 0.720767 255 0 0
0.414944 0.155386 0.72088 255 0 0
0.40803 0.180527 0.667139 255 0 0
0.429115 0.124916 0.807486 255 0 0
0.284636 0.0127118 1.01947 255 0 0
0.21353 0.0875548 0.628019 255 0 0
0.204068 0.0909398 0.632346 255 0 0
0.171726 -0.0284991 0.975051 255 0 0
-0.00879214 0.0134481 0.616453 255 0 0
0.0435749 0.0225302 0.905161 255 0 0
0.191782 0.0289354 0.671647 255 0 0
0.227646 0.0619005 0.71711 255 0 0
0.183901 0.0796858 0.643452 255 0 0
0.198342 0.0431787 0.659051 255 0 0
0.169576 0.0371699 0.67283 255 0 0
0.257964 0.0754001 0.991751 255 0 0
0.187901 0.0290894 0.937601 255 0 0
0.464881 0.159896 0.757191 255 0 0
0.201956 0.125392 0.550618 255 0 0
0.247268 0.026698 1.00416 255 0 0
0.372783 0.093924 0.797423 255 0 0
0.403478 0.159628 0.703731 255 0 0
0.403926 0.156952 0.701428 255 0 0
0.378423 0.147262 0.764675 255 0 0
0.428672 0.159668 0.786393 255 0 0
0.265093 0.275345 0.517614 255 0 0
0.341479 0.132452 0.664047 255 0 0
0.238719 0.061986 0.921816 255 0 0
0.38124 0.0902589 0.792438 255 0 0
0.410675 0.172454 0.688814 255 0 0
0.278493 0.0692403 0.999484 255 0 0
0.419287 0.120062 0.810725 255 0 0
0.272802 0.0633967 0.955339 255 0 0
0.150668 0.114535 0.630627 255 0 0
0.215555 0.125364 0.574397 255 0 0
0.151059 0.112053 0.629422 255 0 0
0.000470709 0.00378249 0.578937 255 0 0
0.187086 0.00998612 0.751329 255 0 0
0.180724 0.0429663 0.715224 255 0 0
0.212855 -0.0252079 0.779782 255 0 0
0.128802 0.11923 0.549033 255 0 0
0.12929 0.119276 0.547997 255 0 0
-0.0475049 -0.00670028 0.612331 255 0 0
0.19544 0.0431936 0.662408 255 0 0
0.197427 -0.0209237 0.81864 255 0 0
0.0455677 -0.0025253 0.991624 255 0 0
0.268914 0.11639 0.581792 255 0 0
-0.0129777 0.0839029 0.901216 255 0 0
-0.00575588 0.0122356 0.61004 255 0 0
0.20544 0.104266 0.615422 255 0 0
0.155165 0.118738 0.631793 255 0 0
-0.0197364 -0.00479086 0.554083 255 0 0
0.235622 0.0704186 0.930367 255 0 0
-0.0821183 0.0341882 0.860888 255 0 0
-0.0244653 -0.0172805 0.591528 255 0 0
-0.0048571 0.0116324 0.609655 255 0 0
0.00331161 -0.0035236 0.586723 255 0 0
0.218115 -0.0294614 0.803111 255 0 0
0.204197 0.10525 0.614847 255 0 0
0.198189 0.123966 0.600641 255 0 0
0.000460212 0.0269214 0.619139 255 0 0
0.202506 0.0854658 0.639931 255 0 0
-0.0721785 0.0497128 0.858539 255 0 0
0.20688 0.0342906 0.67725 255 0 0
0.197837 -0.0288909 0.858512 255 0 0
0.278703 0.108983 0.587127 255 0 0
0.154722 0.0554003 0.677551 255 0 0
0.194058 0.0405323 0.662186 255 0 0
0.352963 0.0741201 0.844437 255 0 0
0.536078 0.166272 0.779782 255 0 0
0.295266 0.296652 0.560082 255 0 0
0.3086 0.285866 0.559937 255 0 0
0.511657 0.0560506 0.940825 255 0 0
0.461377 0.0650733 0.892918 255 0 0
0.27281 0.0424913 0.915072 255 0 0
0.405868 0.1477 0.746406 255 0 0
0.434282 0.0638815 0.907576 255 0 0
0.355883 0.125555 0.648512 255 0 0
0.265522 0.117277 0.551947 255 0 0
0.409481 0.0832535 0.861303 255 0 0
0.122267 0.122626 0.549482 255 0 0
0.206948 0.0637383 0.89614 255 0 0
0.355992 0.0781498 0.850076 255 0 0
0.126371 0.110681 0.559655 255 0 0
-0.0297555 0.00750642 0.576777 255 0 0
0.172897 0.125379 0.605604 255 0 0
0.188639 0.126335 0.552699 255 0 0
0.184946 0.0988781 0.637889 255 0 0
0.216875 -0.017842 0.741709 255 0 0
-0.108717 0.0212646 0.888203 255 0 0
0.237799 0.0390775 0.748945 255 0 0
0.269713 0.0437352 0.912026 255 0 0
0.263457 0.0784138 0.625466 255 0 0
0.267558 0.0786421 0.626827 255 0 0
0.0384307 0.0159758 0.992456 255 0 0
-0.0820451 0.0318283 0.857742 255 0 0
0.214148 0.0826064 0.633226 255 0 0
-0.0432355 -0.008832 0.611324 255 0 0
0.215256 0.133243 0.548942 255 0 0
-0.0467646 0.0100891 0.775888 255 0 0
0.462024 0.0645123 0.938516 255 0 0
0.428782 0.483411 0.663536 255 0 0
0.412776 0.166469 0.684087 255 0 0
0.416648 0.172366 0.667542 255 0 0
0.510054 0.137058 0.680458 255 0 0
0.462152 0.066414 0.897263 255 0 0
0.349262 0.0866029 0.82231 255 0 0
0.35797 0.0844551 0.816252 255 0 0
0.446741 0.063257 0.797081 255 0 0
-0.916471 1.07999 1.28854 255 0 0
0.529099 0.122334 0.84549 255 0 0
0.529028 0.122192 0.845487 255 0 0
0.529235 0.12158 0.845014 255 0 0
-0.0386523 -0.0100882 0.60846 255 0 0
-0.0590171 0.0254522 0.781165 255 0 0
-0.0745401 -0.0192786 0.628063 255 0 0
0.309802 0.107011 0.631359 255 0 0
0.222635 0.0552349 0.663736 255 0 0
0.315219 0.0512167 0.934563 255 0 0
-0.0227158 -0.0233475 0.578244 255 0 0
0.223316 0.0804225 0.635378 255 0 0
0.213651 -0.0319561 1.02453 255 0 0
-0.0543918 0.0232441 0.776284 255 0 0
0.216577 0.124045 0.567837 255 0 0
-0.118168 -0.025342 0.806271 255 0 0
0.305713 0.0598642 1.00157 255 0 0
-0.0544831 0.000984252 0.737037 255 0 0
0.175969 0.133726 0.556504 255 0 0
0.407626 0.0831004 0.861301 255 0 0
-0.090908 0.00432903 0.775963 255 0 0
-0.0475707 0.00671064 0.596724 255 0 0
-0.0167171 0.0158569 0.618197 255 0 0
0.222931 0.0650861 0.887628 255 0 0
0.215693 0.344478 0.513038 255 0 0
0.35015 0.263306 0.566406 255 0 0
0.454229 0.209406 0.634602 255 0 0
0.386829 0.145886 0.748924 255 0 0
0.460053 0.148838 0.773329 255 0 0
0.490438 0.1619 0.773005 255 0 0
0.193642 0.118205 0.606665 255 0 0
0.415329 0.148598 0.745464 255 0 0
0.274733 0.253746 0.507935 255 0 0
0.25437 0.0722505 0.972472 255 0 0
0.377939 0.0918472 0.795967 255 0 0
0.415123 0.145727 0.7546 255 0 0
0.331138 0.150962 0.761645 255 0 0
0.406367 0.147273 0.716634 255 0 0
0.16531 0.0828885 0.91176 255 0 0
0.384284 0.100069 0.781069 255 0 0
0.379022 0.300839 0.594759 255 0 0
0.390465 0.160104 0.764632 255 0 0
0.151764 0.100408 0.847964 255 0 0
0.220927 0.127744 0.567929 255 0 0
0.322454 0.156269 0.766648 255 0 0
0.232739 0.13457 0.541343 255 0 0
0.23655 0.128032 0.566354 255 0 0
0.389754 0.154697 0.732685 255 0 0
0.439223 0.152559 0.77442 255 0 0
0.430733 0.149342 0.758544 255 0 0
0.457603 0.10227 0.553736 255 0 0
0.195438 0.0483562 0.964765 255 0 0
0.483761 0.0576472 0.926829 255 0 0
0.389228 0.0978811 0.775959 255 0 0
0.470151 0.0656917 0.945512 255 0 0
0.419498 0.142241 0.757197 255 0 0
0.289107 0.0937838 0.632174 255 0 0
0.444883 0.154249 0.750808 255 0 0
0.407489 0.145524 0.74645 255 0 0
0.309773 0.130311 0.668955 255 0 0
0.253447 0.143301 0.529932 255 0 0
0.340071 0.161038 0.656813 255 0 0
0.471967 0.155555 0.77678 255 0 0
0.191399 0.115885 0.616407 255 0 0
0.400897 0.0898534 0.827274 255 0 0
0.274828 0.0999551 0.586082 255 0 0
0.247616 0.0394194 0.951255 255 0 0
0.411029 0.148256 0.743314 255 0 0
0.35997 0.148937 0.763326 255 0 0
0.121811 0.118506 0.591225 255 0 0
0.378859 0.149515 0.75199 255 0 0
0.214299 0.0567433 0.94276 255 0 0
0.165093 0.0815109 0.909977 255 0 0
0.221103 0.104362 0.592789 255 0 0
0.0793286 0.112712 0.528396 255 0 0
0.341282 0.146178 0.75644 255 0 0
0.249902 0.0955679 0.620794 255 0 0
0.216397 0.053085 0.912875 255 0 0
0.419516 0.0879377 0.882248 255 0 0
0.28776 0.101124 0.630453 255 0 0
0.112504 0.103188 0.527684 255 0 0
0.327846 0.102963 0.586759 255 0 0
0.242227 0.0605929 0.91876 255 0 0
0.428301 0.15868 0.693457 255 0 0
0.41016 0.152366 0.746435 255 0 0
0.434063 0.165751 0.68579 255 0 0
0.317609 0.126298 0.616485 255 0 0
0.447663 0.170628 0.683115 255 0 0
0.457665 0.0692581 0.933429 255 0 0
0.389004 0.232541 0.557482 255 0 0
0.413006 0.148327 0.757888 255 0 0
0.428828 0.140631 0.73496 255 0 0
0.395741 0.160746 0.70553 255 0 0
0.260019 0.074482 1.0126 255 0 0
0.443727 0.166497 0.700822 255 0 0
0.439868 0.0778823 0.963463 255 0 0
0.250733 0.0737456 0.942166 255 0 0
0.277712 0.0474704 0.95449 255 0 0
0.386613 0.162628 0.722571 255 0 0
0.256522 0.0946553 0.83694 255 0 0
0.253138 0.0724937 0.939099 255 0 0
0.258575 0.0704844 0.947627 255 0 0
0.40551 0.112916 0.819426 255 0 0
0.281745 0.0906311 0.875866 255 0 0
0.413127 0.146766 0.749608 255 0 0
0.448939 0.141529 0.758676 255 0 0
0.188413 0.102946 0.827612 255 0 0
0.373381 0.157261 0.710287 255 0 0
0.180417 0.0124075 0.762585 255 0 0
0.109628 0.103639 0.526674 255 0 0
0.363564 0.0706789 0.835771 255 0 0
0.252685 -0.00514717 0.846796 255 0 0
0.201713 0.121898 0.594318 255 0 0
0.200675 0.0834324 0.64085 255 0 0
-0.0930342 0.0114707 0.768974 255 0 0
0.217865 0.117907 0.563693 255 0 0
0.428687 0.157857 0.718618 255 0 0
0.197352 0.126259 0.597536 255 0 0
0.407492 0.112422 0.816793 255 0 0
0.21569 0.056611 0.661966 255 0 0
0.485781 0.169047 0.769226 255 0 0
0.220597 0.125094 0.571438 255 0 0
0.355896 0.098305 0.554694 255 0 0
0.469339 0.167534 0.743706 255 0 0
0.438538 0.1593 0.76389 255 0 0
0.18226 0.12224 0.609803 255 0 0
0.154482 0.118393 0.632026 255 0 0
0.340444 0.102955 0.56705 255 0 0
0.322368 0.118459 0.671208 255 0 0
0.519419 0.174919 0.782808 255 0 0
0.406867 0.216952 0.621587 255 0 0
0.220805 0.125568 0.570485 255 0 0
0.281711 0.108386 0.583106 255 0 0
0.48668 0.169952 0.768929 255 0 0
0.348829 0.13441 0.656727 255 0 0
0.209842 0.0784818 0.644896 255 0 0
0.170866 0.127091 0.624172 255 0 0
0.148926 0.120749 0.63453 255 0 0
0.242269 0.00843729 0.709843 255 0 0
0.137723 0.0873092 0.504683 255 0 0
0.399908 0.100681 0.884527 255 0 0
0.517577 0.0797871 0.984521 255 0 0
0.527144 0.0750093 0.976255 255 0 0
0.407313 0.0930638 0.868632 255 0 0
0.362572 0.146063 0.758525 255 0 0
0.474972 0.071533 0.966231 255 0 0
0.546538 0.161482 0.777358 255 0 0
0.412826 0.180516 0.896255 255 0 0
0.426467 0.10358 0.863426 255 0 0
0.421748 0.0527909 0.834652 255 0 0
0.427087 0.154333 0.698682 255 0 0
0.334742 0.246167 0.625599 255 0 0
0.394168 0.059006 0.838197 255 0 0
0.476462 0.0627571 0.898658 255 0 0
0.509383 0.0495078 0.879521 255 0 0
0.486133 0.066791 0.917191 255 0 0
0.527798 0.0626836 0.856543 255 0 0
0.360753 0.303351 0.966538 255 0 0
0.344343 0.234645 0.625611 255 0 0
0.436177 0.11784 0.992762 255 0 0
0.52979 0.0716451 0.902486 255 0 0
0.446344 0.118358 0.98756 255 0 0
0.319379 0.0825121 0.866843 255 0 0
0.39769 0.057857 0.836877 255 0 0
0.295446 0.181362 0.659592 255 0 0
0.377146 0.0956697 0.791898 255 0 0
0.377325 0.0996476 0.783282 255 0 0
0.51482 0.0494606 0.917718 255 0 0
0.438159 0.11525 0.978677 255 0 0
0.526231 0.442773 0.863952 255 0 0
0.410933 0.55813 1.00116 255 0 0
0.280587 0.289739 1.15433 255 0 0
0.479538 0.470224 0.79843 255 0 0
0.336317 0.226347 0.640142 255 0 0
0.244923 0.132743 1.00584 255 0 0
0.442987 0.0603589 0.903336 255 0 0
0.40459 0.181041 0.669009 255 0 0
0.428362 0.220134 0.635341 255 0 0
0.456113 0.0621765 0.922141 255 0 0
0.432084 0.0706061 0.923098 255 0 0
0.195472 0.345034 1.16924 255 0 0
0.474546 0.475003 0.850007 255 0 0
0.339763 0.0945939 0.947609 255 0 0
0.429655 0.219694 0.634813 255 0 0
0.388318 0.145238 0.757853 255 0 0
0.387578 0.143824 0.760576 255 0 0
0.338528 0.135465 0.662288 255 0 0
0.27421 0.0700162 0.99915 255 0 0
0.263047 0.0674069 0.99339 255 0 0
0.503327 0.156212 0.772051 255 0 0
0.235644 0.0507437 0.733707 255 0 0
0.192584 0.0712387 1.0552 255 0 0
-0.0256567 -0.0054678 0.614231 255 0 0
0.151986 0.113575 0.628634 255 0 0
-0.0997606 0.0329281 0.869163 255 0 0
0.226061 0.0528926 0.659434 255 0 0
0.278278 -0.0046045 0.720449 255 0 0
0.26187 0.0467555 0.672134 255 0 0
-0.159498 0.0447476 0.973961 255 0 0
-0.02895 -0.00646893 0.586757 255 0 0
0.159612 -0.0109612 0.927384 255 0 0
0.444705 0.0585976 0.906154 255 0 0
0.220796 0.0516847 0.906399 255 0 0
0.235478 0.0486765 0.914321 255 0 0
0.358644 0.11462 0.512852 255 0 0
0.233847 0.0488719 0.916157 255 0 0
0.242371 0.0427804 0.690645 255 0 0
0.273962 0.113042 0.560059 255 0 0
0.233884 0.0465041 0.892056 255 0 0
0.262415 0.11739 0.567249 255 0 0
0.140439 0.134505 0.582243 255 0 0
0.210976 0.0628672 0.917844 255 0 0
0.285931 0.0125474 1.01472 255 0 0
0.392368 0.162806 0.694608 255 0 0
0.432749 0.153237 0.781476 255 0 0
0.433402 0.1474 0.766448 255 0 0
0.34668 0.120599 0.633945 255 0 0
0.153858 0.136582 0.574801 255 0 0
0.173971 0.123692 0.623835 255 0 0
0.384434 0.0925925 0.830577 255 0 0
0.152286 0.0536118 0.908492 255 0 0
0.456983 0.105662 0.512089 255 0 0
0.445339 0.165901 0.699574 255 0 0
0.259217 0.122182 0.561876 255 0 0
0.390574 0.142019 0.764312 255 0 0
0.387543 0.099733 0.77919 255 0 0
0.393327 0.104133 0.819223 255 0 0
0.361044 0.127345 0.713201 255 0 0
0.345108 0.073505 0.889711 255 0 0
0.447378 0.155308 0.779064 255 0 0
0.215721 0.117663 0.587855 255 0 0
0.510004 -0.137042 0.373505 255 0 0
0.263132 0.0845016 0.620672 255 0 0
-0.0262522 -0.00173733 0.514288 255 0 0
0.280326 0.0797036 0.622784 255 0 0
-0.0514781 0.00461071 0.526506 255 0 0
0.43177 0.213957 0.639314 255 0 0
0.402704 0.175786 0.683117 255 0 0
0.434435 0.156571 0.78112 255 0 0
0.260262 0.0443906 0.948796 255 0 0
0.358649 0.0839954 0.816561 255 0 0
0.509816 0.171265 0.781583 255 0 0
0.492643 0.167058 0.766561 255 0 0
0.443163 0.0606378 0.90103 255 0 0
0.351114 0.262608 0.565867 255 0 0
0.202362 0.0718348 0.903261 255 0 0
0.2524 0.115697 0.585956 255 0 0
0.452903 0.210486 0.635481 255 0 0
0.150326 0.0552006 0.911755 255 0 0
0.278979 0.250775 0.509832 255 0 0
0.449722 0.170075 0.683049 255 0 0
0.16869 0.0960249 0.838375 255 0 0
0.278421 0.0637708 0.949091 255 0 0
0.457647 0.0681171 0.931741 255 0 0
0.43993 0.156592 0.712515 255 0 0
0.241893 0.0373243 0.966553 255 0 0
0.461809 0.14799 0.74837 255 0 0
0.435949 0.166889 0.688077 255 0 0
0.229088 0.0659418 0.927444 255 0 0
0.739991 -0.0508583 0.518668 255 0 0
0.275164 0.253429 0.50765 255 0 0
0.276138 0.253166 0.524162 255 0 0
0.443804 0.155299 0.775902 255 0 0
0.219663 0.0559681 0.667247 255 0 0
0.260454 0.0911895 0.83079 255 0 0
0.276696 0.0311933 0.998864 255 0 0
0.259732 0.0444993 0.669088 255 0 0
0.376275 0.216973 0.637258 255 0 0
0.359615 0.156785 0.649315 255 0 0
0.480366 0.15766 0.776176 255 0 0
0.474362 0.161045 0.76855 255 0 0
0.462516 0.161274 0.759338 255 0 0
0.294018 0.11504 0.590777 255 0 0
0.445181 0.167746 0.70387 255 0 0
0.356549 0.139261 0.75509 255 0 0
0.511999 0.0430319 0.894119 255 0 0
0.483474 0.46757 0.796245 255 0 0
0.367923 0.0455859 0.995188 255 0 0
0.429724 0.0280833 0.954574 255 0 0
0.314327 0.222631 0.829156 255 0 0
0.423488 0.0715177 0.9293 255 0 0
0.446868 0.167598 0.702443 255 0 0
0.295385 0.188298 0.544415 255 0 0
0.230197 0.249991 0.617519 255 0 0
0.384337 0.145968 0.751281 255 0 0
0.305147 0.226907 0.830961 255 0 0
0.402278 0.174795 0.684018 255 0 0
0.423792 0.0710823 0.929552 255 0 0
0.290096 0.0585676 0.982335 255 0 0
0.469018 0.0664568 0.949638 255 0 0
0.28305 0.0676442 0.999317 255 0 0
0.294508 0.0653453 0.989284 255 0 0
0.254928 0.0978617 0.618999 255 0 0
0.2592 0.0457176 0.924817 255 0 0
0.430965 0.120037 0.868279 255 0 0
0.480124 0.167342 0.777447 255 0 0
0.466659 0.154352 0.770246 255 0 0
0.428033 0.105618 0.852085 255 0 0
0.353751 0.159944 0.653101 255 0 0
0.153179 0.0411137 0.928231 255 0 0
0.152849 0.0533453 0.907457 255 0 0
0.373558 0.23058 0.624713 255 0 0
-0.0306919 0.391837 0.619685 255 0 0
0.549876 0.159148 0.776299 255 0 0
0.489536 0.486335 0.88314 255 0 0
0.455339 0.097787 0.899668 255 0 0
0.505802 0.0780947 0.910749 255 0 0
0.420719 0.0844451 0.972736 255 0 0
0.404229 0.221378 0.643621 255 0 0
0.0923772 0.327674 0.616072 255 0 0
0.338887 0.0793299 0.925688 255 0 0
0.512488 0.04718 0.899447 255 0 0
0.460263 0.0926602 0.90962 255 0 0
0.427271 0.168627 0.670232 255 0 0
0.415183 0.219806 0.72833 255 0 0
0.450436 0.157153 0.759714 255 0 0
0.39644 0.083886 0.835278 255 0 0
0.406463 0.0845992 0.874332 255 0 0
0.429481 0.103501 0.859628 255 0 0
0.396201 0.125913 0.643065 255 0 0
0.369391 0.0649088 0.879156 255 0 0
0.351134 0.129112 0.651012 255 0 0
0.447157 0.170841 0.683504 255 0 0
0.319255 0.295292 0.977419 255 0 0
0.341669 0.327711 0.998269 255 0 0
0.403103 0.175275 0.683298 255 0 0
0.215495 0.209151 0.799371 255 0 0
0.34144 0.169033 0.775324 255 0 0
0.389243 0.0888195 0.838428 255 0 0
0.36721 0.0696174 0.85533 255 0 0
0.42503 0.11989 0.808562 255 0 0
0.44695 0.0992856 0.900516 255 0 0
0.336889 0.27144 0.562656 255 0 0
0.47467 0.142049 0.864145 255 0 0
0.358085 0.220664 0.644257 255 0 0
0.262117 0.110295 0.588128 255 0 0
0.46165 0.109118 0.51179 255 0 0
0.333987 0.194117 0.763202 255 0 0
0.228382 0.13223 0.569028 255 0 0
0.418082 0.147653 0.754969 255 0 0
0.430045 0.160614 0.690562 255 0 0
0.183561 0.0769872 0.895874 255 0 0
0.274806 0.0691183 1.02664 255 0 0
0.263342 0.0421953 0.995935 255 0 0
0.4714 0.159482 0.743862 255 0 0
